Frequency (Hz)	Level (dB)
86.132812	-60.448311
172.265625	-57.562904
258.398438	-58.739784
344.531250	-58.007324
430.664062	-58.694527
516.796875	-56.649742
602.929688	-57.788845
689.062500	-59.146206
775.195312	-58.099731
861.328125	-56.823483
947.460938	-58.149250
1033.593750	-53.019180
1119.726562	-55.219891
1205.859375	-57.195343
1291.992188	-57.126274
1378.125000	-56.330761
1464.257812	-56.053352
1550.390625	-55.434032
1636.523438	-52.843292
1722.656250	-53.896595
1808.789062	-52.085388
1894.921875	-49.891945
1981.054688	-49.232162
2067.187500	-48.617264
2153.320312	-45.220078
2239.453125	-41.848656
2325.585938	-32.743931
2411.718750	-9.692517
2497.851562	-32.843380
2583.984375	-41.609047
2670.117188	-44.449776
2756.250000	-47.401009
2842.382812	-48.397755
2928.515625	-51.597794
3014.648438	-50.668236
3100.781250	-53.075993
3186.914062	-53.285629
3273.046875	-54.249874
3359.179688	-50.760307
3445.312500	-54.345612
3531.445312	-53.007408
3617.578125	-55.220520
3703.710938	-57.479290
3789.843750	-58.976635
3875.976562	-58.909927
3962.109375	-59.661037
4048.242188	-59.739494
4134.375000	-56.097309
4220.507812	-54.003635
4306.640625	-57.156773
4392.773438	-55.510349
4478.906250	-58.827831
4565.039062	-59.323376
4651.171875	-57.945904
4737.304688	-56.673012
4823.437500	-52.157478
4909.570312	-56.904545
4995.703125	-55.319183
5081.835938	-54.294800
5167.968750	-47.105717
5254.101562	-57.526852
5340.234375	-55.832932
5426.367188	-59.807583
5512.500000	-60.417072
5598.632812	-59.094349
5684.765625	-56.259773
5770.898438	-52.081516
5857.031250	-40.148197
5943.164062	-47.794231
6029.296875	-55.909805
6115.429688	-58.903427
6201.562500	-57.960667
6287.695312	-59.728867
6373.828125	-61.395794
6459.960938	-61.828377
6546.093750	-58.409443
6632.226562	-44.683739
6718.359375	-53.056286
6804.492188	-60.099789
6890.625000	-62.779247
6976.757812	-63.750324
7062.890625	-61.708447
7149.023438	-63.321224
7235.156250	-64.888657
7321.289062	-65.674614
7407.421875	-63.489674
7493.554688	-67.681145
7579.687500	-69.135277
7665.820312	-69.380486
7751.953125	-69.558022
7838.085938	-69.650452
7924.218750	-70.129601
8010.351562	-69.636185
8096.484375	-69.991905
8182.617188	-70.850136
8268.750000	-71.043961
8354.882812	-71.405807
8441.015625	-71.610825
8527.148438	-71.671028
8613.281250	-70.881218
8699.414062	-71.849747
8785.546875	-72.320244
8871.679688	-72.326599
8957.812500	-72.249542
9043.945312	-72.483452
9130.078125	-72.603424
9216.210938	-72.710106
9302.343750	-72.831734
9388.476562	-72.883514
9474.609375	-73.003731
9560.742188	-73.101433
9646.875000	-73.195236
9733.007812	-73.292679
9819.140625	-73.389214
9905.273438	-73.476242
9991.406250	-73.571877
10077.539062	-73.658447
10163.671875	-73.736778
10249.804688	-73.823433
10335.937500	-73.914940
10422.070312	-73.994812
10508.203125	-74.071938
10594.335938	-74.154419
10680.468750	-74.231010
10766.601562	-74.316223
10852.734375	-74.392601
10938.867188	-74.460190
11025.000000	-74.532631
11111.132812	-74.612289
11197.265625	-74.700142
11283.398438	-74.762390
11369.531250	-74.835770
11455.664062	-74.913239
11541.796875	-74.968437
11627.929688	-75.048630
11714.062500	-75.112160
11800.195312	-75.185280
11886.328125	-75.242638
11972.460938	-75.323624
12058.593750	-75.389000
12144.726562	-75.447495
12230.859375	-75.499367
12316.992188	-75.581963
12403.125000	-75.652512
12489.257812	-75.711899
12575.390625	-75.763870
12661.523438	-75.830780
12747.656250	-75.894516
12833.789062	-75.960388
12919.921875	-76.016823
13006.054688	-76.072716
13092.187500	-76.137138
13178.320312	-76.194252
13264.453125	-76.248360
13350.585938	-76.306488
13436.718750	-76.355392
13522.851562	-76.413795
13608.984375	-76.478897
13695.117188	-76.535423
13781.250000	-76.587395
13867.382812	-76.646759
13953.515625	-76.694397
14039.648438	-76.738815
14125.781250	-76.796242
14211.914062	-76.857033
14298.046875	-76.885727
14384.179688	-76.959724
14470.312500	-77.019226
14556.445312	-77.057419
14642.578125	-77.093315
14728.710938	-77.164703
14814.843750	-77.222527
14900.976562	-77.268127
14987.109375	-77.307968
15073.242188	-77.360153
15159.375000	-77.425858
15245.507812	-77.456413
15331.640625	-77.494095
15417.773438	-77.539406
15503.906250	-77.610306
15590.039062	-77.646782
15676.171875	-77.674438
15762.304688	-77.734550
15848.437500	-77.776443
15934.570312	-77.823761
16020.703125	-77.859230
16106.835938	-77.916153
16192.968750	-77.989906
16279.101562	-78.003326
16365.234375	-78.033249
16451.367188	-78.078804
16537.500000	-78.119217
16623.632812	-78.168556
16709.765625	-78.226425
16795.898438	-78.250580
16882.031250	-78.307373
16968.164062	-78.338745
17054.296875	-78.383904
17140.429688	-78.416199
17226.562500	-78.438461
17312.695312	-78.514938
17398.828125	-78.540230
17484.960938	-78.573982
17571.093750	-78.601341
17657.226562	-78.652763
17743.359375	-78.669357
17829.492188	-78.721512
17915.625000	-78.773499
18001.757812	-78.798721
18087.890625	-78.828796
18174.023438	-78.866211
18260.156250	-78.889191
18346.289062	-78.958107
18432.421875	-79.006104
18518.554688	-79.024925
18604.687500	-79.099960
18690.820312	-79.093300
18776.953125	-79.141861
18863.085938	-79.166397
18949.218750	-79.224648
19035.351562	-79.260818
19121.484375	-79.271225
19207.617188	-79.317856
19293.750000	-79.313049
19379.882812	-79.384155
19466.015625	-79.393494
19552.148438	-79.455582
19638.281250	-79.474121
19724.414062	-79.485687
19810.546875	-79.571716
19896.679688	-79.567497
19982.812500	-79.622459
20068.945312	-79.653061
20155.078125	-79.673393
20241.210938	-79.698143
20327.343750	-79.767464
20413.476562	-79.786568
20499.609375	-79.773285
20585.742188	-79.837303
20671.875000	-79.843002
20758.007812	-79.887650
20844.140625	-79.921921
20930.273438	-79.940933
21016.406250	-79.999046
21102.539062	-80.016029
21188.671875	-80.009697
21274.804688	-80.064430
21360.937500	-80.118385
21447.070312	-80.137245
21533.203125	-80.168678
21619.335938	-80.180237
21705.468750	-80.240982
21791.601562	-80.251869
21877.734375	-80.245033
21963.867188	-80.299431
22050.000000	-80.349998
22136.132812	-80.338242
22222.265625	-80.390465
22308.398438	-80.402855
22394.531250	-80.434860
22480.664062	-80.478271
22566.796875	-80.515022
22652.929688	-80.545235
22739.062500	-80.566895
22825.195312	-80.574509
22911.328125	-80.613289
22997.460938	-80.646301
23083.593750	-80.641602
23169.726562	-80.657379
23255.859375	-80.693520
23341.992188	-80.736679
23428.125000	-80.733116
23514.257812	-80.768661
23600.390625	-80.816460
23686.523438	-80.827141
23772.656250	-80.881516
23858.789062	-80.882233
23944.921875	-80.872490
24031.054688	-80.937675
24117.187500	-80.934715
24203.320312	-80.973732
24289.453125	-80.976875
24375.585938	-81.026794
24461.718750	-81.038918
24547.851562	-81.064240
24633.984375	-81.088348
24720.117188	-81.112076
24806.250000	-81.125923
24892.382812	-81.154617
24978.515625	-81.177055
25064.648438	-81.200272
25150.781250	-81.226929
25236.914062	-81.255348
25323.046875	-81.252838
25409.179688	-81.294250
25495.312500	-81.318268
25581.445312	-81.341888
25667.578125	-81.349442
25753.710938	-81.376839
25839.843750	-81.404396
25925.976562	-81.417786
26012.109375	-81.457161
26098.242188	-81.473358
26184.375000	-81.459190
26270.507812	-81.490219
26356.640625	-81.515327
26442.773438	-81.548866
26528.906250	-81.570107
26615.039062	-81.590103
26701.171875	-81.622993
26787.304688	-81.588875
26873.437500	-81.631584
26959.570312	-81.634537
27045.703125	-81.677803
27131.835938	-81.711769
27217.968750	-81.726631
27304.101562	-81.708366
27390.234375	-81.779221
27476.367188	-81.769241
27562.500000	-81.807869
27648.632812	-81.820297
27734.765625	-81.825630
27820.898438	-81.825409
27907.031250	-81.839401
27993.164062	-81.872284
28079.296875	-81.915222
28165.429688	-81.912949
28251.562500	-81.924225
28337.695312	-81.931137
28423.828125	-81.970398
28509.960938	-82.007240
28596.093750	-81.989128
28682.226562	-82.007889
28768.359375	-82.046997
28854.492188	-82.039978
28940.625000	-82.066498
29026.757812	-82.068848
29112.890625	-82.146164
29199.023438	-82.126587
29285.156250	-82.102135
29371.289062	-82.147606
29457.421875	-82.181458
29543.554688	-82.156624
29629.687500	-82.099342
29715.820312	-82.190697
29801.953125	-82.181526
29888.085938	-82.209320
29974.218750	-82.227234
30060.351562	-82.259514
30146.484375	-82.247978
30232.617188	-82.351692
30318.750000	-82.323639
30404.882812	-82.273972
30491.015625	-82.227295
30577.148438	-82.321625
30663.281250	-82.318451
30749.414062	-82.379921
30835.546875	-82.315094
30921.679688	-82.411316
31007.812500	-82.550842
31093.945312	-82.413330
31180.078125	-82.410339
31266.210938	-82.407845
31352.343750	-82.429008
31438.476562	-82.385468
31524.609375	-82.546494
31610.742188	-82.511520
31696.875000	-82.529572
31783.007812	-82.493889
31869.140625	-82.577911
31955.273438	-82.612778
32041.406250	-82.518059
32127.539062	-82.507607
32213.671875	-82.538063
32299.804688	-82.610840
32385.937500	-82.689346
32472.070312	-82.475883
32558.203125	-82.570549
32644.335938	-82.616180
32730.468750	-82.608879
32816.601562	-82.665794
32902.734375	-82.615646
32988.867188	-82.712448
33075.000000	-82.657730
33161.132812	-82.697441
33247.265625	-82.669327
33333.398438	-82.716110
33419.531250	-82.772644
33505.664062	-82.731262
33591.796875	-82.631630
33677.929688	-82.746216
33764.062500	-82.735176
33850.195312	-82.775673
33936.328125	-82.920937
34022.460938	-82.785042
34108.593750	-82.752853
34194.726562	-82.746422
34280.859375	-82.829338
34366.992188	-82.900795
34453.125000	-82.649773
34539.257812	-82.822815
34625.390625	-82.881729
34711.523438	-82.878357
34797.656250	-82.894081
34883.789062	-82.823334
34969.921875	-83.000732
35056.054688	-82.828354
35142.187500	-82.959282
35228.320312	-82.740654
35314.453125	-82.926224
35400.585938	-82.842102
35486.718750	-82.849876
35572.851562	-82.780632
35658.984375	-82.927437
35745.117188	-82.977661
35831.250000	-82.997101
35917.382812	-82.922981
36003.515625	-82.875854
36089.648438	-82.758621
36175.781250	-82.937744
36261.914062	-82.978760
36348.046875	-82.672318
36434.179688	-82.904823
36520.312500	-82.791801
36606.445312	-83.110451
36692.578125	-82.875832
36778.710938	-82.963425
36864.843750	-82.948074
36950.976562	-83.021233
37037.109375	-82.863464
37123.242188	-82.904144
37209.375000	-82.988556
37295.507812	-83.012085
37381.640625	-83.201263
37467.773438	-83.015388
37553.906250	-83.122742
37640.039062	-83.002380
37726.171875	-82.935974
37812.304688	-83.149628
37898.437500	-82.940506
37984.570312	-83.138504
38070.703125	-82.933456
38156.835938	-82.948662
38242.968750	-83.013863
38329.101562	-82.914635
38415.234375	-83.004280
38501.367188	-83.038383
38587.500000	-83.364754
38673.632812	-83.209053
38759.765625	-83.203201
38845.898438	-83.085091
38932.031250	-82.919907
39018.164062	-83.206894
39104.296875	-83.034935
39190.429688	-82.941429
39276.562500	-83.205261
39362.695312	-83.118172
39448.828125	-83.113327
39534.960938	-83.030365
39621.093750	-82.909592
39707.226562	-83.143265
39793.359375	-82.801201
39879.492188	-83.058563
39965.625000	-83.034569
40051.757812	-83.015724
40137.890625	-83.346947
40224.023438	-82.970261
40310.156250	-83.234245
40396.289062	-83.237465
40482.421875	-83.442085
40568.554688	-83.196045
40654.687500	-83.271721
40740.820312	-82.806465
40826.953125	-82.852043
40913.085938	-83.165977
40999.218750	-83.074425
41085.351562	-82.901108
41171.484375	-83.129990
41257.617188	-83.106606
41343.750000	-83.176392
41429.882812	-83.054665
41516.015625	-83.133690
41602.148438	-83.289291
41688.281250	-83.107689
41774.414062	-82.949463
41860.546875	-82.920250
41946.679688	-83.262512
42032.812500	-83.204208
42118.945312	-83.189156
42205.078125	-83.235954
42291.210938	-83.054680
42377.343750	-83.106674
42463.476562	-83.174263
42549.609375	-82.989525
42635.742188	-82.946251
42721.875000	-82.990479
42808.007812	-83.041611
42894.140625	-83.275703
42980.273438	-83.162506
43066.406250	-82.931099
43152.539062	-83.137192
43238.671875	-82.713623
43324.804688	-83.062500
43410.937500	-82.983727
43497.070312	-83.191368
43583.203125	-83.342796
43669.335938	-83.000740
43755.468750	-83.158958
43841.601562	-83.194901
43927.734375	-82.984680
44013.867188	-83.068596
