Frequency (Hz)	Level (dB)
86.132812	-48.641655
172.265625	-48.237381
258.398438	-48.350296
344.531250	-48.004257
430.664062	-48.108486
516.796875	-47.914902
602.929688	-47.825001
689.062500	-47.135052
775.195312	-47.046577
861.328125	-46.685631
947.460938	-46.391922
1033.593750	-45.941292
1119.726562	-45.280750
1205.859375	-44.781357
1291.992188	-44.326366
1378.125000	-43.513882
1464.257812	-42.670586
1550.390625	-41.759018
1636.523438	-40.789299
1722.656250	-39.506809
1808.789062	-37.734608
1894.921875	-36.258827
1981.054688	-34.191734
2067.187500	-31.456615
2153.320312	-27.180347
2239.453125	-18.526207
2325.585938	-15.540605
2411.718750	-25.080585
2497.851562	-30.895514
2583.984375	-33.802216
2670.117188	-36.279251
2756.250000	-37.935753
2842.382812	-39.118443
2928.515625	-40.475792
3014.648438	-41.057621
3100.781250	-42.401161
3186.914062	-43.216347
3273.046875	-43.681561
3359.179688	-44.602509
3445.312500	-45.280006
3531.445312	-45.825764
3617.578125	-46.217247
3703.710938	-47.169449
3789.843750	-47.605179
3875.976562	-48.073193
3962.109375	-48.405518
4048.242188	-48.804966
4134.375000	-48.949104
4220.507812	-48.590439
4306.640625	-48.744694
4392.773438	-49.963165
4478.906250	-50.224827
4565.039062	-50.709942
4651.171875	-50.820999
4737.304688	-50.750797
4823.437500	-50.702797
4909.570312	-50.298405
4995.703125	-50.502300
5081.835938	-50.359978
5167.968750	-50.198471
5254.101562	-48.678841
5340.234375	-47.141651
5426.367188	-46.945045
5512.500000	-46.114540
5598.632812	-44.060352
5684.765625	-40.878620
5770.898438	-36.175579
5857.031250	-23.972488
5943.164062	-29.926939
6029.296875	-38.249985
6115.429688	-42.190212
6201.562500	-44.643539
6287.695312	-46.211071
6373.828125	-47.559448
6459.960938	-48.784657
6546.093750	-50.010666
6632.226562	-50.922073
6718.359375	-51.582672
6804.492188	-52.041130
6890.625000	-52.340725
6976.757812	-53.273411
7062.890625	-53.654064
7149.023438	-53.625446
7235.156250	-53.464008
7321.289062	-54.566948
7407.421875	-54.792900
7493.554688	-54.900925
7579.687500	-55.130630
7665.820312	-55.540730
7751.953125	-55.874783
7838.085938	-56.071915
7924.218750	-56.305450
8010.351562	-56.443012
8096.484375	-56.601139
8182.617188	-56.801918
8268.750000	-56.969746
8354.882812	-57.174839
8441.015625	-57.323746
8527.148438	-57.498398
8613.281250	-57.629482
8699.414062	-57.762970
8785.546875	-57.932056
8871.679688	-58.040436
8957.812500	-58.158092
9043.945312	-58.292072
9130.078125	-58.420288
9216.210938	-58.537510
9302.343750	-58.658016
9388.476562	-58.772289
9474.609375	-58.886215
9560.742188	-58.999901
9646.875000	-59.109657
9733.007812	-59.214718
9819.140625	-59.319363
9905.273438	-59.424114
9991.406250	-59.526215
10077.539062	-59.620968
10163.671875	-59.722034
10249.804688	-59.816154
10335.937500	-59.911915
10422.070312	-60.002747
10508.203125	-60.095398
10594.335938	-60.186092
10680.468750	-60.275948
10766.601562	-60.359131
10852.734375	-60.448254
10938.867188	-60.531078
11025.000000	-60.615490
11111.132812	-60.697021
11197.265625	-60.781124
11283.398438	-60.858826
11369.531250	-60.936214
11455.664062	-61.021175
11541.796875	-61.093548
11627.929688	-61.173786
11714.062500	-61.247845
11800.195312	-61.320820
11886.328125	-61.395168
11972.460938	-61.466797
12058.593750	-61.539413
12144.726562	-61.606953
12230.859375	-61.675785
12316.992188	-61.752865
12403.125000	-61.818729
12489.257812	-61.886703
12575.390625	-61.954967
12661.523438	-62.015110
12747.656250	-62.078712
12833.789062	-62.155643
12919.921875	-62.210861
13006.054688	-62.284164
13092.187500	-62.346176
13178.320312	-62.398106
13264.453125	-62.459179
13350.585938	-62.529758
13436.718750	-62.585690
13522.851562	-62.647663
13608.984375	-62.706074
13695.117188	-62.771866
13781.250000	-62.827423
13867.382812	-62.876308
13953.515625	-62.931965
14039.648438	-63.000774
14125.781250	-63.053947
14211.914062	-63.106178
14298.046875	-63.163677
14384.179688	-63.212055
14470.312500	-63.266727
14556.445312	-63.324158
14642.578125	-63.375107
14728.710938	-63.429634
14814.843750	-63.476006
14900.976562	-63.535549
14987.109375	-63.583893
15073.242188	-63.637268
15159.375000	-63.687534
15245.507812	-63.739624
15331.640625	-63.782764
15417.773438	-63.837677
15503.906250	-63.888222
15590.039062	-63.928505
15676.171875	-63.980591
15762.304688	-64.022636
15848.437500	-64.071762
15934.570312	-64.125618
16020.703125	-64.169693
16106.835938	-64.217117
16192.968750	-64.258514
16279.101562	-64.313492
16365.234375	-64.353081
16451.367188	-64.397636
16537.500000	-64.442917
16623.632812	-64.485252
16709.765625	-64.530876
16795.898438	-64.577408
16882.031250	-64.615509
16968.164062	-64.664375
17054.296875	-64.697723
17140.429688	-64.742905
17226.562500	-64.780785
17312.695312	-64.827011
17398.828125	-64.862007
17484.960938	-64.916870
17571.093750	-64.947227
17657.226562	-65.001831
17743.359375	-65.025703
17829.492188	-65.069084
17915.625000	-65.104301
18001.757812	-65.149498
18087.890625	-65.186905
18174.023438	-65.219124
18260.156250	-65.259575
18346.289062	-65.304375
18432.421875	-65.330208
18518.554688	-65.379524
18604.687500	-65.416382
18690.820312	-65.451057
18776.953125	-65.488060
18863.085938	-65.528633
18949.218750	-65.559380
19035.351562	-65.597252
19121.484375	-65.626228
19207.617188	-65.669128
19293.750000	-65.702972
19379.882812	-65.735313
19466.015625	-65.768593
19552.148438	-65.804848
19638.281250	-65.844460
19724.414062	-65.874985
19810.546875	-65.910088
19896.679688	-65.947716
19982.812500	-65.976913
20068.945312	-66.011322
20155.078125	-66.040382
20241.210938	-66.074554
20327.343750	-66.103233
20413.476562	-66.135490
20499.609375	-66.170586
20585.742188	-66.202721
20671.875000	-66.236076
20758.007812	-66.273483
20844.140625	-66.295105
20930.273438	-66.330154
21016.406250	-66.359520
21102.539062	-66.389938
21188.671875	-66.417519
21274.804688	-66.448326
21360.937500	-66.478226
21447.070312	-66.513817
21533.203125	-66.540047
21619.335938	-66.567932
21705.468750	-66.602242
21791.601562	-66.629601
21877.734375	-66.654861
21963.867188	-66.689133
22050.000000	-66.709641
22136.132812	-66.746925
22222.265625	-66.772102
22308.398438	-66.795166
22394.531250	-66.827972
22480.664062	-66.856812
22566.796875	-66.878662
22652.929688	-66.904007
22739.062500	-66.929184
22825.195312	-66.962769
22911.328125	-66.981689
22997.460938	-67.013802
23083.593750	-67.039551
23169.726562	-67.069687
23255.859375	-67.093399
23341.992188	-67.117149
23428.125000	-67.143448
23514.257812	-67.166397
23600.390625	-67.192009
23686.523438	-67.218430
23772.656250	-67.238899
23858.789062	-67.275917
23944.921875	-67.292824
24031.054688	-67.314308
24117.187500	-67.343994
24203.320312	-67.367775
24289.453125	-67.390984
24375.585938	-67.410683
24461.718750	-67.441254
24547.851562	-67.456314
24633.984375	-67.486511
24720.117188	-67.505142
24806.250000	-67.531021
24892.382812	-67.561401
24978.515625	-67.582031
25064.648438	-67.593536
25150.781250	-67.620132
25236.914062	-67.641472
25323.046875	-67.661560
25409.179688	-67.690552
25495.312500	-67.706459
25581.445312	-67.731445
25667.578125	-67.750328
25753.710938	-67.776611
25839.843750	-67.795151
25925.976562	-67.820679
26012.109375	-67.841728
26098.242188	-67.857216
26184.375000	-67.881165
26270.507812	-67.892548
26356.640625	-67.923195
26442.773438	-67.940018
26528.906250	-67.959785
26615.039062	-67.982353
26701.171875	-67.998451
26787.304688	-68.026016
26873.437500	-68.043747
26959.570312	-68.046455
27045.703125	-68.078835
27131.835938	-68.103813
27217.968750	-68.114792
27304.101562	-68.140129
27390.234375	-68.150475
27476.367188	-68.176888
27562.500000	-68.197884
27648.632812	-68.209534
27734.765625	-68.248703
27820.898438	-68.246750
27907.031250	-68.269676
27993.164062	-68.287239
28079.296875	-68.303345
28165.429688	-68.329132
28251.562500	-68.356659
28337.695312	-68.356201
28423.828125	-68.369629
28509.960938	-68.393646
28596.093750	-68.420113
28682.226562	-68.418465
28768.359375	-68.439667
28854.492188	-68.464310
28940.625000	-68.479263
29026.757812	-68.486259
29112.890625	-68.525032
29199.023438	-68.527863
29285.156250	-68.538406
29371.289062	-68.555313
29457.421875	-68.564171
29543.554688	-68.569771
29629.687500	-68.600403
29715.820312	-68.624054
29801.953125	-68.641068
29888.085938	-68.669983
29974.218750	-68.690926
30060.351562	-68.688225
30146.484375	-68.689072
30232.617188	-68.714699
30318.750000	-68.721649
30404.882812	-68.746262
30491.015625	-68.757088
30577.148438	-68.774979
30663.281250	-68.791794
30749.414062	-68.811432
30835.546875	-68.806725
30921.679688	-68.810608
31007.812500	-68.829567
31093.945312	-68.857780
31180.078125	-68.858215
31266.210938	-68.874146
31352.343750	-68.885292
31438.476562	-68.923965
31524.609375	-68.917953
31610.742188	-68.917572
31696.875000	-68.937653
31783.007812	-68.950195
31869.140625	-68.986809
31955.273438	-68.948753
32041.406250	-69.006599
32127.539062	-68.997086
32213.671875	-69.041931
32299.804688	-69.071503
32385.937500	-69.069832
32472.070312	-69.102501
32558.203125	-69.069527
32644.335938	-69.050079
32730.468750	-69.143402
32816.601562	-69.103584
32902.734375	-69.093086
32988.867188	-69.170464
33075.000000	-69.151749
33161.132812	-69.149033
33247.265625	-69.188583
33333.398438	-69.154640
33419.531250	-69.181931
33505.664062	-69.184212
33591.796875	-69.187683
33677.929688	-69.206352
33764.062500	-69.214554
33850.195312	-69.271713
33936.328125	-69.216385
34022.460938	-69.252090
34108.593750	-69.291351
34194.726562	-69.293259
34280.859375	-69.269676
34366.992188	-69.367020
34453.125000	-69.343971
34539.257812	-69.347519
34625.390625	-69.342613
34711.523438	-69.323608
34797.656250	-69.355255
34883.789062	-69.309563
34969.921875	-69.334808
35056.054688	-69.410652
35142.187500	-69.377975
35228.320312	-69.339455
35314.453125	-69.382240
35400.585938	-69.421471
35486.718750	-69.457954
35572.851562	-69.525162
35658.984375	-69.427277
35745.117188	-69.499489
35831.250000	-69.478271
35917.382812	-69.509399
36003.515625	-69.470711
36089.648438	-69.551712
36175.781250	-69.469894
36261.914062	-69.498497
36348.046875	-69.437767
36434.179688	-69.462921
36520.312500	-69.465614
36606.445312	-69.592377
36692.578125	-69.565178
36778.710938	-69.539062
36864.843750	-69.501015
36950.976562	-69.543015
37037.109375	-69.575127
37123.242188	-69.519554
37209.375000	-69.552498
37295.507812	-69.579391
37381.640625	-69.626991
37467.773438	-69.558273
37553.906250	-69.597748
37640.039062	-69.634811
37726.171875	-69.612907
37812.304688	-69.610580
37898.437500	-69.609024
37984.570312	-69.627220
38070.703125	-69.649498
38156.835938	-69.665466
38242.968750	-69.701096
38329.101562	-69.676163
38415.234375	-69.666725
38501.367188	-69.655838
38587.500000	-69.629715
38673.632812	-69.727814
38759.765625	-69.675369
38845.898438	-69.755447
38932.031250	-69.681511
39018.164062	-69.674370
39104.296875	-69.699379
39190.429688	-69.678276
39276.562500	-69.688545
39362.695312	-69.689362
39448.828125	-69.739441
39534.960938	-69.823921
39621.093750	-69.774231
39707.226562	-69.725784
39793.359375	-69.672768
39879.492188	-69.701767
39965.625000	-69.728981
40051.757812	-69.672623
40137.890625	-69.782379
40224.023438	-69.738495
40310.156250	-69.819870
40396.289062	-69.820312
40482.421875	-69.716759
40568.554688	-69.767769
40654.687500	-69.714264
40740.820312	-69.818459
40826.953125	-69.795441
40913.085938	-69.687080
40999.218750	-69.779434
41085.351562	-69.730209
41171.484375	-69.759682
41257.617188	-69.851440
41343.750000	-69.783295
41429.882812	-69.800407
41516.015625	-69.905647
41602.148438	-69.673630
41688.281250	-69.848228
41774.414062	-69.834778
41860.546875	-69.867332
41946.679688	-69.912498
42032.812500	-69.846001
42118.945312	-69.878723
42205.078125	-69.848076
42291.210938	-69.843513
42377.343750	-69.850578
42463.476562	-69.843315
42549.609375	-69.852531
42635.742188	-69.856651
42721.875000	-69.825577
42808.007812	-69.812561
42894.140625	-69.858780
42980.273438	-69.797821
43066.406250	-69.809196
43152.539062	-69.839455
43238.671875	-69.883163
43324.804688	-69.829247
43410.937500	-69.820091
43497.070312	-69.799698
43583.203125	-69.781166
43669.335938	-69.850319
43755.468750	-69.824570
43841.601562	-69.910912
43927.734375	-69.870522
44013.867188	-69.948952
