Frequency (Hz)	Level (dB)
43.066406	-54.435951
86.132812	-53.523563
129.199219	-57.215027
172.265625	-60.539837
215.332031	-61.472675
258.398438	-60.826225
301.464844	-62.047966
344.531250	-63.173969
387.597656	-62.500893
430.664062	-63.088428
473.730469	-62.299683
516.796875	-63.146908
559.863281	-62.196140
602.929688	-62.476593
645.996094	-59.410946
689.062500	-61.071167
732.128906	-60.048153
775.195312	-58.679157
818.261719	-60.266018
861.328125	-60.235332
904.394531	-60.388348
947.460938	-59.716080
990.527344	-59.030285
1033.593750	-57.464409
1076.660156	-58.681835
1119.726562	-57.282246
1162.792969	-57.886280
1205.859375	-56.704666
1248.925781	-57.252411
1291.992188	-56.484879
1335.058594	-55.523270
1378.125000	-55.226891
1421.191406	-54.450531
1464.257812	-52.512173
1507.324219	-53.240849
1550.390625	-52.588699
1593.457031	-51.770084
1636.523438	-49.326778
1679.589844	-49.559460
1722.656250	-47.717503
1765.722656	-46.761715
1808.789062	-44.919296
1851.855469	-42.452942
1894.921875	-37.170151
1937.988281	-28.907764
1981.054688	-28.794127
2024.121094	-33.139313
2067.187500	-25.099920
2110.253906	-27.446178
2153.320312	-35.846153
2196.386719	-39.724586
2239.453125	-41.921070
2282.519531	-45.095749
2325.585938	-46.547226
2368.652344	-47.752129
2411.718750	-47.082302
2454.785156	-51.097027
2497.851562	-49.131145
2540.917969	-50.919918
2583.984375	-50.894791
2627.050781	-52.920628
2670.117188	-54.194962
2713.183594	-55.184444
2756.250000	-55.594288
2799.316406	-56.522614
2842.382812	-53.732632
2885.449219	-54.968941
2928.515625	-54.832970
2971.582031	-54.950077
3014.648438	-56.447433
3057.714844	-56.285183
3100.781250	-50.668293
3143.847656	-51.884342
3186.914062	-56.482857
3229.980469	-55.901573
3273.046875	-58.411709
3316.113281	-57.168797
3359.179688	-58.618969
3402.246094	-55.307247
3445.312500	-59.516453
3488.378906	-57.705906
3531.445312	-60.233608
3574.511719	-59.190216
3617.578125	-59.346809
3660.644531	-56.411163
3703.710938	-56.939346
3746.777344	-54.722870
3789.843750	-59.350624
3832.910156	-55.791965
3875.976562	-56.936447
3919.042969	-53.316452
3962.109375	-58.083363
4005.175781	-52.379314
4048.242188	-54.654911
4091.308594	-50.142117
4134.375000	-53.855694
4177.441406	-50.045357
4220.507812	-51.935753
4263.574219	-46.893353
4306.640625	-46.527420
4349.707031	-45.861687
4392.773438	-45.078804
4435.839844	-43.061527
4478.906250	-41.270374
4521.972656	-34.207291
4565.039062	-23.400080
4608.105469	-27.858574
4651.171875	-37.432137
4694.238281	-39.614586
4737.304688	-43.395184
4780.371094	-45.342831
4823.437500	-48.785347
4866.503906	-45.347111
4909.570312	-47.184303
4952.636719	-39.017620
4995.703125	-45.662731
5038.769531	-49.611748
5081.835938	-50.218060
5124.902344	-50.978497
5167.968750	-51.437042
5211.035156	-55.280636
5254.101562	-54.878986
5297.167969	-53.985592
5340.234375	-53.947361
5383.300781	-53.751019
5426.367188	-50.727543
5469.433594	-54.666828
5512.500000	-54.438610
5555.566406	-51.928978
5598.632812	-42.786972
5641.699219	-48.044224
5684.765625	-52.766029
5727.832031	-53.953583
5770.898438	-53.824162
5813.964844	-54.399155
5857.031250	-52.497749
5900.097656	-55.719028
5943.164062	-51.868111
5986.230469	-54.545044
6029.296875	-50.028484
6072.363281	-52.533249
6115.429688	-46.132034
6158.496094	-46.491711
6201.562500	-37.151329
6244.628906	-28.976151
6287.695312	-39.033482
6330.761719	-50.192402
6373.828125	-49.882030
6416.894531	-46.996346
6459.960938	-46.777649
6503.027344	-55.852825
6546.093750	-51.535366
6589.160156	-50.740005
6632.226562	-49.097824
6675.292969	-48.959991
6718.359375	-54.365246
6761.425781	-55.632511
6804.492188	-53.865276
6847.558594	-55.671177
6890.625000	-59.283680
6933.691406	-55.503448
6976.757812	-57.780682
7019.824219	-62.424557
7062.890625	-60.571728
7105.957031	-57.710205
7149.023438	-58.504017
7192.089844	-58.066395
7235.156250	-59.669662
7278.222656	-59.316486
7321.289062	-60.243126
7364.355469	-63.353909
7407.421875	-64.342926
7450.488281	-60.939514
7493.554688	-60.225674
7536.621094	-65.113625
7579.687500	-57.125511
7622.753906	-58.875412
7665.820312	-63.432106
7708.886719	-61.943851
7751.953125	-60.312016
7795.019531	-57.503281
7838.085938	-60.216938
7881.152344	-58.170143
7924.218750	-58.838615
7967.285156	-51.482113
8010.351562	-43.044163
8053.417969	-48.456997
8096.484375	-57.499352
8139.550781	-56.043758
8182.617188	-61.009659
8225.683594	-62.119606
8268.750000	-63.311054
8311.816406	-61.358471
8354.882812	-62.997677
8397.949219	-60.623108
8441.015625	-61.938580
8484.082031	-61.255253
8527.148438	-60.821182
8570.214844	-59.703419
8613.281250	-57.359966
8656.347656	-61.322868
8699.414062	-56.576923
8742.480469	-55.226208
8785.546875	-46.633835
8828.613281	-49.403801
8871.679688	-52.577118
8914.746094	-56.837048
8957.812500	-58.714268
9000.878906	-61.734131
9043.945312	-59.594101
9087.011719	-61.034534
9130.078125	-62.430630
9173.144531	-67.016205
9216.210938	-63.073517
9259.277344	-66.252335
9302.343750	-63.022243
9345.410156	-64.263092
9388.476562	-59.973408
9431.542969	-60.093822
9474.609375	-54.751896
9517.675781	-48.036995
9560.742188	-50.408951
9603.808594	-57.893925
9646.875000	-60.315659
9689.941406	-61.397755
9733.007812	-62.467640
9776.074219	-61.722630
9819.140625	-65.207954
9862.207031	-64.689812
9905.273438	-66.438332
9948.339844	-67.212036
9991.406250	-67.654053
10034.472656	-68.659592
10077.539062	-69.101997
10120.605469	-68.333130
10163.671875	-68.685524
10206.738281	-68.837372
10249.804688	-68.972198
10292.871094	-68.907150
10335.937500	-68.928398
10379.003906	-69.017899
10422.070312	-68.860374
10465.136719	-69.589157
10508.203125	-69.495354
10551.269531	-69.605240
10594.335938	-68.901398
10637.402344	-69.760475
10680.468750	-70.277733
10723.535156	-69.226494
10766.601562	-64.471512
10809.667969	-60.729855
10852.734375	-57.234520
10895.800781	-64.045708
10938.867188	-64.463470
10981.933594	-65.935020
11025.000000	-68.053680
11068.066406	-66.927826
11111.132812	-68.548134
11154.199219	-68.412163
11197.265625	-68.891914
11240.332031	-68.829849
11283.398438	-69.257607
11326.464844	-68.892570
11369.531250	-69.439011
11412.597656	-68.666550
11455.664062	-69.454048
11498.730469	-68.859161
11541.796875	-69.323616
11584.863281	-69.228668
11627.929688	-69.629875
11670.996094	-68.268799
11714.062500	-68.599747
11757.128906	-68.714912
11800.195312	-67.044312
11843.261719	-65.617989
11886.328125	-67.488213
11929.394531	-67.866631
11972.460938	-67.730156
12015.527344	-69.366737
12058.593750	-64.559616
12101.660156	-65.649849
12144.726562	-69.193253
12187.792969	-68.571808
12230.859375	-68.608200
12273.925781	-70.071671
12316.992188	-68.452515
12360.058594	-68.729080
12403.125000	-66.952843
12446.191406	-69.762970
12489.257812	-67.866135
12532.324219	-68.161232
12575.390625	-64.780716
12618.457031	-67.836540
12661.523438	-68.934616
12704.589844	-69.909920
12747.656250	-67.652443
12790.722656	-69.069138
12833.789062	-67.321083
12876.855469	-67.662880
12919.921875	-66.181824
12962.988281	-67.071899
13006.054688	-66.699654
13049.121094	-66.862442
13092.187500	-67.746689
13135.253906	-67.136871
13178.320312	-61.535725
13221.386719	-60.275269
13264.453125	-57.426163
13307.519531	-55.959267
13350.585938	-56.663494
13393.652344	-52.893253
13436.718750	-54.927006
13479.785156	-47.157505
13522.851562	-45.313759
13565.917969	-51.813160
13608.984375	-59.552799
13652.050781	-57.598335
13695.117188	-59.010796
13738.183594	-59.893787
13781.250000	-63.581196
13824.316406	-64.008865
13867.382812	-63.197300
13910.449219	-64.955566
13953.515625	-64.356087
13996.582031	-63.903156
14039.648438	-64.488068
14082.714844	-62.523228
14125.781250	-64.323174
14168.847656	-63.938541
14211.914062	-60.906170
14254.980469	-65.584503
14298.046875	-68.871880
14341.113281	-63.091808
14384.179688	-62.051998
14427.246094	-66.240700
14470.312500	-69.269371
14513.378906	-66.349953
14556.445312	-58.444775
14599.511719	-63.505295
14642.578125	-68.093002
14685.644531	-68.376671
14728.710938	-71.409950
14771.777344	-70.316940
14814.843750	-71.308662
14857.910156	-71.744293
14900.976562	-70.713997
14944.042969	-66.341087
14987.109375	-68.898415
15030.175781	-70.536354
15073.242188	-70.503090
15116.308594	-72.412025
15159.375000	-71.872124
15202.441406	-72.134499
15245.507812	-71.790123
15288.574219	-72.097176
15331.640625	-71.042152
15374.707031	-72.299957
15417.773438	-71.382790
15460.839844	-71.669037
15503.906250	-70.336678
15546.972656	-71.606522
15590.039062	-70.191559
15633.105469	-69.962898
15676.171875	-70.281754
15719.238281	-67.592072
15762.304688	-66.104652
15805.371094	-72.960358
15848.437500	-72.711388
15891.503906	-70.535217
15934.570312	-70.957336
15977.636719	-71.634521
16020.703125	-71.887863
16063.769531	-72.069366
16106.835938	-72.509697
16149.902344	-72.443153
16192.968750	-72.364357
16236.035156	-72.348930
16279.101562	-72.638496
16322.167969	-72.442963
16365.234375	-72.498405
16408.300781	-72.437073
16451.367188	-72.692719
16494.433594	-72.365410
16537.500000	-72.587234
16580.566406	-72.595711
16623.632812	-72.553253
16666.699219	-72.566994
16709.765625	-72.649185
16752.832031	-72.558151
16795.898438	-72.507881
16838.964844	-72.697990
16882.031250	-72.613838
16925.097656	-72.640663
16968.164062	-72.572327
17011.230469	-72.744240
17054.296875	-72.528275
17097.363281	-72.638794
17140.429688	-72.807686
17183.496094	-72.699585
17226.562500	-72.624191
17269.628906	-72.675797
17312.695312	-72.868431
17355.761719	-72.602089
17398.828125	-72.879196
17441.894531	-72.761673
17484.960938	-72.771072
17528.027344	-72.764893
17571.093750	-72.878777
17614.160156	-72.780899
17657.226562	-72.626335
17700.292969	-72.923485
17743.359375	-72.795486
17786.425781	-72.795082
17829.492188	-72.770180
17872.558594	-72.978874
17915.625000	-72.638161
17958.691406	-72.831413
18001.757812	-72.920525
18044.824219	-72.927231
18087.890625	-72.742081
18130.957031	-72.864769
18174.023438	-72.964821
18217.089844	-72.748451
18260.156250	-72.989357
18303.222656	-72.889412
18346.289062	-72.985619
18389.355469	-72.825844
18432.421875	-73.118782
18475.488281	-72.934914
18518.554688	-72.898323
18561.621094	-73.031502
18604.687500	-73.065857
18647.753906	-72.940781
18690.820312	-72.868706
18733.886719	-73.102684
18776.953125	-72.871559
18820.019531	-72.986908
18863.085938	-73.017868
18906.152344	-73.100853
18949.218750	-72.810143
18992.285156	-73.054665
19035.351562	-73.150398
19078.417969	-72.945808
19121.484375	-73.017540
19164.550781	-73.069489
19207.617188	-73.182999
19250.683594	-72.924171
19293.750000	-73.274887
19336.816406	-73.041718
19379.882812	-73.053032
19422.949219	-73.070183
19466.015625	-73.210838
19509.082031	-73.074203
19552.148438	-72.987488
19595.214844	-73.264877
19638.281250	-73.094566
19681.347656	-73.105133
19724.414062	-73.110138
19767.480469	-73.224838
19810.546875	-72.852592
19853.613281	-73.176979
19896.679688	-73.198578
19939.746094	-73.151329
19982.812500	-73.111252
20025.878906	-73.225891
20068.945312	-73.161171
20112.011719	-73.016045
20155.078125	-73.307304
20198.144531	-73.129433
20241.210938	-73.078804
20284.277344	-73.133820
20327.343750	-73.381813
20370.410156	-73.068787
20413.476562	-73.087814
20456.542969	-73.265564
20499.609375	-73.134811
20542.675781	-73.107948
20585.742188	-73.203751
20628.808594	-73.349815
20671.875000	-72.932907
20714.941406	-73.279984
20758.007812	-73.182175
20801.074219	-73.192245
20844.140625	-73.171631
20887.207031	-73.243301
20930.273438	-73.204788
20973.339844	-73.099449
21016.406250	-73.329170
21059.472656	-73.216988
21102.539062	-73.260742
21145.605469	-73.129921
21188.671875	-73.370110
21231.738281	-73.122040
21274.804688	-73.157555
21317.871094	-73.382507
21360.937500	-73.262360
21404.003906	-73.225403
21447.070312	-73.236229
21490.136719	-73.346725
21533.203125	-72.948265
21576.269531	-73.355423
21619.335938	-73.222061
21662.402344	-73.328712
21705.468750	-73.025040
21748.535156	-73.326607
21791.601562	-73.228912
21834.667969	-73.110832
21877.734375	-73.337921
21920.800781	-73.307480
21963.867188	-73.201057
22006.933594	-73.099144
