Frequency (Hz)	Level (dB)
43.066406	-56.570816
86.132812	-56.517738
129.199219	-58.873497
172.265625	-63.335880
215.332031	-66.717972
258.398438	-68.421394
301.464844	-66.488617
344.531250	-67.922989
387.597656	-68.031975
430.664062	-67.566292
473.730469	-68.746284
516.796875	-68.728355
559.863281	-65.567528
602.929688	-62.047695
645.996094	-63.930744
689.062500	-66.134338
732.128906	-66.357407
775.195312	-64.280159
818.261719	-66.181816
861.328125	-66.978821
904.394531	-67.189804
947.460938	-64.020020
990.527344	-61.451740
1033.593750	-62.260750
1076.660156	-60.643425
1119.726562	-60.910919
1162.792969	-64.813568
1205.859375	-62.671249
1248.925781	-61.718716
1291.992188	-63.059086
1335.058594	-62.709179
1378.125000	-63.180355
1421.191406	-62.356564
1464.257812	-58.202988
1507.324219	-60.831173
1550.390625	-60.262699
1593.457031	-63.070499
1636.523438	-61.808006
1679.589844	-60.313358
1722.656250	-58.722332
1765.722656	-55.983776
1808.789062	-58.539894
1851.855469	-57.603561
1894.921875	-58.332325
1937.988281	-57.431721
1981.054688	-57.674656
2024.121094	-56.074051
2067.187500	-53.144218
2110.253906	-53.786755
2153.320312	-52.030121
2196.386719	-48.856525
2239.453125	-46.259594
2282.519531	-46.945503
2325.585938	-38.605755
2368.652344	-38.318748
2411.718750	-41.013313
2454.785156	-38.781044
2497.851562	-29.345493
2540.917969	-31.886135
2583.984375	-39.096828
2627.050781	-43.823784
2670.117188	-44.936337
2713.183594	-45.331608
2756.250000	-47.857552
2799.316406	-50.293030
2842.382812	-50.496479
2885.449219	-53.890816
2928.515625	-49.742596
2971.582031	-47.836674
3014.648438	-51.558609
3057.714844	-55.571194
3100.781250	-54.422134
3143.847656	-55.797672
3186.914062	-55.355183
3229.980469	-57.996849
3273.046875	-60.150414
3316.113281	-59.559883
3359.179688	-58.406448
3402.246094	-59.683929
3445.312500	-59.010769
3488.378906	-62.857651
3531.445312	-61.856609
3574.511719	-58.322262
3617.578125	-47.327335
3660.644531	-51.625164
3703.710938	-54.158302
3746.777344	-57.497955
3789.843750	-59.045982
3832.910156	-59.705353
3875.976562	-58.961666
3919.042969	-59.024738
3962.109375	-56.294170
4005.175781	-60.398964
4048.242188	-62.895821
4091.308594	-61.043076
4134.375000	-59.955509
4177.441406	-60.256073
4220.507812	-59.408730
4263.574219	-58.366493
4306.640625	-61.859241
4349.707031	-60.965462
4392.773438	-59.775974
4435.839844	-58.182095
4478.906250	-54.512470
4521.972656	-54.631752
4565.039062	-48.079788
4608.105469	-37.740299
4651.171875	-37.356224
4694.238281	-47.535862
4737.304688	-50.791992
4780.371094	-53.004593
4823.437500	-55.799850
4866.503906	-54.831188
4909.570312	-57.941994
4952.636719	-56.427818
4995.703125	-58.475517
5038.769531	-60.085030
5081.835938	-55.457741
5124.902344	-56.848633
5167.968750	-55.680347
5211.035156	-57.311558
5254.101562	-59.430260
5297.167969	-59.531643
5340.234375	-54.850719
5383.300781	-55.983311
5426.367188	-55.863415
5469.433594	-55.812000
5512.500000	-56.061951
5555.566406	-53.391685
5598.632812	-53.580448
5641.699219	-57.902733
5684.765625	-56.474747
5727.832031	-55.512653
5770.898438	-55.020813
5813.964844	-56.425766
5857.031250	-56.205536
5900.097656	-52.654884
5943.164062	-52.304127
5986.230469	-51.629318
6029.296875	-52.743729
6072.363281	-46.449223
6115.429688	-44.996685
6158.496094	-42.846821
6201.562500	-28.198017
6244.628906	-33.425823
6287.695312	-39.886696
6330.761719	-44.982761
6373.828125	-44.079941
6416.894531	-40.319839
6459.960938	-38.306545
6503.027344	-38.101158
6546.093750	-48.262375
6589.160156	-38.306339
6632.226562	-28.852213
6675.292969	-24.514849
6718.359375	-37.714832
6761.425781	-42.995327
6804.492188	-45.409065
6847.558594	-46.345020
6890.625000	-47.944973
6933.691406	-46.628029
6976.757812	-51.935108
7019.824219	-51.071182
7062.890625	-53.143436
7105.957031	-49.788563
7149.023438	-52.708160
7192.089844	-55.195999
7235.156250	-50.746647
7278.222656	-49.460091
7321.289062	-51.548508
7364.355469	-44.945984
7407.421875	-50.676414
7450.488281	-47.654732
7493.554688	-45.953526
7536.621094	-35.605633
7579.687500	-32.665577
7622.753906	-44.530499
7665.820312	-47.382900
7708.886719	-47.749969
7751.953125	-53.523308
7795.019531	-53.787994
7838.085938	-55.612537
7881.152344	-57.468346
7924.218750	-56.478264
7967.285156	-56.171001
8010.351562	-60.184502
8053.417969	-59.276531
8096.484375	-60.187889
8139.550781	-60.402393
8182.617188	-62.163052
8225.683594	-62.577839
8268.750000	-62.024540
8311.816406	-63.114231
8354.882812	-61.163631
8397.949219	-63.135132
8441.015625	-64.657578
8484.082031	-64.103294
8527.148438	-62.225674
8570.214844	-61.915623
8613.281250	-65.463394
8656.347656	-67.900902
8699.414062	-66.196350
8742.480469	-66.453293
8785.546875	-63.256401
8828.613281	-63.884972
8871.679688	-66.789711
8914.746094	-63.701969
8957.812500	-52.019341
9000.878906	-56.320072
9043.945312	-60.968822
9087.011719	-60.400524
9130.078125	-62.678478
9173.144531	-67.908073
9216.210938	-66.668251
9259.277344	-66.169724
9302.343750	-68.076973
9345.410156	-69.404106
9388.476562	-67.574913
9431.542969	-67.017456
9474.609375	-69.764626
9517.675781	-68.489548
9560.742188	-68.102737
9603.808594	-69.397362
9646.875000	-69.977264
9689.941406	-69.586243
9733.007812	-70.659172
9776.074219	-70.235886
9819.140625	-70.352180
9862.207031	-69.853661
9905.273438	-70.030220
9948.339844	-69.438751
9991.406250	-70.717628
10034.472656	-69.007675
10077.539062	-68.375900
10120.605469	-69.738808
10163.671875	-67.421883
10206.738281	-72.442528
10249.804688	-71.919586
10292.871094	-69.437012
10335.937500	-69.882431
10379.003906	-70.592705
10422.070312	-71.957947
10465.136719	-72.120468
10508.203125	-72.055077
10551.269531	-71.890480
10594.335938	-73.294212
10637.402344	-72.536194
10680.468750	-72.114380
10723.535156	-72.956352
10766.601562	-72.865173
10809.667969	-72.972153
10852.734375	-72.379578
10895.800781	-72.715752
10938.867188	-74.036377
10981.933594	-73.065407
11025.000000	-72.889534
11068.066406	-73.056366
11111.132812	-72.797691
11154.199219	-73.945854
11197.265625	-73.630943
11240.332031	-74.180573
11283.398438	-72.941826
11326.464844	-73.524071
11369.531250	-73.816360
11412.597656	-73.396996
11455.664062	-71.449638
11498.730469	-74.298027
11541.796875	-75.305115
11584.863281	-74.374458
11627.929688	-71.001183
11670.996094	-72.915970
11714.062500	-72.614792
11757.128906	-68.539375
11800.195312	-66.866943
11843.261719	-56.011196
11886.328125	-59.824444
11929.394531	-69.253265
11972.460938	-74.775536
12015.527344	-73.856453
12058.593750	-71.219536
12101.660156	-74.233101
12144.726562	-72.943100
12187.792969	-73.339096
12230.859375	-70.600723
12273.925781	-68.477684
12316.992188	-67.641182
12360.058594	-70.816956
12403.125000	-73.782997
12446.191406	-72.891113
12489.257812	-73.476669
12532.324219	-74.797249
12575.390625	-75.781174
12618.457031	-77.732544
12661.523438	-77.512497
12704.589844	-76.504890
12747.656250	-75.062485
12790.722656	-75.243996
12833.789062	-77.037132
12876.855469	-78.375633
12919.921875	-77.851479
12962.988281	-77.125870
13006.054688	-76.856377
13049.121094	-77.076195
13092.187500	-77.780640
13135.253906	-77.782211
13178.320312	-77.996704
13221.386719	-77.088516
13264.453125	-77.100601
13307.519531	-77.753799
13350.585938	-78.253822
13393.652344	-78.161209
13436.718750	-78.043289
13479.785156	-76.854164
13522.851562	-75.754677
13565.917969	-77.008621
13608.984375	-78.266655
13652.050781	-78.240334
13695.117188	-72.549995
13738.183594	-68.899254
13781.250000	-76.064232
13824.316406	-77.401001
13867.382812	-77.193108
13910.449219	-78.126488
13953.515625	-77.423515
13996.582031	-78.292023
14039.648438	-78.913002
14082.714844	-78.696877
14125.781250	-77.996399
14168.847656	-77.706451
14211.914062	-76.781509
14254.980469	-78.598145
14298.046875	-77.256706
14341.113281	-78.715416
14384.179688	-75.413437
14427.246094	-79.423462
14470.312500	-78.249863
14513.378906	-78.534218
14556.445312	-70.361496
14599.511719	-76.443871
14642.578125	-79.263710
14685.644531	-72.833328
14728.710938	-77.856750
14771.777344	-75.796890
14814.843750	-69.270943
14857.910156	-67.844734
14900.976562	-76.911781
14944.042969	-74.210205
14987.109375	-79.745842
15030.175781	-77.194069
15073.242188	-75.418114
15116.308594	-76.379875
15159.375000	-76.540787
15202.441406	-81.322563
15245.507812	-78.326187
15288.574219	-73.425323
15331.640625	-69.004272
15374.707031	-60.538525
15417.773438	-69.685501
15460.839844	-68.009041
15503.906250	-73.628204
15546.972656	-76.318245
15590.039062	-78.373802
15633.105469	-77.529381
15676.171875	-76.408203
15719.238281	-79.683815
15762.304688	-77.610458
15805.371094	-78.842499
15848.437500	-76.039139
15891.503906	-79.867676
15934.570312	-76.224716
15977.636719	-76.695107
16020.703125	-79.665085
16063.769531	-79.594254
16106.835938	-79.402168
16149.902344	-79.704361
16192.968750	-79.689018
16236.035156	-79.430969
16279.101562	-79.671669
16322.167969	-79.649681
16365.234375	-79.761246
16408.300781	-79.960854
16451.367188	-79.791718
16494.433594	-80.028816
16537.500000	-80.031876
16580.566406	-79.998482
16623.632812	-80.093124
16666.699219	-80.162567
16709.765625	-80.098740
16752.832031	-80.131752
16795.898438	-80.038345
16838.964844	-80.408554
16882.031250	-80.313042
16925.097656	-80.288956
16968.164062	-80.283112
17011.230469	-80.416588
17054.296875	-80.493668
17097.363281	-80.345871
17140.429688	-80.573006
17183.496094	-80.404366
17226.562500	-80.529640
17269.628906	-80.647057
17312.695312	-80.564613
17355.761719	-80.597244
17398.828125	-80.593208
17441.894531	-80.556808
17484.960938	-80.516647
17528.027344	-80.708214
17571.093750	-80.757233
17614.160156	-80.864487
17657.226562	-80.934578
17700.292969	-80.837181
17743.359375	-80.717049
17786.425781	-80.736115
17829.492188	-80.953583
17872.558594	-80.975227
17915.625000	-81.071136
17958.691406	-80.743088
18001.757812	-80.991768
18044.824219	-80.832802
18087.890625	-80.853340
18130.957031	-81.111214
18174.023438	-80.922462
18217.089844	-81.324699
18260.156250	-81.051613
18303.222656	-81.019943
18346.289062	-81.040970
18389.355469	-81.062500
18432.421875	-81.073463
18475.488281	-81.260590
18518.554688	-81.306885
18561.621094	-81.064659
18604.687500	-81.307930
18647.753906	-81.342995
18690.820312	-81.471504
18733.886719	-81.159874
18776.953125	-81.252968
18820.019531	-81.239624
18863.085938	-81.266678
18906.152344	-81.289322
18949.218750	-81.252815
18992.285156	-81.107285
19035.351562	-81.512230
19078.417969	-81.453445
19121.484375	-81.400841
19164.550781	-81.259933
19207.617188	-81.312042
19250.683594	-81.355942
19293.750000	-81.472969
19336.816406	-81.406906
19379.882812	-81.380692
19422.949219	-81.319664
19466.015625	-81.283333
19509.082031	-81.469032
19552.148438	-81.509666
19595.214844	-81.684860
19638.281250	-81.581589
19681.347656	-81.605759
19724.414062	-81.654610
19767.480469	-81.752419
19810.546875	-81.646072
19853.613281	-81.725739
19896.679688	-81.564674
19939.746094	-81.568481
19982.812500	-81.780334
20025.878906	-81.716316
20068.945312	-81.707993
20112.011719	-81.685669
20155.078125	-81.698090
20198.144531	-81.474571
20241.210938	-81.705658
20284.277344	-81.546318
20327.343750	-81.619232
20370.410156	-81.595650
20413.476562	-81.708748
20456.542969	-81.655663
20499.609375	-81.536293
20542.675781	-81.669777
20585.742188	-81.705223
20628.808594	-81.604897
20671.875000	-81.719124
20714.941406	-81.646149
20758.007812	-81.597153
20801.074219	-81.640259
20844.140625	-81.867432
20887.207031	-82.072166
20930.273438	-81.701347
20973.339844	-81.827919
21016.406250	-81.812332
21059.472656	-81.835541
21102.539062	-81.724335
21145.605469	-81.830544
21188.671875	-81.956688
21231.738281	-81.797951
21274.804688	-81.870522
21317.871094	-81.526825
21360.937500	-81.850471
21404.003906	-81.770172
21447.070312	-81.845268
21490.136719	-81.742416
21533.203125	-81.836052
21576.269531	-81.907043
21619.335938	-81.920395
21662.402344	-82.004044
21705.468750	-81.746628
21748.535156	-81.768890
21791.601562	-81.766495
21834.667969	-81.924217
21877.734375	-81.537254
21920.800781	-81.829033
21963.867188	-81.453972
22006.933594	-81.719566
