Frequency (Hz)	Level (dB)
43.066406	-55.833336
86.132812	-57.571110
129.199219	-63.456585
172.265625	-66.015411
215.332031	-69.174362
258.398438	-72.308784
301.464844	-72.689682
344.531250	-71.933174
387.597656	-72.314514
430.664062	-74.264870
473.730469	-73.517303
516.796875	-71.353592
559.863281	-69.220016
602.929688	-68.402550
645.996094	-67.593033
689.062500	-68.883499
732.128906	-70.090569
775.195312	-68.156998
818.261719	-70.322044
861.328125	-70.567322
904.394531	-72.847961
947.460938	-68.012138
990.527344	-64.390038
1033.593750	-65.622009
1076.660156	-65.378204
1119.726562	-65.945908
1162.792969	-68.196388
1205.859375	-67.136368
1248.925781	-67.229057
1291.992188	-69.793190
1335.058594	-69.032661
1378.125000	-67.911293
1421.191406	-66.257011
1464.257812	-64.160576
1507.324219	-65.024086
1550.390625	-65.910873
1593.457031	-68.264580
1636.523438	-66.245178
1679.589844	-64.818214
1722.656250	-61.970547
1765.722656	-61.459549
1808.789062	-63.385231
1851.855469	-63.026825
1894.921875	-60.954964
1937.988281	-62.774521
1981.054688	-63.196632
2024.121094	-61.421970
2067.187500	-58.884781
2110.253906	-55.564594
2153.320312	-54.894859
2196.386719	-54.605618
2239.453125	-52.021618
2282.519531	-50.488323
2325.585938	-41.222164
2368.652344	-39.837341
2411.718750	-43.473083
2454.785156	-40.668961
2497.851562	-32.783485
2540.917969	-35.566509
2583.984375	-44.298679
2627.050781	-46.689651
2670.117188	-48.389763
2713.183594	-50.434917
2756.250000	-54.208046
2799.316406	-56.641323
2842.382812	-55.856422
2885.449219	-57.072231
2928.515625	-56.122093
2971.582031	-51.704967
3014.648438	-55.570843
3057.714844	-57.864063
3100.781250	-58.521675
3143.847656	-60.339642
3186.914062	-58.453308
3229.980469	-63.735146
3273.046875	-64.506668
3316.113281	-64.366615
3359.179688	-64.743210
3402.246094	-62.178207
3445.312500	-65.640953
3488.378906	-66.220245
3531.445312	-64.617279
3574.511719	-60.889935
3617.578125	-50.793571
3660.644531	-54.516495
3703.710938	-59.698517
3746.777344	-63.390141
3789.843750	-66.847885
3832.910156	-63.885738
3875.976562	-65.289413
3919.042969	-65.941780
3962.109375	-65.451248
4005.175781	-66.819740
4048.242188	-66.520782
4091.308594	-69.357231
4134.375000	-66.767197
4177.441406	-63.585529
4220.507812	-65.249184
4263.574219	-66.294106
4306.640625	-66.264175
4349.707031	-63.500443
4392.773438	-65.763458
4435.839844	-63.430668
4478.906250	-58.997402
4521.972656	-57.687241
4565.039062	-54.286797
4608.105469	-43.266129
4651.171875	-42.100143
4694.238281	-53.206612
4737.304688	-55.082432
4780.371094	-57.006828
4823.437500	-62.835228
4866.503906	-60.776573
4909.570312	-65.405388
4952.636719	-65.124817
4995.703125	-62.225662
5038.769531	-62.718376
5081.835938	-64.409393
5124.902344	-64.880066
5167.968750	-63.023743
5211.035156	-64.680511
5254.101562	-70.903191
5297.167969	-67.481171
5340.234375	-63.399784
5383.300781	-62.132751
5426.367188	-63.718246
5469.433594	-62.910286
5512.500000	-59.448658
5555.566406	-60.974834
5598.632812	-62.243797
5641.699219	-61.348614
5684.765625	-63.647346
5727.832031	-62.401501
5770.898438	-62.988083
5813.964844	-61.728451
5857.031250	-63.905140
5900.097656	-61.865231
5943.164062	-60.483822
5986.230469	-60.143612
6029.296875	-59.741364
6072.363281	-53.117382
6115.429688	-51.376934
6158.496094	-47.580288
6201.562500	-33.245785
6244.628906	-38.154530
6287.695312	-43.523037
6330.761719	-49.075275
6373.828125	-49.592186
6416.894531	-44.947067
6459.960938	-42.800011
6503.027344	-42.702278
6546.093750	-50.674545
6589.160156	-44.335938
6632.226562	-35.031292
6675.292969	-30.785070
6718.359375	-44.435280
6761.425781	-47.857410
6804.492188	-51.067486
6847.558594	-52.183517
6890.625000	-53.443115
6933.691406	-59.164528
6976.757812	-56.625069
7019.824219	-58.538986
7062.890625	-57.536015
7105.957031	-59.603851
7149.023438	-60.452164
7192.089844	-62.497299
7235.156250	-60.270260
7278.222656	-60.035610
7321.289062	-57.584328
7364.355469	-50.285774
7407.421875	-53.106590
7450.488281	-56.638500
7493.554688	-52.541416
7536.621094	-42.280464
7579.687500	-39.289646
7622.753906	-52.386349
7665.820312	-56.958458
7708.886719	-58.455666
7751.953125	-59.888153
7795.019531	-61.194893
7838.085938	-65.069595
7881.152344	-66.547668
7924.218750	-63.318859
7967.285156	-63.724407
8010.351562	-66.205093
8053.417969	-68.154984
8096.484375	-67.246803
8139.550781	-63.843330
8182.617188	-67.985359
8225.683594	-66.880493
8268.750000	-69.018219
8311.816406	-70.326561
8354.882812	-67.911583
8397.949219	-67.278809
8441.015625	-68.449814
8484.082031	-68.425461
8527.148438	-69.418365
8570.214844	-68.523582
8613.281250	-69.311722
8656.347656	-69.923355
8699.414062	-71.360146
8742.480469	-70.727585
8785.546875	-71.827393
8828.613281	-69.952927
8871.679688	-70.044807
8914.746094	-68.158714
8957.812500	-61.198288
9000.878906	-66.563683
9043.945312	-69.319160
9087.011719	-66.167191
9130.078125	-71.557602
9173.144531	-72.693939
9216.210938	-71.739883
9259.277344	-72.181328
9302.343750	-72.659019
9345.410156	-72.577278
9388.476562	-73.460167
9431.542969	-73.673721
9474.609375	-73.056801
9517.675781	-73.250595
9560.742188	-74.122108
9603.808594	-73.925468
9646.875000	-74.556137
9689.941406	-73.859497
9733.007812	-74.238159
9776.074219	-74.547630
9819.140625	-75.129860
9862.207031	-74.159149
9905.273438	-73.913490
9948.339844	-74.084663
9991.406250	-73.606110
10034.472656	-73.641457
10077.539062	-73.570396
10120.605469	-74.165352
10163.671875	-71.820305
10206.738281	-73.113655
10249.804688	-76.075493
10292.871094	-74.523018
10335.937500	-73.824974
10379.003906	-74.387672
10422.070312	-75.460075
10465.136719	-75.280579
10508.203125	-76.528717
10551.269531	-75.540962
10594.335938	-76.067360
10637.402344	-76.012939
10680.468750	-76.079109
10723.535156	-75.954315
10766.601562	-76.004662
10809.667969	-76.416931
10852.734375	-76.198723
10895.800781	-76.235008
10938.867188	-76.514618
10981.933594	-76.422195
11025.000000	-76.839905
11068.066406	-76.642311
11111.132812	-76.249657
11154.199219	-77.046371
11197.265625	-76.844208
11240.332031	-76.557373
11283.398438	-77.209747
11326.464844	-76.752319
11369.531250	-76.230164
11412.597656	-77.563606
11455.664062	-77.145782
11498.730469	-76.600739
11541.796875	-77.184486
11584.863281	-77.882507
11627.929688	-76.892715
11670.996094	-76.513657
11714.062500	-76.454010
11757.128906	-74.143105
11800.195312	-74.238991
11843.261719	-65.722008
11886.328125	-69.704704
11929.394531	-74.769852
11972.460938	-77.164703
12015.527344	-77.288666
12058.593750	-76.908829
12101.660156	-76.445786
12144.726562	-76.459648
12187.792969	-72.430916
12230.859375	-69.684502
12273.925781	-73.925377
12316.992188	-71.122520
12360.058594	-72.410759
12403.125000	-73.111588
12446.191406	-74.803596
12489.257812	-76.323112
12532.324219	-76.171478
12575.390625	-77.177574
12618.457031	-79.244057
12661.523438	-78.284248
12704.589844	-77.740852
12747.656250	-78.344185
12790.722656	-78.650139
12833.789062	-79.098015
12876.855469	-78.622375
12919.921875	-78.607735
12962.988281	-78.338326
13006.054688	-78.001610
13049.121094	-77.890030
13092.187500	-77.911034
13135.253906	-78.771103
13178.320312	-78.913963
13221.386719	-78.856201
13264.453125	-77.747932
13307.519531	-78.735046
13350.585938	-79.024071
13393.652344	-79.212944
13436.718750	-78.386597
13479.785156	-78.178879
13522.851562	-78.940948
13565.917969	-78.299248
13608.984375	-78.191025
13652.050781	-76.417557
13695.117188	-74.291031
13738.183594	-74.139999
13781.250000	-80.106140
13824.316406	-79.560616
13867.382812	-80.402733
13910.449219	-80.072037
13953.515625	-80.176529
13996.582031	-80.064926
14039.648438	-80.468521
14082.714844	-80.363129
14125.781250	-79.610100
14168.847656	-79.358765
14211.914062	-79.672211
14254.980469	-79.112427
14298.046875	-79.022896
14341.113281	-80.283333
14384.179688	-80.605759
14427.246094	-79.884010
14470.312500	-79.292305
14513.378906	-79.889565
14556.445312	-80.417564
14599.511719	-80.955200
14642.578125	-78.608315
14685.644531	-80.303352
14728.710938	-81.093552
14771.777344	-83.577721
14814.843750	-78.782692
14857.910156	-73.157677
14900.976562	-77.435936
14944.042969	-78.916550
14987.109375	-79.187729
15030.175781	-79.315361
15073.242188	-76.933136
15116.308594	-77.789948
15159.375000	-79.479584
15202.441406	-79.112564
15245.507812	-78.018364
15288.574219	-75.469040
15331.640625	-74.258301
15374.707031	-69.329445
15417.773438	-78.073769
15460.839844	-76.936417
15503.906250	-80.722672
15546.972656	-80.967285
15590.039062	-80.019569
15633.105469	-80.842491
15676.171875	-80.661713
15719.238281	-80.294815
15762.304688	-80.690598
15805.371094	-80.510696
15848.437500	-80.612846
15891.503906	-81.116180
15934.570312	-81.375885
15977.636719	-81.339424
16020.703125	-81.527229
16063.769531	-81.438698
16106.835938	-81.444649
16149.902344	-81.286285
16192.968750	-81.205322
16236.035156	-81.295403
16279.101562	-81.250984
16322.167969	-81.364792
16365.234375	-81.501404
16408.300781	-81.163582
16451.367188	-81.260025
16494.433594	-81.447426
16537.500000	-81.373314
16580.566406	-81.308945
16623.632812	-81.316971
16666.699219	-81.192818
16709.765625	-81.402748
16752.832031	-81.433945
16795.898438	-81.389069
16838.964844	-81.280670
16882.031250	-81.565399
16925.097656	-81.484070
16968.164062	-81.289200
17011.230469	-81.298882
17054.296875	-81.471024
17097.363281	-81.486099
17140.429688	-81.539665
17183.496094	-81.564812
17226.562500	-81.277817
17269.628906	-81.543472
17312.695312	-81.338837
17355.761719	-81.506203
17398.828125	-81.491341
17441.894531	-81.550987
17484.960938	-81.533638
17528.027344	-81.696526
17571.093750	-81.479813
17614.160156	-81.523041
17657.226562	-81.728844
17700.292969	-81.390564
17743.359375	-81.548927
17786.425781	-81.581108
17829.492188	-81.562660
17872.558594	-81.726982
17915.625000	-81.746124
17958.691406	-81.749367
18001.757812	-81.596992
18044.824219	-81.551720
18087.890625	-81.515038
18130.957031	-81.587143
18174.023438	-81.734467
18217.089844	-81.679573
18260.156250	-81.508873
18303.222656	-81.684944
18346.289062	-81.853195
18389.355469	-81.918671
18432.421875	-81.817871
18475.488281	-81.647774
18518.554688	-81.770943
18561.621094	-81.853386
18604.687500	-81.769707
18647.753906	-81.745567
18690.820312	-81.744057
18733.886719	-81.921257
18776.953125	-81.927917
18820.019531	-81.990730
18863.085938	-81.529228
18906.152344	-81.753838
18949.218750	-81.815819
18992.285156	-81.774986
19035.351562	-81.745384
19078.417969	-81.948265
19121.484375	-82.073296
19164.550781	-81.927071
19207.617188	-81.811218
19250.683594	-81.843155
19293.750000	-81.929153
19336.816406	-81.990501
19379.882812	-82.069580
19422.949219	-81.927307
19466.015625	-81.933739
19509.082031	-81.897514
19552.148438	-81.987289
19595.214844	-82.089363
19638.281250	-82.131210
19681.347656	-81.854454
19724.414062	-82.242233
19767.480469	-82.114349
19810.546875	-82.034813
19853.613281	-82.027557
19896.679688	-82.094421
19939.746094	-82.050392
19982.812500	-82.082260
20025.878906	-82.011299
20068.945312	-81.883186
20112.011719	-82.078293
20155.078125	-82.297859
20198.144531	-81.943336
20241.210938	-82.160393
20284.277344	-81.923668
20327.343750	-81.895622
20370.410156	-81.809212
20413.476562	-82.024231
20456.542969	-82.175186
20499.609375	-82.180885
20542.675781	-82.279045
20585.742188	-82.104408
20628.808594	-81.936012
20671.875000	-82.081093
20714.941406	-81.917046
20758.007812	-82.154694
20801.074219	-82.075287
20844.140625	-82.164185
20887.207031	-82.162781
20930.273438	-82.226959
20973.339844	-82.191109
21016.406250	-82.123055
21059.472656	-82.223732
21102.539062	-82.131630
21145.605469	-82.092514
21188.671875	-81.850204
21231.738281	-81.954300
21274.804688	-82.148094
21317.871094	-82.047295
21360.937500	-82.197311
21404.003906	-82.100632
21447.070312	-82.084450
21490.136719	-82.263977
21533.203125	-81.847496
21576.269531	-82.070793
21619.335938	-82.311234
21662.402344	-82.124268
21705.468750	-81.985878
21748.535156	-82.088455
21791.601562	-82.208817
21834.667969	-82.037048
21877.734375	-82.199219
21920.800781	-82.149605
21963.867188	-82.099426
22006.933594	-82.038635
