Frequency (Hz)	Level (dB)
43.066406	-54.330677
86.132812	-57.535820
129.199219	-57.716702
172.265625	-61.547096
215.332031	-64.684425
258.398438	-63.900112
301.464844	-64.218132
344.531250	-65.592476
387.597656	-66.110519
430.664062	-65.709526
473.730469	-65.861427
516.796875	-65.402344
559.863281	-65.287415
602.929688	-65.157196
645.996094	-65.464828
689.062500	-64.814011
732.128906	-64.331833
775.195312	-63.860760
818.261719	-64.554672
861.328125	-63.717758
904.394531	-63.206951
947.460938	-63.652283
990.527344	-62.706108
1033.593750	-61.465759
1076.660156	-61.578114
1119.726562	-61.537910
1162.792969	-62.056313
1205.859375	-61.326744
1248.925781	-62.095367
1291.992188	-60.765343
1335.058594	-61.312683
1378.125000	-59.501232
1421.191406	-59.702274
1464.257812	-58.975826
1507.324219	-57.955509
1550.390625	-56.983696
1593.457031	-57.823997
1636.523438	-56.656017
1679.589844	-56.062553
1722.656250	-54.829792
1765.722656	-53.244671
1808.789062	-51.897114
1851.855469	-49.541336
1894.921875	-46.764450
1937.988281	-39.864155
1981.054688	-39.869755
2024.121094	-39.188393
2067.187500	-28.986099
2110.253906	-31.557636
2153.320312	-40.444229
2196.386719	-44.064224
2239.453125	-47.024487
2282.519531	-47.813004
2325.585938	-49.150135
2368.652344	-52.222454
2411.718750	-53.095436
2454.785156	-53.082340
2497.851562	-56.296635
2540.917969	-53.801342
2583.984375	-54.726585
2627.050781	-54.698593
2670.117188	-56.180882
2713.183594	-58.720783
2756.250000	-57.998165
2799.316406	-58.704716
2842.382812	-58.314560
2885.449219	-59.974995
2928.515625	-61.003010
2971.582031	-61.743935
3014.648438	-63.768009
3057.714844	-58.210186
3100.781250	-55.363071
3143.847656	-55.966694
3186.914062	-57.929283
3229.980469	-59.042938
3273.046875	-61.981228
3316.113281	-60.482246
3359.179688	-61.694473
3402.246094	-62.136257
3445.312500	-62.729877
3488.378906	-63.370358
3531.445312	-63.397327
3574.511719	-64.222252
3617.578125	-64.973267
3660.644531	-61.424431
3703.710938	-61.496002
3746.777344	-61.024384
3789.843750	-64.304008
3832.910156	-61.913128
3875.976562	-62.455326
3919.042969	-62.464851
3962.109375	-62.261703
4005.175781	-62.566315
4048.242188	-61.139103
4091.308594	-62.092701
4134.375000	-59.835876
4177.441406	-60.624119
4220.507812	-56.979973
4263.574219	-60.568050
4306.640625	-55.709553
4349.707031	-59.525646
4392.773438	-55.893738
4435.839844	-54.602482
4478.906250	-51.704754
4521.972656	-45.676025
4565.039062	-35.486404
4608.105469	-38.913654
4651.171875	-46.591904
4694.238281	-53.352928
4737.304688	-54.309464
4780.371094	-56.040558
4823.437500	-56.209068
4866.503906	-58.095604
4909.570312	-52.351318
4952.636719	-43.376358
4995.703125	-51.566956
5038.769531	-56.611492
5081.835938	-55.760132
5124.902344	-59.260956
5167.968750	-62.482464
5211.035156	-58.041393
5254.101562	-60.103779
5297.167969	-59.057770
5340.234375	-59.036903
5383.300781	-66.029762
5426.367188	-62.768475
5469.433594	-59.518448
5512.500000	-59.924416
5555.566406	-52.179409
5598.632812	-39.549549
5641.699219	-49.559303
5684.765625	-56.684193
5727.832031	-56.388863
5770.898438	-57.981853
5813.964844	-55.404179
5857.031250	-58.727558
5900.097656	-56.197067
5943.164062	-53.920246
5986.230469	-57.896244
6029.296875	-52.816250
6072.363281	-52.941113
6115.429688	-46.570038
6158.496094	-47.548592
6201.562500	-36.165890
6244.628906	-30.270271
6287.695312	-38.747917
6330.761719	-47.684895
6373.828125	-52.676865
6416.894531	-51.575733
6459.960938	-51.542229
6503.027344	-51.587200
6546.093750	-56.825413
6589.160156	-51.788853
6632.226562	-54.850269
6675.292969	-53.486435
6718.359375	-57.743744
6761.425781	-58.020351
6804.492188	-60.916599
6847.558594	-61.416866
6890.625000	-60.716663
6933.691406	-61.919758
6976.757812	-63.469120
7019.824219	-63.582420
7062.890625	-63.912579
7105.957031	-65.531143
7149.023438	-64.721275
7192.089844	-67.323753
7235.156250	-63.756855
7278.222656	-67.369362
7321.289062	-69.204567
7364.355469	-71.531235
7407.421875	-63.003277
7450.488281	-65.988640
7493.554688	-66.537453
7536.621094	-62.659206
7579.687500	-53.712002
7622.753906	-57.528511
7665.820312	-65.273720
7708.886719	-64.645210
7751.953125	-66.528427
7795.019531	-67.256592
7838.085938	-70.394157
7881.152344	-64.163147
7924.218750	-65.186897
7967.285156	-56.799442
8010.351562	-55.364265
8053.417969	-62.363705
8096.484375	-65.706070
8139.550781	-59.961926
8182.617188	-62.655624
8225.683594	-65.199333
8268.750000	-63.766979
8311.816406	-65.432961
8354.882812	-63.170830
8397.949219	-66.910324
8441.015625	-65.430046
8484.082031	-66.865410
8527.148438	-65.601883
8570.214844	-67.866310
8613.281250	-66.471619
8656.347656	-64.943039
8699.414062	-67.950348
8742.480469	-62.199867
8785.546875	-51.660789
8828.613281	-59.449406
8871.679688	-66.306641
8914.746094	-69.711037
8957.812500	-71.917870
9000.878906	-71.695221
9043.945312	-71.129730
9087.011719	-69.789238
9130.078125	-69.424416
9173.144531	-69.675491
9216.210938	-71.377068
9259.277344	-71.051521
9302.343750	-71.367126
9345.410156	-70.471512
9388.476562	-64.464920
9431.542969	-63.297474
9474.609375	-63.605019
9517.675781	-54.981239
9560.742188	-51.291447
9603.808594	-59.983021
9646.875000	-63.596031
9689.941406	-66.288620
9733.007812	-65.829010
9776.074219	-69.178474
9819.140625	-72.274094
9862.207031	-75.177643
9905.273438	-75.628845
9948.339844	-77.205482
9991.406250	-76.011841
10034.472656	-77.125809
10077.539062	-77.630409
10120.605469	-77.123848
10163.671875	-78.779335
10206.738281	-77.883957
10249.804688	-78.958588
10292.871094	-79.331329
10335.937500	-79.175209
10379.003906	-79.545006
10422.070312	-79.062508
10465.136719	-79.878090
10508.203125	-79.077492
10551.269531	-79.917313
10594.335938	-78.744598
10637.402344	-80.542770
10680.468750	-79.322708
10723.535156	-80.989029
10766.601562	-79.279106
10809.667969	-80.698654
10852.734375	-80.044655
10895.800781	-80.494949
10938.867188	-80.536758
10981.933594	-79.940323
11025.000000	-81.478294
11068.066406	-80.119354
11111.132812	-81.492493
11154.199219	-80.067604
11197.265625	-81.646019
11240.332031	-80.572411
11283.398438	-81.003517
11326.464844	-80.679413
11369.531250	-81.017509
11412.597656	-81.077454
11455.664062	-80.373512
11498.730469	-81.787277
11541.796875	-80.944405
11584.863281	-81.918419
11627.929688	-80.482140
11670.996094	-81.427567
11714.062500	-79.928978
11757.128906	-80.082199
11800.195312	-78.620071
11843.261719	-79.280014
11886.328125	-80.017921
11929.394531	-77.503586
11972.460938	-77.823730
12015.527344	-75.562408
12058.593750	-75.117699
12101.660156	-66.409142
12144.726562	-71.222054
12187.792969	-74.454491
12230.859375	-79.341675
12273.925781	-77.824753
12316.992188	-76.755775
12360.058594	-78.128883
12403.125000	-80.019112
12446.191406	-76.136574
12489.257812	-73.407928
12532.324219	-69.952675
12575.390625	-66.083992
12618.457031	-67.947777
12661.523438	-70.633034
12704.589844	-77.653740
12747.656250	-76.922073
12790.722656	-76.953781
12833.789062	-77.955490
12876.855469	-75.787979
12919.921875	-76.306984
12962.988281	-75.999741
13006.054688	-75.232864
13049.121094	-73.717957
13092.187500	-72.060356
13135.253906	-70.950256
13178.320312	-71.063278
13221.386719	-67.034004
13264.453125	-64.342407
13307.519531	-71.124008
13350.585938	-68.693703
13393.652344	-58.906746
13436.718750	-52.541603
13479.785156	-56.553139
13522.851562	-62.150410
13565.917969	-68.054688
13608.984375	-67.772179
13652.050781	-73.921700
13695.117188	-71.674988
13738.183594	-74.850037
13781.250000	-72.843056
13824.316406	-73.160492
13867.382812	-64.741524
13910.449219	-64.433128
13953.515625	-74.144104
13996.582031	-75.640068
14039.648438	-75.072151
14082.714844	-79.297562
14125.781250	-73.530228
14168.847656	-68.546623
14211.914062	-65.164116
14254.980469	-73.237328
14298.046875	-80.361641
14341.113281	-78.307777
14384.179688	-72.571457
14427.246094	-72.910034
14470.312500	-76.140579
14513.378906	-78.115883
14556.445312	-75.316895
14599.511719	-76.772926
14642.578125	-69.606056
14685.644531	-75.375465
14728.710938	-79.287392
14771.777344	-78.778854
14814.843750	-74.284782
14857.910156	-72.146034
14900.976562	-65.513550
14944.042969	-59.004616
14987.109375	-64.292747
15030.175781	-69.281067
15073.242188	-75.868629
15116.308594	-80.553833
15159.375000	-80.263702
15202.441406	-80.156021
15245.507812	-81.093407
15288.574219	-81.152779
15331.640625	-82.780434
15374.707031	-83.552757
15417.773438	-82.427788
15460.839844	-82.116081
15503.906250	-82.224167
15546.972656	-83.346901
15590.039062	-81.758362
15633.105469	-81.300125
15676.171875	-84.157982
15719.238281	-82.735306
15762.304688	-83.726135
15805.371094	-84.973274
15848.437500	-83.820190
15891.503906	-83.248482
15934.570312	-84.801872
15977.636719	-84.246651
16020.703125	-84.790039
16063.769531	-84.344765
16106.835938	-84.989777
16149.902344	-84.965248
16192.968750	-84.754120
16236.035156	-84.991310
16279.101562	-85.219864
16322.167969	-85.132721
16365.234375	-85.238304
16408.300781	-84.884888
16451.367188	-85.292175
16494.433594	-85.249641
16537.500000	-85.205452
16580.566406	-85.394852
16623.632812	-85.346855
16666.699219	-85.313118
16709.765625	-85.584778
16752.832031	-85.583244
16795.898438	-85.415413
16838.964844	-85.628296
16882.031250	-85.437607
16925.097656	-85.522095
16968.164062	-85.435387
17011.230469	-85.660309
17054.296875	-85.491051
17097.363281	-85.780457
17140.429688	-85.613800
17183.496094	-85.780678
17226.562500	-85.708214
17269.628906	-85.448868
17312.695312	-85.754517
17355.761719	-85.556290
17398.828125	-85.774849
17441.894531	-85.673615
17484.960938	-86.011520
17528.027344	-85.551933
17571.093750	-85.783188
17614.160156	-85.714088
17657.226562	-85.766083
17700.292969	-85.534081
17743.359375	-85.613724
17786.425781	-85.741013
17829.492188	-86.021416
17872.558594	-85.921585
17915.625000	-85.879913
17958.691406	-85.908897
18001.757812	-85.952408
18044.824219	-85.482773
18087.890625	-85.917152
18130.957031	-85.908623
18174.023438	-85.968147
18217.089844	-86.037354
18260.156250	-85.884514
18303.222656	-85.775078
18346.289062	-86.026642
18389.355469	-86.022194
18432.421875	-86.048386
18475.488281	-86.266243
18518.554688	-86.186813
18561.621094	-86.180504
18604.687500	-86.088638
18647.753906	-86.246994
18690.820312	-86.002769
18733.886719	-86.304001
18776.953125	-86.026649
18820.019531	-85.991264
18863.085938	-86.141922
18906.152344	-86.447746
18949.218750	-86.113541
18992.285156	-85.873344
19035.351562	-86.103294
19078.417969	-86.293884
19121.484375	-86.011116
19164.550781	-86.377678
19207.617188	-86.281387
19250.683594	-86.190292
19293.750000	-86.189232
19336.816406	-85.844872
19379.882812	-86.416626
19422.949219	-86.637848
19466.015625	-86.217224
19509.082031	-86.305771
19552.148438	-86.251312
19595.214844	-86.160194
19638.281250	-86.445831
19681.347656	-86.035721
19724.414062	-86.120010
19767.480469	-86.630508
19810.546875	-86.351326
19853.613281	-86.388344
19896.679688	-86.270393
19939.746094	-86.075890
19982.812500	-86.667046
20025.878906	-86.296951
20068.945312	-86.331841
20112.011719	-86.517067
20155.078125	-86.347130
20198.144531	-86.467445
20241.210938	-86.403053
20284.277344	-86.681076
20327.343750	-86.555298
20370.410156	-86.156891
20413.476562	-86.398254
20456.542969	-86.442451
20499.609375	-86.406975
20542.675781	-86.357834
20585.742188	-86.463943
20628.808594	-86.498695
20671.875000	-86.480721
20714.941406	-86.495903
20758.007812	-86.417229
20801.074219	-86.375114
20844.140625	-86.441254
20887.207031	-86.441086
20930.273438	-86.292328
20973.339844	-86.522812
21016.406250	-86.151421
21059.472656	-86.406906
21102.539062	-86.060257
21145.605469	-86.263893
21188.671875	-86.509560
21231.738281	-86.447266
21274.804688	-86.802605
21317.871094	-86.307869
21360.937500	-86.442505
21404.003906	-86.749901
21447.070312	-86.351387
21490.136719	-86.468536
21533.203125	-86.549866
21576.269531	-86.256409
21619.335938	-86.335556
21662.402344	-86.035904
21705.468750	-86.460648
21748.535156	-86.185379
21791.601562	-86.830208
21834.667969	-86.407227
21877.734375	-86.316422
21920.800781	-85.940437
21963.867188	-86.210526
22006.933594	-86.165543
