Frequency (Hz)	Level (dB)
43.066406	-53.815296
86.132812	-55.091640
129.199219	-55.864281
172.265625	-56.867798
215.332031	-56.724457
258.398438	-57.698338
301.464844	-57.248100
344.531250	-57.618137
387.597656	-57.170815
430.664062	-57.479084
473.730469	-56.749992
516.796875	-56.869938
559.863281	-57.232117
602.929688	-56.841995
645.996094	-55.953960
689.062500	-56.700550
732.128906	-56.638840
775.195312	-55.903351
818.261719	-55.465885
861.328125	-56.094357
904.394531	-55.715385
947.460938	-54.978348
990.527344	-54.225544
1033.593750	-54.927475
1076.660156	-54.780766
1119.726562	-53.777561
1162.792969	-53.607147
1205.859375	-54.202896
1248.925781	-53.912487
1291.992188	-53.002277
1335.058594	-52.774567
1378.125000	-52.954414
1421.191406	-52.494595
1464.257812	-51.486088
1507.324219	-51.048233
1550.390625	-51.142517
1593.457031	-51.124397
1636.523438	-49.586628
1679.589844	-49.113384
1722.656250	-48.662159
1765.722656	-47.908443
1808.789062	-48.831852
1851.855469	-46.338703
1894.921875	-46.384983
1937.988281	-46.220219
1981.054688	-44.330093
2024.121094	-42.555241
2067.187500	-42.400833
2110.253906	-41.515282
2153.320312	-38.503281
2196.386719	-36.663197
2239.453125	-34.611454
2282.519531	-29.329376
2325.585938	-18.031380
2368.652344	-21.152039
2411.718750	-30.947552
2454.785156	-35.250622
2497.851562	-38.491196
2540.917969	-37.417740
2583.984375	-40.739334
2627.050781	-42.572689
2670.117188	-44.628120
2713.183594	-43.496342
2756.250000	-45.444180
2799.316406	-47.090187
2842.382812	-47.307594
2885.449219	-48.727661
2928.515625	-50.163937
2971.582031	-44.452843
3014.648438	-47.803555
3057.714844	-48.342682
3100.781250	-50.497025
3143.847656	-52.315094
3186.914062	-52.299538
3229.980469	-51.359535
3273.046875	-52.295376
3316.113281	-54.359543
3359.179688	-54.265022
3402.246094	-53.430302
3445.312500	-53.777630
3488.378906	-53.716957
3531.445312	-55.516178
3574.511719	-54.230785
3617.578125	-51.264648
3660.644531	-56.220219
3703.710938	-56.381794
3746.777344	-56.574810
3789.843750	-56.762096
3832.910156	-54.662392
3875.976562	-56.477959
3919.042969	-56.919437
3962.109375	-55.244194
4005.175781	-57.512260
4048.242188	-58.407871
4091.308594	-57.746738
4134.375000	-56.111511
4177.441406	-58.327110
4220.507812	-60.346657
4263.574219	-56.904617
4306.640625	-57.728333
4349.707031	-59.869850
4392.773438	-59.518219
4435.839844	-58.795704
4478.906250	-58.261456
4521.972656	-57.937160
4565.039062	-55.084888
4608.105469	-44.879761
4651.171875	-42.124405
4694.238281	-52.275764
4737.304688	-55.960835
4780.371094	-51.855564
4823.437500	-59.128906
4866.503906	-61.090588
4909.570312	-61.201538
4952.636719	-60.386421
4995.703125	-58.442715
5038.769531	-61.366478
5081.835938	-62.649261
5124.902344	-60.181526
5167.968750	-59.190559
5211.035156	-63.467869
5254.101562	-64.410095
5297.167969	-60.634850
5340.234375	-58.750832
5383.300781	-60.637119
5426.367188	-60.877937
5469.433594	-58.592064
5512.500000	-60.763283
5555.566406	-65.984772
5598.632812	-66.612724
5641.699219	-65.088364
5684.765625	-64.326424
5727.832031	-59.460419
5770.898438	-57.617172
5813.964844	-54.947369
5857.031250	-53.904480
5900.097656	-55.411476
5943.164062	-56.488125
5986.230469	-56.912086
6029.296875	-53.467403
6072.363281	-51.696327
6115.429688	-48.022217
6158.496094	-43.312344
6201.562500	-30.847317
6244.628906	-35.061630
6287.695312	-43.000366
6330.761719	-46.434826
6373.828125	-46.954365
6416.894531	-49.382740
6459.960938	-47.753780
6503.027344	-50.809631
6546.093750	-53.847717
6589.160156	-52.825401
6632.226562	-44.445244
6675.292969	-37.999702
6718.359375	-49.270046
6761.425781	-50.203041
6804.492188	-52.776276
6847.558594	-56.095413
6890.625000	-54.884933
6933.691406	-50.377979
6976.757812	-52.891037
7019.824219	-54.803192
7062.890625	-51.813297
7105.957031	-48.846527
7149.023438	-52.260559
7192.089844	-54.280941
7235.156250	-49.514515
7278.222656	-45.953648
7321.289062	-43.438232
7364.355469	-31.548685
7407.421875	-43.086723
7450.488281	-48.276409
7493.554688	-49.616737
7536.621094	-51.160610
7579.687500	-45.233368
7622.753906	-53.886951
7665.820312	-57.993847
7708.886719	-58.635952
7751.953125	-57.741352
7795.019531	-60.401119
7838.085938	-60.696758
7881.152344	-62.058899
7924.218750	-59.611191
7967.285156	-61.344013
8010.351562	-62.502529
8053.417969	-62.053940
8096.484375	-60.575142
8139.550781	-62.488827
8182.617188	-62.845554
8225.683594	-62.943233
8268.750000	-62.366684
8311.816406	-61.066456
8354.882812	-62.177540
8397.949219	-62.893486
8441.015625	-63.255390
8484.082031	-63.238594
8527.148438	-63.962189
8570.214844	-64.541969
8613.281250	-63.249954
8656.347656	-63.113323
8699.414062	-63.386856
8742.480469	-63.943363
8785.546875	-63.147327
8828.613281	-63.856152
8871.679688	-62.025665
8914.746094	-61.295475
8957.812500	-57.188709
9000.878906	-59.884556
9043.945312	-56.348606
9087.011719	-44.210426
9130.078125	-47.534466
9173.144531	-56.871220
9216.210938	-60.096661
9259.277344	-60.356037
9302.343750	-61.021675
9345.410156	-63.705185
9388.476562	-62.430450
9431.542969	-64.130531
9474.609375	-64.292290
9517.675781	-64.293007
9560.742188	-65.070580
9603.808594	-66.673157
9646.875000	-65.769501
9689.941406	-66.781677
9733.007812	-66.155556
9776.074219	-66.953590
9819.140625	-67.003654
9862.207031	-65.943771
9905.273438	-66.559654
9948.339844	-66.954987
9991.406250	-67.250191
10034.472656	-66.669525
10077.539062	-66.624336
10120.605469	-67.195213
10163.671875	-67.109833
10206.738281	-67.088135
10249.804688	-67.412964
10292.871094	-67.439560
10335.937500	-67.050034
10379.003906	-67.392380
10422.070312	-67.488922
10465.136719	-66.744469
10508.203125	-67.342827
10551.269531	-67.704216
10594.335938	-67.234482
10637.402344	-67.316154
10680.468750	-67.820175
10723.535156	-68.094398
10766.601562	-67.734344
10809.667969	-67.662323
10852.734375	-68.110352
10895.800781	-67.866302
10938.867188	-68.120766
10981.933594	-67.399498
11025.000000	-67.397774
11068.066406	-68.296318
11111.132812	-67.702499
11154.199219	-67.656151
11197.265625	-68.145157
11240.332031	-68.084084
11283.398438	-68.350777
11326.464844	-67.770065
11369.531250	-67.533066
11412.597656	-68.648712
11455.664062	-67.803841
11498.730469	-67.767426
11541.796875	-67.743675
11584.863281	-68.697403
11627.929688	-67.899979
11670.996094	-67.342651
11714.062500	-69.281387
11757.128906	-69.017220
11800.195312	-68.374451
11843.261719	-62.276741
11886.328125	-63.501007
11929.394531	-66.796875
11972.460938	-67.998497
12015.527344	-67.689560
12058.593750	-67.566833
12101.660156	-68.597305
12144.726562	-68.108383
12187.792969	-67.275963
12230.859375	-67.622734
12273.925781	-68.350716
12316.992188	-67.403442
12360.058594	-68.064079
12403.125000	-69.133186
12446.191406	-68.943192
12489.257812	-68.086792
12532.324219	-68.834724
12575.390625	-69.015450
12618.457031	-68.805916
12661.523438	-68.913940
12704.589844	-68.460831
12747.656250	-69.213112
12790.722656	-69.247932
12833.789062	-68.947876
12876.855469	-69.321579
12919.921875	-69.635674
12962.988281	-69.483727
13006.054688	-69.233047
13049.121094	-69.560036
13092.187500	-69.583839
13135.253906	-69.220345
13178.320312	-69.432732
13221.386719	-69.196854
13264.453125	-69.565048
13307.519531	-69.236084
13350.585938	-69.410927
13393.652344	-69.722687
13436.718750	-69.569466
13479.785156	-69.662949
13522.851562	-69.618210
13565.917969	-69.986549
13608.984375	-70.051529
13652.050781	-69.559418
13695.117188	-69.426033
13738.183594	-69.265831
13781.250000	-69.350533
13824.316406	-69.261536
13867.382812	-69.471695
13910.449219	-69.746239
13953.515625	-69.809578
13996.582031	-69.614853
14039.648438	-69.480934
14082.714844	-69.887199
14125.781250	-69.819649
14168.847656	-70.062485
14211.914062	-69.827499
14254.980469	-70.245972
14298.046875	-69.673256
14341.113281	-70.018410
14384.179688	-69.673775
14427.246094	-69.117546
14470.312500	-68.965233
14513.378906	-68.719154
14556.445312	-66.979797
14599.511719	-68.823433
14642.578125	-69.094582
14685.644531	-69.373016
14728.710938	-69.843246
14771.777344	-69.425293
14814.843750	-69.306419
14857.910156	-70.906731
14900.976562	-70.275604
14944.042969	-69.139290
14987.109375	-69.993774
15030.175781	-70.594551
15073.242188	-67.680679
15116.308594	-70.405891
15159.375000	-71.072319
15202.441406	-71.536293
15245.507812	-70.058586
15288.574219	-67.077545
15331.640625	-64.161377
15374.707031	-58.144718
15417.773438	-66.156700
15460.839844	-68.713104
15503.906250	-68.722870
15546.972656	-67.761803
15590.039062	-68.204750
15633.105469	-69.628571
15676.171875	-68.971840
15719.238281	-67.213814
15762.304688	-67.428764
15805.371094	-67.249786
15848.437500	-62.085621
15891.503906	-67.859947
15934.570312	-68.093033
15977.636719	-67.506752
16020.703125	-68.591614
16063.769531	-70.886139
16106.835938	-71.355865
16149.902344	-71.390175
16192.968750	-71.096886
16236.035156	-71.653305
16279.101562	-71.186874
16322.167969	-71.153984
16365.234375	-71.061340
16408.300781	-71.141136
16451.367188	-70.981064
16494.433594	-70.860115
16537.500000	-70.988174
16580.566406	-70.900345
16623.632812	-71.057480
16666.699219	-71.044540
16709.765625	-71.090652
16752.832031	-71.140198
16795.898438	-71.208054
16838.964844	-71.342278
16882.031250	-71.148277
16925.097656	-71.261520
16968.164062	-71.180069
17011.230469	-71.104507
17054.296875	-71.166420
17097.363281	-71.041672
17140.429688	-71.143745
17183.496094	-71.035660
17226.562500	-71.187027
17269.628906	-71.102158
17312.695312	-71.219902
17355.761719	-71.306923
17398.828125	-71.242371
17441.894531	-71.440788
17484.960938	-71.315948
17528.027344	-71.438202
17571.093750	-71.282654
17614.160156	-71.335381
17657.226562	-71.279778
17700.292969	-71.236664
17743.359375	-71.273247
17786.425781	-71.116020
17829.492188	-71.251266
17872.558594	-71.180069
17915.625000	-71.385605
17958.691406	-71.366028
18001.757812	-71.350868
18044.824219	-71.525673
18087.890625	-71.407722
18130.957031	-71.640152
18174.023438	-71.449982
18217.089844	-71.545380
18260.156250	-71.426025
18303.222656	-71.416771
18346.289062	-71.366951
18389.355469	-71.293846
18432.421875	-71.422035
18475.488281	-71.293037
18518.554688	-71.456528
18561.621094	-71.362061
18604.687500	-71.499672
18647.753906	-71.557907
18690.820312	-71.566658
18733.886719	-71.710159
18776.953125	-71.543533
18820.019531	-71.732170
18863.085938	-71.575584
18906.152344	-71.625648
18949.218750	-71.542488
18992.285156	-71.456192
19035.351562	-71.495987
19078.417969	-71.335426
19121.484375	-71.520409
19164.550781	-71.410698
19207.617188	-71.582275
19250.683594	-71.598396
19293.750000	-71.622101
19336.816406	-71.702660
19379.882812	-71.608429
19422.949219	-71.850220
19466.015625	-71.710396
19509.082031	-71.804886
19552.148438	-71.666649
19595.214844	-71.602448
19638.281250	-71.675194
19681.347656	-71.506439
19724.414062	-71.611145
19767.480469	-71.459435
19810.546875	-71.609383
19853.613281	-71.550606
19896.679688	-71.579033
19939.746094	-71.756233
19982.812500	-71.715385
20025.878906	-71.889793
20068.945312	-71.743881
20112.011719	-71.924103
20155.078125	-71.773987
20198.144531	-71.858673
20241.210938	-71.708595
20284.277344	-71.665825
20327.343750	-71.702530
20370.410156	-71.512154
20413.476562	-71.688377
20456.542969	-71.550446
20499.609375	-71.764427
20542.675781	-71.610825
20585.742188	-71.772751
20628.808594	-71.870705
20671.875000	-71.840088
20714.941406	-71.943550
20758.007812	-71.794525
20801.074219	-71.907898
20844.140625	-71.770325
20887.207031	-71.775322
20930.273438	-71.700661
20973.339844	-71.588188
21016.406250	-71.688866
21059.472656	-71.520821
21102.539062	-71.782593
21145.605469	-71.553902
21188.671875	-71.696747
21231.738281	-71.774628
21274.804688	-71.823257
21317.871094	-71.946999
21360.937500	-71.819962
21404.003906	-71.945206
21447.070312	-71.838196
21490.136719	-71.896904
21533.203125	-71.849533
21576.269531	-71.712112
21619.335938	-71.798218
21662.402344	-71.588074
21705.468750	-71.790497
21748.535156	-71.590363
21791.601562	-71.743675
21834.667969	-71.680222
21877.734375	-71.846382
21920.800781	-71.879028
21963.867188	-71.814873
22006.933594	-72.012154
