Frequency (Hz)	Level (dB)
43.066406	-52.952721
86.132812	-51.430046
129.199219	-51.321129
172.265625	-58.181328
215.332031	-57.365978
258.398438	-58.590504
301.464844	-60.296268
344.531250	-60.443478
387.597656	-60.559021
430.664062	-60.326759
473.730469	-59.889061
516.796875	-59.922142
559.863281	-59.635445
602.929688	-59.299259
645.996094	-59.498295
689.062500	-58.342690
732.128906	-58.587406
775.195312	-57.237003
818.261719	-57.619263
861.328125	-57.502979
904.394531	-57.072636
947.460938	-56.792236
990.527344	-55.952736
1033.593750	-55.781307
1076.660156	-55.663380
1119.726562	-55.236061
1162.792969	-55.120262
1205.859375	-53.272251
1248.925781	-52.487686
1291.992188	-53.390751
1335.058594	-52.713989
1378.125000	-51.532532
1421.191406	-50.913940
1464.257812	-50.551834
1507.324219	-49.285500
1550.390625	-48.520126
1593.457031	-47.830551
1636.523438	-46.303070
1679.589844	-45.288334
1722.656250	-43.720585
1765.722656	-41.629517
1808.789062	-39.708118
1851.855469	-36.846378
1894.921875	-32.452415
1937.988281	-22.491438
1981.054688	-22.456758
2024.121094	-32.006790
2067.187500	-31.748262
2110.253906	-34.160812
2153.320312	-39.868568
2196.386719	-42.569645
2239.453125	-43.143108
2282.519531	-44.344215
2325.585938	-46.441582
2368.652344	-47.630714
2411.718750	-48.170429
2454.785156	-48.187428
2497.851562	-48.485123
2540.917969	-49.739445
2583.984375	-51.275093
2627.050781	-51.187782
2670.117188	-50.811829
2713.183594	-51.542942
2756.250000	-53.267536
2799.316406	-52.730476
2842.382812	-53.059132
2885.449219	-53.819248
2928.515625	-54.163963
2971.582031	-53.754490
3014.648438	-53.028294
3057.714844	-50.900089
3100.781250	-53.549545
3143.847656	-53.572781
3186.914062	-54.279228
3229.980469	-54.987328
3273.046875	-55.421207
3316.113281	-54.677425
3359.179688	-55.783958
3402.246094	-56.361664
3445.312500	-57.822674
3488.378906	-56.733803
3531.445312	-55.946411
3574.511719	-55.576424
3617.578125	-55.686127
3660.644531	-55.430325
3703.710938	-55.285244
3746.777344	-55.339508
3789.843750	-54.217022
3832.910156	-53.280655
3875.976562	-53.535549
3919.042969	-53.971233
3962.109375	-55.130711
4005.175781	-53.063957
4048.242188	-51.568604
4091.308594	-51.537266
4134.375000	-50.912140
4177.441406	-51.796322
4220.507812	-51.576908
4263.574219	-48.582890
4306.640625	-46.063679
4349.707031	-47.404980
4392.773438	-44.279804
4435.839844	-42.104256
4478.906250	-40.324986
4521.972656	-35.876427
4565.039062	-22.522762
4608.105469	-27.563490
4651.171875	-35.523876
4694.238281	-40.138199
4737.304688	-43.492985
4780.371094	-45.226662
4823.437500	-45.859760
4866.503906	-48.849617
4909.570312	-47.776890
4952.636719	-36.639866
4995.703125	-47.203419
5038.769531	-50.168556
5081.835938	-51.593697
5124.902344	-50.453979
5167.968750	-51.861706
5211.035156	-52.318420
5254.101562	-53.229458
5297.167969	-54.378021
5340.234375	-54.849262
5383.300781	-54.055370
5426.367188	-56.569107
5469.433594	-49.356663
5512.500000	-48.696171
5555.566406	-52.242111
5598.632812	-37.739414
5641.699219	-51.411366
5684.765625	-55.081120
5727.832031	-56.417923
5770.898438	-55.368549
5813.964844	-53.387184
5857.031250	-52.472794
5900.097656	-53.180862
5943.164062	-52.614090
5986.230469	-54.493595
6029.296875	-51.592476
6072.363281	-49.042976
6115.429688	-45.666981
6158.496094	-38.881252
6201.562500	-33.009373
6244.628906	-23.752451
6287.695312	-39.609657
6330.761719	-44.215000
6373.828125	-42.652355
6416.894531	-44.393520
6459.960938	-45.775768
6503.027344	-47.145912
6546.093750	-48.565880
6589.160156	-50.577648
6632.226562	-51.402088
6675.292969	-52.996407
6718.359375	-56.120319
6761.425781	-58.078209
6804.492188	-58.954227
6847.558594	-58.888004
6890.625000	-58.191322
6933.691406	-57.947128
6976.757812	-58.641968
7019.824219	-59.682629
7062.890625	-60.306408
7105.957031	-60.718189
7149.023438	-60.934429
7192.089844	-60.597633
7235.156250	-59.929024
7278.222656	-58.979755
7321.289062	-57.772850
7364.355469	-56.451000
7407.421875	-55.563679
7450.488281	-54.858757
7493.554688	-50.712212
7536.621094	-47.641083
7579.687500	-32.898510
7622.753906	-39.101055
7665.820312	-46.942566
7708.886719	-52.415577
7751.953125	-53.832546
7795.019531	-54.639183
7838.085938	-58.061222
7881.152344	-57.143539
7924.218750	-57.943138
7967.285156	-58.353268
8010.351562	-59.000607
8053.417969	-60.128437
8096.484375	-61.793442
8139.550781	-62.159142
8182.617188	-61.192307
8225.683594	-60.137035
8268.750000	-59.699173
8311.816406	-60.225132
8354.882812	-61.973511
8397.949219	-63.358025
8441.015625	-62.148392
8484.082031	-60.399609
8527.148438	-59.156132
8570.214844	-58.946091
8613.281250	-60.569912
8656.347656	-62.813046
8699.414062	-58.181694
8742.480469	-57.359192
8785.546875	-43.926044
8828.613281	-47.950188
8871.679688	-42.721722
8914.746094	-55.055084
8957.812500	-59.692741
9000.878906	-59.425453
9043.945312	-59.885487
9087.011719	-57.891544
9130.078125	-57.423008
9173.144531	-58.413460
9216.210938	-59.935173
9259.277344	-59.140545
9302.343750	-59.898552
9345.410156	-53.997753
9388.476562	-50.431717
9431.542969	-49.928982
9474.609375	-46.926731
9517.675781	-31.945845
9560.742188	-50.771862
9603.808594	-51.604019
9646.875000	-50.985691
9689.941406	-53.610641
9733.007812	-60.355679
9776.074219	-59.024624
9819.140625	-63.301086
9862.207031	-62.461006
9905.273438	-62.229530
9948.339844	-61.993980
9991.406250	-62.174232
10034.472656	-63.673698
10077.539062	-65.744469
10120.605469	-65.129967
10163.671875	-63.413372
10206.738281	-62.079311
10249.804688	-58.198357
10292.871094	-64.702019
10335.937500	-66.774193
10379.003906	-66.013214
10422.070312	-65.556320
10465.136719	-66.430481
10508.203125	-67.448792
10551.269531	-67.007812
10594.335938	-66.184082
10637.402344	-66.137184
10680.468750	-66.899460
10723.535156	-67.771149
10766.601562	-67.849365
10809.667969	-67.486267
10852.734375	-66.924377
10895.800781	-66.742805
10938.867188	-67.381081
10981.933594	-68.004654
11025.000000	-68.096107
11068.066406	-68.036552
11111.132812	-67.811569
11154.199219	-68.022476
11197.265625	-67.940155
11240.332031	-67.733032
11283.398438	-68.264961
11326.464844	-68.534943
11369.531250	-68.535248
11412.597656	-68.396652
11455.664062	-68.063850
11498.730469	-67.842484
11541.796875	-67.836212
11584.863281	-68.342712
11627.929688	-68.719650
11670.996094	-68.482231
11714.062500	-67.845451
11757.128906	-67.702797
11800.195312	-68.011658
11843.261719	-68.443611
11886.328125	-68.982376
11929.394531	-68.971550
11972.460938	-68.455353
12015.527344	-68.753365
12058.593750	-68.924500
12101.660156	-68.823807
12144.726562	-69.067436
12187.792969	-69.098747
12230.859375	-69.234810
12273.925781	-69.184883
12316.992188	-69.264236
12360.058594	-69.442696
12403.125000	-68.555443
12446.191406	-67.565987
12489.257812	-67.695274
12532.324219	-68.230324
12575.390625	-63.696854
12618.457031	-67.216805
12661.523438	-66.541313
12704.589844	-66.538727
12747.656250	-67.380669
12790.722656	-68.355484
12833.789062	-68.444908
12876.855469	-68.256340
12919.921875	-67.736511
12962.988281	-67.040817
13006.054688	-67.612076
13049.121094	-67.863564
13092.187500	-66.025642
13135.253906	-63.628429
13178.320312	-63.135773
13221.386719	-58.977203
13264.453125	-49.994640
13307.519531	-61.849670
13350.585938	-63.853466
13393.652344	-65.384781
13436.718750	-54.649090
13479.785156	-60.465141
13522.851562	-65.825516
13565.917969	-65.449486
13608.984375	-62.640198
13652.050781	-63.273621
13695.117188	-66.527550
13738.183594	-67.704056
13781.250000	-68.513695
13824.316406	-68.754593
13867.382812	-67.140282
13910.449219	-68.012428
13953.515625	-69.540344
13996.582031	-69.614326
14039.648438	-70.233345
14082.714844	-70.339081
14125.781250	-69.672371
14168.847656	-69.736954
14211.914062	-70.036308
14254.980469	-70.194878
14298.046875	-70.319344
14341.113281	-68.968498
14384.179688	-57.641968
14427.246094	-67.647972
14470.312500	-67.189438
14513.378906	-64.599220
14556.445312	-58.673832
14599.511719	-55.162109
14642.578125	-49.125069
14685.644531	-63.665627
14728.710938	-66.370972
14771.777344	-66.239075
14814.843750	-66.248070
14857.910156	-68.590347
14900.976562	-67.000893
14944.042969	-52.555489
14987.109375	-60.097260
15030.175781	-64.355263
15073.242188	-65.085762
15116.308594	-66.465431
15159.375000	-67.992340
15202.441406	-68.971138
15245.507812	-69.590378
15288.574219	-69.467949
15331.640625	-69.592697
15374.707031	-69.556938
15417.773438	-69.627579
15460.839844	-70.301765
15503.906250	-70.552055
15546.972656	-70.582283
15590.039062	-70.631058
15633.105469	-70.318024
15676.171875	-70.161057
15719.238281	-70.342392
15762.304688	-70.548615
15805.371094	-70.498726
15848.437500	-70.330711
15891.503906	-69.983147
15934.570312	-69.960129
15977.636719	-70.730820
16020.703125	-70.994934
16063.769531	-70.922035
16106.835938	-70.984093
16149.902344	-70.831909
16192.968750	-71.041145
16236.035156	-70.889343
16279.101562	-70.886398
16322.167969	-71.284180
16365.234375	-70.864464
16408.300781	-70.764244
16451.367188	-71.089417
16494.433594	-71.295723
16537.500000	-71.175285
16580.566406	-70.903587
16623.632812	-71.094231
16666.699219	-71.224846
16709.765625	-71.096291
16752.832031	-71.116722
16795.898438	-71.158073
16838.964844	-71.143433
16882.031250	-71.196808
16925.097656	-71.341553
16968.164062	-71.297600
17011.230469	-71.027054
17054.296875	-71.364861
17097.363281	-71.539574
17140.429688	-71.340706
17183.496094	-71.064423
17226.562500	-71.157745
17269.628906	-71.542480
17312.695312	-71.279961
17355.761719	-71.265472
17398.828125	-71.489006
17441.894531	-71.323669
17484.960938	-71.407410
17528.027344	-71.468422
17571.093750	-71.371277
17614.160156	-71.354149
17657.226562	-71.342674
17700.292969	-71.697556
17743.359375	-71.481148
17786.425781	-71.089005
17829.492188	-71.525864
17872.558594	-71.760536
17915.625000	-71.523094
17958.691406	-71.383743
18001.757812	-71.557373
18044.824219	-71.456390
18087.890625	-71.454102
18130.957031	-71.605263
18174.023438	-71.466019
18217.089844	-71.580795
18260.156250	-71.632439
18303.222656	-71.684311
18346.289062	-71.720932
18389.355469	-71.262268
18432.421875	-71.668671
18475.488281	-72.033386
18518.554688	-71.460953
18561.621094	-71.501846
18604.687500	-71.648224
18647.753906	-71.639679
18690.820312	-71.760506
18733.886719	-71.650513
18776.953125	-71.702484
18820.019531	-71.682800
18863.085938	-71.738747
18906.152344	-71.779808
18949.218750	-71.710609
18992.285156	-71.488548
19035.351562	-71.653725
19078.417969	-72.125847
19121.484375	-71.731728
19164.550781	-71.501778
19207.617188	-71.832458
19250.683594	-71.778702
19293.750000	-71.849525
19336.816406	-71.724777
19379.882812	-71.631821
19422.949219	-71.889565
19466.015625	-71.655807
19509.082031	-71.835503
19552.148438	-71.994308
19595.214844	-71.569077
19638.281250	-71.922638
19681.347656	-72.185066
19724.414062	-71.799278
19767.480469	-71.566933
19810.546875	-71.784103
19853.613281	-72.078316
19896.679688	-71.842659
19939.746094	-71.797653
19982.812500	-71.878265
20025.878906	-71.890022
20068.945312	-71.883606
20112.011719	-71.888687
20155.078125	-71.997963
20198.144531	-71.776993
20241.210938	-71.866959
20284.277344	-72.196213
20327.343750	-71.794426
20370.410156	-71.648567
20413.476562	-71.902077
20456.542969	-72.174667
20499.609375	-72.088608
20542.675781	-71.702202
20585.742188	-71.979477
20628.808594	-71.988998
20671.875000	-71.814133
20714.941406	-71.930237
20758.007812	-71.856705
20801.074219	-71.849129
20844.140625	-71.985245
20887.207031	-72.037956
20930.273438	-71.946144
20973.339844	-71.774879
21016.406250	-71.963654
21059.472656	-72.260178
21102.539062	-71.978233
21145.605469	-71.692802
21188.671875	-71.880051
21231.738281	-72.122192
21274.804688	-71.876297
21317.871094	-71.985985
21360.937500	-72.037079
21404.003906	-71.888695
21447.070312	-72.126213
21490.136719	-71.961876
21533.203125	-71.893364
21576.269531	-71.963310
21619.335938	-71.801849
21662.402344	-72.390945
21705.468750	-72.024864
21748.535156	-71.550270
21791.601562	-72.059669
21834.667969	-72.245667
21877.734375	-71.990593
21920.800781	-71.993423
21963.867188	-71.949905
22006.933594	-71.963516
