Frequency (Hz)	Level (dB)
43.066406	-57.868484
86.132812	-55.143990
129.199219	-53.583603
172.265625	-54.116367
215.332031	-55.582996
258.398438	-57.241005
301.464844	-55.657288
344.531250	-55.536045
387.597656	-57.346733
430.664062	-57.296604
473.730469	-56.083347
516.796875	-56.331409
559.863281	-56.402416
602.929688	-56.350212
645.996094	-55.959507
689.062500	-54.582508
732.128906	-54.717537
775.195312	-55.303333
818.261719	-55.280579
861.328125	-55.172626
904.394531	-54.817791
947.460938	-54.608826
990.527344	-54.355541
1033.593750	-49.747112
1076.660156	-50.535927
1119.726562	-50.301739
1162.792969	-51.187107
1205.859375	-52.162781
1248.925781	-52.465179
1291.992188	-51.487244
1335.058594	-51.158154
1378.125000	-50.540451
1421.191406	-50.123074
1464.257812	-49.317013
1507.324219	-48.696602
1550.390625	-47.795639
1593.457031	-46.557625
1636.523438	-44.076538
1679.589844	-43.453285
1722.656250	-41.620579
1765.722656	-40.715107
1808.789062	-38.513180
1851.855469	-35.777199
1894.921875	-31.647465
1937.988281	-22.142109
1981.054688	-21.645899
2024.121094	-31.391500
2067.187500	-36.026772
2110.253906	-37.650143
2153.320312	-41.813892
2196.386719	-42.423573
2239.453125	-43.323292
2282.519531	-42.353558
2325.585938	-47.104439
2368.652344	-48.571335
2411.718750	-48.696415
2454.785156	-50.108509
2497.851562	-50.309429
2540.917969	-51.100567
2583.984375	-52.201866
2627.050781	-52.229343
2670.117188	-53.431511
2713.183594	-54.104641
2756.250000	-54.135452
2799.316406	-55.086807
2842.382812	-54.928341
2885.449219	-53.468475
2928.515625	-49.519478
2971.582031	-47.866344
3014.648438	-48.450397
3057.714844	-52.287090
3100.781250	-44.736782
3143.847656	-47.380775
3186.914062	-45.658401
3229.980469	-48.675606
3273.046875	-50.613884
3316.113281	-52.798622
3359.179688	-55.391499
3402.246094	-55.929749
3445.312500	-57.281883
3488.378906	-57.366608
3531.445312	-57.286232
3574.511719	-58.011898
3617.578125	-58.004013
3660.644531	-58.013458
3703.710938	-57.697289
3746.777344	-57.219860
3789.843750	-58.626736
3832.910156	-53.361828
3875.976562	-55.413460
3919.042969	-58.694546
3962.109375	-59.861782
4005.175781	-57.147980
4048.242188	-50.070526
4091.308594	-51.202106
4134.375000	-52.708172
4177.441406	-48.117878
4220.507812	-48.193665
4263.574219	-49.117855
4306.640625	-54.924332
4349.707031	-46.202835
4392.773438	-50.781261
4435.839844	-52.055702
4478.906250	-50.605835
4521.972656	-44.531963
4565.039062	-37.295074
4608.105469	-42.323681
4651.171875	-52.835434
4694.238281	-49.986511
4737.304688	-52.085701
4780.371094	-48.548809
4823.437500	-52.065144
4866.503906	-57.781723
4909.570312	-53.061802
4952.636719	-60.745304
4995.703125	-61.762653
5038.769531	-56.953312
5081.835938	-51.289490
5124.902344	-52.601784
5167.968750	-53.950500
5211.035156	-54.510468
5254.101562	-54.973534
5297.167969	-57.107502
5340.234375	-54.356110
5383.300781	-55.267742
5426.367188	-50.043980
5469.433594	-55.302208
5512.500000	-58.297737
5555.566406	-54.306335
5598.632812	-41.883171
5641.699219	-48.994640
5684.765625	-51.010685
5727.832031	-54.890755
5770.898438	-54.013702
5813.964844	-54.783798
5857.031250	-51.469303
5900.097656	-50.115749
5943.164062	-49.645645
5986.230469	-52.867378
6029.296875	-50.414558
6072.363281	-47.531815
6115.429688	-57.589973
6158.496094	-61.830597
6201.562500	-59.383137
6244.628906	-44.550472
6287.695312	-58.068661
6330.761719	-61.337471
6373.828125	-59.503677
6416.894531	-58.027248
6459.960938	-65.488274
6503.027344	-65.545319
6546.093750	-66.793289
6589.160156	-66.739067
6632.226562	-66.518967
6675.292969	-65.965385
6718.359375	-62.959251
6761.425781	-59.327419
6804.492188	-56.035583
6847.558594	-51.377853
6890.625000	-57.472992
6933.691406	-60.654041
6976.757812	-65.546127
7019.824219	-67.711983
7062.890625	-68.675568
7105.957031	-68.696678
7149.023438	-67.523705
7192.089844	-66.864792
7235.156250	-67.497238
7278.222656	-67.262772
7321.289062	-68.361084
7364.355469	-66.750877
7407.421875	-69.597794
7450.488281	-66.256790
7493.554688	-67.644630
7536.621094	-68.433243
7579.687500	-69.244377
7622.753906	-69.617821
7665.820312	-69.781624
7708.886719	-69.411819
7751.953125	-69.233315
7795.019531	-69.449898
7838.085938	-69.440773
7881.152344	-70.537125
7924.218750	-69.710976
7967.285156	-70.106667
8010.351562	-69.702705
8053.417969	-70.159088
8096.484375	-70.334450
8139.550781	-70.134575
8182.617188	-70.479141
8225.683594	-70.366669
8268.750000	-69.959373
8311.816406	-70.337578
8354.882812	-70.487320
8397.949219	-70.583641
8441.015625	-70.602707
8484.082031	-70.787712
8527.148438	-70.636581
8570.214844	-70.651672
8613.281250	-70.766083
8656.347656	-70.889481
8699.414062	-70.718636
8742.480469	-70.789619
8785.546875	-70.940277
8828.613281	-70.941391
8871.679688	-71.021576
8914.746094	-71.098213
8957.812500	-71.179359
9000.878906	-71.213524
9043.945312	-71.293411
9087.011719	-71.274513
9130.078125	-71.482124
9173.144531	-71.356979
9216.210938	-71.382874
9259.277344	-71.427368
9302.343750	-71.487144
9345.410156	-71.520447
9388.476562	-71.629204
9431.542969	-71.650070
9474.609375	-71.659203
9517.675781	-71.727890
9560.742188	-71.732124
9603.808594	-71.777786
9646.875000	-71.847847
9689.941406	-71.869095
9733.007812	-71.887917
9776.074219	-71.942886
9819.140625	-71.965965
9862.207031	-71.985786
9905.273438	-72.036949
9948.339844	-72.113014
9991.406250	-72.126617
10034.472656	-72.146400
10077.539062	-72.205750
10120.605469	-72.245811
10163.671875	-72.283539
10206.738281	-72.297951
10249.804688	-72.350311
10292.871094	-72.378548
10335.937500	-72.415733
10379.003906	-72.436806
10422.070312	-72.499306
10465.136719	-72.537331
10508.203125	-72.540527
10551.269531	-72.603584
10594.335938	-72.588028
10637.402344	-72.630028
10680.468750	-72.666893
10723.535156	-72.709312
10766.601562	-72.757393
10809.667969	-72.781754
10852.734375	-72.807190
10895.800781	-72.844078
10938.867188	-72.893471
10981.933594	-72.899529
11025.000000	-72.951790
11068.066406	-72.934853
11111.132812	-73.002014
11154.199219	-73.028648
11197.265625	-73.062317
11240.332031	-73.105064
11283.398438	-73.099373
11326.464844	-73.145264
11369.531250	-73.147400
11412.597656	-73.215553
11455.664062	-73.229813
11498.730469	-73.248291
11541.796875	-73.293762
11584.863281	-73.292427
11627.929688	-73.349388
11670.996094	-73.365623
11714.062500	-73.413445
11757.128906	-73.412071
11800.195312	-73.478371
11843.261719	-73.495628
11886.328125	-73.496880
11929.394531	-73.528641
11972.460938	-73.581947
12015.527344	-73.595154
12058.593750	-73.618301
12101.660156	-73.634697
12144.726562	-73.667770
12187.792969	-73.703018
12230.859375	-73.705582
12273.925781	-73.734993
12316.992188	-73.771187
12360.058594	-73.794388
12403.125000	-73.807228
12446.191406	-73.840500
12489.257812	-73.846870
12532.324219	-73.897598
12575.390625	-73.920685
12618.457031	-73.925941
12661.523438	-73.955971
12704.589844	-73.980812
12747.656250	-74.008583
12790.722656	-74.013641
12833.789062	-74.038040
12876.855469	-74.065117
12919.921875	-74.112473
12962.988281	-74.129150
13006.054688	-74.127258
13049.121094	-74.170868
13092.187500	-74.216690
13135.253906	-74.222595
13178.320312	-74.188713
13221.386719	-74.221008
13264.453125	-74.278580
13307.519531	-74.299576
13350.585938	-74.292870
13393.652344	-74.307594
13436.718750	-74.373703
13479.785156	-74.375671
13522.851562	-74.405029
13565.917969	-74.425316
13608.984375	-74.443275
13652.050781	-74.431526
13695.117188	-74.433968
13738.183594	-74.515938
13781.250000	-74.552391
13824.316406	-74.552673
13867.382812	-74.576653
13910.449219	-74.604736
13953.515625	-74.585922
13996.582031	-74.618179
14039.648438	-74.636314
14082.714844	-74.641754
14125.781250	-74.654007
14168.847656	-74.659378
14211.914062	-74.675049
14254.980469	-74.689056
14298.046875	-74.780952
14341.113281	-74.704697
14384.179688	-74.767952
14427.246094	-74.873825
14470.312500	-74.801193
14513.378906	-74.866096
14556.445312	-74.863533
14599.511719	-74.853119
14642.578125	-74.879433
14685.644531	-74.926743
14728.710938	-74.881912
14771.777344	-74.918304
14814.843750	-74.939461
14857.910156	-75.024620
14900.976562	-74.945107
14944.042969	-74.896820
14987.109375	-75.078705
15030.175781	-74.987015
15073.242188	-74.980949
15116.308594	-75.093964
15159.375000	-75.025772
15202.441406	-75.141777
15245.507812	-75.049065
15288.574219	-75.082932
15331.640625	-75.087097
15374.707031	-75.006119
15417.773438	-75.241409
15460.839844	-75.147491
15503.906250	-75.237686
15546.972656	-75.166428
15590.039062	-75.342392
15633.105469	-75.226883
15676.171875	-75.299057
15719.238281	-75.374954
15762.304688	-75.278107
15805.371094	-75.325264
15848.437500	-75.332344
15891.503906	-75.466324
15934.570312	-75.298515
15977.636719	-75.466232
16020.703125	-75.338051
16063.769531	-75.360374
16106.835938	-75.348091
16149.902344	-75.304222
16192.968750	-75.503990
16236.035156	-75.703789
16279.101562	-75.492607
16322.167969	-75.335556
16365.234375	-75.533600
16408.300781	-75.483269
16451.367188	-75.356773
16494.433594	-75.469574
16537.500000	-75.378815
16580.566406	-75.340561
16623.632812	-75.791191
16666.699219	-75.630142
16709.765625	-75.460915
16752.832031	-75.491486
16795.898438	-75.576942
16838.964844	-75.580116
16882.031250	-75.594467
16925.097656	-75.493645
16968.164062	-75.533630
17011.230469	-75.535294
17054.296875	-75.634956
17097.363281	-75.654373
17140.429688	-75.535698
17183.496094	-75.729767
17226.562500	-75.554977
17269.628906	-75.721573
17312.695312	-75.661171
17355.761719	-75.684608
17398.828125	-75.929085
17441.894531	-75.717255
17484.960938	-75.807892
17528.027344	-75.612823
17571.093750	-75.918900
17614.160156	-75.921707
17657.226562	-75.388031
17700.292969	-75.763947
17743.359375	-75.845901
17786.425781	-75.839455
17829.492188	-75.641869
17872.558594	-75.969078
17915.625000	-75.592323
17958.691406	-75.682716
18001.757812	-75.988495
18044.824219	-75.900169
18087.890625	-75.764549
18130.957031	-75.773727
18174.023438	-75.729828
18217.089844	-75.902168
18260.156250	-76.016914
18303.222656	-75.787231
18346.289062	-75.643005
18389.355469	-76.024162
18432.421875	-75.894493
18475.488281	-75.816902
18518.554688	-75.556618
18561.621094	-75.871422
18604.687500	-75.645538
18647.753906	-76.100212
18690.820312	-76.047516
18733.886719	-75.600754
18776.953125	-76.036926
18820.019531	-76.195099
18863.085938	-76.067780
18906.152344	-76.025574
18949.218750	-76.048393
18992.285156	-75.920235
19035.351562	-75.981544
19078.417969	-76.160355
19121.484375	-76.162399
19164.550781	-76.058990
19207.617188	-75.929993
19250.683594	-76.242607
19293.750000	-76.027237
19336.816406	-75.698151
19379.882812	-76.064186
19422.949219	-76.137604
19466.015625	-75.939598
19509.082031	-75.580467
19552.148438	-75.665741
19595.214844	-75.878258
19638.281250	-75.973061
19681.347656	-75.897415
19724.414062	-75.843483
19767.480469	-75.881210
19810.546875	-75.850830
19853.613281	-76.000458
19896.679688	-75.963387
19939.746094	-76.137352
19982.812500	-76.472473
20025.878906	-75.738831
20068.945312	-76.423904
20112.011719	-75.940742
20155.078125	-76.092171
20198.144531	-76.176132
20241.210938	-76.534309
20284.277344	-75.879738
20327.343750	-76.200996
20370.410156	-75.928131
20413.476562	-76.471207
20456.542969	-75.895531
20499.609375	-76.088799
20542.675781	-76.186279
20585.742188	-76.101128
20628.808594	-75.983620
20671.875000	-76.146774
20714.941406	-75.985519
20758.007812	-76.201889
20801.074219	-75.946320
20844.140625	-76.511734
20887.207031	-76.167465
20930.273438	-75.945389
20973.339844	-76.157906
21016.406250	-76.164169
21059.472656	-76.016579
21102.539062	-76.190422
21145.605469	-76.177612
21188.671875	-75.996025
21231.738281	-76.183380
21274.804688	-76.352989
21317.871094	-75.971474
21360.937500	-76.124840
21404.003906	-76.311066
21447.070312	-75.985619
21490.136719	-76.303284
21533.203125	-75.964180
21576.269531	-75.913086
21619.335938	-76.333961
21662.402344	-76.105171
21705.468750	-75.898621
21748.535156	-75.915276
21791.601562	-76.441818
21834.667969	-75.899117
21877.734375	-76.099327
21920.800781	-76.021217
21963.867188	-76.348412
22006.933594	-75.978531
