Frequency (Hz)	Level (dB)
43.066406	-49.416470
86.132812	-57.920921
129.199219	-60.044437
172.265625	-59.688728
215.332031	-66.015869
258.398438	-70.006233
301.464844	-69.998352
344.531250	-70.166626
387.597656	-70.060509
430.664062	-71.709549
473.730469	-72.115891
516.796875	-69.979164
559.863281	-72.296776
602.929688	-71.217552
645.996094	-68.098442
689.062500	-66.306511
732.128906	-67.674232
775.195312	-68.903900
818.261719	-68.081795
861.328125	-69.834953
904.394531	-68.778328
947.460938	-66.573883
990.527344	-66.301277
1033.593750	-67.636711
1076.660156	-67.831154
1119.726562	-66.861572
1162.792969	-64.893463
1205.859375	-65.529579
1248.925781	-63.940144
1291.992188	-67.212585
1335.058594	-65.395660
1378.125000	-64.660957
1421.191406	-65.195145
1464.257812	-65.766388
1507.324219	-66.733376
1550.390625	-65.015160
1593.457031	-63.416698
1636.523438	-64.838509
1679.589844	-61.234528
1722.656250	-62.102818
1765.722656	-59.299011
1808.789062	-60.173706
1851.855469	-60.689953
1894.921875	-58.974361
1937.988281	-60.427418
1981.054688	-58.200657
2024.121094	-56.137539
2067.187500	-55.054405
2110.253906	-51.993519
2153.320312	-53.380650
2196.386719	-52.093731
2239.453125	-50.225822
2282.519531	-50.234135
2325.585938	-45.617104
2368.652344	-45.732624
2411.718750	-41.346119
2454.785156	-37.297497
2497.851562	-25.680767
2540.917969	-31.818607
2583.984375	-40.933861
2627.050781	-44.119438
2670.117188	-47.755371
2713.183594	-49.863903
2756.250000	-51.428829
2799.316406	-51.194073
2842.382812	-52.863762
2885.449219	-53.391106
2928.515625	-53.507927
2971.582031	-54.541927
3014.648438	-55.277985
3057.714844	-56.348370
3100.781250	-54.927380
3143.847656	-58.344917
3186.914062	-56.073856
3229.980469	-58.936691
3273.046875	-58.202080
3316.113281	-56.842571
3359.179688	-57.005882
3402.246094	-58.357395
3445.312500	-56.629753
3488.378906	-57.231613
3531.445312	-55.260921
3574.511719	-49.149094
3617.578125	-39.390297
3660.644531	-43.404678
3703.710938	-51.871037
3746.777344	-54.082619
3789.843750	-58.498425
3832.910156	-56.967861
3875.976562	-58.425957
3919.042969	-60.582214
3962.109375	-59.301899
4005.175781	-61.358776
4048.242188	-60.279179
4091.308594	-63.611526
4134.375000	-64.030136
4177.441406	-61.057930
4220.507812	-62.019901
4263.574219	-62.346836
4306.640625	-59.972748
4349.707031	-63.550922
4392.773438	-60.263481
4435.839844	-60.889278
4478.906250	-59.848076
4521.972656	-61.212292
4565.039062	-62.125469
4608.105469	-54.537552
4651.171875	-53.897633
4694.238281	-57.498314
4737.304688	-55.497646
4780.371094	-54.847565
4823.437500	-59.543949
4866.503906	-61.164211
4909.570312	-59.932224
4952.636719	-62.794849
4995.703125	-61.741943
5038.769531	-59.334721
5081.835938	-60.344124
5124.902344	-58.741749
5167.968750	-58.724171
5211.035156	-60.024593
5254.101562	-58.403847
5297.167969	-59.623920
5340.234375	-58.401993
5383.300781	-56.577473
5426.367188	-58.869179
5469.433594	-56.584167
5512.500000	-58.288502
5555.566406	-56.363228
5598.632812	-55.782166
5641.699219	-56.486450
5684.765625	-54.212360
5727.832031	-53.546009
5770.898438	-50.995068
5813.964844	-54.989620
5857.031250	-54.610950
5900.097656	-50.978367
5943.164062	-49.675102
5986.230469	-50.049896
6029.296875	-46.161194
6072.363281	-45.584755
6115.429688	-40.264996
6158.496094	-37.890667
6201.562500	-24.438286
6244.628906	-29.786058
6287.695312	-41.097813
6330.761719	-39.997456
6373.828125	-45.243465
6416.894531	-44.942566
6459.960938	-43.245415
6503.027344	-42.703976
6546.093750	-46.747871
6589.160156	-51.084152
6632.226562	-40.393398
6675.292969	-38.581223
6718.359375	-51.300865
6761.425781	-53.641281
6804.492188	-51.155384
6847.558594	-50.140957
6890.625000	-53.172924
6933.691406	-60.229660
6976.757812	-58.864017
7019.824219	-58.400238
7062.890625	-60.502991
7105.957031	-63.034573
7149.023438	-62.345554
7192.089844	-62.445595
7235.156250	-61.638226
7278.222656	-63.028561
7321.289062	-57.946362
7364.355469	-48.128593
7407.421875	-55.602394
7450.488281	-62.912552
7493.554688	-63.516544
7536.621094	-54.608212
7579.687500	-50.874935
7622.753906	-57.532921
7665.820312	-65.652519
7708.886719	-65.176102
7751.953125	-68.638695
7795.019531	-66.381287
7838.085938	-69.356674
7881.152344	-68.263794
7924.218750	-69.522575
7967.285156	-69.726433
8010.351562	-69.257896
8053.417969	-70.220108
8096.484375	-70.116623
8139.550781	-70.967728
8182.617188	-70.647430
8225.683594	-71.197472
8268.750000	-72.241653
8311.816406	-71.375198
8354.882812	-72.624458
8397.949219	-71.353035
8441.015625	-72.038315
8484.082031	-73.424759
8527.148438	-72.004700
8570.214844	-72.808327
8613.281250	-72.200600
8656.347656	-73.399628
8699.414062	-71.932411
8742.480469	-73.728493
8785.546875	-70.980087
8828.613281	-71.802277
8871.679688	-67.725693
8914.746094	-67.978714
8957.812500	-57.456154
9000.878906	-62.720490
9043.945312	-69.758614
9087.011719	-70.672745
9130.078125	-67.022156
9173.144531	-73.457115
9216.210938	-71.477165
9259.277344	-75.348251
9302.343750	-75.379036
9345.410156	-76.070541
9388.476562	-76.536942
9431.542969	-74.055550
9474.609375	-77.099358
9517.675781	-75.489792
9560.742188	-76.490768
9603.808594	-77.134048
9646.875000	-76.232765
9689.941406	-78.164574
9733.007812	-77.219185
9776.074219	-77.850143
9819.140625	-77.968987
9862.207031	-77.913208
9905.273438	-79.080872
9948.339844	-79.128197
9991.406250	-78.743790
10034.472656	-79.516075
10077.539062	-77.500420
10120.605469	-74.449280
10163.671875	-72.413277
10206.738281	-75.830032
10249.804688	-78.723839
10292.871094	-77.801033
10335.937500	-79.036232
10379.003906	-78.322517
10422.070312	-78.592857
10465.136719	-79.339539
10508.203125	-78.816833
10551.269531	-79.493332
10594.335938	-79.532227
10637.402344	-79.597153
10680.468750	-80.183296
10723.535156	-79.616730
10766.601562	-79.960693
10809.667969	-80.331070
10852.734375	-79.733955
10895.800781	-80.603714
10938.867188	-79.881203
10981.933594	-80.856949
11025.000000	-80.646355
11068.066406	-80.769836
11111.132812	-81.108063
11154.199219	-81.481323
11197.265625	-80.721451
11240.332031	-81.175888
11283.398438	-80.447617
11326.464844	-81.246544
11369.531250	-78.470894
11412.597656	-78.134773
11455.664062	-78.344414
11498.730469	-78.440971
11541.796875	-77.133972
11584.863281	-77.974052
11627.929688	-76.698875
11670.996094	-75.774994
11714.062500	-75.186523
11757.128906	-71.489281
11800.195312	-64.502907
11843.261719	-54.389915
11886.328125	-59.428444
11929.394531	-68.342506
11972.460938	-68.280434
12015.527344	-74.712555
12058.593750	-74.218277
12101.660156	-75.354294
12144.726562	-77.699272
12187.792969	-78.687393
12230.859375	-83.986694
12273.925781	-78.395676
12316.992188	-81.521378
12360.058594	-75.953720
12403.125000	-78.952461
12446.191406	-75.765305
12489.257812	-79.738625
12532.324219	-79.827965
12575.390625	-80.079994
12618.457031	-81.574318
12661.523438	-80.979156
12704.589844	-81.762726
12747.656250	-82.235497
12790.722656	-82.722778
12833.789062	-83.784142
12876.855469	-83.233551
12919.921875	-83.824478
12962.988281	-83.677635
13006.054688	-83.452774
13049.121094	-84.533470
13092.187500	-83.726021
13135.253906	-84.345337
13178.320312	-84.402138
13221.386719	-84.116631
13264.453125	-84.877586
13307.519531	-84.306984
13350.585938	-84.473343
13393.652344	-84.636604
13436.718750	-83.629272
13479.785156	-84.722412
13522.851562	-85.389763
13565.917969	-85.507240
13608.984375	-84.027328
13652.050781	-82.738876
13695.117188	-82.193123
13738.183594	-80.631721
13781.250000	-81.679657
13824.316406	-84.916801
13867.382812	-86.727257
13910.449219	-84.778610
13953.515625	-84.688774
13996.582031	-86.009972
14039.648438	-84.857643
14082.714844	-85.520996
14125.781250	-86.077293
14168.847656	-85.904892
14211.914062	-87.042618
14254.980469	-84.246201
14298.046875	-84.191826
14341.113281	-84.802673
14384.179688	-83.816902
14427.246094	-77.389473
14470.312500	-72.113350
14513.378906	-76.664398
14556.445312	-79.612785
14599.511719	-81.502441
14642.578125	-77.571922
14685.644531	-74.292023
14728.710938	-79.533501
14771.777344	-80.459976
14814.843750	-73.680611
14857.910156	-68.958717
14900.976562	-76.099785
14944.042969	-79.507156
14987.109375	-81.052597
15030.175781	-81.283478
15073.242188	-78.201241
15116.308594	-79.709793
15159.375000	-82.522331
15202.441406	-84.085136
15245.507812	-84.393532
15288.574219	-84.483887
15331.640625	-83.186447
15374.707031	-83.803268
15417.773438	-83.866974
15460.839844	-84.284836
15503.906250	-84.236221
15546.972656	-85.380295
15590.039062	-85.855179
15633.105469	-85.258553
15676.171875	-83.830223
15719.238281	-84.934288
15762.304688	-84.540276
15805.371094	-82.223938
15848.437500	-83.718506
15891.503906	-86.561630
15934.570312	-85.332947
15977.636719	-87.861595
16020.703125	-85.022675
16063.769531	-86.932899
16106.835938	-87.594238
16149.902344	-87.359962
16192.968750	-86.935379
16236.035156	-86.683670
16279.101562	-86.802971
16322.167969	-87.218353
16365.234375	-87.575562
16408.300781	-86.970596
16451.367188	-87.029831
16494.433594	-87.125504
16537.500000	-87.397987
16580.566406	-87.072906
16623.632812	-87.051521
16666.699219	-87.146980
16709.765625	-87.687302
16752.832031	-87.385712
16795.898438	-87.491364
16838.964844	-87.551071
16882.031250	-87.243790
16925.097656	-87.427132
16968.164062	-87.399864
17011.230469	-87.431732
17054.296875	-87.620773
17097.363281	-87.695892
17140.429688	-87.399155
17183.496094	-87.643188
17226.562500	-87.732147
17269.628906	-87.616486
17312.695312	-87.476639
17355.761719	-87.687187
17398.828125	-87.659515
17441.894531	-87.614052
17484.960938	-87.927467
17528.027344	-87.623863
17571.093750	-87.934639
17614.160156	-87.637650
17657.226562	-87.802170
17700.292969	-87.836349
17743.359375	-87.697823
17786.425781	-87.892509
17829.492188	-87.785942
17872.558594	-87.706573
17915.625000	-87.834671
17958.691406	-87.647163
18001.757812	-87.713478
18044.824219	-87.948250
18087.890625	-87.527946
18130.957031	-87.890884
18174.023438	-88.298195
18217.089844	-88.046959
18260.156250	-87.517990
18303.222656	-88.287491
18346.289062	-87.735130
18389.355469	-88.047935
18432.421875	-88.034714
18475.488281	-88.309090
18518.554688	-88.043167
18561.621094	-87.934593
18604.687500	-88.209518
18647.753906	-88.178062
18690.820312	-87.894165
18733.886719	-88.330688
18776.953125	-88.541008
18820.019531	-87.987617
18863.085938	-88.147682
18906.152344	-88.438026
18949.218750	-88.394974
18992.285156	-88.347221
19035.351562	-87.779999
19078.417969	-88.364365
19121.484375	-87.812775
19164.550781	-87.936714
19207.617188	-88.251297
19250.683594	-88.502113
19293.750000	-88.601097
19336.816406	-88.536842
19379.882812	-88.516289
19422.949219	-88.719177
19466.015625	-88.505989
19509.082031	-88.702301
19552.148438	-88.379150
19595.214844	-88.790863
19638.281250	-88.416412
19681.347656	-88.456978
19724.414062	-88.126785
19767.480469	-88.721100
19810.546875	-88.948868
19853.613281	-88.550438
19896.679688	-88.242104
19939.746094	-88.753578
19982.812500	-88.266136
20025.878906	-88.350327
20068.945312	-88.662086
20112.011719	-88.998230
20155.078125	-88.722954
20198.144531	-88.699951
20241.210938	-88.713898
20284.277344	-88.194466
20327.343750	-88.393768
20370.410156	-88.032990
20413.476562	-89.087227
20456.542969	-88.637772
20499.609375	-89.015457
20542.675781	-88.783722
20585.742188	-88.429466
20628.808594	-89.093079
20671.875000	-89.055435
20714.941406	-88.340233
20758.007812	-88.675011
20801.074219	-88.847008
20844.140625	-88.442711
20887.207031	-88.648987
20930.273438	-88.364258
20973.339844	-88.504692
21016.406250	-89.218658
21059.472656	-88.568222
21102.539062	-88.864311
21145.605469	-88.932091
21188.671875	-88.606789
21231.738281	-88.521820
21274.804688	-88.279434
21317.871094	-88.759529
21360.937500	-88.285301
21404.003906	-88.508804
21447.070312	-88.868378
21490.136719	-88.998253
21533.203125	-88.791130
21576.269531	-88.568787
21619.335938	-88.337967
21662.402344	-88.789146
21705.468750	-88.626694
21748.535156	-89.005638
21791.601562	-88.615959
21834.667969	-88.965919
21877.734375	-88.456421
21920.800781	-89.002693
21963.867188	-88.425240
22006.933594	-89.014656
