Frequency (Hz)	Level (dB)
43.066406	-56.925354
86.132812	-56.480499
129.199219	-56.160923
172.265625	-53.545082
215.332031	-55.907860
258.398438	-56.982658
301.464844	-56.191090
344.531250	-55.714214
387.597656	-55.046085
430.664062	-55.639866
473.730469	-56.021423
516.796875	-55.128170
559.863281	-55.854809
602.929688	-55.439663
645.996094	-55.723392
689.062500	-54.681622
732.128906	-54.544231
775.195312	-53.961422
818.261719	-54.172173
861.328125	-51.531548
904.394531	-52.059597
947.460938	-52.388054
990.527344	-52.908951
1033.593750	-52.589943
1076.660156	-52.180096
1119.726562	-51.918625
1162.792969	-51.528404
1205.859375	-51.119926
1248.925781	-50.581619
1291.992188	-50.297596
1335.058594	-49.619785
1378.125000	-49.430817
1421.191406	-48.502254
1464.257812	-47.898808
1507.324219	-46.860355
1550.390625	-46.012833
1593.457031	-44.501266
1636.523438	-44.187004
1679.589844	-41.942837
1722.656250	-41.725960
1765.722656	-40.081200
1808.789062	-38.103954
1851.855469	-35.265747
1894.921875	-30.792271
1937.988281	-21.427382
1981.054688	-20.866537
2024.121094	-30.061945
2067.187500	-28.341852
2110.253906	-29.913120
2153.320312	-36.924492
2196.386719	-39.929520
2239.453125	-41.882095
2282.519531	-43.133675
2325.585938	-43.979591
2368.652344	-45.069336
2411.718750	-46.450394
2454.785156	-47.417778
2497.851562	-48.378975
2540.917969	-49.004440
2583.984375	-49.070026
2627.050781	-48.996540
2670.117188	-49.571083
2713.183594	-50.216511
2756.250000	-51.320015
2799.316406	-51.858318
2842.382812	-52.310699
2885.449219	-52.399490
2928.515625	-50.040188
2971.582031	-48.172138
3014.648438	-51.762924
3057.714844	-52.571312
3100.781250	-51.775360
3143.847656	-54.252407
3186.914062	-54.662273
3229.980469	-54.753632
3273.046875	-54.789852
3316.113281	-53.774738
3359.179688	-55.419117
3402.246094	-56.348186
3445.312500	-56.849087
3488.378906	-57.188744
3531.445312	-57.399738
3574.511719	-57.712997
3617.578125	-57.540638
3660.644531	-58.311630
3703.710938	-57.832176
3746.777344	-58.338074
3789.843750	-58.279503
3832.910156	-58.275066
3875.976562	-58.943569
3919.042969	-59.173843
3962.109375	-58.733677
4005.175781	-58.559734
4048.242188	-55.147034
4091.308594	-57.324490
4134.375000	-54.479187
4177.441406	-50.059364
4220.507812	-49.266289
4263.574219	-51.001431
4306.640625	-53.407784
4349.707031	-51.800812
4392.773438	-52.636505
4435.839844	-56.546494
4478.906250	-51.912281
4521.972656	-54.007545
4565.039062	-46.555054
4608.105469	-49.250820
4651.171875	-56.129032
4694.238281	-52.953842
4737.304688	-51.691387
4780.371094	-55.435982
4823.437500	-52.463142
4866.503906	-57.647018
4909.570312	-54.039658
4952.636719	-42.460995
4995.703125	-50.248123
5038.769531	-56.295467
5081.835938	-55.933678
5124.902344	-59.315746
5167.968750	-54.571033
5211.035156	-54.384998
5254.101562	-60.201180
5297.167969	-61.675674
5340.234375	-61.594486
5383.300781	-60.500309
5426.367188	-52.439869
5469.433594	-56.050777
5512.500000	-61.630348
5555.566406	-62.850105
5598.632812	-63.272015
5641.699219	-63.516674
5684.765625	-63.441254
5727.832031	-60.616772
5770.898438	-56.535843
5813.964844	-53.562481
5857.031250	-52.580597
5900.097656	-54.795902
5943.164062	-54.320744
5986.230469	-57.156235
6029.296875	-54.348175
6072.363281	-53.059555
6115.429688	-55.543552
6158.496094	-58.336056
6201.562500	-55.998913
6244.628906	-49.831051
6287.695312	-55.762062
6330.761719	-55.295982
6373.828125	-56.938965
6416.894531	-56.400116
6459.960938	-55.345898
6503.027344	-53.773613
6546.093750	-55.538307
6589.160156	-57.891468
6632.226562	-60.578819
6675.292969	-58.097607
6718.359375	-60.595646
6761.425781	-64.952194
6804.492188	-64.462479
6847.558594	-64.774506
6890.625000	-65.803101
6933.691406	-66.289520
6976.757812	-65.716438
7019.824219	-65.365570
7062.890625	-66.903023
7105.957031	-66.001602
7149.023438	-65.570595
7192.089844	-65.808647
7235.156250	-65.646652
7278.222656	-66.115585
7321.289062	-66.385101
7364.355469	-65.948418
7407.421875	-66.402100
7450.488281	-65.669037
7493.554688	-64.249092
7536.621094	-66.698936
7579.687500	-67.231163
7622.753906	-67.329666
7665.820312	-67.342171
7708.886719	-66.543510
7751.953125	-67.122765
7795.019531	-67.547501
7838.085938	-66.906586
7881.152344	-67.039818
7924.218750	-67.901596
7967.285156	-67.664055
8010.351562	-67.626770
8053.417969	-68.013000
8096.484375	-67.731964
8139.550781	-67.858055
8182.617188	-68.159058
8225.683594	-68.012566
8268.750000	-68.016701
8311.816406	-68.237999
8354.882812	-68.279297
8397.949219	-68.351196
8441.015625	-68.366249
8484.082031	-68.346695
8527.148438	-68.275230
8570.214844	-68.429268
8613.281250	-68.565895
8656.347656	-68.623497
8699.414062	-68.593231
8742.480469	-68.669609
8785.546875	-68.727676
8828.613281	-68.812614
8871.679688	-68.875877
8914.746094	-68.852135
8957.812500	-68.943604
9000.878906	-68.957329
9043.945312	-69.047394
9087.011719	-69.053108
9130.078125	-69.090904
9173.144531	-69.136940
9216.210938	-69.176979
9259.277344	-69.218636
9302.343750	-69.242989
9345.410156	-69.288986
9388.476562	-69.326645
9431.542969	-69.371223
9474.609375	-69.396385
9517.675781	-69.429291
9560.742188	-69.495857
9603.808594	-69.526405
9646.875000	-69.567177
9689.941406	-69.594643
9733.007812	-69.642662
9776.074219	-69.686150
9819.140625	-69.711670
9862.207031	-69.755608
9905.273438	-69.775024
9948.339844	-69.808815
9991.406250	-69.856575
10034.472656	-69.903519
10077.539062	-69.919220
10120.605469	-69.946922
10163.671875	-69.998718
10206.738281	-70.034050
10249.804688	-70.067734
10292.871094	-70.095581
10335.937500	-70.116867
10379.003906	-70.146408
10422.070312	-70.211479
10465.136719	-70.229843
10508.203125	-70.278595
10551.269531	-70.302338
10594.335938	-70.322327
10637.402344	-70.359566
10680.468750	-70.394470
10723.535156	-70.422623
10766.601562	-70.470360
10809.667969	-70.497269
10852.734375	-70.527451
10895.800781	-70.568916
10938.867188	-70.560921
10981.933594	-70.605461
11025.000000	-70.645691
11068.066406	-70.672089
11111.132812	-70.694321
11154.199219	-70.728630
11197.265625	-70.757980
11240.332031	-70.801071
11283.398438	-70.829285
11326.464844	-70.842270
11369.531250	-70.871323
11412.597656	-70.902527
11455.664062	-70.939796
11498.730469	-70.977974
11541.796875	-70.987595
11584.863281	-71.019279
11627.929688	-71.051804
11670.996094	-71.068871
11714.062500	-71.107819
11757.128906	-71.123497
11800.195312	-71.150726
11843.261719	-71.191788
11886.328125	-71.207230
11929.394531	-71.240639
11972.460938	-71.260101
12015.527344	-71.288307
12058.593750	-71.322159
12101.660156	-71.335083
12144.726562	-71.370781
12187.792969	-71.394165
12230.859375	-71.414833
12273.925781	-71.441574
12316.992188	-71.477486
12360.058594	-71.503029
12403.125000	-71.516640
12446.191406	-71.543159
12489.257812	-71.565125
12532.324219	-71.583748
12575.390625	-71.609314
12618.457031	-71.634392
12661.523438	-71.655838
12704.589844	-71.690186
12747.656250	-71.703033
12790.722656	-71.724205
12833.789062	-71.754372
12876.855469	-71.769928
12919.921875	-71.794891
12962.988281	-71.816292
13006.054688	-71.849327
13049.121094	-71.861885
13092.187500	-71.889168
13135.253906	-71.907356
13178.320312	-71.927986
13221.386719	-71.957962
13264.453125	-71.959114
13307.519531	-71.998657
13350.585938	-71.986496
13393.652344	-72.035149
13436.718750	-72.072403
13479.785156	-72.078865
13522.851562	-72.068054
13565.917969	-72.121941
13608.984375	-72.159744
13652.050781	-72.141113
13695.117188	-72.189644
13738.183594	-72.199081
13781.250000	-72.226006
13824.316406	-72.240631
13867.382812	-72.271019
13910.449219	-72.281136
13953.515625	-72.293388
13996.582031	-72.292976
14039.648438	-72.337296
14082.714844	-72.350906
14125.781250	-72.377678
14168.847656	-72.417992
14211.914062	-72.381172
14254.980469	-72.418564
14298.046875	-72.444649
14341.113281	-72.470192
14384.179688	-72.482185
14427.246094	-72.506287
14470.312500	-72.514771
14513.378906	-72.517693
14556.445312	-72.525734
14599.511719	-72.594223
14642.578125	-72.581337
14685.644531	-72.600204
14728.710938	-72.595993
14771.777344	-72.581795
14814.843750	-72.680641
14857.910156	-72.703949
14900.976562	-72.654831
14944.042969	-72.703201
14987.109375	-72.746803
15030.175781	-72.717079
15073.242188	-72.678505
15116.308594	-72.799049
15159.375000	-72.700562
15202.441406	-72.784737
15245.507812	-72.795387
15288.574219	-72.804031
15331.640625	-72.845383
15374.707031	-72.827660
15417.773438	-72.897270
15460.839844	-72.896935
15503.906250	-72.852592
15546.972656	-72.894379
15590.039062	-72.867279
15633.105469	-72.937981
15676.171875	-72.908691
15719.238281	-72.936142
15762.304688	-73.024437
15805.371094	-72.951935
15848.437500	-73.010086
15891.503906	-73.093239
15934.570312	-73.065308
15977.636719	-73.065758
16020.703125	-73.036819
16063.769531	-72.990509
16106.835938	-73.037315
16149.902344	-73.082428
16192.968750	-73.215286
16236.035156	-73.125900
16279.101562	-73.104012
16322.167969	-73.230415
16365.234375	-73.211777
16408.300781	-73.286301
16451.367188	-73.144691
16494.433594	-73.179092
16537.500000	-73.195839
16580.566406	-73.251381
16623.632812	-73.250694
16666.699219	-73.216057
16709.765625	-73.252541
16752.832031	-73.327446
16795.898438	-73.385406
16838.964844	-73.277695
16882.031250	-73.378098
16925.097656	-73.376755
16968.164062	-73.211227
17011.230469	-73.289062
17054.296875	-73.217087
17097.363281	-73.286354
17140.429688	-73.398438
17183.496094	-73.382469
17226.562500	-73.250618
17269.628906	-73.537338
17312.695312	-73.317558
17355.761719	-73.445847
17398.828125	-73.352448
17441.894531	-73.442345
17484.960938	-73.333328
17528.027344	-73.458122
17571.093750	-73.478561
17614.160156	-73.518723
17657.226562	-73.453293
17700.292969	-73.400772
17743.359375	-73.523560
17786.425781	-73.570747
17829.492188	-73.544159
17872.558594	-73.481102
17915.625000	-73.574051
17958.691406	-73.629326
18001.757812	-73.381401
18044.824219	-73.470009
18087.890625	-73.604477
18130.957031	-73.577438
18174.023438	-73.652115
18217.089844	-73.629776
18260.156250	-73.702568
18303.222656	-73.597542
18346.289062	-73.537979
18389.355469	-73.601250
18432.421875	-73.663376
18475.488281	-73.710754
18518.554688	-73.667397
18561.621094	-73.613388
18604.687500	-73.603035
18647.753906	-73.898117
18690.820312	-73.598869
18733.886719	-73.462433
18776.953125	-73.611473
18820.019531	-73.581306
18863.085938	-73.664337
18906.152344	-73.488838
18949.218750	-73.814758
18992.285156	-73.552544
19035.351562	-73.582024
19078.417969	-73.675362
19121.484375	-73.643837
19164.550781	-73.683388
19207.617188	-73.977737
19250.683594	-73.616867
19293.750000	-73.581345
19336.816406	-73.785515
19379.882812	-73.798622
19422.949219	-73.941086
19466.015625	-73.739693
19509.082031	-73.666351
19552.148438	-73.684998
19595.214844	-73.933540
19638.281250	-73.735130
19681.347656	-73.802505
19724.414062	-73.769928
19767.480469	-73.888954
19810.546875	-73.729271
19853.613281	-73.871002
19896.679688	-73.807281
19939.746094	-73.645676
19982.812500	-73.752861
20025.878906	-73.655701
20068.945312	-73.831627
20112.011719	-73.662468
20155.078125	-73.693031
20198.144531	-73.774323
20241.210938	-73.914284
20284.277344	-73.719849
20327.343750	-73.954445
20370.410156	-73.740311
20413.476562	-73.838913
20456.542969	-73.846191
20499.609375	-73.827866
20542.675781	-73.764786
20585.742188	-73.762566
20628.808594	-73.737175
20671.875000	-73.902596
20714.941406	-73.979332
20758.007812	-73.860207
20801.074219	-73.752449
20844.140625	-73.712021
20887.207031	-73.797783
20930.273438	-73.843246
20973.339844	-73.824181
21016.406250	-73.977203
21059.472656	-73.932556
21102.539062	-73.659698
21145.605469	-73.763733
21188.671875	-73.737488
21231.738281	-73.863106
21274.804688	-73.961090
21317.871094	-73.876747
21360.937500	-73.894249
21404.003906	-73.764404
21447.070312	-74.045158
21490.136719	-74.098717
21533.203125	-73.717422
21576.269531	-73.882301
21619.335938	-73.786766
21662.402344	-73.646049
21705.468750	-73.956001
21748.535156	-73.833237
21791.601562	-73.931358
21834.667969	-73.918747
21877.734375	-74.041618
21920.800781	-73.819603
21963.867188	-73.858932
22006.933594	-73.952225
