Frequency (Hz)	Level (dB)
43.066406	-60.146816
86.132812	-59.284462
129.199219	-58.246510
172.265625	-58.895061
215.332031	-58.047539
258.398438	-59.067482
301.464844	-58.934475
344.531250	-58.607178
387.597656	-59.235073
430.664062	-58.640907
473.730469	-59.024014
516.796875	-58.191525
559.863281	-58.626522
602.929688	-57.818249
645.996094	-57.667110
689.062500	-58.482185
732.128906	-58.061943
775.195312	-58.164150
818.261719	-57.565414
861.328125	-56.669682
904.394531	-55.702831
947.460938	-57.562077
990.527344	-56.322308
1033.593750	-55.743298
1076.660156	-55.225452
1119.726562	-55.231407
1162.792969	-54.657455
1205.859375	-55.307198
1248.925781	-54.669918
1291.992188	-53.298805
1335.058594	-52.681503
1378.125000	-52.823898
1421.191406	-51.998112
1464.257812	-50.837975
1507.324219	-50.145145
1550.390625	-49.031055
1593.457031	-47.859493
1636.523438	-47.668953
1679.589844	-46.187904
1722.656250	-44.682480
1765.722656	-42.885498
1808.789062	-40.737732
1851.855469	-37.823856
1894.921875	-33.443916
1937.988281	-24.014757
1981.054688	-23.237953
2024.121094	-33.292801
2067.187500	-36.011688
2110.253906	-38.803547
2153.320312	-42.697765
2196.386719	-44.303524
2239.453125	-45.739445
2282.519531	-46.969337
2325.585938	-48.230980
2368.652344	-49.212479
2411.718750	-49.808224
2454.785156	-50.630527
2497.851562	-51.447277
2540.917969	-52.230930
2583.984375	-52.555099
2627.050781	-53.168652
2670.117188	-53.593029
2713.183594	-53.967876
2756.250000	-54.692879
2799.316406	-54.912140
2842.382812	-55.657784
2885.449219	-55.991009
2928.515625	-56.396065
2971.582031	-56.772369
3014.648438	-56.928951
3057.714844	-57.502140
3100.781250	-57.010311
3143.847656	-57.647991
3186.914062	-58.216412
3229.980469	-58.445293
3273.046875	-58.328209
3316.113281	-58.755714
3359.179688	-59.671341
3402.246094	-59.686863
3445.312500	-59.456181
3488.378906	-60.015930
3531.445312	-60.052792
3574.511719	-60.669979
3617.578125	-59.978096
3660.644531	-60.819420
3703.710938	-60.387230
3746.777344	-61.000168
3789.843750	-60.037403
3832.910156	-60.532127
3875.976562	-61.227261
3919.042969	-61.200710
3962.109375	-60.790329
4005.175781	-61.144444
4048.242188	-61.018585
4091.308594	-60.643921
4134.375000	-60.334610
4177.441406	-60.201824
4220.507812	-59.620857
4263.574219	-59.189629
4306.640625	-58.453888
4349.707031	-57.452583
4392.773438	-56.150200
4435.839844	-51.546982
4478.906250	-48.842663
4521.972656	-47.121460
4565.039062	-36.281345
4608.105469	-38.548897
4651.171875	-45.303825
4694.238281	-50.648315
4737.304688	-53.404903
4780.371094	-53.991245
4823.437500	-55.756649
4866.503906	-55.680893
4909.570312	-52.367970
4952.636719	-44.124439
4995.703125	-51.708008
5038.769531	-58.042950
5081.835938	-61.451069
5124.902344	-61.585045
5167.968750	-61.949150
5211.035156	-62.509945
5254.101562	-63.154018
5297.167969	-62.855865
5340.234375	-63.486729
5383.300781	-62.832291
5426.367188	-63.249683
5469.433594	-63.823284
5512.500000	-63.864014
5555.566406	-63.252361
5598.632812	-62.778965
5641.699219	-63.588974
5684.765625	-64.169746
5727.832031	-64.737106
5770.898438	-63.315910
5813.964844	-64.364044
5857.031250	-64.120621
5900.097656	-64.276245
5943.164062	-63.852623
5986.230469	-65.415154
6029.296875	-64.155197
6072.363281	-61.567989
6115.429688	-61.847462
6158.496094	-58.569515
6201.562500	-52.277344
6244.628906	-46.744389
6287.695312	-57.273479
6330.761719	-61.065033
6373.828125	-64.123253
6416.894531	-63.926964
6459.960938	-64.129257
6503.027344	-62.036373
6546.093750	-61.349358
6589.160156	-58.669945
6632.226562	-60.176205
6675.292969	-61.877598
6718.359375	-64.435951
6761.425781	-65.278687
6804.492188	-66.719345
6847.558594	-65.572174
6890.625000	-65.736038
6933.691406	-66.990074
6976.757812	-66.306900
7019.824219	-66.937256
7062.890625	-66.942757
7105.957031	-65.879082
7149.023438	-66.100746
7192.089844	-66.444778
7235.156250	-67.352104
7278.222656	-67.779854
7321.289062	-67.490929
7364.355469	-67.939034
7407.421875	-67.929039
7450.488281	-67.513420
7493.554688	-68.895676
7536.621094	-69.128929
7579.687500	-68.397530
7622.753906	-68.294319
7665.820312	-68.869835
7708.886719	-69.328362
7751.953125	-68.723305
7795.019531	-69.215111
7838.085938	-69.285873
7881.152344	-69.156448
7924.218750	-69.370758
7967.285156	-69.207420
8010.351562	-69.228500
8053.417969	-69.267563
8096.484375	-69.616493
8139.550781	-69.529076
8182.617188	-69.650490
8225.683594	-69.738991
8268.750000	-69.752983
8311.816406	-69.696747
8354.882812	-70.124557
8397.949219	-69.842484
8441.015625	-70.135193
8484.082031	-69.965828
8527.148438	-70.065933
8570.214844	-70.281693
8613.281250	-70.218437
8656.347656	-70.272469
8699.414062	-70.415665
8742.480469	-70.365189
8785.546875	-70.349358
8828.613281	-70.433510
8871.679688	-70.460327
8914.746094	-70.562614
8957.812500	-70.572823
9000.878906	-70.632271
9043.945312	-70.699539
9087.011719	-70.728226
9130.078125	-70.744843
9173.144531	-70.806740
9216.210938	-70.864761
9259.277344	-70.901306
9302.343750	-70.929138
9345.410156	-71.005226
9388.476562	-71.010452
9431.542969	-71.054047
9474.609375	-71.096199
9517.675781	-71.130287
9560.742188	-71.202225
9603.808594	-71.250313
9646.875000	-71.272987
9689.941406	-71.310814
9733.007812	-71.358849
9776.074219	-71.388466
9819.140625	-71.401649
9862.207031	-71.428101
9905.273438	-71.501152
9948.339844	-71.542244
9991.406250	-71.574524
10034.472656	-71.610512
10077.539062	-71.642738
10120.605469	-71.695930
10163.671875	-71.713257
10206.738281	-71.759453
10249.804688	-71.784683
10292.871094	-71.824730
10335.937500	-71.855530
10379.003906	-71.888794
10422.070312	-71.939209
10465.136719	-71.944603
10508.203125	-71.984520
10551.269531	-72.029076
10594.335938	-72.068367
10637.402344	-72.114197
10680.468750	-72.125755
10723.535156	-72.170708
10766.601562	-72.216850
10809.667969	-72.223343
10852.734375	-72.250267
10895.800781	-72.286507
10938.867188	-72.309181
10981.933594	-72.355026
11025.000000	-72.372238
11068.066406	-72.421577
11111.132812	-72.445900
11154.199219	-72.479172
11197.265625	-72.487724
11240.332031	-72.527626
11283.398438	-72.544167
11326.464844	-72.593033
11369.531250	-72.636086
11412.597656	-72.633820
11455.664062	-72.693924
11498.730469	-72.705994
11541.796875	-72.748383
11584.863281	-72.778221
11627.929688	-72.817276
11670.996094	-72.833664
11714.062500	-72.852081
11757.128906	-72.878563
11800.195312	-72.918831
11843.261719	-72.933342
11886.328125	-72.946854
11929.394531	-73.004707
11972.460938	-73.015083
12015.527344	-73.045609
12058.593750	-73.079208
12101.660156	-73.095024
12144.726562	-73.125954
12187.792969	-73.130424
12230.859375	-73.182579
12273.925781	-73.205971
12316.992188	-73.232841
12360.058594	-73.251930
12403.125000	-73.281143
12446.191406	-73.291092
12489.257812	-73.330666
12532.324219	-73.334740
12575.390625	-73.382065
12618.457031	-73.394775
12661.523438	-73.401184
12704.589844	-73.442284
12747.656250	-73.425102
12790.722656	-73.492981
12833.789062	-73.510651
12876.855469	-73.535355
12919.921875	-73.563133
12962.988281	-73.575996
13006.054688	-73.587494
13049.121094	-73.629250
13092.187500	-73.645958
13135.253906	-73.662010
13178.320312	-73.695541
13221.386719	-73.705261
13264.453125	-73.740692
13307.519531	-73.744240
13350.585938	-73.766953
13393.652344	-73.823936
13436.718750	-73.805824
13479.785156	-73.828445
13522.851562	-73.865349
13565.917969	-73.897301
13608.984375	-73.913536
13652.050781	-73.921997
13695.117188	-73.934654
13738.183594	-73.952820
13781.250000	-73.978210
13824.316406	-74.009026
13867.382812	-74.042030
13910.449219	-74.007202
13953.515625	-74.032509
13996.582031	-74.057724
14039.648438	-74.110146
14082.714844	-74.149551
14125.781250	-74.136765
14168.847656	-74.139603
14211.914062	-74.220306
14254.980469	-74.207863
14298.046875	-74.175095
14341.113281	-74.232330
14384.179688	-74.256691
14427.246094	-74.253891
14470.312500	-74.306503
14513.378906	-74.311005
14556.445312	-74.328217
14599.511719	-74.329536
14642.578125	-74.369202
14685.644531	-74.328972
14728.710938	-74.317619
14771.777344	-74.386086
14814.843750	-74.350044
14857.910156	-74.364441
14900.976562	-74.468903
14944.042969	-74.466591
14987.109375	-74.396378
15030.175781	-74.459541
15073.242188	-74.534630
15116.308594	-74.522644
15159.375000	-74.598236
15202.441406	-74.567795
15245.507812	-74.570038
15288.574219	-74.627853
15331.640625	-74.617523
15374.707031	-74.557358
15417.773438	-74.740768
15460.839844	-74.715408
15503.906250	-74.638306
15546.972656	-74.691139
15590.039062	-74.634743
15633.105469	-74.728157
15676.171875	-74.759186
15719.238281	-74.745773
15762.304688	-74.748024
15805.371094	-74.752686
15848.437500	-74.750061
15891.503906	-74.735397
15934.570312	-74.898216
15977.636719	-74.738785
16020.703125	-74.952042
16063.769531	-74.756538
16106.835938	-74.856400
16149.902344	-74.904373
16192.968750	-74.825157
16236.035156	-74.831963
16279.101562	-74.994774
16322.167969	-74.927208
16365.234375	-74.995483
16408.300781	-74.927231
16451.367188	-74.926773
16494.433594	-74.946648
16537.500000	-74.882057
16580.566406	-75.013741
16623.632812	-74.936974
16666.699219	-75.080109
16709.765625	-75.217796
16752.832031	-74.934868
16795.898438	-74.963425
16838.964844	-75.101624
16882.031250	-75.166618
16925.097656	-75.019966
16968.164062	-74.970001
17011.230469	-75.123405
17054.296875	-75.065636
17097.363281	-75.130981
17140.429688	-75.044044
17183.496094	-75.217789
17226.562500	-75.095230
17269.628906	-74.985687
17312.695312	-75.029510
17355.761719	-75.189827
17398.828125	-75.182320
17441.894531	-75.101463
17484.960938	-75.124931
17528.027344	-75.213753
17571.093750	-75.356621
17614.160156	-75.142563
17657.226562	-75.263466
17700.292969	-75.137184
17743.359375	-75.263145
17786.425781	-75.314476
17829.492188	-75.238014
17872.558594	-75.181519
17915.625000	-75.283493
17958.691406	-75.264397
18001.757812	-75.362984
18044.824219	-75.344131
18087.890625	-75.360405
18130.957031	-75.232613
18174.023438	-75.294090
18217.089844	-75.379837
18260.156250	-75.373604
18303.222656	-75.316856
18346.289062	-75.427940
18389.355469	-75.287918
18432.421875	-75.450096
18475.488281	-75.258095
18518.554688	-75.576744
18561.621094	-75.258568
18604.687500	-75.578957
18647.753906	-75.549492
18690.820312	-75.187218
18733.886719	-75.498184
18776.953125	-75.400146
18820.019531	-75.518982
18863.085938	-75.542427
18906.152344	-75.413254
18949.218750	-75.390686
18992.285156	-75.324631
19035.351562	-75.439224
19078.417969	-75.643356
19121.484375	-75.464554
19164.550781	-75.577370
19207.617188	-75.059105
19250.683594	-75.366768
19293.750000	-75.349815
19336.816406	-75.398148
19379.882812	-75.714340
19422.949219	-75.520302
19466.015625	-75.622849
19509.082031	-75.393600
19552.148438	-75.316612
19595.214844	-75.322929
19638.281250	-75.676270
19681.347656	-75.520676
19724.414062	-75.519844
19767.480469	-75.766754
19810.546875	-75.364006
19853.613281	-75.551193
19896.679688	-75.381134
19939.746094	-75.638588
19982.812500	-75.646477
20025.878906	-75.619835
20068.945312	-75.371826
20112.011719	-75.841278
20155.078125	-75.782249
20198.144531	-75.481865
20241.210938	-75.758110
20284.277344	-75.587204
20327.343750	-75.966232
20370.410156	-75.631622
20413.476562	-75.517265
20456.542969	-75.611053
20499.609375	-75.582657
20542.675781	-75.575134
20585.742188	-75.818222
20628.808594	-75.563362
20671.875000	-75.715614
20714.941406	-75.656563
20758.007812	-75.674385
20801.074219	-75.734711
20844.140625	-75.776276
20887.207031	-75.567398
20930.273438	-75.674652
20973.339844	-75.661201
21016.406250	-75.760399
21059.472656	-75.777985
21102.539062	-75.650284
21145.605469	-75.809113
21188.671875	-75.701645
21231.738281	-75.518440
21274.804688	-75.594330
21317.871094	-75.576736
21360.937500	-75.404594
21404.003906	-75.271698
21447.070312	-75.075844
21490.136719	-75.466499
21533.203125	-75.561951
21576.269531	-75.861374
21619.335938	-75.535057
21662.402344	-75.727402
21705.468750	-75.762390
21748.535156	-75.592171
21791.601562	-75.488487
21834.667969	-75.538132
21877.734375	-75.485527
21920.800781	-75.506493
21963.867188	-75.291580
22006.933594	-75.808952
