Frequency (Hz)	Level (dB)
43.066406	-51.138287
86.132812	-58.360516
129.199219	-59.506786
172.265625	-59.750214
215.332031	-63.524540
258.398438	-64.190468
301.464844	-64.431694
344.531250	-64.736023
387.597656	-64.386238
430.664062	-65.496635
473.730469	-64.573067
516.796875	-63.902161
559.863281	-64.497467
602.929688	-64.600723
645.996094	-63.253166
689.062500	-61.932205
732.128906	-63.260941
775.195312	-61.557873
818.261719	-61.120876
861.328125	-62.763824
904.394531	-64.117531
947.460938	-63.445347
990.527344	-60.604156
1033.593750	-60.490341
1076.660156	-61.321022
1119.726562	-61.297230
1162.792969	-60.304165
1205.859375	-59.422665
1248.925781	-61.515648
1291.992188	-62.445854
1335.058594	-60.142109
1378.125000	-61.742062
1421.191406	-60.792023
1464.257812	-61.723900
1507.324219	-59.359943
1550.390625	-57.453247
1593.457031	-58.202042
1636.523438	-59.876560
1679.589844	-58.544342
1722.656250	-57.041759
1765.722656	-55.806946
1808.789062	-57.609676
1851.855469	-56.429344
1894.921875	-54.788139
1937.988281	-55.150036
1981.054688	-55.763058
2024.121094	-55.093887
2067.187500	-52.630119
2110.253906	-51.210186
2153.320312	-51.869812
2196.386719	-51.495213
2239.453125	-47.711506
2282.519531	-47.436264
2325.585938	-39.916245
2368.652344	-40.561649
2411.718750	-39.224930
2454.785156	-34.703846
2497.851562	-23.321976
2540.917969	-28.800911
2583.984375	-37.987949
2627.050781	-40.217049
2670.117188	-41.419460
2713.183594	-45.944225
2756.250000	-47.583447
2799.316406	-46.652016
2842.382812	-48.819832
2885.449219	-51.445332
2928.515625	-50.166443
2971.582031	-49.697433
3014.648438	-52.034992
3057.714844	-53.957096
3100.781250	-55.742588
3143.847656	-55.490662
3186.914062	-56.412766
3229.980469	-55.911037
3273.046875	-55.815304
3316.113281	-56.624142
3359.179688	-55.816441
3402.246094	-56.737328
3445.312500	-54.898083
3488.378906	-51.667374
3531.445312	-51.839790
3574.511719	-49.751347
3617.578125	-39.079117
3660.644531	-41.918121
3703.710938	-51.543488
3746.777344	-57.007111
3789.843750	-59.310425
3832.910156	-60.470829
3875.976562	-61.031826
3919.042969	-60.690136
3962.109375	-62.193626
4005.175781	-64.633369
4048.242188	-64.302551
4091.308594	-64.968483
4134.375000	-63.583145
4177.441406	-64.029381
4220.507812	-64.095268
4263.574219	-61.800560
4306.640625	-62.864231
4349.707031	-64.513557
4392.773438	-59.184994
4435.839844	-58.670090
4478.906250	-58.107021
4521.972656	-57.404446
4565.039062	-54.551243
4608.105469	-45.665798
4651.171875	-44.235939
4694.238281	-53.831028
4737.304688	-50.107155
4780.371094	-59.272327
4823.437500	-59.574116
4866.503906	-63.933956
4909.570312	-64.440605
4952.636719	-60.929619
4995.703125	-62.824768
5038.769531	-64.641418
5081.835938	-62.483627
5124.902344	-60.444004
5167.968750	-60.754707
5211.035156	-62.850693
5254.101562	-61.477642
5297.167969	-63.477623
5340.234375	-62.631790
5383.300781	-60.935513
5426.367188	-61.976555
5469.433594	-61.562050
5512.500000	-55.301971
5555.566406	-55.088093
5598.632812	-58.730286
5641.699219	-58.791164
5684.765625	-58.777122
5727.832031	-57.705250
5770.898438	-58.479397
5813.964844	-58.591881
5857.031250	-59.115448
5900.097656	-52.647614
5943.164062	-53.678783
5986.230469	-52.664898
6029.296875	-50.729256
6072.363281	-49.092258
6115.429688	-48.224308
6158.496094	-45.492298
6201.562500	-33.215946
6244.628906	-37.415321
6287.695312	-43.332695
6330.761719	-44.276859
6373.828125	-45.076729
6416.894531	-41.264492
6459.960938	-37.086605
6503.027344	-41.959663
6546.093750	-42.685177
6589.160156	-36.684902
6632.226562	-27.891045
6675.292969	-23.478399
6718.359375	-36.764671
6761.425781	-40.391270
6804.492188	-40.665527
6847.558594	-45.322601
6890.625000	-47.805656
6933.691406	-47.103970
6976.757812	-48.747829
7019.824219	-51.928307
7062.890625	-53.465515
7105.957031	-54.340752
7149.023438	-53.702435
7192.089844	-55.231758
7235.156250	-54.738792
7278.222656	-55.757984
7321.289062	-52.221104
7364.355469	-53.339775
7407.421875	-51.452423
7450.488281	-50.077583
7493.554688	-45.409355
7536.621094	-35.977570
7579.687500	-32.647770
7622.753906	-44.287949
7665.820312	-48.556145
7708.886719	-48.838062
7751.953125	-52.760921
7795.019531	-52.790585
7838.085938	-55.725574
7881.152344	-55.330360
7924.218750	-57.450676
7967.285156	-56.693378
8010.351562	-60.454121
8053.417969	-61.586308
8096.484375	-59.380669
8139.550781	-57.796028
8182.617188	-60.718735
8225.683594	-61.964951
8268.750000	-63.300587
8311.816406	-61.256855
8354.882812	-61.331005
8397.949219	-64.167145
8441.015625	-64.443169
8484.082031	-61.752903
8527.148438	-61.635998
8570.214844	-63.844036
8613.281250	-64.621582
8656.347656	-63.364597
8699.414062	-63.955818
8742.480469	-64.582024
8785.546875	-66.265114
8828.613281	-64.707771
8871.679688	-62.973228
8914.746094	-65.177017
8957.812500	-66.251930
9000.878906	-66.018158
9043.945312	-66.010063
9087.011719	-65.528389
9130.078125	-64.250633
9173.144531	-68.443275
9216.210938	-66.780807
9259.277344	-65.346893
9302.343750	-67.613815
9345.410156	-68.107391
9388.476562	-67.315887
9431.542969	-66.351929
9474.609375	-68.418159
9517.675781	-69.493752
9560.742188	-69.044037
9603.808594	-68.681686
9646.875000	-69.111382
9689.941406	-69.040581
9733.007812	-69.998383
9776.074219	-69.851692
9819.140625	-68.283760
9862.207031	-69.174286
9905.273438	-70.342041
9948.339844	-70.522514
9991.406250	-69.931900
10034.472656	-68.633698
10077.539062	-69.848213
10120.605469	-71.160416
10163.671875	-68.921188
10206.738281	-69.201683
10249.804688	-69.463478
10292.871094	-63.697662
10335.937500	-62.760044
10379.003906	-68.091759
10422.070312	-71.189140
10465.136719	-70.502899
10508.203125	-70.725876
10551.269531	-70.227898
10594.335938	-70.564018
10637.402344	-71.002731
10680.468750	-71.385529
10723.535156	-70.930634
10766.601562	-70.760880
10809.667969	-71.223541
10852.734375	-71.465271
10895.800781	-71.575089
10938.867188	-70.390465
10981.933594	-71.398575
11025.000000	-71.800919
11068.066406	-71.548370
11111.132812	-71.624763
11154.199219	-71.525528
11197.265625	-70.818459
11240.332031	-72.079819
11283.398438	-72.360001
11326.464844	-71.690681
11369.531250	-71.264046
11412.597656	-71.090515
11455.664062	-71.973755
11498.730469	-71.220016
11541.796875	-69.174698
11584.863281	-70.678589
11627.929688	-70.828255
11670.996094	-70.330093
11714.062500	-67.594910
11757.128906	-66.309738
11800.195312	-63.803158
11843.261719	-52.788258
11886.328125	-58.343563
11929.394531	-68.921913
11972.460938	-72.179993
12015.527344	-71.199562
12058.593750	-75.081551
12101.660156	-75.459702
12144.726562	-73.462753
12187.792969	-72.747932
12230.859375	-71.355865
12273.925781	-68.503822
12316.992188	-71.941994
12360.058594	-74.805336
12403.125000	-75.875008
12446.191406	-74.091690
12489.257812	-74.668777
12532.324219	-75.127319
12575.390625	-75.574760
12618.457031	-74.292068
12661.523438	-74.794449
12704.589844	-75.487610
12747.656250	-75.408493
12790.722656	-74.646408
12833.789062	-75.235687
12876.855469	-75.398109
12919.921875	-74.563431
12962.988281	-75.185295
13006.054688	-74.503036
13049.121094	-75.296928
13092.187500	-74.545326
13135.253906	-75.619537
13178.320312	-75.128189
13221.386719	-75.517395
13264.453125	-75.877014
13307.519531	-75.209518
13350.585938	-75.256607
13393.652344	-75.858795
13436.718750	-75.554207
13479.785156	-74.781898
13522.851562	-73.237473
13565.917969	-75.344170
13608.984375	-75.142975
13652.050781	-71.663368
13695.117188	-67.664886
13738.183594	-66.858978
13781.250000	-70.212296
13824.316406	-72.541809
13867.382812	-75.456505
13910.449219	-76.762466
13953.515625	-76.293808
13996.582031	-74.983315
14039.648438	-76.432526
14082.714844	-76.893974
14125.781250	-76.222031
14168.847656	-75.309036
14211.914062	-75.368813
14254.980469	-76.524460
14298.046875	-76.366592
14341.113281	-75.539658
14384.179688	-75.845940
14427.246094	-76.307076
14470.312500	-77.009674
14513.378906	-75.868439
14556.445312	-74.825508
14599.511719	-74.800926
14642.578125	-73.668274
14685.644531	-72.534264
14728.710938	-74.579384
14771.777344	-75.573425
14814.843750	-76.020767
14857.910156	-73.405190
14900.976562	-76.047302
14944.042969	-77.612213
14987.109375	-77.687469
15030.175781	-75.621803
15073.242188	-75.167412
15116.308594	-77.487633
15159.375000	-77.519096
15202.441406	-75.774956
15245.507812	-74.818817
15288.574219	-76.889847
15331.640625	-72.387459
15374.707031	-69.588837
15417.773438	-75.414185
15460.839844	-74.207634
15503.906250	-75.795761
15546.972656	-77.037308
15590.039062	-77.263283
15633.105469	-75.496895
15676.171875	-77.806679
15719.238281	-77.427940
15762.304688	-77.038498
15805.371094	-73.540993
15848.437500	-72.140465
15891.503906	-74.593712
15934.570312	-76.500900
15977.636719	-76.833672
16020.703125	-76.743385
16063.769531	-76.523270
16106.835938	-77.286438
16149.902344	-77.386101
16192.968750	-77.279854
16236.035156	-77.580643
16279.101562	-77.428040
16322.167969	-77.670105
16365.234375	-77.629051
16408.300781	-77.639503
16451.367188	-77.621971
16494.433594	-77.679016
16537.500000	-77.665688
16580.566406	-77.730919
16623.632812	-77.665161
16666.699219	-77.695320
16709.765625	-77.784393
16752.832031	-77.750839
16795.898438	-77.763107
16838.964844	-77.846329
16882.031250	-77.809349
16925.097656	-77.960464
16968.164062	-77.895859
17011.230469	-77.817245
17054.296875	-77.957291
17097.363281	-78.000381
17140.429688	-77.942963
17183.496094	-77.927361
17226.562500	-78.063019
17269.628906	-77.987976
17312.695312	-77.939674
17355.761719	-77.985168
17398.828125	-78.123177
17441.894531	-78.033127
17484.960938	-78.069305
17528.027344	-78.033630
17571.093750	-78.208420
17614.160156	-78.023422
17657.226562	-78.117424
17700.292969	-78.121773
17743.359375	-78.124046
17786.425781	-78.087387
17829.492188	-78.235252
17872.558594	-78.107391
17915.625000	-78.244370
17958.691406	-78.189972
18001.757812	-78.163185
18044.824219	-78.269402
18087.890625	-78.148674
18130.957031	-78.295555
18174.023438	-78.206879
18217.089844	-78.299126
18260.156250	-78.312279
18303.222656	-78.304787
18346.289062	-78.369255
18389.355469	-78.240479
18432.421875	-78.378517
18475.488281	-78.396309
18518.554688	-78.343315
18561.621094	-78.384842
18604.687500	-78.483047
18647.753906	-78.499962
18690.820312	-78.507568
18733.886719	-78.458916
18776.953125	-78.558456
18820.019531	-78.260323
18863.085938	-78.516785
18906.152344	-78.466324
18949.218750	-78.405167
18992.285156	-78.476151
19035.351562	-78.567810
19078.417969	-78.502037
19121.484375	-78.434341
19164.550781	-78.463127
19207.617188	-78.527473
19250.683594	-78.569237
19293.750000	-78.590134
19336.816406	-78.494751
19379.882812	-78.642303
19422.949219	-78.682556
19466.015625	-78.672569
19509.082031	-78.477280
19552.148438	-78.554817
19595.214844	-78.612770
19638.281250	-78.535927
19681.347656	-78.607399
19724.414062	-78.569458
19767.480469	-78.754692
19810.546875	-78.567284
19853.613281	-78.605873
19896.679688	-78.588577
19939.746094	-78.571167
19982.812500	-78.628479
20025.878906	-78.626373
20068.945312	-78.627136
20112.011719	-78.654152
20155.078125	-78.623764
20198.144531	-78.627121
20241.210938	-78.685333
20284.277344	-78.543564
20327.343750	-78.665138
20370.410156	-78.754669
20413.476562	-78.784920
20456.542969	-78.778969
20499.609375	-78.725349
20542.675781	-78.635315
20585.742188	-78.776085
20628.808594	-78.693558
20671.875000	-78.644234
20714.941406	-78.757050
20758.007812	-78.730759
20801.074219	-78.816849
20844.140625	-78.762177
20887.207031	-78.900841
20930.273438	-78.878014
20973.339844	-78.685318
21016.406250	-78.766098
21059.472656	-78.847626
21102.539062	-78.888718
21145.605469	-78.807869
21188.671875	-78.783226
21231.738281	-78.658371
21274.804688	-78.880119
21317.871094	-78.715996
21360.937500	-78.844551
21404.003906	-78.791580
21447.070312	-78.835938
21490.136719	-78.618309
21533.203125	-78.770416
21576.269531	-78.783646
21619.335938	-78.897453
21662.402344	-78.724762
21705.468750	-78.716049
21748.535156	-78.656616
21791.601562	-78.757591
21834.667969	-78.767799
21877.734375	-78.994347
21920.800781	-78.844337
21963.867188	-78.763252
22006.933594	-78.797859
