Frequency (Hz)	Level (dB)
43.066406	-54.064762
86.132812	-53.673962
129.199219	-53.351959
172.265625	-53.265526
215.332031	-53.973423
258.398438	-53.619698
301.464844	-53.650433
344.531250	-53.704124
387.597656	-53.178226
430.664062	-53.857559
473.730469	-53.017532
516.796875	-53.228264
559.863281	-52.678368
602.929688	-53.122101
645.996094	-52.390400
689.062500	-52.955025
732.128906	-52.200497
775.195312	-52.556446
818.261719	-51.822922
861.328125	-51.961071
904.394531	-51.560307
947.460938	-51.398464
990.527344	-50.738174
1033.593750	-50.088356
1076.660156	-49.809055
1119.726562	-50.213425
1162.792969	-49.552471
1205.859375	-48.973358
1248.925781	-48.323704
1291.992188	-48.113186
1335.058594	-47.478645
1378.125000	-46.935455
1421.191406	-46.322964
1464.257812	-45.579334
1507.324219	-44.794712
1550.390625	-43.948952
1593.457031	-42.997543
1636.523438	-41.882225
1679.589844	-40.515236
1722.656250	-38.847103
1765.722656	-37.243412
1808.789062	-35.044868
1851.855469	-31.990732
1894.921875	-28.077684
1937.988281	-18.658270
1981.054688	-17.847038
2024.121094	-27.846693
2067.187500	-32.118595
2110.253906	-34.943733
2153.320312	-37.793224
2196.386719	-39.519527
2239.453125	-39.886665
2282.519531	-41.657440
2325.585938	-43.215225
2368.652344	-44.120216
2411.718750	-44.906040
2454.785156	-45.714184
2497.851562	-46.282791
2540.917969	-47.050194
2583.984375	-47.495628
2627.050781	-48.110600
2670.117188	-48.815346
2713.183594	-49.454082
2756.250000	-49.427696
2799.316406	-50.116375
2842.382812	-50.292885
2885.449219	-50.956951
2928.515625	-50.929813
2971.582031	-51.230549
3014.648438	-51.428295
3057.714844	-50.793465
3100.781250	-47.799053
3143.847656	-51.470810
3186.914062	-52.774170
3229.980469	-53.387157
3273.046875	-53.501266
3316.113281	-53.883114
3359.179688	-54.073914
3402.246094	-54.237873
3445.312500	-54.423996
3488.378906	-54.770420
3531.445312	-55.246033
3574.511719	-55.226517
3617.578125	-55.234760
3660.644531	-55.611668
3703.710938	-55.729877
3746.777344	-55.604252
3789.843750	-56.249142
3832.910156	-56.147541
3875.976562	-56.794918
3919.042969	-56.945118
3962.109375	-56.704323
4005.175781	-56.875801
4048.242188	-56.834671
4091.308594	-57.443241
4134.375000	-57.158653
4177.441406	-57.041927
4220.507812	-57.604927
4263.574219	-57.555870
4306.640625	-57.859837
4349.707031	-57.265228
4392.773438	-56.726551
4435.839844	-52.830036
4478.906250	-54.142574
4521.972656	-47.970600
4565.039062	-41.036190
4608.105469	-44.454853
4651.171875	-51.269001
4694.238281	-53.816921
4737.304688	-54.638153
4780.371094	-53.027874
4823.437500	-49.642212
4866.503906	-48.667469
4909.570312	-49.215923
4952.636719	-40.044060
4995.703125	-47.895668
5038.769531	-52.970276
5081.835938	-53.619289
5124.902344	-53.976738
5167.968750	-53.778439
5211.035156	-52.799397
5254.101562	-51.462166
5297.167969	-50.940742
5340.234375	-49.735111
5383.300781	-46.481953
5426.367188	-45.752922
5469.433594	-42.496159
5512.500000	-40.124561
5555.566406	-35.622517
5598.632812	-21.511610
5641.699219	-31.820545
5684.765625	-41.548180
5727.832031	-41.675945
5770.898438	-47.158405
5813.964844	-46.285542
5857.031250	-55.173325
5900.097656	-49.124958
5943.164062	-51.874599
5986.230469	-51.793049
6029.296875	-55.106998
6072.363281	-55.422195
6115.429688	-56.771790
6158.496094	-56.825996
6201.562500	-56.040680
6244.628906	-49.562855
6287.695312	-57.754581
6330.761719	-59.644135
6373.828125	-60.105831
6416.894531	-60.089035
6459.960938	-59.595188
6503.027344	-59.594425
6546.093750	-55.528866
6589.160156	-51.037476
6632.226562	-51.369225
6675.292969	-57.254436
6718.359375	-61.669071
6761.425781	-61.045631
6804.492188	-62.428707
6847.558594	-61.282711
6890.625000	-62.846909
6933.691406	-62.637356
6976.757812	-62.933960
7019.824219	-62.838661
7062.890625	-62.654774
7105.957031	-63.700359
7149.023438	-63.718483
7192.089844	-63.924221
7235.156250	-63.246674
7278.222656	-64.650047
7321.289062	-64.322769
7364.355469	-63.813290
7407.421875	-64.401169
7450.488281	-64.644142
7493.554688	-64.443359
7536.621094	-64.969040
7579.687500	-64.366699
7622.753906	-64.625343
7665.820312	-64.462715
7708.886719	-64.636017
7751.953125	-65.465042
7795.019531	-65.378822
7838.085938	-64.893158
7881.152344	-65.491287
7924.218750	-65.635391
7967.285156	-65.597939
8010.351562	-65.653572
8053.417969	-65.877914
8096.484375	-65.831490
8139.550781	-65.972664
8182.617188	-66.050095
8225.683594	-65.990097
8268.750000	-65.954384
8311.816406	-66.251846
8354.882812	-66.377068
8397.949219	-66.265472
8441.015625	-66.358757
8484.082031	-66.362045
8527.148438	-66.469765
8570.214844	-66.636978
8613.281250	-66.607819
8656.347656	-66.685249
8699.414062	-66.782608
8742.480469	-66.834190
8785.546875	-66.833328
8828.613281	-66.917511
8871.679688	-66.955284
8914.746094	-66.984131
8957.812500	-67.057274
9000.878906	-67.085114
9043.945312	-67.168877
9087.011719	-67.192963
9130.078125	-67.232834
9173.144531	-67.286369
9216.210938	-67.327423
9259.277344	-67.372131
9302.343750	-67.421043
9345.410156	-67.440048
9388.476562	-67.526939
9431.542969	-67.569450
9474.609375	-67.601440
9517.675781	-67.629723
9560.742188	-67.704643
9603.808594	-67.728889
9646.875000	-67.780251
9689.941406	-67.820259
9733.007812	-67.845528
9776.074219	-67.886833
9819.140625	-67.939606
9862.207031	-67.976967
9905.273438	-68.022491
9948.339844	-68.041412
9991.406250	-68.095085
10034.472656	-68.118042
10077.539062	-68.160362
10120.605469	-68.200607
10163.671875	-68.236237
10206.738281	-68.273705
10249.804688	-68.308304
10292.871094	-68.351845
10335.937500	-68.384003
10379.003906	-68.432617
10422.070312	-68.457344
10465.136719	-68.496696
10508.203125	-68.527359
10551.269531	-68.574486
10594.335938	-68.601967
10637.402344	-68.626335
10680.468750	-68.667664
10723.535156	-68.712486
10766.601562	-68.724129
10809.667969	-68.758385
10852.734375	-68.809860
10895.800781	-68.836784
10938.867188	-68.857544
10981.933594	-68.898163
11025.000000	-68.918793
11068.066406	-68.957413
11111.132812	-69.006790
11154.199219	-69.003601
11197.265625	-69.066368
11240.332031	-69.079063
11283.398438	-69.125229
11326.464844	-69.158890
11369.531250	-69.157196
11412.597656	-69.194130
11455.664062	-69.244423
11498.730469	-69.257507
11541.796875	-69.305214
11584.863281	-69.326790
11627.929688	-69.360519
11670.996094	-69.388885
11714.062500	-69.403816
11757.128906	-69.438095
11800.195312	-69.465172
11843.261719	-69.488098
11886.328125	-69.515305
11929.394531	-69.546722
11972.460938	-69.576134
12015.527344	-69.602165
12058.593750	-69.627327
12101.660156	-69.649635
12144.726562	-69.683540
12187.792969	-69.697746
12230.859375	-69.725922
12273.925781	-69.750801
12316.992188	-69.783669
12360.058594	-69.804733
12403.125000	-69.830940
12446.191406	-69.858559
12489.257812	-69.891663
12532.324219	-69.907845
12575.390625	-69.935944
12618.457031	-69.960205
12661.523438	-69.968468
12704.589844	-70.007736
12747.656250	-70.021469
12790.722656	-70.053169
12833.789062	-70.084610
12876.855469	-70.111244
12919.921875	-70.125305
12962.988281	-70.151062
13006.054688	-70.157013
13049.121094	-70.181717
13092.187500	-70.227028
13135.253906	-70.241302
13178.320312	-70.250275
13221.386719	-70.283447
13264.453125	-70.301712
13307.519531	-70.338219
13350.585938	-70.316612
13393.652344	-70.354126
13436.718750	-70.382759
13479.785156	-70.419350
13522.851562	-70.434525
13565.917969	-70.445572
13608.984375	-70.481346
13652.050781	-70.507202
13695.117188	-70.496468
13738.183594	-70.524597
13781.250000	-70.547813
13824.316406	-70.551323
13867.382812	-70.577126
13910.449219	-70.606178
13953.515625	-70.637260
13996.582031	-70.660759
14039.648438	-70.666779
14082.714844	-70.710419
14125.781250	-70.656059
14168.847656	-70.729393
14211.914062	-70.753029
14254.980469	-70.792122
14298.046875	-70.766174
14341.113281	-70.810669
14384.179688	-70.816734
14427.246094	-70.832054
14470.312500	-70.883698
14513.378906	-70.905853
14556.445312	-70.863968
14599.511719	-70.905113
14642.578125	-70.944031
14685.644531	-70.900581
14728.710938	-70.972832
14771.777344	-70.924957
14814.843750	-70.959221
14857.910156	-71.014343
14900.976562	-71.035851
14944.042969	-71.048378
14987.109375	-71.071930
15030.175781	-71.035515
15073.242188	-71.164360
15116.308594	-71.068581
15159.375000	-71.127426
15202.441406	-71.101547
15245.507812	-71.130661
15288.574219	-71.172783
15331.640625	-71.260834
15374.707031	-71.191376
15417.773438	-71.170349
15460.839844	-71.262733
15503.906250	-71.241829
15546.972656	-71.177162
15590.039062	-71.309929
15633.105469	-71.319618
15676.171875	-71.255424
15719.238281	-71.289742
15762.304688	-71.282715
15805.371094	-71.308929
15848.437500	-71.363213
15891.503906	-71.338783
15934.570312	-71.349960
15977.636719	-71.433937
16020.703125	-71.436119
16063.769531	-71.367424
16106.835938	-71.470436
16149.902344	-71.450592
16192.968750	-71.482864
16236.035156	-71.420204
16279.101562	-71.478012
16322.167969	-71.476852
16365.234375	-71.487442
16408.300781	-71.525398
16451.367188	-71.638161
16494.433594	-71.559082
16537.500000	-71.562744
16580.566406	-71.535172
16623.632812	-71.607155
16666.699219	-71.560425
16709.765625	-71.685837
16752.832031	-71.619751
16795.898438	-71.594879
16838.964844	-71.696709
16882.031250	-71.702995
16925.097656	-71.546730
16968.164062	-71.705330
17011.230469	-71.727165
17054.296875	-71.589584
17097.363281	-71.695137
17140.429688	-71.657692
17183.496094	-71.747505
17226.562500	-71.570465
17269.628906	-71.695450
17312.695312	-71.748520
17355.761719	-71.743866
17398.828125	-71.800583
17441.894531	-71.647079
17484.960938	-71.956360
17528.027344	-71.875534
17571.093750	-71.752815
17614.160156	-71.771477
17657.226562	-71.816284
17700.292969	-71.819366
17743.359375	-71.738068
17786.425781	-72.022751
17829.492188	-71.818314
17872.558594	-71.863190
17915.625000	-71.629478
17958.691406	-71.965546
18001.757812	-71.926750
18044.824219	-71.952820
18087.890625	-72.003426
18130.957031	-71.917732
18174.023438	-72.109451
18217.089844	-72.005310
18260.156250	-71.786331
18303.222656	-71.894432
18346.289062	-71.946739
18389.355469	-72.003761
18432.421875	-72.039886
18475.488281	-71.975845
18518.554688	-72.105530
18561.621094	-71.938393
18604.687500	-72.006500
18647.753906	-71.904045
18690.820312	-72.015755
18733.886719	-71.868591
18776.953125	-72.031960
18820.019531	-72.074303
18863.085938	-72.115463
18906.152344	-72.237167
18949.218750	-72.054741
18992.285156	-72.210587
19035.351562	-72.084923
19078.417969	-71.896706
19121.484375	-72.096985
19164.550781	-72.047188
19207.617188	-72.234009
19250.683594	-72.068954
19293.750000	-72.176903
19336.816406	-72.082748
19379.882812	-72.008469
19422.949219	-72.157333
19466.015625	-72.046043
19509.082031	-72.160492
19552.148438	-72.110283
19595.214844	-72.095215
19638.281250	-72.236504
19681.347656	-71.939995
19724.414062	-72.246643
19767.480469	-72.135803
19810.546875	-72.133972
19853.613281	-72.177109
19896.679688	-72.096779
19939.746094	-72.345604
19982.812500	-72.044029
20025.878906	-72.062347
20068.945312	-72.332176
20112.011719	-71.950470
20155.078125	-72.168633
20198.144531	-72.272438
20241.210938	-72.170998
20284.277344	-72.150772
20327.343750	-72.175682
20370.410156	-72.208382
20413.476562	-72.360359
20456.542969	-72.193817
20499.609375	-72.099304
20542.675781	-72.274055
20585.742188	-72.127274
20628.808594	-72.250168
20671.875000	-72.327888
20714.941406	-72.111626
20758.007812	-72.343597
20801.074219	-72.097023
20844.140625	-72.123657
20887.207031	-72.103935
20930.273438	-72.400612
20973.339844	-72.173447
21016.406250	-72.415878
21059.472656	-72.488533
21102.539062	-72.181015
21145.605469	-72.205696
21188.671875	-72.141579
21231.738281	-72.033295
21274.804688	-72.293968
21317.871094	-72.291107
21360.937500	-72.034767
21404.003906	-72.335266
21447.070312	-72.199440
21490.136719	-72.375008
21533.203125	-72.275970
21576.269531	-72.320465
21619.335938	-72.227791
21662.402344	-72.198410
21705.468750	-72.114464
21748.535156	-72.472168
21791.601562	-72.166725
21834.667969	-72.378365
21877.734375	-72.271812
21920.800781	-72.323883
21963.867188	-72.275803
22006.933594	-71.975906
