Frequency (Hz)	Level (dB)
43.066406	-50.425819
86.132812	-59.479389
129.199219	-60.065392
172.265625	-62.720325
215.332031	-63.706795
258.398438	-64.301254
301.464844	-65.424767
344.531250	-64.571999
387.597656	-65.095985
430.664062	-65.138840
473.730469	-65.210899
516.796875	-64.891029
559.863281	-64.020058
602.929688	-65.138451
645.996094	-64.471535
689.062500	-64.170326
732.128906	-63.553593
775.195312	-64.959663
818.261719	-63.524025
861.328125	-63.380669
904.394531	-63.440041
947.460938	-64.547745
990.527344	-61.961689
1033.593750	-61.168007
1076.660156	-63.036343
1119.726562	-62.079872
1162.792969	-60.255188
1205.859375	-61.476517
1248.925781	-61.645138
1291.992188	-60.477165
1335.058594	-60.051556
1378.125000	-59.851471
1421.191406	-60.851616
1464.257812	-60.440022
1507.324219	-58.069939
1550.390625	-58.791065
1593.457031	-58.572929
1636.523438	-58.161594
1679.589844	-55.761147
1722.656250	-55.453312
1765.722656	-56.792118
1808.789062	-54.967339
1851.855469	-55.081112
1894.921875	-54.325249
1937.988281	-53.508728
1981.054688	-52.437218
2024.121094	-50.286301
2067.187500	-49.221539
2110.253906	-48.654106
2153.320312	-45.680374
2196.386719	-43.320995
2239.453125	-41.086361
2282.519531	-37.078526
2325.585938	-25.073463
2368.652344	-28.302027
2411.718750	-38.659409
2454.785156	-42.601524
2497.851562	-46.562889
2540.917969	-43.642063
2583.984375	-48.129498
2627.050781	-48.819462
2670.117188	-51.047340
2713.183594	-50.114902
2756.250000	-51.887131
2799.316406	-53.271526
2842.382812	-52.681042
2885.449219	-55.407295
2928.515625	-54.247364
2971.582031	-55.799633
3014.648438	-55.449162
3057.714844	-56.658806
3100.781250	-57.420586
3143.847656	-58.553185
3186.914062	-57.843616
3229.980469	-58.854004
3273.046875	-59.643139
3316.113281	-60.151466
3359.179688	-59.916710
3402.246094	-60.184719
3445.312500	-59.424316
3488.378906	-61.229229
3531.445312	-60.394524
3574.511719	-59.457088
3617.578125	-50.989254
3660.644531	-53.979420
3703.710938	-59.558300
3746.777344	-63.894474
3789.843750	-65.630371
3832.910156	-64.544502
3875.976562	-64.934517
3919.042969	-64.230614
3962.109375	-65.260185
4005.175781	-64.910507
4048.242188	-65.012344
4091.308594	-64.667473
4134.375000	-66.285332
4177.441406	-66.561203
4220.507812	-64.938583
4263.574219	-66.890739
4306.640625	-67.778389
4349.707031	-66.679420
4392.773438	-66.138206
4435.839844	-66.514816
4478.906250	-66.271278
4521.972656	-65.875755
4565.039062	-59.547924
4608.105469	-50.070831
4651.171875	-46.433517
4694.238281	-56.403786
4737.304688	-58.587749
4780.371094	-56.085297
4823.437500	-64.034401
4866.503906	-65.611481
4909.570312	-66.210304
4952.636719	-64.756821
4995.703125	-66.653778
5038.769531	-65.900154
5081.835938	-65.583099
5124.902344	-66.682442
5167.968750	-65.904648
5211.035156	-65.717003
5254.101562	-66.338455
5297.167969	-65.659302
5340.234375	-64.954979
5383.300781	-65.011650
5426.367188	-65.799400
5469.433594	-66.611938
5512.500000	-67.110641
5555.566406	-66.458672
5598.632812	-67.069611
5641.699219	-68.630943
5684.765625	-68.392166
5727.832031	-69.911621
5770.898438	-69.576172
5813.964844	-66.455360
5857.031250	-67.989594
5900.097656	-67.634346
5943.164062	-66.416084
5986.230469	-67.584251
6029.296875	-71.435432
6072.363281	-67.544968
6115.429688	-67.025826
6158.496094	-65.714409
6201.562500	-53.132877
6244.628906	-55.819237
6287.695312	-61.564457
6330.761719	-62.790596
6373.828125	-62.794659
6416.894531	-62.756992
6459.960938	-64.993713
6503.027344	-60.456738
6546.093750	-61.026833
6589.160156	-61.838051
6632.226562	-53.947536
6675.292969	-48.068729
6718.359375	-58.646782
6761.425781	-64.576332
6804.492188	-65.717865
6847.558594	-66.253578
6890.625000	-63.715214
6933.691406	-64.667831
6976.757812	-65.906013
7019.824219	-65.590073
7062.890625	-65.304863
7105.957031	-66.703979
7149.023438	-68.666473
7192.089844	-66.183983
7235.156250	-66.725517
7278.222656	-65.367241
7321.289062	-64.783279
7364.355469	-49.493591
7407.421875	-60.390907
7450.488281	-61.041687
7493.554688	-57.424942
7536.621094	-48.040054
7579.687500	-44.401352
7622.753906	-58.749210
7665.820312	-61.966534
7708.886719	-61.745998
7751.953125	-65.067810
7795.019531	-67.845566
7838.085938	-68.038681
7881.152344	-68.520386
7924.218750	-72.498840
7967.285156	-72.841530
8010.351562	-71.804771
8053.417969	-69.531502
8096.484375	-71.922173
8139.550781	-71.531250
8182.617188	-72.797455
8225.683594	-73.744858
8268.750000	-73.006706
8311.816406	-73.417465
8354.882812	-73.973892
8397.949219	-72.797722
8441.015625	-73.187111
8484.082031	-74.165848
8527.148438	-74.296463
8570.214844	-74.876358
8613.281250	-74.459084
8656.347656	-74.220032
8699.414062	-75.340118
8742.480469	-74.373596
8785.546875	-73.568085
8828.613281	-75.222839
8871.679688	-72.876701
8914.746094	-73.917755
8957.812500	-70.925224
9000.878906	-73.046951
9043.945312	-73.793465
9087.011719	-63.729240
9130.078125	-65.363983
9173.144531	-70.804436
9216.210938	-72.574715
9259.277344	-72.170547
9302.343750	-73.362701
9345.410156	-75.320694
9388.476562	-73.936058
9431.542969	-73.082191
9474.609375	-74.131676
9517.675781	-74.651810
9560.742188	-74.347610
9603.808594	-74.324577
9646.875000	-74.227173
9689.941406	-75.446671
9733.007812	-75.191711
9776.074219	-75.092018
9819.140625	-75.188271
9862.207031	-75.128693
9905.273438	-75.073509
9948.339844	-75.337540
9991.406250	-75.207458
10034.472656	-75.918777
10077.539062	-75.091415
10120.605469	-75.655479
10163.671875	-75.061127
10206.738281	-75.326790
10249.804688	-75.579765
10292.871094	-75.586906
10335.937500	-75.646263
10379.003906	-75.692398
10422.070312	-75.529785
10465.136719	-75.610283
10508.203125	-75.646660
10551.269531	-75.740578
10594.335938	-75.764000
10637.402344	-75.797379
10680.468750	-75.876892
10723.535156	-75.929832
10766.601562	-75.754662
10809.667969	-75.830406
10852.734375	-76.030998
10895.800781	-75.947929
10938.867188	-75.924995
10981.933594	-76.018738
11025.000000	-76.235558
11068.066406	-76.042908
11111.132812	-75.924965
11154.199219	-76.142273
11197.265625	-76.141212
11240.332031	-75.975838
11283.398438	-76.031723
11326.464844	-75.858612
11369.531250	-76.032043
11412.597656	-75.252815
11455.664062	-75.968979
11498.730469	-74.760208
11541.796875	-75.712105
11584.863281	-75.856522
11627.929688	-75.578903
11670.996094	-73.759636
11714.062500	-74.490883
11757.128906	-73.768837
11800.195312	-71.872978
11843.261719	-61.116383
11886.328125	-64.422447
11929.394531	-72.769936
11972.460938	-75.929741
12015.527344	-76.863075
12058.593750	-77.067986
12101.660156	-78.580643
12144.726562	-77.983459
12187.792969	-77.703461
12230.859375	-77.304375
12273.925781	-77.369324
12316.992188	-75.636093
12360.058594	-75.746178
12403.125000	-75.891945
12446.191406	-62.954113
12489.257812	-69.877594
12532.324219	-72.407372
12575.390625	-75.658478
12618.457031	-76.115288
12661.523438	-76.009300
12704.589844	-76.892761
12747.656250	-77.185951
12790.722656	-77.432732
12833.789062	-78.081947
12876.855469	-77.209221
12919.921875	-77.566246
12962.988281	-77.416466
13006.054688	-78.046242
13049.121094	-77.706963
13092.187500	-77.683464
13135.253906	-78.040390
13178.320312	-78.102684
13221.386719	-78.065857
13264.453125	-77.856651
13307.519531	-78.323936
13350.585938	-78.268608
13393.652344	-78.182854
13436.718750	-78.166893
13479.785156	-78.230278
13522.851562	-78.118256
13565.917969	-78.121338
13608.984375	-78.256714
13652.050781	-78.201225
13695.117188	-78.201469
13738.183594	-76.630646
13781.250000	-78.189445
13824.316406	-78.348427
13867.382812	-78.414520
13910.449219	-78.221375
13953.515625	-78.262276
13996.582031	-78.304382
14039.648438	-78.435463
14082.714844	-78.403618
14125.781250	-78.283012
14168.847656	-78.454117
14211.914062	-78.476929
14254.980469	-78.467468
14298.046875	-78.212402
14341.113281	-78.280983
14384.179688	-78.740524
14427.246094	-78.981895
14470.312500	-78.733673
14513.378906	-78.711502
14556.445312	-78.169533
14599.511719	-77.795631
14642.578125	-77.021080
14685.644531	-71.996727
14728.710938	-77.023651
14771.777344	-77.379677
14814.843750	-77.405624
14857.910156	-77.645538
14900.976562	-78.027229
14944.042969	-78.052841
14987.109375	-77.838135
15030.175781	-77.501038
15073.242188	-75.833946
15116.308594	-77.729118
15159.375000	-78.309357
15202.441406	-78.625114
15245.507812	-78.430336
15288.574219	-78.483902
15331.640625	-78.191536
15374.707031	-78.430283
15417.773438	-78.660545
15460.839844	-78.682037
15503.906250	-78.901184
15546.972656	-78.702446
15590.039062	-78.660545
15633.105469	-78.640236
15676.171875	-78.842339
15719.238281	-78.780937
15762.304688	-78.707970
15805.371094	-78.554260
15848.437500	-78.651733
15891.503906	-79.800240
15934.570312	-79.162956
15977.636719	-79.502754
16020.703125	-79.518089
16063.769531	-79.157402
16106.835938	-79.221329
16149.902344	-79.183090
16192.968750	-79.143341
16236.035156	-79.077980
16279.101562	-79.144722
16322.167969	-79.202927
16365.234375	-79.172073
16408.300781	-79.172462
16451.367188	-79.225487
16494.433594	-79.169960
16537.500000	-79.193665
16580.566406	-79.186615
16623.632812	-79.184174
16666.699219	-79.261421
16709.765625	-79.260117
16752.832031	-79.205833
16795.898438	-79.305893
16838.964844	-79.255157
16882.031250	-79.253159
16925.097656	-79.262596
16968.164062	-79.280373
17011.230469	-79.330132
17054.296875	-79.335732
17097.363281	-79.295067
17140.429688	-79.437302
17183.496094	-79.281532
17226.562500	-79.196587
17269.628906	-79.327187
17312.695312	-79.303375
17355.761719	-79.327728
17398.828125	-79.402046
17441.894531	-79.460915
17484.960938	-79.593437
17528.027344	-79.330956
17571.093750	-79.390190
17614.160156	-79.454964
17657.226562	-79.346771
17700.292969	-79.518723
17743.359375	-79.486122
17786.425781	-79.600487
17829.492188	-79.533829
17872.558594	-79.419716
17915.625000	-79.568001
17958.691406	-79.584496
18001.757812	-79.489372
18044.824219	-79.544556
18087.890625	-79.586548
18130.957031	-79.591759
18174.023438	-79.536690
18217.089844	-79.573517
18260.156250	-79.467651
18303.222656	-79.595146
18346.289062	-79.603783
18389.355469	-79.628601
18432.421875	-79.655205
18475.488281	-79.662613
18518.554688	-79.597931
18561.621094	-79.695488
18604.687500	-79.797318
18647.753906	-79.535011
18690.820312	-79.498573
18733.886719	-79.643951
18776.953125	-79.598732
18820.019531	-79.766853
18863.085938	-79.725662
18906.152344	-79.684662
18949.218750	-79.727768
18992.285156	-79.660172
19035.351562	-79.837677
19078.417969	-79.676796
19121.484375	-79.790176
19164.550781	-79.698471
19207.617188	-79.867882
19250.683594	-79.647591
19293.750000	-79.762741
19336.816406	-79.710342
19379.882812	-79.726654
19422.949219	-79.723228
19466.015625	-79.537376
19509.082031	-79.760323
19552.148438	-79.752518
19595.214844	-79.643623
19638.281250	-79.728592
19681.347656	-79.844070
19724.414062	-79.683319
19767.480469	-79.721596
19810.546875	-79.836670
19853.613281	-79.822311
19896.679688	-79.679085
19939.746094	-79.687508
19982.812500	-79.801476
20025.878906	-79.839630
20068.945312	-79.840683
20112.011719	-79.850700
20155.078125	-79.931648
20198.144531	-79.689598
20241.210938	-79.771408
20284.277344	-79.817009
20327.343750	-79.960533
20370.410156	-79.858116
20413.476562	-79.909546
20456.542969	-79.780907
20499.609375	-79.847855
20542.675781	-79.906960
20585.742188	-79.925980
20628.808594	-79.875633
20671.875000	-79.892708
20714.941406	-79.828568
20758.007812	-79.909424
20801.074219	-79.790596
20844.140625	-79.873039
20887.207031	-79.985611
20930.273438	-79.934860
20973.339844	-79.820992
21016.406250	-79.870544
21059.472656	-79.894913
21102.539062	-79.872009
21145.605469	-79.905624
21188.671875	-79.907234
21231.738281	-79.880539
21274.804688	-79.989349
21317.871094	-80.013077
21360.937500	-79.825409
21404.003906	-79.983597
21447.070312	-79.817421
21490.136719	-79.852882
21533.203125	-79.755249
21576.269531	-79.778671
21619.335938	-79.774559
21662.402344	-79.861382
21705.468750	-79.939896
21748.535156	-79.890076
21791.601562	-79.691811
21834.667969	-79.889465
21877.734375	-79.920677
21920.800781	-79.938553
21963.867188	-79.806709
22006.933594	-79.896843
