Frequency (Hz)	Level (dB)
43.066406	-52.652016
86.132812	-53.824474
129.199219	-55.511063
172.265625	-55.567924
215.332031	-56.049812
258.398438	-56.382442
301.464844	-56.646278
344.531250	-56.086483
387.597656	-55.977730
430.664062	-56.050575
473.730469	-55.595375
516.796875	-55.729702
559.863281	-55.089176
602.929688	-55.207016
645.996094	-55.841373
689.062500	-55.308613
732.128906	-56.050911
775.195312	-54.494289
818.261719	-55.406773
861.328125	-55.199036
904.394531	-54.450825
947.460938	-54.007778
990.527344	-54.296722
1033.593750	-53.155548
1076.660156	-53.890987
1119.726562	-52.911671
1162.792969	-53.329189
1205.859375	-53.599453
1248.925781	-53.130974
1291.992188	-53.487225
1335.058594	-52.816067
1378.125000	-52.084793
1421.191406	-52.627079
1464.257812	-52.517471
1507.324219	-50.420139
1550.390625	-51.509178
1593.457031	-49.335873
1636.523438	-49.063683
1679.589844	-48.571861
1722.656250	-47.207787
1765.722656	-48.061981
1808.789062	-47.454403
1851.855469	-46.961964
1894.921875	-46.497890
1937.988281	-45.357006
1981.054688	-44.379795
2024.121094	-41.467186
2067.187500	-42.061787
2110.253906	-39.144150
2153.320312	-37.920212
2196.386719	-36.045238
2239.453125	-32.234013
2282.519531	-29.482452
2325.585938	-17.346004
2368.652344	-20.519476
2411.718750	-30.368866
2454.785156	-32.913479
2497.851562	-33.492260
2540.917969	-42.441189
2583.984375	-40.934238
2627.050781	-42.239227
2670.117188	-42.524143
2713.183594	-44.494114
2756.250000	-45.881050
2799.316406	-48.191570
2842.382812	-48.197243
2885.449219	-48.064499
2928.515625	-50.045555
2971.582031	-47.290680
3014.648438	-49.567913
3057.714844	-50.188881
3100.781250	-49.308540
3143.847656	-52.214222
3186.914062	-50.760094
3229.980469	-52.243557
3273.046875	-53.421700
3316.113281	-54.481548
3359.179688	-55.049614
3402.246094	-55.837463
3445.312500	-54.109970
3488.378906	-57.607479
3531.445312	-58.166779
3574.511719	-57.528679
3617.578125	-44.612892
3660.644531	-45.668278
3703.710938	-51.798172
3746.777344	-53.033360
3789.843750	-55.658291
3832.910156	-54.682377
3875.976562	-56.619614
3919.042969	-55.732681
3962.109375	-55.566982
4005.175781	-56.579884
4048.242188	-56.819462
4091.308594	-55.779438
4134.375000	-56.830254
4177.441406	-56.788754
4220.507812	-56.312096
4263.574219	-56.397949
4306.640625	-55.306190
4349.707031	-56.281422
4392.773438	-54.896320
4435.839844	-54.906101
4478.906250	-53.178875
4521.972656	-52.512905
4565.039062	-48.536110
4608.105469	-38.972515
4651.171875	-37.629860
4694.238281	-48.462975
4737.304688	-48.638351
4780.371094	-48.644604
4823.437500	-52.728165
4866.503906	-55.773209
4909.570312	-54.890110
4952.636719	-57.462929
4995.703125	-57.319462
5038.769531	-57.117664
5081.835938	-58.815403
5124.902344	-56.342632
5167.968750	-57.626812
5211.035156	-56.249008
5254.101562	-56.439583
5297.167969	-59.252827
5340.234375	-55.403053
5383.300781	-55.791386
5426.367188	-58.645084
5469.433594	-55.269501
5512.500000	-56.134323
5555.566406	-57.242432
5598.632812	-58.376232
5641.699219	-60.962608
5684.765625	-61.045193
5727.832031	-60.041336
5770.898438	-59.566227
5813.964844	-59.277580
5857.031250	-58.444996
5900.097656	-59.660522
5943.164062	-58.118992
5986.230469	-57.287346
6029.296875	-55.891644
6072.363281	-58.665714
6115.429688	-55.263119
6158.496094	-51.431007
6201.562500	-40.142242
6244.628906	-44.800377
6287.695312	-54.064259
6330.761719	-53.078197
6373.828125	-51.676701
6416.894531	-51.899681
6459.960938	-52.405125
6503.027344	-52.126423
6546.093750	-46.230209
6589.160156	-46.072563
6632.226562	-38.287022
6675.292969	-35.928669
6718.359375	-47.341541
6761.425781	-51.728058
6804.492188	-52.296661
6847.558594	-52.146877
6890.625000	-57.289455
6933.691406	-50.345551
6976.757812	-55.151363
7019.824219	-53.556232
7062.890625	-51.372078
7105.957031	-54.624004
7149.023438	-54.603886
7192.089844	-54.033615
7235.156250	-52.474922
7278.222656	-49.934166
7321.289062	-47.980232
7364.355469	-39.163662
7407.421875	-53.246651
7450.488281	-45.723064
7493.554688	-45.328869
7536.621094	-33.442551
7579.687500	-30.556454
7622.753906	-44.138931
7665.820312	-45.828594
7708.886719	-49.047596
7751.953125	-50.890366
7795.019531	-50.973656
7838.085938	-52.384178
7881.152344	-55.705402
7924.218750	-55.213535
7967.285156	-57.406601
8010.351562	-57.027023
8053.417969	-58.103828
8096.484375	-57.812656
8139.550781	-58.991924
8182.617188	-60.640316
8225.683594	-61.298119
8268.750000	-61.395237
8311.816406	-61.533581
8354.882812	-62.378887
8397.949219	-62.074673
8441.015625	-63.018909
8484.082031	-62.520287
8527.148438	-64.105774
8570.214844	-65.472519
8613.281250	-64.315163
8656.347656	-65.839661
8699.414062	-64.272865
8742.480469	-61.981564
8785.546875	-64.388771
8828.613281	-62.533096
8871.679688	-59.731949
8914.746094	-60.474751
8957.812500	-53.304199
9000.878906	-57.907764
9043.945312	-60.507389
9087.011719	-48.313702
9130.078125	-50.893291
9173.144531	-60.243134
9216.210938	-58.432308
9259.277344	-61.752632
9302.343750	-62.285751
9345.410156	-60.350613
9388.476562	-61.835587
9431.542969	-69.153633
9474.609375	-65.329277
9517.675781	-68.530754
9560.742188	-67.854271
9603.808594	-67.615646
9646.875000	-65.773041
9689.941406	-68.516090
9733.007812	-68.091133
9776.074219	-68.437050
9819.140625	-68.731430
9862.207031	-69.077400
9905.273438	-68.831886
9948.339844	-69.931610
9991.406250	-71.377106
10034.472656	-68.673012
10077.539062	-63.489841
10120.605469	-59.888306
10163.671875	-57.521351
10206.738281	-59.031921
10249.804688	-64.176262
10292.871094	-65.552071
10335.937500	-67.083817
10379.003906	-67.131363
10422.070312	-66.207253
10465.136719	-67.174309
10508.203125	-68.243759
10551.269531	-68.301514
10594.335938	-68.163467
10637.402344	-68.380928
10680.468750	-68.420639
10723.535156	-68.600517
10766.601562	-68.591759
10809.667969	-68.362068
10852.734375	-68.830391
10895.800781	-68.548584
10938.867188	-68.685570
10981.933594	-68.718582
11025.000000	-69.036888
11068.066406	-68.859970
11111.132812	-69.050522
11154.199219	-68.448441
11197.265625	-68.154831
11240.332031	-68.521049
11283.398438	-68.518715
11326.464844	-67.423950
11369.531250	-68.070091
11412.597656	-66.414307
11455.664062	-66.761986
11498.730469	-67.543900
11541.796875	-66.099487
11584.863281	-65.388702
11627.929688	-64.824921
11670.996094	-64.825462
11714.062500	-63.831535
11757.128906	-61.517559
11800.195312	-58.803978
11843.261719	-46.522247
11886.328125	-51.360115
11929.394531	-61.873219
11972.460938	-61.834091
12015.527344	-63.553284
12058.593750	-65.856972
12101.660156	-69.530045
12144.726562	-68.584755
12187.792969	-72.132210
12230.859375	-68.183784
12273.925781	-68.077423
12316.992188	-68.688896
12360.058594	-69.827301
12403.125000	-69.396957
12446.191406	-61.850006
12489.257812	-63.940468
12532.324219	-69.148979
12575.390625	-69.583885
12618.457031	-69.608261
12661.523438	-71.893921
12704.589844	-72.029503
12747.656250	-71.423050
12790.722656	-73.189613
12833.789062	-72.047768
12876.855469	-72.108711
12919.921875	-72.825027
12962.988281	-72.008751
13006.054688	-71.673172
13049.121094	-73.057030
13092.187500	-71.916290
13135.253906	-72.400566
13178.320312	-72.819748
13221.386719	-71.835228
13264.453125	-72.373093
13307.519531	-72.420517
13350.585938	-71.878021
13393.652344	-72.306099
13436.718750	-72.375694
13479.785156	-71.814331
13522.851562	-72.659790
13565.917969	-72.547340
13608.984375	-71.468475
13652.050781	-71.827530
13695.117188	-68.763611
13738.183594	-72.298386
13781.250000	-73.052826
13824.316406	-72.100067
13867.382812	-73.054619
13910.449219	-73.200233
13953.515625	-72.888702
13996.582031	-72.923569
14039.648438	-73.278358
14082.714844	-72.586525
14125.781250	-73.151733
14168.847656	-72.968346
14211.914062	-72.686432
14254.980469	-73.566200
14298.046875	-71.845016
14341.113281	-74.158211
14384.179688	-72.984055
14427.246094	-73.206650
14470.312500	-73.868561
14513.378906	-70.442627
14556.445312	-69.680656
14599.511719	-69.059448
14642.578125	-63.825024
14685.644531	-61.765118
14728.710938	-67.174385
14771.777344	-71.312950
14814.843750	-70.930511
14857.910156	-71.357269
14900.976562	-72.066040
14944.042969	-70.395004
14987.109375	-73.313347
15030.175781	-68.457870
15073.242188	-61.527489
15116.308594	-63.210468
15159.375000	-69.427734
15202.441406	-70.319336
15245.507812	-71.356094
15288.574219	-70.492149
15331.640625	-70.680626
15374.707031	-70.202271
15417.773438	-68.409714
15460.839844	-68.345757
15503.906250	-69.488716
15546.972656	-71.492035
15590.039062	-69.777756
15633.105469	-70.073921
15676.171875	-70.251389
15719.238281	-67.519714
15762.304688	-67.147171
15805.371094	-64.778412
15848.437500	-61.331833
15891.503906	-67.769791
15934.570312	-71.008705
15977.636719	-68.664803
16020.703125	-69.192345
16063.769531	-75.410362
16106.835938	-74.174690
16149.902344	-73.837349
16192.968750	-74.103165
16236.035156	-73.070526
16279.101562	-73.634125
16322.167969	-73.518936
16365.234375	-73.517311
16408.300781	-74.026901
16451.367188	-73.634781
16494.433594	-73.658783
16537.500000	-73.624092
16580.566406	-73.531288
16623.632812	-73.721863
16666.699219	-73.692429
16709.765625	-73.692680
16752.832031	-73.781975
16795.898438	-73.658714
16838.964844	-73.641968
16882.031250	-73.727715
16925.097656	-73.663666
16968.164062	-73.768562
17011.230469	-73.736237
17054.296875	-73.765366
17097.363281	-73.856041
17140.429688	-73.819901
17183.496094	-73.753471
17226.562500	-73.772545
17269.628906	-73.849144
17312.695312	-73.877266
17355.761719	-73.832710
17398.828125	-73.856598
17441.894531	-73.935539
17484.960938	-73.972565
17528.027344	-73.877289
17571.093750	-73.905182
17614.160156	-73.977318
17657.226562	-73.939957
17700.292969	-73.940613
17743.359375	-73.897522
17786.425781	-73.921135
17829.492188	-73.974846
17872.558594	-73.958565
17915.625000	-74.011955
17958.691406	-74.034286
18001.757812	-74.024651
18044.824219	-74.051292
18087.890625	-74.046768
18130.957031	-74.071953
18174.023438	-74.061478
18217.089844	-74.043159
18260.156250	-74.111649
18303.222656	-74.011459
18346.289062	-74.101768
18389.355469	-74.147644
18432.421875	-74.123253
18475.488281	-74.107628
18518.554688	-74.098763
18561.621094	-74.143745
18604.687500	-74.174774
18647.753906	-74.172470
18690.820312	-74.145515
18733.886719	-74.077721
18776.953125	-74.097145
18820.019531	-74.187469
18863.085938	-74.153633
18906.152344	-74.147964
18949.218750	-74.143242
18992.285156	-74.176849
19035.351562	-74.216629
19078.417969	-74.244980
19121.484375	-74.271065
19164.550781	-74.314651
19207.617188	-74.266312
19250.683594	-74.225922
19293.750000	-74.235443
19336.816406	-74.199448
19379.882812	-74.289558
19422.949219	-74.240814
19466.015625	-74.314827
19509.082031	-74.265015
19552.148438	-74.317535
19595.214844	-74.309044
19638.281250	-74.267044
19681.347656	-74.292397
19724.414062	-74.310707
19767.480469	-74.316841
19810.546875	-74.327087
19853.613281	-74.316208
19896.679688	-74.372986
19939.746094	-74.252800
19982.812500	-74.312370
20025.878906	-74.365128
20068.945312	-74.431725
20112.011719	-74.403458
20155.078125	-74.407921
20198.144531	-74.397339
20241.210938	-74.371056
20284.277344	-74.410500
20327.343750	-74.281441
20370.410156	-74.340729
20413.476562	-74.435989
20456.542969	-74.367531
20499.609375	-74.415627
20542.675781	-74.375046
20585.742188	-74.395081
20628.808594	-74.415268
20671.875000	-74.363472
20714.941406	-74.334717
20758.007812	-74.384453
20801.074219	-74.412384
20844.140625	-74.342766
20887.207031	-74.432503
20930.273438	-74.378288
20973.339844	-74.426254
21016.406250	-74.369438
21059.472656	-74.469025
21102.539062	-74.395912
21145.605469	-74.414566
21188.671875	-74.292252
21231.738281	-74.484367
21274.804688	-74.437370
21317.871094	-74.381233
21360.937500	-74.460358
21404.003906	-74.335747
21447.070312	-74.406197
21490.136719	-74.408562
21533.203125	-74.397598
21576.269531	-74.394142
21619.335938	-74.427376
21662.402344	-74.456261
21705.468750	-74.458641
21748.535156	-74.508636
21791.601562	-74.404259
21834.667969	-74.462189
21877.734375	-74.481728
21920.800781	-74.395561
21963.867188	-74.580933
22006.933594	-74.491081
