Frequency (Hz)	Level (dB)
43.066406	-56.012157
86.132812	-57.597149
129.199219	-59.235855
172.265625	-60.356106
215.332031	-60.466526
258.398438	-61.975914
301.464844	-61.710888
344.531250	-61.307449
387.597656	-61.027428
430.664062	-60.883869
473.730469	-61.151318
516.796875	-60.947433
559.863281	-60.482502
602.929688	-61.066528
645.996094	-61.070721
689.062500	-60.549160
732.128906	-59.914085
775.195312	-59.137917
818.261719	-60.074955
861.328125	-59.725113
904.394531	-59.663837
947.460938	-58.675629
990.527344	-58.977863
1033.593750	-59.178360
1076.660156	-59.292507
1119.726562	-58.469917
1162.792969	-57.801941
1205.859375	-57.677387
1248.925781	-57.055084
1291.992188	-56.740967
1335.058594	-56.793240
1378.125000	-56.713661
1421.191406	-54.692688
1464.257812	-55.777840
1507.324219	-55.533009
1550.390625	-55.724613
1593.457031	-55.177505
1636.523438	-55.198814
1679.589844	-52.636536
1722.656250	-52.751621
1765.722656	-51.316341
1808.789062	-50.894409
1851.855469	-49.477940
1894.921875	-49.612194
1937.988281	-48.396313
1981.054688	-47.430496
2024.121094	-46.860470
2067.187500	-45.794426
2110.253906	-44.619396
2153.320312	-42.645870
2196.386719	-40.650482
2239.453125	-37.642033
2282.519531	-32.454548
2325.585938	-20.627201
2368.652344	-23.935604
2411.718750	-32.634094
2454.785156	-38.075371
2497.851562	-37.966751
2540.917969	-43.656460
2583.984375	-45.125340
2627.050781	-46.739697
2670.117188	-47.705307
2713.183594	-48.307972
2756.250000	-49.254017
2799.316406	-50.536903
2842.382812	-50.715843
2885.449219	-51.544903
2928.515625	-52.437351
2971.582031	-51.542358
3014.648438	-50.412804
3057.714844	-53.899052
3100.781250	-53.766068
3143.847656	-55.195358
3186.914062	-55.056927
3229.980469	-55.980785
3273.046875	-56.265022
3316.113281	-56.591499
3359.179688	-55.099113
3402.246094	-57.126961
3445.312500	-57.134747
3488.378906	-56.758327
3531.445312	-55.971146
3574.511719	-54.765945
3617.578125	-47.460449
3660.644531	-52.999748
3703.710938	-59.879185
3746.777344	-61.709946
3789.843750	-61.134159
3832.910156	-61.121387
3875.976562	-61.476341
3919.042969	-62.861816
3962.109375	-61.706917
4005.175781	-61.274868
4048.242188	-62.265823
4091.308594	-62.681232
4134.375000	-61.630867
4177.441406	-61.888763
4220.507812	-61.561539
4263.574219	-61.004768
4306.640625	-61.204563
4349.707031	-60.941616
4392.773438	-61.022820
4435.839844	-60.813412
4478.906250	-59.156174
4521.972656	-57.297249
4565.039062	-52.704445
4608.105469	-44.263580
4651.171875	-41.699322
4694.238281	-51.120663
4737.304688	-55.359760
4780.371094	-53.674301
4823.437500	-60.112583
4866.503906	-61.576321
4909.570312	-64.277039
4952.636719	-65.178383
4995.703125	-64.518089
5038.769531	-62.175331
5081.835938	-61.928566
5124.902344	-62.130489
5167.968750	-61.263447
5211.035156	-60.381290
5254.101562	-62.375374
5297.167969	-62.624340
5340.234375	-61.721535
5383.300781	-61.532784
5426.367188	-63.090012
5469.433594	-63.333469
5512.500000	-62.807934
5555.566406	-61.712212
5598.632812	-62.181393
5641.699219	-65.619278
5684.765625	-67.010788
5727.832031	-67.119446
5770.898438	-66.875481
5813.964844	-64.120750
5857.031250	-62.419273
5900.097656	-63.339401
5943.164062	-62.918896
5986.230469	-66.674965
6029.296875	-63.703823
6072.363281	-65.008835
6115.429688	-60.962742
6158.496094	-58.184883
6201.562500	-43.276794
6244.628906	-49.004539
6287.695312	-55.704144
6330.761719	-57.237770
6373.828125	-59.992340
6416.894531	-59.131779
6459.960938	-57.668777
6503.027344	-57.700874
6546.093750	-54.478149
6589.160156	-52.090225
6632.226562	-44.902390
6675.292969	-42.470718
6718.359375	-51.012550
6761.425781	-56.701656
6804.492188	-58.771721
6847.558594	-61.722229
6890.625000	-59.598595
6933.691406	-59.860401
6976.757812	-61.687153
7019.824219	-66.679329
7062.890625	-60.250675
7105.957031	-64.754128
7149.023438	-64.494705
7192.089844	-63.931995
7235.156250	-63.745396
7278.222656	-63.418316
7321.289062	-58.591984
7364.355469	-44.105286
7407.421875	-60.111328
7450.488281	-55.734161
7493.554688	-50.038418
7536.621094	-41.452763
7579.687500	-37.915688
7622.753906	-50.070583
7665.820312	-55.135460
7708.886719	-55.799553
7751.953125	-58.672890
7795.019531	-61.031609
7838.085938	-64.658722
7881.152344	-63.022015
7924.218750	-63.741844
7967.285156	-62.292206
8010.351562	-64.673851
8053.417969	-62.134743
8096.484375	-66.550529
8139.550781	-65.689034
8182.617188	-63.048077
8225.683594	-66.484474
8268.750000	-66.512367
8311.816406	-66.602882
8354.882812	-67.397507
8397.949219	-67.417015
8441.015625	-68.232773
8484.082031	-68.927666
8527.148438	-69.009506
8570.214844	-69.399933
8613.281250	-70.068535
8656.347656	-69.886757
8699.414062	-70.054489
8742.480469	-70.254936
8785.546875	-70.298668
8828.613281	-69.735870
8871.679688	-68.835831
8914.746094	-66.420776
8957.812500	-62.190269
9000.878906	-70.699471
9043.945312	-70.180481
9087.011719	-58.672764
9130.078125	-59.496777
9173.144531	-64.376511
9216.210938	-64.947456
9259.277344	-65.243370
9302.343750	-69.236320
9345.410156	-69.567924
9388.476562	-70.688805
9431.542969	-70.287506
9474.609375	-71.530289
9517.675781	-70.981995
9560.742188	-70.877525
9603.808594	-70.770363
9646.875000	-71.533417
9689.941406	-71.071289
9733.007812	-71.293747
9776.074219	-71.252945
9819.140625	-71.389290
9862.207031	-71.191933
9905.273438	-71.499191
9948.339844	-71.521957
9991.406250	-72.093788
10034.472656	-72.095680
10077.539062	-72.996971
10120.605469	-71.922585
10163.671875	-70.200897
10206.738281	-71.212761
10249.804688	-71.132401
10292.871094	-71.392868
10335.937500	-71.791779
10379.003906	-72.132446
10422.070312	-72.147812
10465.136719	-72.159836
10508.203125	-72.287422
10551.269531	-72.338760
10594.335938	-72.305313
10637.402344	-72.512840
10680.468750	-72.452263
10723.535156	-72.523766
10766.601562	-72.348961
10809.667969	-72.515350
10852.734375	-72.577995
10895.800781	-72.668968
10938.867188	-72.721939
10981.933594	-72.893639
11025.000000	-73.271301
11068.066406	-73.176857
11111.132812	-73.181023
11154.199219	-73.287979
11197.265625	-73.589127
11240.332031	-73.356781
11283.398438	-73.377991
11326.464844	-73.475548
11369.531250	-73.943756
11412.597656	-73.151970
11455.664062	-73.872017
11498.730469	-73.852997
11541.796875	-73.335785
11584.863281	-73.681137
11627.929688	-73.280296
11670.996094	-73.842842
11714.062500	-74.447449
11757.128906	-71.062576
11800.195312	-69.238953
11843.261719	-56.463524
11886.328125	-59.783184
11929.394531	-64.469032
11972.460938	-68.086807
12015.527344	-69.477097
12058.593750	-70.529427
12101.660156	-72.242340
12144.726562	-72.085304
12187.792969	-71.200714
12230.859375	-71.669785
12273.925781	-70.862938
12316.992188	-73.237251
12360.058594	-71.539536
12403.125000	-70.650642
12446.191406	-62.331921
12489.257812	-67.266853
12532.324219	-69.661621
12575.390625	-70.039162
12618.457031	-71.811768
12661.523438	-72.737946
12704.589844	-72.518822
12747.656250	-73.426239
12790.722656	-73.873787
12833.789062	-74.555008
12876.855469	-74.266502
12919.921875	-73.783279
12962.988281	-73.625221
13006.054688	-73.810898
13049.121094	-73.476646
13092.187500	-73.095085
13135.253906	-73.416061
13178.320312	-73.426277
13221.386719	-73.781090
13264.453125	-73.929581
13307.519531	-74.240242
13350.585938	-74.450935
13393.652344	-74.436333
13436.718750	-74.540359
13479.785156	-74.593819
13522.851562	-74.192169
13565.917969	-74.266464
13608.984375	-73.797485
13652.050781	-73.375244
13695.117188	-71.901527
13738.183594	-72.753677
13781.250000	-74.116043
13824.316406	-73.984917
13867.382812	-74.278038
13910.449219	-74.547615
13953.515625	-74.831696
13996.582031	-74.640755
14039.648438	-74.767670
14082.714844	-74.761543
14125.781250	-74.408104
14168.847656	-74.476212
14211.914062	-74.074722
14254.980469	-74.130051
14298.046875	-74.796608
14341.113281	-74.758652
14384.179688	-75.339394
14427.246094	-75.594727
14470.312500	-74.407127
14513.378906	-74.189713
14556.445312	-72.806358
14599.511719	-71.581558
14642.578125	-69.320419
14685.644531	-65.628708
14728.710938	-72.361237
14771.777344	-73.008827
14814.843750	-75.282471
14857.910156	-73.963135
14900.976562	-72.682198
14944.042969	-73.748650
14987.109375	-73.170029
15030.175781	-73.171349
15073.242188	-71.238022
15116.308594	-72.015816
15159.375000	-73.208946
15202.441406	-74.374893
15245.507812	-74.754913
15288.574219	-74.863319
15331.640625	-74.326454
15374.707031	-74.672073
15417.773438	-74.670456
15460.839844	-75.491951
15503.906250	-75.737709
15546.972656	-75.490005
15590.039062	-75.477211
15633.105469	-75.295021
15676.171875	-74.941086
15719.238281	-74.619484
15762.304688	-74.583427
15805.371094	-76.068344
15848.437500	-73.530106
15891.503906	-73.550835
15934.570312	-74.897995
15977.636719	-74.321838
16020.703125	-75.614517
16063.769531	-75.641495
16106.835938	-75.443451
16149.902344	-75.490883
16192.968750	-75.530724
16236.035156	-75.410606
16279.101562	-75.442627
16322.167969	-75.527626
16365.234375	-75.578468
16408.300781	-75.480682
16451.367188	-75.534271
16494.433594	-75.521851
16537.500000	-75.508232
16580.566406	-75.524529
16623.632812	-75.564278
16666.699219	-75.529793
16709.765625	-75.532784
16752.832031	-75.633904
16795.898438	-75.530296
16838.964844	-75.599556
16882.031250	-75.644501
16925.097656	-75.628075
16968.164062	-75.702034
17011.230469	-75.719810
17054.296875	-75.766167
17097.363281	-75.762711
17140.429688	-75.709038
17183.496094	-75.836510
17226.562500	-75.747017
17269.628906	-75.806694
17312.695312	-75.917427
17355.761719	-75.844666
17398.828125	-75.794312
17441.894531	-75.846306
17484.960938	-75.907257
17528.027344	-75.874199
17571.093750	-75.901474
17614.160156	-75.836586
17657.226562	-75.871498
17700.292969	-75.983871
17743.359375	-75.876343
17786.425781	-75.913017
17829.492188	-75.967033
17872.558594	-75.992714
17915.625000	-75.853401
17958.691406	-76.013901
18001.757812	-75.930801
18044.824219	-75.933846
18087.890625	-76.047234
18130.957031	-76.014153
18174.023438	-76.019585
18217.089844	-75.997589
18260.156250	-75.918465
18303.222656	-76.057213
18346.289062	-76.005219
18389.355469	-76.097076
18432.421875	-76.001923
18475.488281	-76.105232
18518.554688	-76.107521
18561.621094	-76.135910
18604.687500	-76.070297
18647.753906	-76.212349
18690.820312	-76.210373
18733.886719	-76.118507
18776.953125	-76.107040
18820.019531	-76.114403
18863.085938	-76.119949
18906.152344	-76.168175
18949.218750	-76.217422
18992.285156	-76.252716
19035.351562	-76.128220
19078.417969	-76.067863
19121.484375	-76.147263
19164.550781	-76.218018
19207.617188	-76.142090
19250.683594	-76.177994
19293.750000	-76.167564
19336.816406	-76.219231
19379.882812	-76.225792
19422.949219	-76.197403
19466.015625	-76.313400
19509.082031	-76.190262
19552.148438	-76.243874
19595.214844	-76.234543
19638.281250	-76.229774
19681.347656	-76.250511
19724.414062	-76.245110
19767.480469	-76.284248
19810.546875	-76.379250
19853.613281	-76.295357
19896.679688	-76.289200
19939.746094	-76.328133
19982.812500	-76.324532
20025.878906	-76.370262
20068.945312	-76.329170
20112.011719	-76.330902
20155.078125	-76.356895
20198.144531	-76.331055
20241.210938	-76.195374
20284.277344	-76.269394
20327.343750	-76.339546
20370.410156	-76.398026
20413.476562	-76.341629
20456.542969	-76.486923
20499.609375	-76.307716
20542.675781	-76.348221
20585.742188	-76.408348
20628.808594	-76.317833
20671.875000	-76.375984
20714.941406	-76.339935
20758.007812	-76.366081
20801.074219	-76.392090
20844.140625	-76.445145
20887.207031	-76.396141
20930.273438	-76.438171
20973.339844	-76.394089
21016.406250	-76.362640
21059.472656	-76.511429
21102.539062	-76.401398
21145.605469	-76.399002
21188.671875	-76.504501
21231.738281	-76.445740
21274.804688	-76.333107
21317.871094	-76.481682
21360.937500	-76.520195
21404.003906	-76.347298
21447.070312	-76.341225
21490.136719	-76.414589
21533.203125	-76.408157
21576.269531	-76.455452
21619.335938	-76.331253
21662.402344	-76.359367
21705.468750	-76.359787
21748.535156	-76.421928
21791.601562	-76.374008
21834.667969	-76.435478
21877.734375	-76.393280
21920.800781	-76.523506
21963.867188	-76.271034
22006.933594	-76.396309
