Frequency (Hz)	Level (dB)
43.066406	-45.163563
86.132812	-45.027081
129.199219	-43.426647
172.265625	-42.955200
215.332031	-44.881451
258.398438	-43.948830
301.464844	-43.720032
344.531250	-43.886909
387.597656	-44.268486
430.664062	-44.194397
473.730469	-44.300842
516.796875	-44.159454
559.863281	-43.963428
602.929688	-43.839230
645.996094	-43.661263
689.062500	-43.498940
732.128906	-43.280243
775.195312	-43.105598
818.261719	-42.927761
861.328125	-42.897560
904.394531	-42.274822
947.460938	-41.989937
990.527344	-41.899490
1033.593750	-41.576790
1076.660156	-41.100208
1119.726562	-41.142609
1162.792969	-40.658394
1205.859375	-40.485092
1248.925781	-39.616291
1291.992188	-39.144794
1335.058594	-39.044781
1378.125000	-38.291435
1421.191406	-37.930737
1464.257812	-37.394077
1507.324219	-36.863174
1550.390625	-36.194061
1593.457031	-35.337330
1636.523438	-34.901016
1679.589844	-33.521122
1722.656250	-32.485844
1765.722656	-31.761545
1808.789062	-30.533508
1851.855469	-29.026432
1894.921875	-27.263371
1937.988281	-24.745726
1981.054688	-21.905186
2024.121094	-17.468014
2067.187500	-6.720586
2110.253906	-9.128392
2153.320312	-17.986261
2196.386719	-22.592518
2239.453125	-25.395502
2282.519531	-27.477493
2325.585938	-29.169811
2368.652344	-30.693998
2411.718750	-31.857254
2454.785156	-32.834236
2497.851562	-33.726444
2540.917969	-34.884228
2583.984375	-35.682453
2627.050781	-36.054565
2670.117188	-37.001881
2713.183594	-36.776829
2756.250000	-37.273361
2799.316406	-38.874542
2842.382812	-39.134838
2885.449219	-39.581226
2928.515625	-39.507484
2971.582031	-39.705532
3014.648438	-40.149059
3057.714844	-40.510136
3100.781250	-40.248371
3143.847656	-42.330406
3186.914062	-42.226425
3229.980469	-42.493233
3273.046875	-42.685085
3316.113281	-42.618366
3359.179688	-43.404736
3402.246094	-42.885521
3445.312500	-43.775730
3488.378906	-43.828533
3531.445312	-44.022087
3574.511719	-44.730450
3617.578125	-44.551277
3660.644531	-45.489685
3703.710938	-45.418331
3746.777344	-43.587097
3789.843750	-44.519901
3832.910156	-44.016022
3875.976562	-43.903721
3919.042969	-46.037903
3962.109375	-45.341606
4005.175781	-44.910519
4048.242188	-45.432453
4091.308594	-46.178535
4134.375000	-46.453686
4177.441406	-45.660076
4220.507812	-44.601383
4263.574219	-44.590672
4306.640625	-45.075645
4349.707031	-45.944881
4392.773438	-46.568848
4435.839844	-45.803913
4478.906250	-44.100609
4521.972656	-40.985760
4565.039062	-31.253624
4608.105469	-36.492752
4651.171875	-44.183964
4694.238281	-46.797272
4737.304688	-46.882980
4780.371094	-47.297440
4823.437500	-45.797691
4866.503906	-43.331589
4909.570312	-36.669163
4952.636719	-23.291889
4995.703125	-30.583441
5038.769531	-37.189819
5081.835938	-43.300911
5124.902344	-45.313992
5167.968750	-48.429462
5211.035156	-49.370689
5254.101562	-48.093098
5297.167969	-48.999638
5340.234375	-50.122459
5383.300781	-50.390034
5426.367188	-49.031338
5469.433594	-47.495651
5512.500000	-45.005798
5555.566406	-40.902306
5598.632812	-30.174498
5641.699219	-40.135769
5684.765625	-46.123310
5727.832031	-44.196487
5770.898438	-44.277920
5813.964844	-48.518234
5857.031250	-47.521961
5900.097656	-47.327705
5943.164062	-50.169258
5986.230469	-49.926514
6029.296875	-50.677071
6072.363281	-48.813847
6115.429688	-48.624191
6158.496094	-45.341892
6201.562500	-38.957836
6244.628906	-33.956116
6287.695312	-43.897476
6330.761719	-47.720539
6373.828125	-49.052486
6416.894531	-49.377388
6459.960938	-48.655132
6503.027344	-46.819778
6546.093750	-42.957348
6589.160156	-39.311794
6632.226562	-41.840015
6675.292969	-47.330124
6718.359375	-50.381096
6761.425781	-52.799309
6804.492188	-51.887714
6847.558594	-53.494732
6890.625000	-53.119072
6933.691406	-52.307228
6976.757812	-51.665554
7019.824219	-52.462513
7062.890625	-53.034058
7105.957031	-54.307964
7149.023438	-53.267246
7192.089844	-52.147686
7235.156250	-52.063011
7278.222656	-52.460373
7321.289062	-53.803101
7364.355469	-54.270718
7407.421875	-54.307671
7450.488281	-53.371826
7493.554688	-54.513794
7536.621094	-53.646950
7579.687500	-52.229439
7622.753906	-54.925217
7665.820312	-54.938911
7708.886719	-55.137794
7751.953125	-54.994030
7795.019531	-54.665119
7838.085938	-55.159142
7881.152344	-55.744225
7924.218750	-54.533443
7967.285156	-51.056065
8010.351562	-52.116005
8053.417969	-53.467136
8096.484375	-55.367825
8139.550781	-55.580696
8182.617188	-55.631409
8225.683594	-55.433205
8268.750000	-55.958607
8311.816406	-55.897675
8354.882812	-55.993900
8397.949219	-56.125767
8441.015625	-55.707203
8484.082031	-55.692402
8527.148438	-55.983662
8570.214844	-56.032505
8613.281250	-56.036007
8656.347656	-56.275276
8699.414062	-56.256710
8742.480469	-56.310814
8785.546875	-56.427994
8828.613281	-56.372524
8871.679688	-56.444172
8914.746094	-56.525402
8957.812500	-56.609863
9000.878906	-56.612720
9043.945312	-56.681507
9087.011719	-56.711285
9130.078125	-56.752636
9173.144531	-56.805058
9216.210938	-56.851402
9259.277344	-56.890606
9302.343750	-56.930424
9345.410156	-56.973888
9388.476562	-56.999836
9431.542969	-57.064285
9474.609375	-57.097095
9517.675781	-57.151974
9560.742188	-57.181740
9603.808594	-57.225018
9646.875000	-57.259094
9689.941406	-57.307907
9733.007812	-57.345261
9776.074219	-57.374348
9819.140625	-57.418098
9862.207031	-57.452442
9905.273438	-57.496315
9948.339844	-57.522953
9991.406250	-57.561306
10034.472656	-57.602646
10077.539062	-57.639095
10120.605469	-57.672428
10163.671875	-57.706985
10206.738281	-57.745842
10249.804688	-57.776619
10292.871094	-57.814240
10335.937500	-57.846653
10379.003906	-57.880890
10422.070312	-57.916241
10465.136719	-57.948978
10508.203125	-57.981071
10551.269531	-58.013721
10594.335938	-58.050163
10637.402344	-58.081017
10680.468750	-58.112202
10723.535156	-58.143887
10766.601562	-58.177437
10809.667969	-58.212330
10852.734375	-58.239548
10895.800781	-58.275234
10938.867188	-58.300907
10981.933594	-58.338795
11025.000000	-58.367409
11068.066406	-58.395931
11111.132812	-58.429180
11154.199219	-58.457218
11197.265625	-58.488022
11240.332031	-58.511814
11283.398438	-58.546623
11326.464844	-58.571365
11369.531250	-58.603336
11412.597656	-58.632023
11455.664062	-58.657326
11498.730469	-58.687603
11541.796875	-58.711323
11584.863281	-58.750191
11627.929688	-58.769417
11670.996094	-58.799400
11714.062500	-58.825745
11757.128906	-58.857494
11800.195312	-58.885315
11843.261719	-58.907207
11886.328125	-58.936726
11929.394531	-58.965019
11972.460938	-58.995407
12015.527344	-59.012718
12058.593750	-59.042545
12101.660156	-59.067539
12144.726562	-59.095448
12187.792969	-59.115387
12230.859375	-59.139946
12273.925781	-59.165684
12316.992188	-59.188843
12360.058594	-59.218193
12403.125000	-59.233360
12446.191406	-59.265324
12489.257812	-59.287674
12532.324219	-59.315464
12575.390625	-59.337124
12618.457031	-59.363129
12661.523438	-59.387787
12704.589844	-59.413002
12747.656250	-59.438080
12790.722656	-59.453663
12833.789062	-59.480186
12876.855469	-59.505207
12919.921875	-59.528694
12962.988281	-59.544392
13006.054688	-59.565292
13049.121094	-59.590511
13092.187500	-59.613636
13135.253906	-59.631119
13178.320312	-59.649620
13221.386719	-59.675304
13264.453125	-59.697830
13307.519531	-59.722534
13350.585938	-59.742935
13393.652344	-59.764706
13436.718750	-59.788715
13479.785156	-59.809315
13522.851562	-59.831379
13565.917969	-59.846687
13608.984375	-59.867115
13652.050781	-59.886158
13695.117188	-59.901611
13738.183594	-59.921078
13781.250000	-59.942657
13824.316406	-59.965279
13867.382812	-59.975349
13910.449219	-59.998787
13953.515625	-60.021072
13996.582031	-60.046906
14039.648438	-60.063148
14082.714844	-60.082253
14125.781250	-60.100826
14168.847656	-60.115501
14211.914062	-60.132149
14254.980469	-60.159954
14298.046875	-60.172478
14341.113281	-60.186939
14384.179688	-60.201935
14427.246094	-60.230164
14470.312500	-60.240211
14513.378906	-60.248657
14556.445312	-60.270660
14599.511719	-60.287498
14642.578125	-60.298859
14685.644531	-60.323002
14728.710938	-60.334328
14771.777344	-60.361759
14814.843750	-60.378452
14857.910156	-60.387001
14900.976562	-60.410419
14944.042969	-60.432896
14987.109375	-60.439140
15030.175781	-60.461124
15073.242188	-60.471596
15116.308594	-60.486462
15159.375000	-60.499519
15202.441406	-60.525856
15245.507812	-60.522720
15288.574219	-60.540894
15331.640625	-60.567146
15374.707031	-60.576591
15417.773438	-60.597397
15460.839844	-60.618660
15503.906250	-60.624367
15546.972656	-60.651463
15590.039062	-60.648540
15633.105469	-60.680935
15676.171875	-60.686596
15719.238281	-60.695164
15762.304688	-60.707481
15805.371094	-60.725006
15848.437500	-60.740623
15891.503906	-60.760506
15934.570312	-60.764069
15977.636719	-60.794785
16020.703125	-60.811436
16063.769531	-60.787640
16106.835938	-60.807446
16149.902344	-60.844585
16192.968750	-60.844505
16236.035156	-60.858307
16279.101562	-60.877403
16322.167969	-60.878399
16365.234375	-60.908806
16408.300781	-60.908417
16451.367188	-60.930504
16494.433594	-60.936218
16537.500000	-60.953156
16580.566406	-60.944382
16623.632812	-60.961487
16666.699219	-60.992012
16709.765625	-60.978531
16752.832031	-60.992157
16795.898438	-60.990364
16838.964844	-61.033718
16882.031250	-61.028030
16925.097656	-61.043278
16968.164062	-61.053593
17011.230469	-61.068317
17054.296875	-61.072536
17097.363281	-61.073769
17140.429688	-61.107342
17183.496094	-61.122898
17226.562500	-61.133240
17269.628906	-61.127487
17312.695312	-61.134560
17355.761719	-61.158791
17398.828125	-61.165012
17441.894531	-61.175007
17484.960938	-61.146706
17528.027344	-61.181370
17571.093750	-61.206848
17614.160156	-61.216133
17657.226562	-61.240608
17700.292969	-61.231236
17743.359375	-61.223900
17786.425781	-61.230869
17829.492188	-61.268948
17872.558594	-61.261696
17915.625000	-61.281803
17958.691406	-61.294903
18001.757812	-61.292625
18044.824219	-61.303993
18087.890625	-61.316475
18130.957031	-61.307858
18174.023438	-61.316231
18217.089844	-61.344692
18260.156250	-61.327492
18303.222656	-61.319183
18346.289062	-61.341686
18389.355469	-61.358509
18432.421875	-61.387188
18475.488281	-61.383499
18518.554688	-61.371964
18561.621094	-61.386539
18604.687500	-61.383629
18647.753906	-61.408333
18690.820312	-61.413334
18733.886719	-61.428547
18776.953125	-61.421822
18820.019531	-61.445663
18863.085938	-61.452263
18906.152344	-61.439644
18949.218750	-61.465992
18992.285156	-61.469292
19035.351562	-61.442726
19078.417969	-61.439739
19121.484375	-61.458836
19164.550781	-61.509888
19207.617188	-61.504963
19250.683594	-61.526478
19293.750000	-61.515003
19336.816406	-61.492802
19379.882812	-61.493641
19422.949219	-61.502316
19466.015625	-61.537971
19509.082031	-61.534538
19552.148438	-61.540802
19595.214844	-61.546158
19638.281250	-61.540531
19681.347656	-61.578918
19724.414062	-61.512337
19767.480469	-61.524475
19810.546875	-61.577518
19853.613281	-61.531227
19896.679688	-61.590240
19939.746094	-61.543289
19982.812500	-61.577351
20025.878906	-61.564583
20068.945312	-61.553417
20112.011719	-61.557076
20155.078125	-61.574055
20198.144531	-61.601082
20241.210938	-61.603172
20284.277344	-61.625900
20327.343750	-61.663670
20370.410156	-61.560730
20413.476562	-61.613667
20456.542969	-61.585911
20499.609375	-61.625286
20542.675781	-61.621075
20585.742188	-61.628517
20628.808594	-61.656132
20671.875000	-61.649601
20714.941406	-61.645653
20758.007812	-61.619396
20801.074219	-61.627701
20844.140625	-61.621758
20887.207031	-61.644585
20930.273438	-61.665604
20973.339844	-61.637001
21016.406250	-61.699223
21059.472656	-61.645832
21102.539062	-61.673836
21145.605469	-61.647457
21188.671875	-61.631653
21231.738281	-61.647850
21274.804688	-61.655560
21317.871094	-61.653530
21360.937500	-61.658978
21404.003906	-61.698261
21447.070312	-61.642853
21490.136719	-61.680027
21533.203125	-61.684700
21576.269531	-61.684837
21619.335938	-61.637104
21662.402344	-61.680676
21705.468750	-61.664368
21748.535156	-61.704670
21791.601562	-61.673832
21834.667969	-61.666111
21877.734375	-61.673012
21920.800781	-61.656059
21963.867188	-61.694279
22006.933594	-61.655998
