Frequency (Hz)	Level (dB)
43.066406	-49.652439
86.132812	-50.490906
129.199219	-53.045662
172.265625	-59.866707
215.332031	-60.200653
258.398438	-59.211147
301.464844	-63.705719
344.531250	-63.403690
387.597656	-64.435081
430.664062	-64.866997
473.730469	-67.857338
516.796875	-67.544724
559.863281	-64.729462
602.929688	-60.204224
645.996094	-58.085361
689.062500	-62.059746
732.128906	-61.787590
775.195312	-60.526352
818.261719	-63.453201
861.328125	-63.915207
904.394531	-61.909042
947.460938	-64.080826
990.527344	-59.719761
1033.593750	-58.813389
1076.660156	-61.909966
1119.726562	-57.415615
1162.792969	-58.854935
1205.859375	-59.855160
1248.925781	-60.519424
1291.992188	-59.897903
1335.058594	-57.572281
1378.125000	-57.932354
1421.191406	-57.053848
1464.257812	-55.116875
1507.324219	-56.098438
1550.390625	-53.069641
1593.457031	-53.002773
1636.523438	-52.825016
1679.589844	-52.541611
1722.656250	-52.328629
1765.722656	-50.540276
1808.789062	-47.294472
1851.855469	-45.090721
1894.921875	-41.859066
1937.988281	-32.313652
1981.054688	-32.372696
2024.121094	-39.158855
2067.187500	-29.928564
2110.253906	-31.460140
2153.320312	-39.946312
2196.386719	-44.345570
2239.453125	-46.577854
2282.519531	-48.450371
2325.585938	-49.591934
2368.652344	-50.710388
2411.718750	-50.408619
2454.785156	-52.913033
2497.851562	-53.206120
2540.917969	-53.422581
2583.984375	-54.317673
2627.050781	-53.591183
2670.117188	-54.684174
2713.183594	-56.155842
2756.250000	-56.001507
2799.316406	-56.145687
2842.382812	-54.654457
2885.449219	-57.185692
2928.515625	-56.382805
2971.582031	-55.936180
3014.648438	-58.026798
3057.714844	-54.811073
3100.781250	-49.682735
3143.847656	-52.711784
3186.914062	-56.377598
3229.980469	-55.905804
3273.046875	-56.274780
3316.113281	-57.547375
3359.179688	-58.797035
3402.246094	-56.846081
3445.312500	-57.060505
3488.378906	-59.014408
3531.445312	-60.279022
3574.511719	-57.175251
3617.578125	-55.793446
3660.644531	-56.193932
3703.710938	-54.092743
3746.777344	-55.920345
3789.843750	-57.357933
3832.910156	-54.272423
3875.976562	-55.588238
3919.042969	-53.005131
3962.109375	-56.242561
4005.175781	-53.486912
4048.242188	-54.590542
4091.308594	-50.698395
4134.375000	-48.682068
4177.441406	-52.002472
4220.507812	-49.385387
4263.574219	-51.174259
4306.640625	-49.787319
4349.707031	-47.496792
4392.773438	-48.344784
4435.839844	-45.713707
4478.906250	-44.221050
4521.972656	-35.470772
4565.039062	-25.093710
4608.105469	-30.324957
4651.171875	-37.296856
4694.238281	-45.146633
4737.304688	-44.911758
4780.371094	-48.707256
4823.437500	-50.101860
4866.503906	-44.233231
4909.570312	-36.829216
4952.636719	-31.143835
4995.703125	-40.005505
5038.769531	-49.283108
5081.835938	-48.449593
5124.902344	-49.729393
5167.968750	-50.572273
5211.035156	-52.030216
5254.101562	-53.476902
5297.167969	-50.008892
5340.234375	-56.209789
5383.300781	-51.652733
5426.367188	-52.785076
5469.433594	-56.658192
5512.500000	-53.966080
5555.566406	-56.663345
5598.632812	-50.247234
5641.699219	-55.093800
5684.765625	-52.599712
5727.832031	-55.496986
5770.898438	-53.262302
5813.964844	-53.468987
5857.031250	-53.022915
5900.097656	-46.788441
5943.164062	-50.026863
5986.230469	-44.642784
6029.296875	-46.504551
6072.363281	-47.917339
6115.429688	-44.434853
6158.496094	-40.151192
6201.562500	-32.523106
6244.628906	-22.810514
6287.695312	-33.200615
6330.761719	-41.389702
6373.828125	-44.220158
6416.894531	-43.840633
6459.960938	-49.025566
6503.027344	-47.904610
6546.093750	-44.495777
6589.160156	-42.982632
6632.226562	-43.085175
6675.292969	-48.290657
6718.359375	-51.895466
6761.425781	-59.039597
6804.492188	-55.320881
6847.558594	-57.643349
6890.625000	-55.431713
6933.691406	-55.040318
6976.757812	-59.362251
7019.824219	-60.630447
7062.890625	-58.294430
7105.957031	-55.052681
7149.023438	-53.944656
7192.089844	-54.307926
7235.156250	-56.450375
7278.222656	-55.711231
7321.289062	-54.864693
7364.355469	-58.439819
7407.421875	-55.462650
7450.488281	-53.281635
7493.554688	-53.480404
7536.621094	-43.499996
7579.687500	-33.021709
7622.753906	-40.137554
7665.820312	-49.661518
7708.886719	-50.230862
7751.953125	-51.690319
7795.019531	-57.084053
7838.085938	-55.167274
7881.152344	-57.722462
7924.218750	-55.305676
7967.285156	-61.837429
8010.351562	-55.512932
8053.417969	-55.446072
8096.484375	-57.172703
8139.550781	-61.609589
8182.617188	-57.215450
8225.683594	-54.642773
8268.750000	-52.567783
8311.816406	-50.975956
8354.882812	-54.132725
8397.949219	-54.668392
8441.015625	-55.479912
8484.082031	-55.167027
8527.148438	-52.953568
8570.214844	-59.170406
8613.281250	-52.743084
8656.347656	-53.989216
8699.414062	-54.783356
8742.480469	-48.177937
8785.546875	-38.974846
8828.613281	-47.417614
8871.679688	-48.642071
8914.746094	-57.988693
8957.812500	-58.965218
9000.878906	-61.083920
9043.945312	-59.096542
9087.011719	-57.049812
9130.078125	-57.652065
9173.144531	-56.118126
9216.210938	-53.145493
9259.277344	-55.249481
9302.343750	-55.174690
9345.410156	-56.098495
9388.476562	-51.455585
9431.542969	-49.331306
9474.609375	-46.660839
9517.675781	-38.120930
9560.742188	-32.332310
9603.808594	-41.022434
9646.875000	-50.264362
9689.941406	-52.682961
9733.007812	-52.390617
9776.074219	-60.260780
9819.140625	-59.746044
9862.207031	-63.451427
9905.273438	-55.196552
9948.339844	-56.947330
9991.406250	-63.274189
10034.472656	-61.130871
10077.539062	-62.023460
10120.605469	-59.215847
10163.671875	-61.340149
10206.738281	-55.849274
10249.804688	-47.431244
10292.871094	-57.306946
10335.937500	-63.466930
10379.003906	-63.741745
10422.070312	-63.688747
10465.136719	-72.245361
10508.203125	-63.203548
10551.269531	-63.982239
10594.335938	-71.870575
10637.402344	-71.302986
10680.468750	-73.426064
10723.535156	-72.291451
10766.601562	-74.492668
10809.667969	-74.783470
10852.734375	-75.633675
10895.800781	-75.264175
10938.867188	-75.696831
10981.933594	-74.597549
11025.000000	-74.007607
11068.066406	-73.470901
11111.132812	-73.604561
11154.199219	-72.832870
11197.265625	-72.953804
11240.332031	-74.095467
11283.398438	-74.259666
11326.464844	-75.807327
11369.531250	-76.202225
11412.597656	-75.155754
11455.664062	-74.782562
11498.730469	-76.140854
11541.796875	-73.287277
11584.863281	-74.359810
11627.929688	-74.745941
11670.996094	-68.800812
11714.062500	-72.240601
11757.128906	-70.417793
11800.195312	-63.363369
11843.261719	-63.300968
11886.328125	-67.851379
11929.394531	-74.994293
11972.460938	-74.921265
12015.527344	-71.526436
12058.593750	-70.166565
12101.660156	-70.993141
12144.726562	-72.106323
12187.792969	-72.911781
12230.859375	-72.870163
12273.925781	-75.777977
12316.992188	-74.081589
12360.058594	-71.277626
12403.125000	-75.056511
12446.191406	-76.935898
12489.257812	-71.178192
12532.324219	-62.812744
12575.390625	-59.820610
12618.457031	-62.932514
12661.523438	-66.854424
12704.589844	-66.303619
12747.656250	-68.072472
12790.722656	-69.032822
12833.789062	-63.547081
12876.855469	-64.091774
12919.921875	-63.853222
12962.988281	-62.387070
13006.054688	-64.089935
13049.121094	-64.051903
13092.187500	-70.703102
13135.253906	-63.305313
13178.320312	-62.645660
13221.386719	-54.157688
13264.453125	-45.612736
13307.519531	-52.350769
13350.585938	-58.993534
13393.652344	-53.345081
13436.718750	-50.921093
13479.785156	-53.689926
13522.851562	-54.568310
13565.917969	-59.167778
13608.984375	-50.734379
13652.050781	-53.082516
13695.117188	-58.394806
13738.183594	-60.040749
13781.250000	-60.408539
13824.316406	-65.038010
13867.382812	-70.164772
13910.449219	-64.287796
13953.515625	-63.842461
13996.582031	-66.852104
14039.648438	-63.731129
14082.714844	-62.596004
14125.781250	-65.550903
14168.847656	-71.106804
14211.914062	-64.824661
14254.980469	-62.954090
14298.046875	-64.574806
14341.113281	-59.578167
14384.179688	-52.876656
14427.246094	-60.214760
14470.312500	-72.183243
14513.378906	-64.353340
14556.445312	-60.327454
14599.511719	-64.490089
14642.578125	-58.901718
14685.644531	-64.279129
14728.710938	-72.661766
14771.777344	-65.654770
14814.843750	-64.742973
14857.910156	-63.126846
14900.976562	-58.715622
14944.042969	-49.933605
14987.109375	-57.668865
15030.175781	-63.934456
15073.242188	-69.309074
15116.308594	-74.180382
15159.375000	-74.781113
15202.441406	-76.583305
15245.507812	-76.233620
15288.574219	-76.547241
15331.640625	-75.438011
15374.707031	-75.644691
15417.773438	-77.429268
15460.839844	-75.928993
15503.906250	-73.463318
15546.972656	-75.434586
15590.039062	-77.815384
15633.105469	-73.039200
15676.171875	-69.747665
15719.238281	-68.288956
15762.304688	-69.075813
15805.371094	-72.335869
15848.437500	-72.516045
15891.503906	-68.368652
15934.570312	-72.868889
15977.636719	-74.940231
16020.703125	-79.188652
16063.769531	-78.625381
16106.835938	-78.160004
16149.902344	-79.369606
16192.968750	-79.381493
16236.035156	-79.915115
16279.101562	-79.657448
16322.167969	-79.765205
16365.234375	-79.648567
16408.300781	-79.189835
16451.367188	-80.042175
16494.433594	-80.033676
16537.500000	-80.049927
16580.566406	-78.706795
16623.632812	-78.934059
16666.699219	-79.331421
16709.765625	-79.363098
16752.832031	-80.369621
16795.898438	-79.342300
16838.964844	-79.619583
16882.031250	-79.374611
16925.097656	-79.467880
16968.164062	-80.164978
17011.230469	-79.976822
17054.296875	-80.421661
17097.363281	-79.004166
17140.429688	-79.196877
17183.496094	-79.516922
17226.562500	-79.775482
17269.628906	-80.515045
17312.695312	-79.985298
17355.761719	-79.929573
17398.828125	-79.593460
17441.894531	-80.417610
17484.960938	-80.628593
17528.027344	-80.667740
17571.093750	-80.091553
17614.160156	-79.208549
17657.226562	-79.638443
17700.292969	-79.423622
17743.359375	-80.017517
17786.425781	-80.016457
17829.492188	-79.413574
17872.558594	-78.929703
17915.625000	-78.974731
17958.691406	-80.561226
18001.757812	-80.503136
18044.824219	-80.742188
18087.890625	-80.315094
18130.957031	-79.456879
18174.023438	-79.810600
18217.089844	-79.860191
18260.156250	-80.484856
18303.222656	-80.558327
18346.289062	-80.276520
18389.355469	-79.439102
18432.421875	-79.852074
18475.488281	-80.905464
18518.554688	-80.673027
18561.621094	-80.589676
18604.687500	-79.821861
18647.753906	-80.039238
18690.820312	-80.149223
18733.886719	-80.423065
18776.953125	-80.736252
18820.019531	-80.022636
18863.085938	-79.578300
18906.152344	-78.432640
18949.218750	-79.249977
18992.285156	-80.644455
19035.351562	-80.490456
19078.417969	-80.683014
19121.484375	-79.944290
19164.550781	-80.359375
19207.617188	-80.162987
19250.683594	-80.483002
19293.750000	-81.072937
19336.816406	-80.629791
19379.882812	-80.439926
19422.949219	-79.521370
19466.015625	-80.205330
19509.082031	-80.999504
19552.148438	-80.672981
19595.214844	-79.910973
19638.281250	-79.521515
19681.347656	-80.434998
19724.414062	-80.534271
19767.480469	-81.129555
19810.546875	-80.761436
19853.613281	-80.339920
19896.679688	-79.825096
19939.746094	-79.099327
19982.812500	-79.853729
20025.878906	-80.712769
20068.945312	-80.419197
20112.011719	-79.581749
20155.078125	-79.586334
20198.144531	-80.143867
20241.210938	-80.496201
20284.277344	-81.037384
20327.343750	-80.879494
20370.410156	-80.744003
20413.476562	-80.547836
20456.542969	-80.213364
20499.609375	-80.616776
20542.675781	-81.007530
20585.742188	-80.541222
20628.808594	-79.336876
20671.875000	-79.912888
20714.941406	-80.167885
20758.007812	-80.809128
20801.074219	-80.786316
20844.140625	-80.073257
20887.207031	-80.262535
20930.273438	-80.048302
20973.339844	-80.320580
21016.406250	-80.710526
21059.472656	-80.981354
21102.539062	-80.438103
21145.605469	-78.941460
21188.671875	-79.506958
21231.738281	-80.090935
21274.804688	-80.654625
21317.871094	-80.852707
21360.937500	-80.318146
21404.003906	-80.503586
21447.070312	-80.407448
21490.136719	-80.970535
21533.203125	-81.202759
21576.269531	-81.049469
21619.335938	-80.409248
21662.402344	-79.684036
21705.468750	-80.296120
21748.535156	-80.671867
21791.601562	-80.845383
21834.667969	-80.322136
21877.734375	-79.776291
21920.800781	-79.511787
21963.867188	-80.137627
22006.933594	-81.133850
