Frequency (Hz)	Level (dB)
43.066406	-53.807201
86.132812	-58.396599
129.199219	-61.023071
172.265625	-60.677769
215.332031	-60.326164
258.398438	-60.820011
301.464844	-60.520748
344.531250	-61.961327
387.597656	-61.425323
430.664062	-61.404293
473.730469	-60.423065
516.796875	-61.053684
559.863281	-60.941162
602.929688	-61.003731
645.996094	-60.255520
689.062500	-60.504074
732.128906	-60.821819
775.195312	-60.292164
818.261719	-59.801521
861.328125	-59.856850
904.394531	-59.593422
947.460938	-59.292599
990.527344	-57.522911
1033.593750	-57.875378
1076.660156	-59.120197
1119.726562	-58.039410
1162.792969	-57.164536
1205.859375	-57.389225
1248.925781	-57.410511
1291.992188	-56.693352
1335.058594	-56.265381
1378.125000	-56.402573
1421.191406	-55.721695
1464.257812	-54.910461
1507.324219	-53.365395
1550.390625	-53.374218
1593.457031	-52.651264
1636.523438	-51.814381
1679.589844	-51.057949
1722.656250	-49.769485
1765.722656	-47.894310
1808.789062	-46.385437
1851.855469	-43.755398
1894.921875	-40.199665
1937.988281	-31.393047
1981.054688	-30.851934
2024.121094	-36.071930
2067.187500	-27.530972
2110.253906	-29.883757
2153.320312	-38.623642
2196.386719	-42.888760
2239.453125	-46.085255
2282.519531	-46.946320
2325.585938	-48.821507
2368.652344	-49.812462
2411.718750	-50.991035
2454.785156	-53.153633
2497.851562	-54.220638
2540.917969	-53.348351
2583.984375	-53.302502
2627.050781	-53.765530
2670.117188	-55.353714
2713.183594	-57.629955
2756.250000	-58.199154
2799.316406	-58.369030
2842.382812	-57.814678
2885.449219	-57.274029
2928.515625	-57.857758
2971.582031	-58.771671
3014.648438	-59.679180
3057.714844	-59.167934
3100.781250	-57.430466
3143.847656	-59.769341
3186.914062	-60.421944
3229.980469	-60.650478
3273.046875	-62.389671
3316.113281	-62.652470
3359.179688	-61.792946
3402.246094	-61.404785
3445.312500	-62.009968
3488.378906	-62.529079
3531.445312	-64.207939
3574.511719	-64.382515
3617.578125	-64.521942
3660.644531	-60.027977
3703.710938	-58.133770
3746.777344	-60.096684
3789.843750	-62.468391
3832.910156	-61.067219
3875.976562	-59.673267
3919.042969	-61.443748
3962.109375	-63.759197
4005.175781	-60.193832
4048.242188	-58.937710
4091.308594	-60.219315
4134.375000	-61.704063
4177.441406	-58.771072
4220.507812	-57.803551
4263.574219	-57.906933
4306.640625	-58.117764
4349.707031	-55.356167
4392.773438	-55.244167
4435.839844	-51.106201
4478.906250	-46.266865
4521.972656	-42.753006
4565.039062	-32.746014
4608.105469	-37.253910
4651.171875	-45.578545
4694.238281	-50.333378
4737.304688	-54.750031
4780.371094	-52.500267
4823.437500	-53.349957
4866.503906	-49.981377
4909.570312	-47.848972
4952.636719	-38.283798
4995.703125	-46.017426
5038.769531	-49.717705
5081.835938	-56.624630
5124.902344	-60.722019
5167.968750	-59.072803
5211.035156	-60.611107
5254.101562	-61.109478
5297.167969	-63.822697
5340.234375	-64.102249
5383.300781	-61.583599
5426.367188	-62.821011
5469.433594	-61.919544
5512.500000	-58.201012
5555.566406	-55.149052
5598.632812	-44.652985
5641.699219	-53.705250
5684.765625	-55.966797
5727.832031	-58.306786
5770.898438	-58.356358
5813.964844	-60.716000
5857.031250	-63.562748
5900.097656	-62.611431
5943.164062	-63.723625
5986.230469	-64.338394
6029.296875	-65.030190
6072.363281	-58.186996
6115.429688	-56.113022
6158.496094	-55.365990
6201.562500	-46.206993
6244.628906	-40.136925
6287.695312	-50.926876
6330.761719	-56.339806
6373.828125	-56.642406
6416.894531	-58.048695
6459.960938	-55.192062
6503.027344	-54.392494
6546.093750	-57.625313
6589.160156	-59.380291
6632.226562	-56.939697
6675.292969	-58.220665
6718.359375	-61.546963
6761.425781	-64.175255
6804.492188	-65.370781
6847.558594	-66.084816
6890.625000	-66.332390
6933.691406	-68.591347
6976.757812	-67.429291
7019.824219	-68.111046
7062.890625	-67.552177
7105.957031	-69.088554
7149.023438	-67.197853
7192.089844	-65.984917
7235.156250	-67.846863
7278.222656	-69.965569
7321.289062	-68.972054
7364.355469	-65.457253
7407.421875	-65.802925
7450.488281	-64.509346
7493.554688	-64.832077
7536.621094	-60.286453
7579.687500	-50.359119
7622.753906	-55.896969
7665.820312	-61.648365
7708.886719	-65.948616
7751.953125	-68.574959
7795.019531	-67.237160
7838.085938	-64.458664
7881.152344	-64.795532
7924.218750	-64.183327
7967.285156	-58.179127
8010.351562	-47.240002
8053.417969	-52.754490
8096.484375	-59.574039
8139.550781	-66.102615
8182.617188	-66.760147
8225.683594	-63.153709
8268.750000	-61.841869
8311.816406	-64.780273
8354.882812	-70.273994
8397.949219	-69.381393
8441.015625	-66.277023
8484.082031	-66.481567
8527.148438	-70.156662
8570.214844	-68.203209
8613.281250	-65.852264
8656.347656	-65.702698
8699.414062	-69.762337
8742.480469	-64.550705
8785.546875	-56.988640
8828.613281	-54.710670
8871.679688	-48.479511
8914.746094	-57.644054
8957.812500	-62.587025
9000.878906	-67.326057
9043.945312	-72.235863
9087.011719	-71.398918
9130.078125	-70.370209
9173.144531	-75.027084
9216.210938	-77.134193
9259.277344	-77.546776
9302.343750	-74.181419
9345.410156	-74.391907
9388.476562	-74.505157
9431.542969	-76.946205
9474.609375	-71.164429
9517.675781	-63.099392
9560.742188	-69.637573
9603.808594	-71.233521
9646.875000	-75.586342
9689.941406	-73.953377
9733.007812	-75.737221
9776.074219	-76.684593
9819.140625	-76.654671
9862.207031	-75.694862
9905.273438	-76.595245
9948.339844	-77.981346
9991.406250	-76.573082
10034.472656	-75.828079
10077.539062	-77.021057
10120.605469	-78.303734
10163.671875	-77.617081
10206.738281	-76.762878
10249.804688	-77.193901
10292.871094	-77.790298
10335.937500	-77.887436
10379.003906	-77.206566
10422.070312	-76.973015
10465.136719	-77.188721
10508.203125	-78.039703
10551.269531	-78.073273
10594.335938	-76.279892
10637.402344	-75.042961
10680.468750	-75.514275
10723.535156	-73.239571
10766.601562	-66.815353
10809.667969	-61.642353
10852.734375	-59.755836
10895.800781	-65.955742
10938.867188	-70.700241
10981.933594	-76.033630
11025.000000	-75.448158
11068.066406	-75.690834
11111.132812	-76.553238
11154.199219	-77.026581
11197.265625	-76.789589
11240.332031	-76.449265
11283.398438	-77.790909
11326.464844	-77.540100
11369.531250	-77.356346
11412.597656	-77.325546
11455.664062	-77.670799
11498.730469	-77.990852
11541.796875	-77.786255
11584.863281	-77.627457
11627.929688	-77.866982
11670.996094	-77.759369
11714.062500	-77.823578
11757.128906	-78.091537
11800.195312	-77.314278
11843.261719	-77.272362
11886.328125	-77.433372
11929.394531	-76.816002
11972.460938	-77.923897
12015.527344	-78.889679
12058.593750	-78.599113
12101.660156	-79.022850
12144.726562	-78.157913
12187.792969	-77.595451
12230.859375	-78.184906
12273.925781	-78.724136
12316.992188	-78.595169
12360.058594	-78.015083
12403.125000	-78.438988
12446.191406	-79.561142
12489.257812	-78.859573
12532.324219	-77.471695
12575.390625	-77.093353
12618.457031	-79.667931
12661.523438	-78.268158
12704.589844	-78.182083
12747.656250	-78.141029
12790.722656	-79.551544
12833.789062	-78.174423
12876.855469	-77.018639
12919.921875	-77.653564
12962.988281	-79.379089
13006.054688	-78.502312
13049.121094	-76.812645
13092.187500	-75.790565
13135.253906	-76.741539
13178.320312	-75.537918
13221.386719	-72.520119
13264.453125	-71.471130
13307.519531	-78.310829
13350.585938	-75.427376
13393.652344	-69.668716
13436.718750	-65.461533
13479.785156	-62.668209
13522.851562	-63.731106
13565.917969	-68.414734
13608.984375	-67.827682
13652.050781	-70.672600
13695.117188	-71.084412
13738.183594	-72.382851
13781.250000	-76.297279
13824.316406	-78.218536
13867.382812	-75.062057
13910.449219	-74.651695
13953.515625	-78.461929
13996.582031	-80.031311
14039.648438	-78.067238
14082.714844	-76.853584
14125.781250	-79.044861
14168.847656	-78.986824
14211.914062	-74.957825
14254.980469	-79.960579
14298.046875	-78.197479
14341.113281	-78.945572
14384.179688	-79.521820
14427.246094	-78.483780
14470.312500	-80.349403
14513.378906	-77.397964
14556.445312	-69.436119
14599.511719	-72.439095
14642.578125	-71.573555
14685.644531	-74.537781
14728.710938	-77.304550
14771.777344	-78.674057
14814.843750	-78.322319
14857.910156	-78.966492
14900.976562	-79.404030
14944.042969	-79.925980
14987.109375	-79.652634
15030.175781	-79.336494
15073.242188	-79.540497
15116.308594	-79.710442
15159.375000	-79.591072
15202.441406	-79.659950
15245.507812	-79.817291
15288.574219	-79.877296
15331.640625	-79.562485
15374.707031	-79.092201
15417.773438	-79.904694
15460.839844	-79.906593
15503.906250	-79.950096
15546.972656	-78.861763
15590.039062	-79.722031
15633.105469	-80.054451
15676.171875	-79.329666
15719.238281	-75.475830
15762.304688	-74.908440
15805.371094	-76.085335
15848.437500	-78.158966
15891.503906	-78.817329
15934.570312	-80.751442
15977.636719	-81.096313
16020.703125	-80.251289
16063.769531	-80.830231
16106.835938	-80.399223
16149.902344	-80.445740
16192.968750	-80.629852
16236.035156	-80.638611
16279.101562	-80.707306
16322.167969	-80.610954
16365.234375	-80.626160
16408.300781	-80.629097
16451.367188	-80.742554
16494.433594	-80.640831
16537.500000	-80.745934
16580.566406	-80.684753
16623.632812	-80.730698
16666.699219	-80.768356
16709.765625	-80.745483
16752.832031	-80.786133
16795.898438	-80.722694
16838.964844	-80.807541
16882.031250	-80.725601
16925.097656	-80.737953
16968.164062	-80.840248
17011.230469	-80.699028
17054.296875	-80.844109
17097.363281	-80.744781
17140.429688	-80.737236
17183.496094	-80.872673
17226.562500	-80.745834
17269.628906	-80.840378
17312.695312	-80.878212
17355.761719	-80.877884
17398.828125	-80.819290
17441.894531	-80.937683
17484.960938	-80.942711
17528.027344	-80.872276
17571.093750	-80.931450
17614.160156	-80.894135
17657.226562	-80.944122
17700.292969	-80.945312
17743.359375	-81.101517
17786.425781	-81.035126
17829.492188	-81.092628
17872.558594	-80.885658
17915.625000	-80.911034
17958.691406	-81.008949
18001.757812	-81.047791
18044.824219	-81.051880
18087.890625	-81.024910
18130.957031	-81.003258
18174.023438	-80.979225
18217.089844	-81.041199
18260.156250	-81.047791
18303.222656	-81.133293
18346.289062	-81.071533
18389.355469	-81.092827
18432.421875	-81.264267
18475.488281	-80.959785
18518.554688	-81.198074
18561.621094	-81.219208
18604.687500	-81.056549
18647.753906	-81.027718
18690.820312	-81.197151
18733.886719	-81.131935
18776.953125	-81.159645
18820.019531	-81.234337
18863.085938	-81.281052
18906.152344	-81.141884
18949.218750	-81.126213
18992.285156	-81.230911
19035.351562	-81.282875
19078.417969	-81.167267
19121.484375	-81.130486
19164.550781	-81.126686
19207.617188	-81.287315
19250.683594	-81.230972
19293.750000	-81.127899
19336.816406	-81.295517
19379.882812	-81.328949
19422.949219	-81.161148
19466.015625	-81.317085
19509.082031	-81.230217
19552.148438	-81.387398
19595.214844	-81.225723
19638.281250	-81.286125
19681.347656	-81.277321
19724.414062	-81.349686
19767.480469	-81.168655
19810.546875	-81.312798
19853.613281	-81.316727
19896.679688	-81.494965
19939.746094	-81.330612
19982.812500	-81.267303
20025.878906	-81.337860
20068.945312	-81.212700
20112.011719	-81.322807
20155.078125	-81.309357
20198.144531	-81.326187
20241.210938	-81.292320
20284.277344	-81.213615
20327.343750	-81.428391
20370.410156	-81.229675
20413.476562	-81.243477
20456.542969	-81.492950
20499.609375	-81.348381
20542.675781	-81.526596
20585.742188	-81.595596
20628.808594	-81.169868
20671.875000	-81.260872
20714.941406	-81.349091
20758.007812	-81.387024
20801.074219	-81.434059
20844.140625	-81.252136
20887.207031	-81.461296
20930.273438	-81.408943
20973.339844	-81.238373
21016.406250	-81.257431
21059.472656	-81.563560
21102.539062	-81.547478
21145.605469	-81.474953
21188.671875	-81.335495
21231.738281	-81.311867
21274.804688	-81.395714
21317.871094	-81.455177
21360.937500	-81.465485
21404.003906	-81.403862
21447.070312	-81.471390
21490.136719	-81.176109
21533.203125	-81.579170
21576.269531	-81.496445
21619.335938	-81.411842
21662.402344	-81.547379
21705.468750	-81.507179
21748.535156	-81.436485
21791.601562	-81.282761
21834.667969	-81.544151
21877.734375	-81.423042
21920.800781	-81.217690
21963.867188	-81.457527
22006.933594	-81.201141
