Frequency (Hz)	Level (dB)
43.066406	-55.706715
86.132812	-51.413910
129.199219	-45.767143
172.265625	-49.784443
215.332031	-49.086193
258.398438	-52.203907
301.464844	-51.827435
344.531250	-52.751759
387.597656	-55.798019
430.664062	-56.548332
473.730469	-56.785072
516.796875	-56.031582
559.863281	-56.211155
602.929688	-53.734024
645.996094	-56.815464
689.062500	-55.806953
732.128906	-55.870022
775.195312	-56.054676
818.261719	-54.927162
861.328125	-55.088104
904.394531	-54.856758
947.460938	-54.527405
990.527344	-54.570057
1033.593750	-54.203594
1076.660156	-53.731865
1119.726562	-53.582043
1162.792969	-53.441765
1205.859375	-53.144390
1248.925781	-52.140564
1291.992188	-51.902943
1335.058594	-51.844440
1378.125000	-51.403294
1421.191406	-50.512764
1464.257812	-50.081486
1507.324219	-49.635464
1550.390625	-48.715034
1593.457031	-46.769173
1636.523438	-46.807266
1679.589844	-45.840092
1722.656250	-45.701717
1765.722656	-43.080700
1808.789062	-42.741703
1851.855469	-41.447590
1894.921875	-39.610252
1937.988281	-37.211887
1981.054688	-34.665958
2024.121094	-30.126144
2067.187500	-19.651714
2110.253906	-21.825338
2153.320312	-30.716324
2196.386719	-35.021358
2239.453125	-37.380047
2282.519531	-39.671860
2325.585938	-41.197315
2368.652344	-42.512573
2411.718750	-41.951931
2454.785156	-46.270771
2497.851562	-46.700394
2540.917969	-48.271599
2583.984375	-48.335918
2627.050781	-48.900604
2670.117188	-49.909073
2713.183594	-50.516388
2756.250000	-51.208630
2799.316406	-51.438965
2842.382812	-52.164524
2885.449219	-52.047428
2928.515625	-50.696224
2971.582031	-52.441418
3014.648438	-51.625214
3057.714844	-50.366249
3100.781250	-51.356865
3143.847656	-54.525658
3186.914062	-54.891575
3229.980469	-54.959713
3273.046875	-55.663593
3316.113281	-55.348331
3359.179688	-54.801460
3402.246094	-55.756958
3445.312500	-56.961636
3488.378906	-56.788013
3531.445312	-56.460846
3574.511719	-58.127617
3617.578125	-58.013367
3660.644531	-57.608395
3703.710938	-58.121731
3746.777344	-58.789425
3789.843750	-59.170029
3832.910156	-58.504444
3875.976562	-58.786205
3919.042969	-58.601658
3962.109375	-58.418522
4005.175781	-57.322906
4048.242188	-53.024490
4091.308594	-51.467346
4134.375000	-51.537502
4177.441406	-49.900379
4220.507812	-48.840080
4263.574219	-48.101379
4306.640625	-50.285458
4349.707031	-48.752728
4392.773438	-49.997364
4435.839844	-51.888081
4478.906250	-57.340042
4521.972656	-59.774471
4565.039062	-57.234386
4608.105469	-58.219280
4651.171875	-56.931267
4694.238281	-52.916744
4737.304688	-51.780067
4780.371094	-51.637810
4823.437500	-50.934315
4866.503906	-55.666729
4909.570312	-52.149612
4952.636719	-38.011238
4995.703125	-49.472652
5038.769531	-56.206966
5081.835938	-55.946812
5124.902344	-49.687843
5167.968750	-51.687984
5211.035156	-50.972031
5254.101562	-52.724373
5297.167969	-58.055126
5340.234375	-61.625244
5383.300781	-61.687584
5426.367188	-62.944035
5469.433594	-59.803608
5512.500000	-62.419163
5555.566406	-63.390461
5598.632812	-62.513203
5641.699219	-61.325447
5684.765625	-61.381863
5727.832031	-59.429482
5770.898438	-58.133389
5813.964844	-55.174751
5857.031250	-52.636429
5900.097656	-58.208557
5943.164062	-58.998322
5986.230469	-57.071869
6029.296875	-58.468342
6072.363281	-60.390610
6115.429688	-65.021080
6158.496094	-65.246162
6201.562500	-65.530647
6244.628906	-65.728897
6287.695312	-65.886292
6330.761719	-66.100021
6373.828125	-66.358025
6416.894531	-66.876915
6459.960938	-66.739418
6503.027344	-61.906254
6546.093750	-64.338730
6589.160156	-65.300446
6632.226562	-65.465027
6675.292969	-64.611687
6718.359375	-62.888180
6761.425781	-63.463741
6804.492188	-64.489738
6847.558594	-64.988129
6890.625000	-65.885529
6933.691406	-66.076546
6976.757812	-66.091103
7019.824219	-65.707550
7062.890625	-66.448242
7105.957031	-65.990982
7149.023438	-66.596069
7192.089844	-65.925323
7235.156250	-66.333847
7278.222656	-65.885872
7321.289062	-67.011681
7364.355469	-66.711395
7407.421875	-66.586021
7450.488281	-66.528831
7493.554688	-66.974884
7536.621094	-67.012718
7579.687500	-64.983177
7622.753906	-68.008530
7665.820312	-67.989853
7708.886719	-67.207657
7751.953125	-67.225502
7795.019531	-68.080116
7838.085938	-67.886787
7881.152344	-68.320595
7924.218750	-67.797173
7967.285156	-65.736282
8010.351562	-65.048096
8053.417969	-68.275162
8096.484375	-68.586494
8139.550781	-68.464348
8182.617188	-68.633614
8225.683594	-68.712547
8268.750000	-68.763931
8311.816406	-68.913147
8354.882812	-68.734779
8397.949219	-68.977173
8441.015625	-69.023460
8484.082031	-68.932487
8527.148438	-69.023781
8570.214844	-69.024132
8613.281250	-69.261414
8656.347656	-69.090942
8699.414062	-69.111198
8742.480469	-69.302467
8785.546875	-69.229080
8828.613281	-69.401840
8871.679688	-69.397079
8914.746094	-69.441635
8957.812500	-69.486717
9000.878906	-69.535873
9043.945312	-69.552467
9087.011719	-69.625832
9130.078125	-69.667458
9173.144531	-69.697021
9216.210938	-69.758705
9259.277344	-69.759392
9302.343750	-69.827179
9345.410156	-69.853210
9388.476562	-69.882004
9431.542969	-69.934952
9474.609375	-69.984741
9517.675781	-70.014572
9560.742188	-70.076385
9603.808594	-70.074074
9646.875000	-70.124817
9689.941406	-70.178101
9733.007812	-70.206123
9776.074219	-70.252541
9819.140625	-70.272301
9862.207031	-70.321236
9905.273438	-70.358383
9948.339844	-70.391747
9991.406250	-70.428970
10034.472656	-70.465569
10077.539062	-70.504074
10120.605469	-70.539665
10163.671875	-70.557915
10206.738281	-70.599342
10249.804688	-70.645485
10292.871094	-70.660995
10335.937500	-70.697945
10379.003906	-70.744255
10422.070312	-70.781822
10465.136719	-70.807335
10508.203125	-70.840088
10551.269531	-70.870125
10594.335938	-70.920113
10637.402344	-70.950417
10680.468750	-70.977867
10723.535156	-70.991531
10766.601562	-71.034645
10809.667969	-71.077118
10852.734375	-71.125023
10895.800781	-71.129013
10938.867188	-71.141655
10981.933594	-71.189133
11025.000000	-71.225151
11068.066406	-71.265884
11111.132812	-71.284554
11154.199219	-71.315002
11197.265625	-71.358940
11240.332031	-71.369438
11283.398438	-71.392166
11326.464844	-71.434311
11369.531250	-71.477287
11412.597656	-71.496223
11455.664062	-71.536125
11498.730469	-71.557251
11541.796875	-71.581322
11584.863281	-71.604652
11627.929688	-71.625900
11670.996094	-71.659882
11714.062500	-71.686623
11757.128906	-71.724358
11800.195312	-71.750671
11843.261719	-71.758972
11886.328125	-71.799118
11929.394531	-71.828697
11972.460938	-71.851952
12015.527344	-71.869339
12058.593750	-71.892540
12101.660156	-71.934433
12144.726562	-71.948792
12187.792969	-71.976898
12230.859375	-72.003311
12273.925781	-72.029465
12316.992188	-72.043518
12360.058594	-72.082443
12403.125000	-72.104240
12446.191406	-72.133957
12489.257812	-72.157776
12532.324219	-72.187523
12575.390625	-72.203140
12618.457031	-72.224884
12661.523438	-72.243355
12704.589844	-72.274109
12747.656250	-72.300797
12790.722656	-72.321808
12833.789062	-72.339272
12876.855469	-72.361626
12919.921875	-72.396912
12962.988281	-72.421265
13006.054688	-72.433678
13049.121094	-72.466812
13092.187500	-72.468796
13135.253906	-72.508881
13178.320312	-72.513786
13221.386719	-72.546501
13264.453125	-72.570709
13307.519531	-72.609932
13350.585938	-72.627869
13393.652344	-72.623314
13436.718750	-72.692009
13479.785156	-72.651459
13522.851562	-72.676086
13565.917969	-72.701523
13608.984375	-72.700493
13652.050781	-72.754463
13695.117188	-72.762321
13738.183594	-72.792549
13781.250000	-72.822266
13824.316406	-72.828453
13867.382812	-72.847717
13910.449219	-72.874268
13953.515625	-72.901352
13996.582031	-72.908920
14039.648438	-72.917831
14082.714844	-72.938683
14125.781250	-72.964088
14168.847656	-72.986816
14211.914062	-72.999794
14254.980469	-73.013374
14298.046875	-73.022881
14341.113281	-73.032219
14384.179688	-73.067581
14427.246094	-73.094154
14470.312500	-73.078735
14513.378906	-73.136681
14556.445312	-73.165985
14599.511719	-73.130280
14642.578125	-73.190254
14685.644531	-73.193985
14728.710938	-73.205132
14771.777344	-73.181351
14814.843750	-73.294136
14857.910156	-73.299072
14900.976562	-73.322563
14944.042969	-73.271286
14987.109375	-73.357239
15030.175781	-73.291618
15073.242188	-73.351517
15116.308594	-73.397217
15159.375000	-73.386246
15202.441406	-73.354286
15245.507812	-73.433319
15288.574219	-73.494049
15331.640625	-73.433098
15374.707031	-73.404022
15417.773438	-73.446037
15460.839844	-73.470581
15503.906250	-73.542084
15546.972656	-73.511307
15590.039062	-73.501717
15633.105469	-73.506248
15676.171875	-73.493149
15719.238281	-73.649254
15762.304688	-73.634529
15805.371094	-73.612900
15848.437500	-73.654572
15891.503906	-73.599174
15934.570312	-73.623840
15977.636719	-73.699181
16020.703125	-73.688545
16063.769531	-73.637627
16106.835938	-73.664909
16149.902344	-73.727356
16192.968750	-73.829414
16236.035156	-73.559639
16279.101562	-73.777786
16322.167969	-73.773926
16365.234375	-73.751526
16408.300781	-73.727371
16451.367188	-73.734497
16494.433594	-73.795197
16537.500000	-73.685707
16580.566406	-73.778999
16623.632812	-73.791542
16666.699219	-73.922401
16709.765625	-73.891418
16752.832031	-73.851585
16795.898438	-73.921570
16838.964844	-73.791130
16882.031250	-73.793777
16925.097656	-73.862595
16968.164062	-73.956398
17011.230469	-73.815628
17054.296875	-73.765686
17097.363281	-74.006615
17140.429688	-73.957420
17183.496094	-73.959709
17226.562500	-73.866035
17269.628906	-73.918549
17312.695312	-74.106384
17355.761719	-74.013252
17398.828125	-74.034477
17441.894531	-74.064827
17484.960938	-74.093575
17528.027344	-74.026962
17571.093750	-74.095993
17614.160156	-73.999062
17657.226562	-74.052757
17700.292969	-73.884613
17743.359375	-74.111656
17786.425781	-73.983887
17829.492188	-74.035126
17872.558594	-74.148727
17915.625000	-74.198219
17958.691406	-74.124611
18001.757812	-74.140907
18044.824219	-73.980270
18087.890625	-74.198425
18130.957031	-74.220848
18174.023438	-74.359940
18217.089844	-74.137306
18260.156250	-74.237350
18303.222656	-74.091965
18346.289062	-74.383690
18389.355469	-74.174316
18432.421875	-74.038788
18475.488281	-74.260620
18518.554688	-74.227295
18561.621094	-74.032127
18604.687500	-74.116310
18647.753906	-74.285995
18690.820312	-74.441063
18733.886719	-74.232727
18776.953125	-74.061874
18820.019531	-74.277092
18863.085938	-74.326965
18906.152344	-74.468140
18949.218750	-74.279213
18992.285156	-74.365532
19035.351562	-74.338768
19078.417969	-74.345795
19121.484375	-74.321373
19164.550781	-74.127998
19207.617188	-74.186523
19250.683594	-74.324104
19293.750000	-74.340240
19336.816406	-74.340500
19379.882812	-74.211578
19422.949219	-74.498734
19466.015625	-74.304665
19509.082031	-74.266380
19552.148438	-74.361931
19595.214844	-74.256393
19638.281250	-74.522667
19681.347656	-74.298706
19724.414062	-74.314323
19767.480469	-74.195587
19810.546875	-74.476082
19853.613281	-74.452744
19896.679688	-74.458488
19939.746094	-74.610001
19982.812500	-74.511375
20025.878906	-74.374481
20068.945312	-74.389145
20112.011719	-74.429085
20155.078125	-74.267227
20198.144531	-74.582458
20241.210938	-74.704788
20284.277344	-74.456398
20327.343750	-74.437347
20370.410156	-74.496986
20413.476562	-74.396690
20456.542969	-74.463211
20499.609375	-74.690392
20542.675781	-74.394859
20585.742188	-74.373787
20628.808594	-74.396408
20671.875000	-74.258751
20714.941406	-74.350662
20758.007812	-74.137207
20801.074219	-74.457832
20844.140625	-74.213974
20887.207031	-74.600449
20930.273438	-74.560509
20973.339844	-74.095711
21016.406250	-74.408859
21059.472656	-74.704506
21102.539062	-74.618210
21145.605469	-74.419121
21188.671875	-74.493843
21231.738281	-74.275269
21274.804688	-74.580711
21317.871094	-74.661682
21360.937500	-74.326462
21404.003906	-74.608353
21447.070312	-74.473251
21490.136719	-74.578987
21533.203125	-74.479317
21576.269531	-74.637001
21619.335938	-74.378113
21662.402344	-74.674706
21705.468750	-74.853477
21748.535156	-74.625755
21791.601562	-74.551949
21834.667969	-74.393478
21877.734375	-74.717247
21920.800781	-74.456062
21963.867188	-74.401085
22006.933594	-74.475365
