Frequency (Hz)	Level (dB)
43.066406	-53.975288
86.132812	-53.622631
129.199219	-56.340015
172.265625	-58.597012
215.332031	-57.988899
258.398438	-57.752945
301.464844	-58.805000
344.531250	-58.426929
387.597656	-58.355667
430.664062	-58.595623
473.730469	-58.184067
516.796875	-58.253632
559.863281	-58.059868
602.929688	-57.650898
645.996094	-56.969845
689.062500	-56.657368
732.128906	-56.515949
775.195312	-56.818352
818.261719	-57.022911
861.328125	-56.215641
904.394531	-56.329716
947.460938	-55.481834
990.527344	-54.843109
1033.593750	-55.304852
1076.660156	-54.560165
1119.726562	-54.508564
1162.792969	-54.151955
1205.859375	-53.813766
1248.925781	-52.654911
1291.992188	-52.547340
1335.058594	-52.798279
1378.125000	-51.508518
1421.191406	-51.122112
1464.257812	-50.756493
1507.324219	-49.696442
1550.390625	-49.579945
1593.457031	-48.662743
1636.523438	-47.582909
1679.589844	-47.038071
1722.656250	-45.965893
1765.722656	-44.859612
1808.789062	-43.207920
1851.855469	-42.200596
1894.921875	-39.953808
1937.988281	-34.358078
1981.054688	-32.272694
2024.121094	-31.746943
2067.187500	-20.873611
2110.253906	-22.556293
2153.320312	-32.102753
2196.386719	-36.069405
2239.453125	-39.161411
2282.519531	-40.830284
2325.585938	-42.235863
2368.652344	-43.568756
2411.718750	-45.035515
2454.785156	-45.425156
2497.851562	-46.767834
2540.917969	-47.493370
2583.984375	-48.486942
2627.050781	-49.063007
2670.117188	-49.424019
2713.183594	-50.609257
2756.250000	-50.920845
2799.316406	-51.897743
2842.382812	-52.408287
2885.449219	-52.834362
2928.515625	-53.559639
2971.582031	-53.426895
3014.648438	-53.359943
3057.714844	-53.110138
3100.781250	-50.327587
3143.847656	-51.575806
3186.914062	-54.750462
3229.980469	-55.663273
3273.046875	-56.051262
3316.113281	-56.458328
3359.179688	-56.922447
3402.246094	-56.229443
3445.312500	-57.442162
3488.378906	-56.806702
3531.445312	-56.637436
3574.511719	-57.249065
3617.578125	-57.029327
3660.644531	-57.415394
3703.710938	-56.831524
3746.777344	-58.296543
3789.843750	-59.143642
3832.910156	-59.093182
3875.976562	-57.865265
3919.042969	-57.929794
3962.109375	-59.213371
4005.175781	-56.975349
4048.242188	-57.934704
4091.308594	-59.479778
4134.375000	-58.643684
4177.441406	-57.398430
4220.507812	-57.135128
4263.574219	-58.509220
4306.640625	-55.587963
4349.707031	-53.554134
4392.773438	-54.225937
4435.839844	-49.439766
4478.906250	-43.459316
4521.972656	-42.398632
4565.039062	-30.557245
4608.105469	-35.627338
4651.171875	-43.755310
4694.238281	-47.798367
4737.304688	-49.123112
4780.371094	-52.895393
4823.437500	-54.519505
4866.503906	-53.795422
4909.570312	-52.477570
4952.636719	-47.301861
4995.703125	-53.665768
5038.769531	-54.502499
5081.835938	-55.643864
5124.902344	-55.353939
5167.968750	-54.886139
5211.035156	-56.530327
5254.101562	-55.985733
5297.167969	-56.418194
5340.234375	-53.781639
5383.300781	-54.228859
5426.367188	-55.663414
5469.433594	-54.025894
5512.500000	-48.872478
5555.566406	-48.398445
5598.632812	-36.552643
5641.699219	-46.690933
5684.765625	-52.168221
5727.832031	-59.016586
5770.898438	-60.599113
5813.964844	-59.412731
5857.031250	-60.046925
5900.097656	-59.079594
5943.164062	-57.128456
5986.230469	-54.381123
6029.296875	-53.716675
6072.363281	-54.068001
6115.429688	-52.450752
6158.496094	-48.430115
6201.562500	-48.182247
6244.628906	-37.427826
6287.695312	-44.729893
6330.761719	-47.414490
6373.828125	-53.745209
6416.894531	-54.012161
6459.960938	-49.685974
6503.027344	-53.136932
6546.093750	-51.831875
6589.160156	-52.399746
6632.226562	-51.768322
6675.292969	-52.252014
6718.359375	-58.070206
6761.425781	-57.783401
6804.492188	-58.496258
6847.558594	-61.501591
6890.625000	-62.871754
6933.691406	-65.036301
6976.757812	-64.528053
7019.824219	-62.944607
7062.890625	-62.491356
7105.957031	-62.172085
7149.023438	-59.930073
7192.089844	-61.007233
7235.156250	-61.863903
7278.222656	-60.403152
7321.289062	-62.370674
7364.355469	-64.025055
7407.421875	-61.994076
7450.488281	-58.721645
7493.554688	-58.862560
7536.621094	-55.155922
7579.687500	-42.830219
7622.753906	-46.672447
7665.820312	-54.670063
7708.886719	-59.275307
7751.953125	-57.063179
7795.019531	-60.662529
7838.085938	-62.147785
7881.152344	-58.586895
7924.218750	-54.578117
7967.285156	-51.427727
8010.351562	-40.733414
8053.417969	-46.760948
8096.484375	-55.416840
8139.550781	-59.427334
8182.617188	-57.025635
8225.683594	-56.937340
8268.750000	-59.480392
8311.816406	-57.110905
8354.882812	-59.036198
8397.949219	-60.856617
8441.015625	-62.542355
8484.082031	-63.996517
8527.148438	-62.562187
8570.214844	-61.747154
8613.281250	-64.401344
8656.347656	-64.199814
8699.414062	-58.365948
8742.480469	-54.139782
8785.546875	-43.915276
8828.613281	-54.522663
8871.679688	-57.158028
8914.746094	-63.503429
8957.812500	-62.574768
9000.878906	-64.135544
9043.945312	-62.588108
9087.011719	-63.624889
9130.078125	-65.217842
9173.144531	-60.762871
9216.210938	-61.924831
9259.277344	-63.957645
9302.343750	-60.818104
9345.410156	-58.860691
9388.476562	-65.134857
9431.542969	-55.962147
9474.609375	-47.366398
9517.675781	-38.994743
9560.742188	-46.429485
9603.808594	-51.834316
9646.875000	-56.911533
9689.941406	-63.899673
9733.007812	-61.521099
9776.074219	-63.123817
9819.140625	-67.538261
9862.207031	-64.794159
9905.273438	-67.019531
9948.339844	-67.312607
9991.406250	-67.872604
10034.472656	-66.562187
10077.539062	-67.517365
10120.605469	-69.297409
10163.671875	-66.649391
10206.738281	-64.334328
10249.804688	-61.176643
10292.871094	-68.943596
10335.937500	-69.314819
10379.003906	-69.485832
10422.070312	-69.781464
10465.136719	-69.998703
10508.203125	-69.698044
10551.269531	-70.087250
10594.335938	-69.245995
10637.402344	-69.297012
10680.468750	-69.738922
10723.535156	-68.414612
10766.601562	-68.253311
10809.667969	-65.359421
10852.734375	-65.678253
10895.800781	-71.113220
10938.867188	-70.445763
10981.933594	-70.991951
11025.000000	-70.682732
11068.066406	-71.300720
11111.132812	-71.285202
11154.199219	-71.218750
11197.265625	-71.525803
11240.332031	-71.544128
11283.398438	-71.539604
11326.464844	-71.846840
11369.531250	-71.722916
11412.597656	-71.741043
11455.664062	-71.830727
11498.730469	-71.571266
11541.796875	-71.797676
11584.863281	-71.665192
11627.929688	-71.684052
11670.996094	-71.795822
11714.062500	-71.385857
11757.128906	-71.043129
11800.195312	-71.108421
11843.261719	-66.019325
11886.328125	-70.101151
11929.394531	-71.271736
11972.460938	-72.117271
12015.527344	-72.325211
12058.593750	-72.506767
12101.660156	-65.989586
12144.726562	-69.276611
12187.792969	-69.244202
12230.859375	-71.176056
12273.925781	-72.290604
12316.992188	-72.697678
12360.058594	-71.344582
12403.125000	-72.311409
12446.191406	-72.839340
12489.257812	-71.493507
12532.324219	-69.259827
12575.390625	-65.749939
12618.457031	-67.515915
12661.523438	-68.625427
12704.589844	-71.335800
12747.656250	-70.976501
12790.722656	-68.081299
12833.789062	-69.968651
12876.855469	-70.698769
12919.921875	-67.672844
12962.988281	-68.819130
13006.054688	-71.333382
13049.121094	-67.774170
13092.187500	-66.009621
13135.253906	-66.183594
13178.320312	-66.351837
13221.386719	-63.428608
13264.453125	-68.967285
13307.519531	-64.959785
13350.585938	-59.438339
13393.652344	-57.281940
13436.718750	-56.703072
13479.785156	-45.594872
13522.851562	-44.862122
13565.917969	-54.382217
13608.984375	-54.847073
13652.050781	-58.122757
13695.117188	-62.519928
13738.183594	-62.757694
13781.250000	-63.208755
13824.316406	-63.306530
13867.382812	-60.777874
13910.449219	-66.817780
13953.515625	-66.318878
13996.582031	-68.470749
14039.648438	-68.338875
14082.714844	-68.455254
14125.781250	-68.714188
14168.847656	-69.230919
14211.914062	-69.181885
14254.980469	-69.165329
14298.046875	-69.884773
14341.113281	-71.284439
14384.179688	-62.002239
14427.246094	-64.234344
14470.312500	-65.749321
14513.378906	-68.301987
14556.445312	-65.337875
14599.511719	-67.648811
14642.578125	-69.496948
14685.644531	-69.693382
14728.710938	-69.718323
14771.777344	-69.582985
14814.843750	-69.799881
14857.910156	-69.993530
14900.976562	-70.612953
14944.042969	-64.118698
14987.109375	-70.018005
15030.175781	-70.277802
15073.242188	-70.699425
15116.308594	-70.387970
15159.375000	-71.143456
15202.441406	-71.131821
15245.507812	-70.995056
15288.574219	-71.057770
15331.640625	-71.182816
15374.707031	-70.963882
15417.773438	-71.449242
15460.839844	-71.496254
15503.906250	-71.572189
15546.972656	-71.724693
15590.039062	-71.169533
15633.105469	-71.272614
15676.171875	-70.158005
15719.238281	-66.605362
15762.304688	-68.031311
15805.371094	-70.131599
15848.437500	-71.467560
15891.503906	-66.764694
15934.570312	-67.980629
15977.636719	-69.987740
16020.703125	-70.371376
16063.769531	-70.666939
16106.835938	-70.800789
16149.902344	-71.055054
16192.968750	-71.156624
16236.035156	-71.384079
16279.101562	-71.528458
16322.167969	-71.683464
16365.234375	-71.759552
16408.300781	-71.763878
16451.367188	-71.773712
16494.433594	-71.795609
16537.500000	-71.819733
16580.566406	-71.838425
16623.632812	-71.839455
16666.699219	-71.941925
16709.765625	-71.974754
16752.832031	-71.977005
16795.898438	-72.024643
16838.964844	-72.105843
16882.031250	-72.137619
16925.097656	-72.110931
16968.164062	-72.102829
17011.230469	-72.161209
17054.296875	-72.121834
17097.363281	-72.169029
17140.429688	-72.186432
17183.496094	-72.243690
17226.562500	-72.267830
17269.628906	-72.294807
17312.695312	-72.320854
17355.761719	-72.322906
17398.828125	-72.370857
17441.894531	-72.333138
17484.960938	-72.323265
17528.027344	-72.335251
17571.093750	-72.401367
17614.160156	-72.379860
17657.226562	-72.403572
17700.292969	-72.462555
17743.359375	-72.465469
17786.425781	-72.530495
17829.492188	-72.511185
17872.558594	-72.511948
17915.625000	-72.488930
17958.691406	-72.510727
18001.757812	-72.528702
18044.824219	-72.528633
18087.890625	-72.565254
18130.957031	-72.591408
18174.023438	-72.585556
18217.089844	-72.630966
18260.156250	-72.633614
18303.222656	-72.628616
18346.289062	-72.676308
18389.355469	-72.635963
18432.421875	-72.652077
18475.488281	-72.687874
18518.554688	-72.694901
18561.621094	-72.680939
18604.687500	-72.752510
18647.753906	-72.742668
18690.820312	-72.767006
18733.886719	-72.699692
18776.953125	-72.795647
18820.019531	-72.810944
18863.085938	-72.785889
18906.152344	-72.791237
18949.218750	-72.790901
18992.285156	-72.810753
19035.351562	-72.841888
19078.417969	-72.859253
19121.484375	-72.843613
19164.550781	-72.834229
19207.617188	-72.913788
19250.683594	-72.894455
19293.750000	-72.869972
19336.816406	-72.882362
19379.882812	-72.845345
19422.949219	-72.850090
19466.015625	-72.867111
19509.082031	-72.841331
19552.148438	-72.900040
19595.214844	-72.905167
19638.281250	-72.865738
19681.347656	-72.914452
19724.414062	-72.913940
19767.480469	-72.964180
19810.546875	-72.961395
19853.613281	-72.987335
19896.679688	-72.901054
19939.746094	-72.967064
19982.812500	-72.977791
20025.878906	-73.016983
20068.945312	-72.994110
20112.011719	-72.964317
20155.078125	-73.002998
20198.144531	-73.085159
20241.210938	-72.997223
20284.277344	-72.980553
20327.343750	-73.026993
20370.410156	-72.971809
20413.476562	-73.014259
20456.542969	-73.060539
20499.609375	-73.032730
20542.675781	-73.030525
20585.742188	-73.064377
20628.808594	-73.060501
20671.875000	-73.076538
20714.941406	-73.065659
20758.007812	-73.108772
20801.074219	-73.072868
20844.140625	-73.052902
20887.207031	-73.048988
20930.273438	-73.055138
20973.339844	-73.063797
21016.406250	-73.071297
21059.472656	-73.123734
21102.539062	-73.036766
21145.605469	-73.076530
21188.671875	-73.062958
21231.738281	-73.150398
21274.804688	-73.141167
21317.871094	-73.082619
21360.937500	-73.082649
21404.003906	-73.146782
21447.070312	-73.126823
21490.136719	-73.108482
21533.203125	-73.149063
21576.269531	-73.103828
21619.335938	-73.017334
21662.402344	-73.135246
21705.468750	-73.144470
21748.535156	-73.092033
21791.601562	-73.108833
21834.667969	-73.146568
21877.734375	-73.189827
21920.800781	-73.089584
21963.867188	-73.089249
22006.933594	-73.111710
