Frequency (Hz)	Level (dB)
43.066406	-51.358994
86.132812	-55.804115
129.199219	-54.769032
172.265625	-56.765884
215.332031	-56.607658
258.398438	-56.262909
301.464844	-56.980934
344.531250	-56.677723
387.597656	-56.724510
430.664062	-57.193073
473.730469	-56.592751
516.796875	-56.764294
559.863281	-56.297749
602.929688	-55.977852
645.996094	-55.713215
689.062500	-54.745758
732.128906	-55.795399
775.195312	-56.159798
818.261719	-54.606678
861.328125	-55.669094
904.394531	-55.059135
947.460938	-55.099056
990.527344	-54.387913
1033.593750	-53.690315
1076.660156	-53.628933
1119.726562	-52.653126
1162.792969	-53.545460
1205.859375	-53.742805
1248.925781	-52.975620
1291.992188	-54.260715
1335.058594	-52.525597
1378.125000	-52.644630
1421.191406	-52.220535
1464.257812	-51.375687
1507.324219	-51.129963
1550.390625	-49.900940
1593.457031	-51.096737
1636.523438	-49.257904
1679.589844	-50.223499
1722.656250	-50.090145
1765.722656	-49.165550
1808.789062	-49.229809
1851.855469	-46.938469
1894.921875	-47.132687
1937.988281	-46.151779
1981.054688	-45.708492
2024.121094	-44.161442
2067.187500	-42.766380
2110.253906	-42.415333
2153.320312	-41.452667
2196.386719	-38.770748
2239.453125	-36.465199
2282.519531	-32.021709
2325.585938	-22.176678
2368.652344	-26.057669
2411.718750	-34.827919
2454.785156	-33.962048
2497.851562	-21.591328
2540.917969	-25.419600
2583.984375	-33.011173
2627.050781	-35.459423
2670.117188	-35.997742
2713.183594	-40.631718
2756.250000	-41.955250
2799.316406	-43.699539
2842.382812	-45.548344
2885.449219	-46.028107
2928.515625	-47.967495
2971.582031	-47.063831
3014.648438	-48.194462
3057.714844	-47.633308
3100.781250	-48.396240
3143.847656	-50.289131
3186.914062	-50.337551
3229.980469	-51.507683
3273.046875	-51.652195
3316.113281	-52.353825
3359.179688	-52.276897
3402.246094	-51.830814
3445.312500	-52.530548
3488.378906	-52.123680
3531.445312	-52.715946
3574.511719	-50.919983
3617.578125	-46.424889
3660.644531	-51.725529
3703.710938	-56.691204
3746.777344	-55.144512
3789.843750	-55.455223
3832.910156	-55.465401
3875.976562	-56.313763
3919.042969	-57.030365
3962.109375	-56.865875
4005.175781	-56.605194
4048.242188	-56.885021
4091.308594	-57.680134
4134.375000	-56.353226
4177.441406	-54.596775
4220.507812	-55.992477
4263.574219	-57.235271
4306.640625	-55.833870
4349.707031	-56.046673
4392.773438	-53.876347
4435.839844	-53.242035
4478.906250	-50.369877
4521.972656	-49.108006
4565.039062	-43.733784
4608.105469	-34.100700
4651.171875	-32.704586
4694.238281	-40.070530
4737.304688	-45.888969
4780.371094	-47.847492
4823.437500	-52.400093
4866.503906	-51.934669
4909.570312	-52.684898
4952.636719	-53.811646
4995.703125	-51.858555
5038.769531	-54.303932
5081.835938	-52.956974
5124.902344	-55.771557
5167.968750	-55.922173
5211.035156	-55.534115
5254.101562	-58.554459
5297.167969	-58.626259
5340.234375	-58.699009
5383.300781	-55.031265
5426.367188	-57.616928
5469.433594	-55.190990
5512.500000	-54.362808
5555.566406	-52.509853
5598.632812	-52.088833
5641.699219	-55.089970
5684.765625	-52.807827
5727.832031	-55.570702
5770.898438	-54.259659
5813.964844	-52.467621
5857.031250	-53.946999
5900.097656	-52.553207
5943.164062	-57.118446
5986.230469	-54.932297
6029.296875	-54.289097
6072.363281	-54.355606
6115.429688	-56.654964
6158.496094	-49.682423
6201.562500	-39.338821
6244.628906	-45.333248
6287.695312	-51.552330
6330.761719	-49.068974
6373.828125	-48.914524
6416.894531	-47.766693
6459.960938	-48.165245
6503.027344	-41.236763
6546.093750	-43.140186
6589.160156	-45.980213
6632.226562	-35.380814
6675.292969	-31.807432
6718.359375	-43.085926
6761.425781	-45.590439
6804.492188	-45.836929
6847.558594	-51.578121
6890.625000	-50.211586
6933.691406	-48.946617
6976.757812	-46.968727
7019.824219	-48.641411
7062.890625	-52.202999
7105.957031	-52.106682
7149.023438	-54.050957
7192.089844	-53.277611
7235.156250	-57.121487
7278.222656	-49.816055
7321.289062	-44.989555
7364.355469	-39.250042
7407.421875	-50.597664
7450.488281	-52.453438
7493.554688	-46.998688
7536.621094	-38.963902
7579.687500	-36.323326
7622.753906	-45.944790
7665.820312	-49.509487
7708.886719	-49.524059
7751.953125	-54.232189
7795.019531	-56.785057
7838.085938	-58.833160
7881.152344	-60.600815
7924.218750	-59.457119
7967.285156	-56.681915
8010.351562	-55.468658
8053.417969	-60.136307
8096.484375	-61.107857
8139.550781	-60.980564
8182.617188	-58.497929
8225.683594	-58.800827
8268.750000	-64.886421
8311.816406	-64.356667
8354.882812	-64.377136
8397.949219	-64.732948
8441.015625	-65.548416
8484.082031	-65.115089
8527.148438	-63.345493
8570.214844	-63.368454
8613.281250	-62.389084
8656.347656	-63.004868
8699.414062	-67.643349
8742.480469	-65.932777
8785.546875	-64.549057
8828.613281	-65.189537
8871.679688	-65.362930
8914.746094	-55.341282
8957.812500	-45.298813
9000.878906	-52.930489
9043.945312	-62.702126
9087.011719	-54.293396
9130.078125	-54.065697
9173.144531	-57.535721
9216.210938	-58.806744
9259.277344	-61.885868
9302.343750	-60.911133
9345.410156	-62.109974
9388.476562	-64.997917
9431.542969	-64.462662
9474.609375	-66.951546
9517.675781	-64.961639
9560.742188	-65.509056
9603.808594	-64.900963
9646.875000	-65.245316
9689.941406	-65.704048
9733.007812	-65.074471
9776.074219	-65.908470
9819.140625	-64.712517
9862.207031	-66.005417
9905.273438	-65.464691
9948.339844	-65.320938
9991.406250	-64.889870
10034.472656	-65.297142
10077.539062	-64.927567
10120.605469	-56.746601
10163.671875	-53.292511
10206.738281	-61.776611
10249.804688	-66.484154
10292.871094	-64.081444
10335.937500	-67.362137
10379.003906	-69.857941
10422.070312	-69.730392
10465.136719	-69.721703
10508.203125	-70.995857
10551.269531	-70.633568
10594.335938	-70.893791
10637.402344	-70.453362
10680.468750	-70.878174
10723.535156	-70.281700
10766.601562	-70.112305
10809.667969	-70.594429
10852.734375	-69.914001
10895.800781	-70.764145
10938.867188	-70.590919
10981.933594	-70.925789
11025.000000	-71.040024
11068.066406	-70.968521
11111.132812	-71.227959
11154.199219	-71.135536
11197.265625	-71.342377
11240.332031	-71.172264
11283.398438	-71.218636
11326.464844	-71.099968
11369.531250	-71.078140
11412.597656	-70.645798
11455.664062	-70.600853
11498.730469	-71.062500
11541.796875	-70.739052
11584.863281	-71.044975
11627.929688	-71.323761
11670.996094	-71.076172
11714.062500	-71.478134
11757.128906	-70.853516
11800.195312	-70.600815
11843.261719	-70.683128
11886.328125	-71.055954
11929.394531	-70.542961
11972.460938	-70.467369
12015.527344	-70.899811
12058.593750	-70.631866
12101.660156	-70.924515
12144.726562	-70.215057
12187.792969	-69.884354
12230.859375	-69.544624
12273.925781	-68.009850
12316.992188	-65.453194
12360.058594	-65.652420
12403.125000	-58.294525
12446.191406	-49.320393
12489.257812	-55.848537
12532.324219	-65.234863
12575.390625	-65.312202
12618.457031	-65.733826
12661.523438	-68.161194
12704.589844	-69.064697
12747.656250	-70.130051
12790.722656	-69.458771
12833.789062	-72.120911
12876.855469	-70.829720
12919.921875	-71.310684
12962.988281	-71.773331
13006.054688	-71.020248
13049.121094	-71.790169
13092.187500	-69.909889
13135.253906	-70.627884
13178.320312	-71.479881
13221.386719	-71.177681
13264.453125	-72.162415
13307.519531	-72.186020
13350.585938	-72.518013
13393.652344	-72.479393
13436.718750	-72.805527
13479.785156	-72.424988
13522.851562	-72.452950
13565.917969	-72.521759
13608.984375	-72.170067
13652.050781	-72.742393
13695.117188	-72.238213
13738.183594	-72.609886
13781.250000	-72.948143
13824.316406	-72.869469
13867.382812	-72.908180
13910.449219	-72.870483
13953.515625	-73.083427
13996.582031	-72.855827
14039.648438	-72.987556
14082.714844	-73.123100
14125.781250	-73.118523
14168.847656	-73.044624
14211.914062	-72.990379
14254.980469	-71.977936
14298.046875	-71.266823
14341.113281	-71.622299
14384.179688	-71.868263
14427.246094	-66.933838
14470.312500	-60.549389
14513.378906	-62.026276
14556.445312	-59.495205
14599.511719	-67.177071
14642.578125	-70.626633
14685.644531	-65.087341
14728.710938	-68.346962
14771.777344	-70.735016
14814.843750	-73.017967
14857.910156	-72.525703
14900.976562	-71.823006
14944.042969	-71.678741
14987.109375	-72.707687
15030.175781	-72.181618
15073.242188	-70.581177
15116.308594	-70.874001
15159.375000	-72.192307
15202.441406	-72.457176
15245.507812	-72.232605
15288.574219	-71.710991
15331.640625	-69.548279
15374.707031	-71.459656
15417.773438	-70.718407
15460.839844	-69.807449
15503.906250	-72.555580
15546.972656	-71.904480
15590.039062	-73.445557
15633.105469	-73.062943
15676.171875	-72.855080
15719.238281	-73.084579
15762.304688	-71.120102
15805.371094	-71.975914
15848.437500	-73.240814
15891.503906	-72.163734
15934.570312	-72.392570
15977.636719	-73.183304
16020.703125	-73.779015
16063.769531	-73.626060
16106.835938	-73.843559
16149.902344	-73.715042
16192.968750	-73.828712
16236.035156	-73.784828
16279.101562	-73.815964
16322.167969	-73.792946
16365.234375	-73.814003
16408.300781	-73.794861
16451.367188	-73.778702
16494.433594	-73.845947
16537.500000	-73.753906
16580.566406	-73.920464
16623.632812	-73.848282
16666.699219	-73.959328
16709.765625	-73.885368
16752.832031	-73.961586
16795.898438	-73.915726
16838.964844	-74.002090
16882.031250	-74.088898
16925.097656	-73.950256
16968.164062	-74.081108
17011.230469	-73.967506
17054.296875	-74.025932
17097.363281	-74.013977
17140.429688	-74.060852
17183.496094	-73.977913
17226.562500	-74.009254
17269.628906	-74.015007
17312.695312	-74.043915
17355.761719	-74.060226
17398.828125	-74.070671
17441.894531	-74.044846
17484.960938	-74.050934
17528.027344	-74.105591
17571.093750	-74.129013
17614.160156	-74.169022
17657.226562	-74.148476
17700.292969	-74.168228
17743.359375	-74.168694
17786.425781	-74.260178
17829.492188	-74.262047
17872.558594	-74.242867
17915.625000	-74.242546
17958.691406	-74.222244
18001.757812	-74.301971
18044.824219	-74.189583
18087.890625	-74.297348
18130.957031	-74.200348
18174.023438	-74.254402
18217.089844	-74.216782
18260.156250	-74.256111
18303.222656	-74.198479
18346.289062	-74.275581
18389.355469	-74.327057
18432.421875	-74.233208
18475.488281	-74.345505
18518.554688	-74.250168
18561.621094	-74.366165
18604.687500	-74.342781
18647.753906	-74.412872
18690.820312	-74.381859
18733.886719	-74.409462
18776.953125	-74.355072
18820.019531	-74.400848
18863.085938	-74.440971
18906.152344	-74.410210
18949.218750	-74.422913
18992.285156	-74.356850
19035.351562	-74.497322
19078.417969	-74.380226
19121.484375	-74.357086
19164.550781	-74.375290
19207.617188	-74.452011
19250.683594	-74.307983
19293.750000	-74.367889
19336.816406	-74.431404
19379.882812	-74.377129
19422.949219	-74.470924
19466.015625	-74.387360
19509.082031	-74.497948
19552.148438	-74.492332
19595.214844	-74.467926
19638.281250	-74.471382
19681.347656	-74.575569
19724.414062	-74.522209
19767.480469	-74.539047
19810.546875	-74.549416
19853.613281	-74.553940
19896.679688	-74.483078
19939.746094	-74.485001
19982.812500	-74.589714
20025.878906	-74.435333
20068.945312	-74.505272
20112.011719	-74.496811
20155.078125	-74.442291
20198.144531	-74.476311
20241.210938	-74.471962
20284.277344	-74.586990
20327.343750	-74.587830
20370.410156	-74.620628
20413.476562	-74.474495
20456.542969	-74.543839
20499.609375	-74.638466
20542.675781	-74.578049
20585.742188	-74.590454
20628.808594	-74.606895
20671.875000	-74.605270
20714.941406	-74.591156
20758.007812	-74.541992
20801.074219	-74.587914
20844.140625	-74.548004
20887.207031	-74.576378
20930.273438	-74.544495
20973.339844	-74.579483
21016.406250	-74.612434
21059.472656	-74.553421
21102.539062	-74.680771
21145.605469	-74.482147
21188.671875	-74.521606
21231.738281	-74.592514
21274.804688	-74.580086
21317.871094	-74.605927
21360.937500	-74.645638
21404.003906	-74.541664
21447.070312	-74.619141
21490.136719	-74.648964
21533.203125	-74.638863
21576.269531	-74.683800
21619.335938	-74.743256
21662.402344	-74.656319
21705.468750	-74.667442
21748.535156	-74.577522
21791.601562	-74.614128
21834.667969	-74.671127
21877.734375	-74.656296
21920.800781	-74.605995
21963.867188	-74.599884
22006.933594	-74.592003
