Frequency (Hz)	Level (dB)
43.066406	-54.418388
86.132812	-57.539425
129.199219	-58.084873
172.265625	-58.496914
215.332031	-60.841393
258.398438	-60.789356
301.464844	-60.847149
344.531250	-60.335373
387.597656	-60.449997
430.664062	-60.183338
473.730469	-60.301373
516.796875	-60.301144
559.863281	-60.322102
602.929688	-59.755524
645.996094	-60.166054
689.062500	-58.897911
732.128906	-58.898987
775.195312	-58.140537
818.261719	-58.505405
861.328125	-59.655579
904.394531	-59.405514
947.460938	-59.183144
990.527344	-59.842243
1033.593750	-58.964378
1076.660156	-57.301979
1119.726562	-58.480850
1162.792969	-57.540089
1205.859375	-58.040569
1248.925781	-57.344624
1291.992188	-56.902485
1335.058594	-57.500633
1378.125000	-56.735870
1421.191406	-57.160934
1464.257812	-56.645844
1507.324219	-55.968479
1550.390625	-55.317757
1593.457031	-54.728416
1636.523438	-54.368702
1679.589844	-54.182854
1722.656250	-53.894737
1765.722656	-53.546574
1808.789062	-53.050442
1851.855469	-52.693825
1894.921875	-51.752094
1937.988281	-50.909012
1981.054688	-50.346413
2024.121094	-49.067684
2067.187500	-48.215797
2110.253906	-47.209709
2153.320312	-45.973057
2196.386719	-43.755985
2239.453125	-41.790642
2282.519531	-38.180351
2325.585938	-28.990507
2368.652344	-34.895786
2411.718750	-41.230068
2454.785156	-37.362003
2497.851562	-23.484131
2540.917969	-27.238205
2583.984375	-35.941811
2627.050781	-38.890892
2670.117188	-41.243023
2713.183594	-44.821697
2756.250000	-45.067982
2799.316406	-47.399632
2842.382812	-47.978142
2885.449219	-49.765392
2928.515625	-50.729763
2971.582031	-51.119999
3014.648438	-51.124203
3057.714844	-52.372952
3100.781250	-53.369297
3143.847656	-52.540432
3186.914062	-53.767738
3229.980469	-54.882362
3273.046875	-55.066978
3316.113281	-55.809650
3359.179688	-56.773312
3402.246094	-55.060558
3445.312500	-56.621380
3488.378906	-55.267223
3531.445312	-55.582794
3574.511719	-55.137798
3617.578125	-50.166946
3660.644531	-58.347515
3703.710938	-59.695065
3746.777344	-60.703308
3789.843750	-60.310940
3832.910156	-59.236420
3875.976562	-60.314877
3919.042969	-59.353523
3962.109375	-60.561165
4005.175781	-59.936874
4048.242188	-59.566128
4091.308594	-60.269966
4134.375000	-60.382557
4177.441406	-59.776897
4220.507812	-60.425117
4263.574219	-59.219013
4306.640625	-59.218010
4349.707031	-59.297630
4392.773438	-55.681900
4435.839844	-56.200947
4478.906250	-53.490490
4521.972656	-51.125046
4565.039062	-48.810993
4608.105469	-38.470631
4651.171875	-37.612812
4694.238281	-47.950241
4737.304688	-49.181355
4780.371094	-53.915806
4823.437500	-55.551003
4866.503906	-57.030384
4909.570312	-60.528393
4952.636719	-60.393612
4995.703125	-58.153141
5038.769531	-61.293945
5081.835938	-59.384701
5124.902344	-60.106056
5167.968750	-62.001404
5211.035156	-61.148941
5254.101562	-62.379845
5297.167969	-62.150848
5340.234375	-62.006824
5383.300781	-64.158226
5426.367188	-63.630787
5469.433594	-64.063599
5512.500000	-64.307327
5555.566406	-64.318703
5598.632812	-62.741608
5641.699219	-63.107529
5684.765625	-63.813213
5727.832031	-61.822796
5770.898438	-62.585506
5813.964844	-63.208744
5857.031250	-60.078732
5900.097656	-62.424847
5943.164062	-62.219418
5986.230469	-61.314240
6029.296875	-61.820717
6072.363281	-60.411091
6115.429688	-55.783722
6158.496094	-52.796497
6201.562500	-44.156639
6244.628906	-52.113911
6287.695312	-61.110199
6330.761719	-59.442368
6373.828125	-57.192284
6416.894531	-61.554142
6459.960938	-56.713764
6503.027344	-49.346478
6546.093750	-51.170605
6589.160156	-50.930893
6632.226562	-40.350342
6675.292969	-35.302498
6718.359375	-48.510849
6761.425781	-51.965927
6804.492188	-55.457870
6847.558594	-59.657005
6890.625000	-59.271854
6933.691406	-56.371857
6976.757812	-57.876312
7019.824219	-57.488972
7062.890625	-59.510357
7105.957031	-62.401676
7149.023438	-59.620071
7192.089844	-59.945396
7235.156250	-62.234249
7278.222656	-60.228474
7321.289062	-51.935795
7364.355469	-45.986988
7407.421875	-57.763016
7450.488281	-56.623524
7493.554688	-55.625164
7536.621094	-45.136082
7579.687500	-41.867462
7622.753906	-53.728508
7665.820312	-55.468262
7708.886719	-59.645298
7751.953125	-61.779434
7795.019531	-63.065189
7838.085938	-65.062752
7881.152344	-63.050709
7924.218750	-65.949852
7967.285156	-68.093124
8010.351562	-67.658836
8053.417969	-67.511772
8096.484375	-69.015137
8139.550781	-68.796829
8182.617188	-67.407585
8225.683594	-70.383057
8268.750000	-68.928574
8311.816406	-67.498375
8354.882812	-69.814301
8397.949219	-68.639999
8441.015625	-69.060287
8484.082031	-70.519287
8527.148438	-69.024147
8570.214844	-69.488586
8613.281250	-70.474648
8656.347656	-68.651527
8699.414062	-69.797089
8742.480469	-70.500618
8785.546875	-69.225883
8828.613281	-69.180771
8871.679688	-67.026962
8914.746094	-65.127731
8957.812500	-55.424770
9000.878906	-65.772484
9043.945312	-71.171951
9087.011719	-69.241020
9130.078125	-70.357819
9173.144531	-69.527870
9216.210938	-70.404434
9259.277344	-73.051994
9302.343750	-72.059021
9345.410156	-72.981750
9388.476562	-73.247742
9431.542969	-72.202248
9474.609375	-72.961082
9517.675781	-73.083168
9560.742188	-72.326263
9603.808594	-73.042885
9646.875000	-73.085403
9689.941406	-72.615349
9733.007812	-72.882301
9776.074219	-73.481819
9819.140625	-72.277985
9862.207031	-73.672577
9905.273438	-73.083961
9948.339844	-73.621613
9991.406250	-72.977608
10034.472656	-73.704842
10077.539062	-71.385910
10120.605469	-69.011162
10163.671875	-65.807251
10206.738281	-73.219810
10249.804688	-74.460526
10292.871094	-71.803421
10335.937500	-73.783424
10379.003906	-73.709389
10422.070312	-74.757553
10465.136719	-74.898155
10508.203125	-74.430489
10551.269531	-75.022888
10594.335938	-74.728020
10637.402344	-74.736610
10680.468750	-74.757477
10723.535156	-74.607048
10766.601562	-74.756462
10809.667969	-74.714439
10852.734375	-74.589172
10895.800781	-74.486191
10938.867188	-74.697502
10981.933594	-74.824715
11025.000000	-74.880127
11068.066406	-75.418015
11111.132812	-75.000832
11154.199219	-74.983070
11197.265625	-75.516556
11240.332031	-74.596321
11283.398438	-75.309830
11326.464844	-75.312180
11369.531250	-74.482994
11412.597656	-75.298729
11455.664062	-75.280617
11498.730469	-74.437233
11541.796875	-75.564461
11584.863281	-75.197784
11627.929688	-75.095009
11670.996094	-75.375969
11714.062500	-75.194832
11757.128906	-75.487427
11800.195312	-75.373268
11843.261719	-75.280212
11886.328125	-74.401459
11929.394531	-76.119377
11972.460938	-75.040825
12015.527344	-74.369141
12058.593750	-75.798225
12101.660156	-73.455032
12144.726562	-74.155441
12187.792969	-73.427208
12230.859375	-69.940468
12273.925781	-68.447517
12316.992188	-68.258064
12360.058594	-70.995872
12403.125000	-64.551666
12446.191406	-56.464157
12489.257812	-64.455498
12532.324219	-70.345161
12575.390625	-74.366959
12618.457031	-71.855095
12661.523438	-75.278229
12704.589844	-75.602631
12747.656250	-73.446976
12790.722656	-76.476250
12833.789062	-75.395309
12876.855469	-74.046997
12919.921875	-76.774101
12962.988281	-75.157654
13006.054688	-75.302605
13049.121094	-77.189217
13092.187500	-75.057579
13135.253906	-76.286476
13178.320312	-76.912758
13221.386719	-74.959648
13264.453125	-76.548195
13307.519531	-76.296165
13350.585938	-76.139450
13393.652344	-76.597565
13436.718750	-76.850952
13479.785156	-75.827217
13522.851562	-76.758759
13565.917969	-76.595299
13608.984375	-76.100479
13652.050781	-76.865067
13695.117188	-76.595490
13738.183594	-76.094582
13781.250000	-77.191376
13824.316406	-76.536552
13867.382812	-76.637863
13910.449219	-76.979645
13953.515625	-76.647285
13996.582031	-76.710236
14039.648438	-76.880516
14082.714844	-76.719078
14125.781250	-76.503777
14168.847656	-77.103630
14211.914062	-76.418922
14254.980469	-77.574898
14298.046875	-75.468933
14341.113281	-77.031693
14384.179688	-75.863197
14427.246094	-72.507347
14470.312500	-70.566643
14513.378906	-73.259407
14556.445312	-69.753555
14599.511719	-71.861099
14642.578125	-74.596436
14685.644531	-76.466179
14728.710938	-76.222366
14771.777344	-77.176392
14814.843750	-77.169266
14857.910156	-77.308083
14900.976562	-77.409737
14944.042969	-77.366806
14987.109375	-76.609558
15030.175781	-77.048347
15073.242188	-75.825310
15116.308594	-77.346519
15159.375000	-77.987526
15202.441406	-77.385193
15245.507812	-77.813057
15288.574219	-77.464508
15331.640625	-77.962265
15374.707031	-76.504051
15417.773438	-77.833267
15460.839844	-77.086845
15503.906250	-77.164894
15546.972656	-78.304863
15590.039062	-77.252487
15633.105469	-77.369835
15676.171875	-77.866409
15719.238281	-77.969345
15762.304688	-77.094887
15805.371094	-78.275764
15848.437500	-77.595314
15891.503906	-77.285004
15934.570312	-78.151436
15977.636719	-77.454796
16020.703125	-77.922638
16063.769531	-77.888672
16106.835938	-77.837547
16149.902344	-77.825264
16192.968750	-77.851677
16236.035156	-77.932777
16279.101562	-77.946869
16322.167969	-77.910095
16365.234375	-77.929466
16408.300781	-77.848885
16451.367188	-77.960068
16494.433594	-77.938469
16537.500000	-78.006393
16580.566406	-78.053093
16623.632812	-77.873817
16666.699219	-78.009003
16709.765625	-78.112968
16752.832031	-77.971642
16795.898438	-78.014702
16838.964844	-78.184532
16882.031250	-77.993477
16925.097656	-78.156334
16968.164062	-78.114494
17011.230469	-78.046951
17054.296875	-78.155006
17097.363281	-78.140869
17140.429688	-78.168098
17183.496094	-78.108452
17226.562500	-78.136276
17269.628906	-78.143867
17312.695312	-78.211380
17355.761719	-78.155853
17398.828125	-78.128525
17441.894531	-78.200890
17484.960938	-78.305710
17528.027344	-78.246864
17571.093750	-78.271675
17614.160156	-78.213509
17657.226562	-78.246803
17700.292969	-78.233459
17743.359375	-78.305237
17786.425781	-78.389153
17829.492188	-78.393723
17872.558594	-78.304283
17915.625000	-78.313034
17958.691406	-78.344452
18001.757812	-78.323273
18044.824219	-78.384644
18087.890625	-78.400253
18130.957031	-78.329948
18174.023438	-78.381454
18217.089844	-78.411201
18260.156250	-78.449989
18303.222656	-78.410973
18346.289062	-78.334290
18389.355469	-78.417381
18432.421875	-78.519699
18475.488281	-78.420128
18518.554688	-78.398727
18561.621094	-78.563110
18604.687500	-78.580223
18647.753906	-78.506241
18690.820312	-78.454437
18733.886719	-78.418762
18776.953125	-78.643265
18820.019531	-78.459328
18863.085938	-78.460274
18906.152344	-78.586311
18949.218750	-78.646393
18992.285156	-78.531013
19035.351562	-78.531303
19078.417969	-78.439331
19121.484375	-78.456245
19164.550781	-78.490112
19207.617188	-78.421089
19250.683594	-78.523605
19293.750000	-78.535484
19336.816406	-78.581085
19379.882812	-78.539848
19422.949219	-78.622368
19466.015625	-78.729836
19509.082031	-78.624603
19552.148438	-78.539017
19595.214844	-78.627663
19638.281250	-78.520157
19681.347656	-78.629700
19724.414062	-78.538277
19767.480469	-78.650940
19810.546875	-78.674736
19853.613281	-78.648010
19896.679688	-78.527267
19939.746094	-78.592102
19982.812500	-78.578087
20025.878906	-78.589462
20068.945312	-78.669991
20112.011719	-78.697083
20155.078125	-78.706665
20198.144531	-78.653503
20241.210938	-78.773727
20284.277344	-78.716896
20327.343750	-78.717323
20370.410156	-78.621384
20413.476562	-78.648537
20456.542969	-78.598312
20499.609375	-78.810387
20542.675781	-78.650009
20585.742188	-78.625099
20628.808594	-78.558922
20671.875000	-78.798500
20714.941406	-78.715675
20758.007812	-78.750572
20801.074219	-78.693596
20844.140625	-78.638756
20887.207031	-78.761307
20930.273438	-78.769066
20973.339844	-78.690880
21016.406250	-78.668732
21059.472656	-78.699417
21102.539062	-78.682182
21145.605469	-78.801888
21188.671875	-78.581734
21231.738281	-78.686050
21274.804688	-78.720268
21317.871094	-78.679169
21360.937500	-78.647095
21404.003906	-78.721008
21447.070312	-78.761848
21490.136719	-78.698753
21533.203125	-78.583511
21576.269531	-78.754440
21619.335938	-78.682495
21662.402344	-78.869690
21705.468750	-78.799873
21748.535156	-78.687431
21791.601562	-78.778442
21834.667969	-78.658035
21877.734375	-78.810982
21920.800781	-78.749771
21963.867188	-78.691002
22006.933594	-78.660591
