Frequency (Hz)	Level (dB)
43.066406	-52.644051
86.132812	-56.488441
129.199219	-54.246769
172.265625	-56.853859
215.332031	-56.914650
258.398438	-56.949966
301.464844	-57.365898
344.531250	-57.225151
387.597656	-57.368061
430.664062	-57.276394
473.730469	-57.219112
516.796875	-56.564865
559.863281	-56.563332
602.929688	-56.285564
645.996094	-55.375553
689.062500	-55.607834
732.128906	-55.225204
775.195312	-55.355091
818.261719	-54.971157
861.328125	-54.208454
904.394531	-54.835136
947.460938	-53.835918
990.527344	-53.811031
1033.593750	-53.333363
1076.660156	-52.454895
1119.726562	-53.404514
1162.792969	-51.984528
1205.859375	-52.283146
1248.925781	-51.572250
1291.992188	-51.206669
1335.058594	-51.234974
1378.125000	-49.832344
1421.191406	-49.507797
1464.257812	-48.913670
1507.324219	-47.618847
1550.390625	-47.979061
1593.457031	-46.394367
1636.523438	-45.239330
1679.589844	-44.605923
1722.656250	-42.411549
1765.722656	-41.174034
1808.789062	-38.703362
1851.855469	-35.559868
1894.921875	-32.335709
1937.988281	-22.119526
1981.054688	-21.606653
2024.121094	-31.638788
2067.187500	-33.627895
2110.253906	-38.346416
2153.320312	-39.720882
2196.386719	-42.030537
2239.453125	-43.796989
2282.519531	-43.531433
2325.585938	-44.998520
2368.652344	-45.173214
2411.718750	-47.074020
2454.785156	-48.695393
2497.851562	-49.272305
2540.917969	-50.759686
2583.984375	-51.299675
2627.050781	-51.964066
2670.117188	-52.643730
2713.183594	-53.402554
2756.250000	-52.906563
2799.316406	-54.426136
2842.382812	-52.427437
2885.449219	-53.957142
2928.515625	-54.542763
2971.582031	-54.432396
3014.648438	-55.919838
3057.714844	-54.349232
3100.781250	-55.928638
3143.847656	-54.361916
3186.914062	-53.014225
3229.980469	-56.621998
3273.046875	-54.831188
3316.113281	-56.543499
3359.179688	-57.053249
3402.246094	-56.875629
3445.312500	-58.356956
3488.378906	-57.677742
3531.445312	-59.367973
3574.511719	-59.240383
3617.578125	-58.616375
3660.644531	-58.904720
3703.710938	-59.090908
3746.777344	-58.569878
3789.843750	-58.703617
3832.910156	-58.365276
3875.976562	-59.311974
3919.042969	-59.146606
3962.109375	-59.129467
4005.175781	-60.247299
4048.242188	-60.127007
4091.308594	-59.612579
4134.375000	-59.781643
4177.441406	-59.499912
4220.507812	-58.831326
4263.574219	-57.534973
4306.640625	-57.478966
4349.707031	-57.553452
4392.773438	-56.723938
4435.839844	-57.083698
4478.906250	-52.945782
4521.972656	-49.430573
4565.039062	-37.637268
4608.105469	-39.782215
4651.171875	-49.739994
4694.238281	-51.538631
4737.304688	-55.607227
4780.371094	-56.762436
4823.437500	-56.777260
4866.503906	-58.194118
4909.570312	-55.528736
4952.636719	-60.927124
4995.703125	-60.196415
5038.769531	-59.805393
5081.835938	-60.330845
5124.902344	-59.406143
5167.968750	-59.827347
5211.035156	-57.329960
5254.101562	-59.109184
5297.167969	-59.289505
5340.234375	-58.661171
5383.300781	-57.806259
5426.367188	-54.808155
5469.433594	-55.388512
5512.500000	-51.025295
5555.566406	-42.679974
5598.632812	-30.548761
5641.699219	-39.910931
5684.765625	-47.551125
5727.832031	-54.106266
5770.898438	-51.340805
5813.964844	-54.824478
5857.031250	-52.834450
5900.097656	-55.187984
5943.164062	-56.590736
5986.230469	-56.492157
6029.296875	-57.122383
6072.363281	-54.956486
6115.429688	-53.389645
6158.496094	-55.772610
6201.562500	-45.138844
6244.628906	-41.750504
6287.695312	-54.683018
6330.761719	-58.000710
6373.828125	-59.072086
6416.894531	-61.493427
6459.960938	-58.819763
6503.027344	-57.754829
6546.093750	-59.744095
6589.160156	-63.256519
6632.226562	-63.328617
6675.292969	-63.352882
6718.359375	-64.185402
6761.425781	-62.308304
6804.492188	-64.434967
6847.558594	-63.256306
6890.625000	-65.023430
6933.691406	-66.417198
6976.757812	-63.500759
7019.824219	-65.803017
7062.890625	-63.726589
7105.957031	-65.585472
7149.023438	-65.393280
7192.089844	-62.838108
7235.156250	-62.635609
7278.222656	-61.471741
7321.289062	-62.737518
7364.355469	-62.796131
7407.421875	-60.204884
7450.488281	-60.143024
7493.554688	-57.335064
7536.621094	-53.737091
7579.687500	-41.643764
7622.753906	-46.964676
7665.820312	-56.701714
7708.886719	-56.814003
7751.953125	-58.125793
7795.019531	-62.354397
7838.085938	-59.484100
7881.152344	-62.259502
7924.218750	-59.634853
7967.285156	-59.333992
8010.351562	-52.566849
8053.417969	-61.930084
8096.484375	-65.689690
8139.550781	-66.411880
8182.617188	-65.608414
8225.683594	-68.146957
8268.750000	-66.269310
8311.816406	-66.386894
8354.882812	-68.471458
8397.949219	-65.271194
8441.015625	-68.449242
8484.082031	-67.401672
8527.148438	-65.495110
8570.214844	-68.409622
8613.281250	-65.786247
8656.347656	-65.909821
8699.414062	-65.391052
8742.480469	-61.031685
8785.546875	-57.472588
8828.613281	-56.085178
8871.679688	-53.426350
8914.746094	-60.377541
8957.812500	-63.820873
9000.878906	-66.863701
9043.945312	-64.397697
9087.011719	-67.401436
9130.078125	-66.104126
9173.144531	-66.231964
9216.210938	-68.289421
9259.277344	-66.360718
9302.343750	-67.528862
9345.410156	-65.951012
9388.476562	-64.833954
9431.542969	-65.044464
9474.609375	-57.549782
9517.675781	-48.646923
9560.742188	-52.039471
9603.808594	-62.521328
9646.875000	-65.836952
9689.941406	-68.442062
9733.007812	-68.194023
9776.074219	-70.212776
9819.140625	-68.827972
9862.207031	-70.218437
9905.273438	-69.896835
9948.339844	-69.865120
9991.406250	-70.670128
10034.472656	-70.015892
10077.539062	-70.261353
10120.605469	-71.032532
10163.671875	-69.164131
10206.738281	-69.446793
10249.804688	-59.566025
10292.871094	-64.671181
10335.937500	-68.784058
10379.003906	-69.038567
10422.070312	-69.347694
10465.136719	-69.529373
10508.203125	-69.535477
10551.269531	-69.926872
10594.335938	-69.835243
10637.402344	-70.237961
10680.468750	-70.040062
10723.535156	-70.298248
10766.601562	-70.166206
10809.667969	-70.409058
10852.734375	-70.188637
10895.800781	-70.576630
10938.867188	-70.294174
10981.933594	-70.399925
11025.000000	-70.634560
11068.066406	-70.275948
11111.132812	-70.817406
11154.199219	-70.653160
11197.265625	-70.256180
11240.332031	-71.333023
11283.398438	-69.841118
11326.464844	-71.274506
11369.531250	-70.301544
11412.597656	-70.539543
11455.664062	-71.419411
11498.730469	-70.038757
11541.796875	-71.349220
11584.863281	-70.470467
11627.929688	-70.379250
11670.996094	-71.551903
11714.062500	-69.445549
11757.128906	-71.173470
11800.195312	-69.691284
11843.261719	-67.196739
11886.328125	-67.973511
11929.394531	-69.722992
11972.460938	-69.001465
12015.527344	-69.998840
12058.593750	-64.172401
12101.660156	-62.891823
12144.726562	-66.322891
12187.792969	-71.177742
12230.859375	-69.595879
12273.925781	-71.576088
12316.992188	-71.745903
12360.058594	-70.658012
12403.125000	-72.149345
12446.191406	-71.380432
12489.257812	-71.138840
12532.324219	-72.141563
12575.390625	-70.888214
12618.457031	-72.088692
12661.523438	-71.432381
12704.589844	-71.606323
12747.656250	-71.857254
12790.722656	-71.597633
12833.789062	-71.510223
12876.855469	-71.955704
12919.921875	-71.367867
12962.988281	-71.818466
13006.054688	-71.808121
13049.121094	-71.322029
13092.187500	-72.132896
13135.253906	-71.244286
13178.320312	-71.947189
13221.386719	-71.519981
13264.453125	-71.679848
13307.519531	-71.250710
13350.585938	-71.961258
13393.652344	-70.524223
13436.718750	-71.546890
13479.785156	-67.064392
13522.851562	-71.982071
13565.917969	-71.146660
13608.984375	-72.492668
13652.050781	-71.974777
13695.117188	-71.395500
13738.183594	-72.393021
13781.250000	-71.024216
13824.316406	-71.947098
13867.382812	-68.761963
13910.449219	-72.271400
13953.515625	-71.521873
13996.582031	-72.578110
14039.648438	-71.643578
14082.714844	-71.289574
14125.781250	-72.088783
14168.847656	-70.436989
14211.914062	-71.347343
14254.980469	-70.971207
14298.046875	-68.981621
14341.113281	-71.095207
14384.179688	-61.380108
14427.246094	-65.652786
14470.312500	-66.042419
14513.378906	-69.200615
14556.445312	-65.812050
14599.511719	-64.159332
14642.578125	-59.563087
14685.644531	-70.056519
14728.710938	-71.346565
14771.777344	-71.223427
14814.843750	-74.200485
14857.910156	-72.043594
14900.976562	-72.021187
14944.042969	-68.675568
14987.109375	-73.306770
15030.175781	-74.249847
15073.242188	-74.052048
15116.308594	-73.617462
15159.375000	-73.939873
15202.441406	-73.743431
15245.507812	-73.630577
15288.574219	-73.879616
15331.640625	-73.502487
15374.707031	-73.822723
15417.773438	-73.686592
15460.839844	-73.537613
15503.906250	-73.842651
15546.972656	-73.547501
15590.039062	-73.672791
15633.105469	-73.784775
15676.171875	-73.350365
15719.238281	-74.000595
15762.304688	-73.203705
15805.371094	-74.065758
15848.437500	-73.567261
15891.503906	-72.749580
15934.570312	-72.763763
15977.636719	-73.722679
16020.703125	-73.440292
16063.769531	-73.661240
16106.835938	-73.618538
16149.902344	-73.604576
16192.968750	-73.690094
16236.035156	-73.615761
16279.101562	-73.695328
16322.167969	-73.705963
16365.234375	-73.697975
16408.300781	-73.725822
16451.367188	-73.696495
16494.433594	-73.745636
16537.500000	-73.729507
16580.566406	-73.768845
16623.632812	-73.783516
16666.699219	-73.728828
16709.765625	-73.712067
16752.832031	-73.765663
16795.898438	-73.781174
16838.964844	-73.800781
16882.031250	-73.829597
16925.097656	-73.826576
16968.164062	-73.802452
17011.230469	-73.826607
17054.296875	-73.848785
17097.363281	-73.830338
17140.429688	-73.831810
17183.496094	-73.851768
17226.562500	-73.877708
17269.628906	-73.888039
17312.695312	-73.913742
17355.761719	-73.884544
17398.828125	-73.893562
17441.894531	-73.907936
17484.960938	-73.921028
17528.027344	-73.943604
17571.093750	-73.929703
17614.160156	-73.938904
17657.226562	-73.944054
17700.292969	-73.978416
17743.359375	-73.982903
17786.425781	-73.978569
17829.492188	-74.005089
17872.558594	-73.971359
17915.625000	-73.924324
17958.691406	-73.998703
18001.757812	-74.016838
18044.824219	-74.073433
18087.890625	-74.031960
18130.957031	-74.015114
18174.023438	-74.081039
18217.089844	-74.089409
18260.156250	-74.025406
18303.222656	-74.028168
18346.289062	-74.087799
18389.355469	-74.064034
18432.421875	-74.101387
18475.488281	-74.048782
18518.554688	-74.125542
18561.621094	-74.118744
18604.687500	-74.056122
18647.753906	-74.105141
18690.820312	-74.154373
18733.886719	-74.144150
18776.953125	-74.065277
18820.019531	-74.175880
18863.085938	-74.181175
18906.152344	-74.151382
18949.218750	-74.147278
18992.285156	-74.149895
19035.351562	-74.158760
19078.417969	-74.153442
19121.484375	-74.161995
19164.550781	-74.197968
19207.617188	-74.127762
19250.683594	-74.218781
19293.750000	-74.206123
19336.816406	-74.207634
19379.882812	-74.166557
19422.949219	-74.288811
19466.015625	-74.200439
19509.082031	-74.232765
19552.148438	-74.293655
19595.214844	-74.201218
19638.281250	-74.256607
19681.347656	-74.202751
19724.414062	-74.278587
19767.480469	-74.290329
19810.546875	-74.211372
19853.613281	-74.253799
19896.679688	-74.256378
19939.746094	-74.271599
19982.812500	-74.346069
20025.878906	-74.384239
20068.945312	-74.251930
20112.011719	-74.294121
20155.078125	-74.346062
20198.144531	-74.183029
20241.210938	-74.305717
20284.277344	-74.297638
20327.343750	-74.304314
20370.410156	-74.292313
20413.476562	-74.277840
20456.542969	-74.315567
20499.609375	-74.264282
20542.675781	-74.324699
20585.742188	-74.316055
20628.808594	-74.329132
20671.875000	-74.313530
20714.941406	-74.275780
20758.007812	-74.270981
20801.074219	-74.309631
20844.140625	-74.348076
20887.207031	-74.370750
20930.273438	-74.426735
20973.339844	-74.418922
21016.406250	-74.327477
21059.472656	-74.300964
21102.539062	-74.269714
21145.605469	-74.327332
21188.671875	-74.326111
21231.738281	-74.344933
21274.804688	-74.365196
21317.871094	-74.329773
21360.937500	-74.349838
21404.003906	-74.430641
21447.070312	-74.361023
21490.136719	-74.412193
21533.203125	-74.421402
21576.269531	-74.356445
21619.335938	-74.383629
21662.402344	-74.340897
21705.468750	-74.360359
21748.535156	-74.336143
21791.601562	-74.304382
21834.667969	-74.340752
21877.734375	-74.317467
21920.800781	-74.301453
21963.867188	-74.353584
22006.933594	-74.413071
