Frequency (Hz)	Level (dB)
43.066406	-52.331501
86.132812	-54.005150
129.199219	-52.710678
172.265625	-53.712936
215.332031	-54.825638
258.398438	-54.706715
301.464844	-55.079708
344.531250	-55.276951
387.597656	-54.927219
430.664062	-54.905685
473.730469	-54.675526
516.796875	-54.518425
559.863281	-54.459305
602.929688	-54.156864
645.996094	-53.769039
689.062500	-53.672024
732.128906	-53.381302
775.195312	-53.442051
818.261719	-53.154385
861.328125	-52.890442
904.394531	-52.769367
947.460938	-52.532730
990.527344	-52.188961
1033.593750	-51.656410
1076.660156	-51.562946
1119.726562	-50.937939
1162.792969	-50.346870
1205.859375	-50.214756
1248.925781	-49.625900
1291.992188	-49.438297
1335.058594	-48.539612
1378.125000	-48.180607
1421.191406	-47.912907
1464.257812	-46.938160
1507.324219	-46.627132
1550.390625	-45.641766
1593.457031	-44.788471
1636.523438	-43.191761
1679.589844	-42.569084
1722.656250	-42.116955
1765.722656	-40.384594
1808.789062	-38.264221
1851.855469	-34.928745
1894.921875	-31.747915
1937.988281	-22.389362
1981.054688	-22.408791
2024.121094	-28.237825
2067.187500	-19.452503
2110.253906	-21.790522
2153.320312	-30.648926
2196.386719	-33.664021
2239.453125	-37.160576
2282.519531	-39.654305
2325.585938	-41.864346
2368.652344	-41.837399
2411.718750	-42.128487
2454.785156	-44.274837
2497.851562	-45.518063
2540.917969	-45.962738
2583.984375	-46.551502
2627.050781	-47.639969
2670.117188	-47.475338
2713.183594	-49.171196
2756.250000	-49.371887
2799.316406	-49.631985
2842.382812	-50.023846
2885.449219	-51.085526
2928.515625	-51.287167
2971.582031	-51.683765
3014.648438	-52.259373
3057.714844	-52.111694
3100.781250	-52.015465
3143.847656	-51.990807
3186.914062	-52.815426
3229.980469	-53.808941
3273.046875	-53.971306
3316.113281	-54.121559
3359.179688	-54.210327
3402.246094	-55.285038
3445.312500	-55.347286
3488.378906	-55.427586
3531.445312	-55.989857
3574.511719	-55.386600
3617.578125	-56.272289
3660.644531	-55.454910
3703.710938	-55.522469
3746.777344	-56.307648
3789.843750	-56.176559
3832.910156	-54.658417
3875.976562	-54.402882
3919.042969	-56.086941
3962.109375	-55.330940
4005.175781	-53.641270
4048.242188	-54.893723
4091.308594	-53.672474
4134.375000	-50.026382
4177.441406	-55.212414
4220.507812	-53.616753
4263.574219	-50.812756
4306.640625	-47.511497
4349.707031	-52.259964
4392.773438	-49.196743
4435.839844	-42.598530
4478.906250	-41.998459
4521.972656	-37.454136
4565.039062	-25.187366
4608.105469	-29.695688
4651.171875	-38.564110
4694.238281	-41.257561
4737.304688	-44.121456
4780.371094	-47.314529
4823.437500	-48.670341
4866.503906	-46.383705
4909.570312	-48.819729
4952.636719	-38.162659
4995.703125	-47.947052
5038.769531	-48.921318
5081.835938	-51.436516
5124.902344	-51.289181
5167.968750	-52.999615
5211.035156	-50.914894
5254.101562	-53.026241
5297.167969	-54.172901
5340.234375	-53.259228
5383.300781	-52.814148
5426.367188	-53.357834
5469.433594	-52.332485
5512.500000	-51.178135
5555.566406	-49.139114
5598.632812	-35.453602
5641.699219	-46.365444
5684.765625	-51.953362
5727.832031	-49.478504
5770.898438	-54.293266
5813.964844	-53.420612
5857.031250	-51.761887
5900.097656	-54.708279
5943.164062	-54.861195
5986.230469	-53.388332
6029.296875	-52.874443
6072.363281	-51.603359
6115.429688	-48.789108
6158.496094	-49.689789
6201.562500	-41.441380
6244.628906	-35.568871
6287.695312	-48.670322
6330.761719	-50.647858
6373.828125	-48.088543
6416.894531	-54.844868
6459.960938	-50.737450
6503.027344	-51.108776
6546.093750	-54.747334
6589.160156	-57.105148
6632.226562	-59.320080
6675.292969	-58.528671
6718.359375	-58.072639
6761.425781	-59.460064
6804.492188	-59.868160
6847.558594	-57.941765
6890.625000	-58.317757
6933.691406	-60.069199
6976.757812	-58.673199
7019.824219	-57.119556
7062.890625	-58.666840
7105.957031	-58.659897
7149.023438	-56.478680
7192.089844	-57.816841
7235.156250	-58.766136
7278.222656	-56.825844
7321.289062	-56.725849
7364.355469	-56.078476
7407.421875	-56.347496
7450.488281	-50.089146
7493.554688	-50.814392
7536.621094	-49.133823
7579.687500	-35.170177
7622.753906	-41.334881
7665.820312	-50.500816
7708.886719	-51.795418
7751.953125	-50.800629
7795.019531	-53.120960
7838.085938	-56.290791
7881.152344	-48.319618
7924.218750	-48.586582
7967.285156	-45.810822
8010.351562	-32.029491
8053.417969	-37.848392
8096.484375	-48.375080
8139.550781	-49.035973
8182.617188	-49.970726
8225.683594	-60.972847
8268.750000	-55.332500
8311.816406	-55.633926
8354.882812	-59.582829
8397.949219	-61.931919
8441.015625	-60.918827
8484.082031	-62.571758
8527.148438	-63.098125
8570.214844	-61.581165
8613.281250	-61.895271
8656.347656	-61.713879
8699.414062	-59.579437
8742.480469	-57.693901
8785.546875	-45.236717
8828.613281	-45.882454
8871.679688	-45.386261
8914.746094	-57.006512
8957.812500	-55.249493
9000.878906	-58.113091
9043.945312	-60.440380
9087.011719	-60.891209
9130.078125	-61.654240
9173.144531	-61.162323
9216.210938	-59.932426
9259.277344	-55.590855
9302.343750	-58.399185
9345.410156	-58.786312
9388.476562	-51.601803
9431.542969	-51.027672
9474.609375	-46.935970
9517.675781	-36.452999
9560.742188	-38.806961
9603.808594	-50.472733
9646.875000	-52.089661
9689.941406	-55.575874
9733.007812	-58.585228
9776.074219	-55.396584
9819.140625	-59.306389
9862.207031	-60.132977
9905.273438	-61.479546
9948.339844	-63.287285
9991.406250	-64.792107
10034.472656	-62.255619
10077.539062	-62.533550
10120.605469	-66.043213
10163.671875	-64.450623
10206.738281	-62.237076
10249.804688	-54.516098
10292.871094	-61.846024
10335.937500	-66.511948
10379.003906	-66.575668
10422.070312	-68.139587
10465.136719	-67.830330
10508.203125	-66.651596
10551.269531	-66.470047
10594.335938	-67.469788
10637.402344	-66.285027
10680.468750	-64.806458
10723.535156	-66.045898
10766.601562	-64.428978
10809.667969	-58.052258
10852.734375	-55.849083
10895.800781	-67.555237
10938.867188	-68.895096
10981.933594	-69.071129
11025.000000	-69.080399
11068.066406	-69.196274
11111.132812	-69.038612
11154.199219	-68.882065
11197.265625	-69.137161
11240.332031	-68.993660
11283.398438	-68.961563
11326.464844	-68.605347
11369.531250	-68.881691
11412.597656	-69.050926
11455.664062	-68.329376
11498.730469	-68.792587
11541.796875	-68.986671
11584.863281	-68.662430
11627.929688	-68.789032
11670.996094	-68.799400
11714.062500	-69.184212
11757.128906	-68.709595
11800.195312	-68.716507
11843.261719	-69.034714
11886.328125	-68.842400
11929.394531	-68.744003
11972.460938	-68.724686
12015.527344	-69.111053
12058.593750	-68.953751
12101.660156	-68.757149
12144.726562	-69.265259
12187.792969	-69.151100
12230.859375	-69.026970
12273.925781	-68.813057
12316.992188	-68.837288
12360.058594	-69.437828
12403.125000	-68.172653
12446.191406	-68.734001
12489.257812	-69.318893
12532.324219	-68.641640
12575.390625	-68.616165
12618.457031	-68.954498
12661.523438	-69.377655
12704.589844	-68.775627
12747.656250	-68.300774
12790.722656	-69.431396
12833.789062	-68.623413
12876.855469	-68.478195
12919.921875	-68.905846
12962.988281	-69.076515
13006.054688	-68.469498
13049.121094	-67.766411
13092.187500	-68.432724
13135.253906	-68.654510
13178.320312	-67.959747
13221.386719	-64.766197
13264.453125	-66.109390
13307.519531	-64.248276
13350.585938	-64.168198
13393.652344	-64.759918
13436.718750	-62.840160
13479.785156	-53.733131
13522.851562	-55.913387
13565.917969	-60.090168
13608.984375	-58.280132
13652.050781	-64.425156
13695.117188	-65.556259
13738.183594	-68.349968
13781.250000	-69.607681
13824.316406	-66.325165
13867.382812	-62.136307
13910.449219	-59.922428
13953.515625	-67.325264
13996.582031	-67.633888
14039.648438	-68.413696
14082.714844	-68.576492
14125.781250	-66.684967
14168.847656	-60.649158
14211.914062	-53.000690
14254.980469	-63.384281
14298.046875	-64.225121
14341.113281	-65.366005
14384.179688	-63.315861
14427.246094	-63.962822
14470.312500	-68.494804
14513.378906	-67.798943
14556.445312	-59.769779
14599.511719	-65.308167
14642.578125	-64.800789
14685.644531	-68.334480
14728.710938	-68.736443
14771.777344	-67.679016
14814.843750	-68.179947
14857.910156	-68.617638
14900.976562	-66.733948
14944.042969	-59.945282
14987.109375	-66.483582
15030.175781	-69.809875
15073.242188	-69.823822
15116.308594	-67.931007
15159.375000	-69.468483
15202.441406	-70.221352
15245.507812	-69.005722
15288.574219	-69.209320
15331.640625	-70.382591
15374.707031	-69.274460
15417.773438	-69.422852
15460.839844	-70.185425
15503.906250	-70.390526
15546.972656	-69.518112
15590.039062	-69.399239
15633.105469	-70.558632
15676.171875	-69.884064
15719.238281	-70.637650
15762.304688	-68.830299
15805.371094	-69.866913
15848.437500	-70.430702
15891.503906	-68.331482
15934.570312	-69.955101
15977.636719	-69.544891
16020.703125	-70.130180
16063.769531	-70.230621
16106.835938	-69.953918
16149.902344	-70.270058
16192.968750	-70.414879
16236.035156	-70.272537
16279.101562	-70.532127
16322.167969	-70.383369
16365.234375	-70.583664
16408.300781	-70.409683
16451.367188	-70.109482
16494.433594	-70.477638
16537.500000	-70.184128
16580.566406	-70.418839
16623.632812	-70.313782
16666.699219	-70.356689
16709.765625	-70.781502
16752.832031	-70.325951
16795.898438	-70.686745
16838.964844	-70.377831
16882.031250	-70.487419
16925.097656	-70.478081
16968.164062	-70.183235
17011.230469	-70.522446
17054.296875	-70.409782
17097.363281	-70.459488
17140.429688	-70.706184
17183.496094	-70.482811
17226.562500	-70.906754
17269.628906	-70.529152
17312.695312	-70.632202
17355.761719	-70.728310
17398.828125	-70.371971
17441.894531	-70.749046
17484.960938	-70.333183
17528.027344	-70.783409
17571.093750	-70.722641
17614.160156	-70.684837
17657.226562	-71.014236
17700.292969	-70.738152
17743.359375	-70.857201
17786.425781	-70.741463
17829.492188	-70.520332
17872.558594	-70.820351
17915.625000	-70.417908
17958.691406	-70.750702
18001.757812	-70.702599
18044.824219	-70.640656
18087.890625	-70.962234
18130.957031	-70.572746
18174.023438	-71.084740
18217.089844	-70.720810
18260.156250	-70.704720
18303.222656	-70.787651
18346.289062	-70.567986
18389.355469	-70.864357
18432.421875	-70.604279
18475.488281	-70.748711
18518.554688	-71.091393
18561.621094	-70.787575
18604.687500	-71.134918
18647.753906	-70.827766
18690.820312	-71.034637
18733.886719	-70.990067
18776.953125	-70.533920
18820.019531	-71.058586
18863.085938	-70.687805
18906.152344	-71.023956
18949.218750	-70.915840
18992.285156	-70.884926
19035.351562	-71.350731
19078.417969	-70.858536
19121.484375	-71.048019
19164.550781	-70.900322
19207.617188	-70.873039
19250.683594	-70.966873
19293.750000	-70.581757
19336.816406	-70.931236
19379.882812	-70.972198
19422.949219	-70.831001
19466.015625	-71.188362
19509.082031	-70.821030
19552.148438	-71.375084
19595.214844	-70.866302
19638.281250	-70.905746
19681.347656	-71.037743
19724.414062	-70.764725
19767.480469	-71.011253
19810.546875	-70.768074
19853.613281	-71.024117
19896.679688	-71.208885
19939.746094	-71.024780
19982.812500	-71.317406
20025.878906	-71.070427
20068.945312	-71.173386
20112.011719	-71.143967
20155.078125	-70.697861
20198.144531	-71.241402
20241.210938	-70.775566
20284.277344	-71.132584
20327.343750	-71.086632
20370.410156	-71.095047
20413.476562	-71.398087
20456.542969	-70.966125
20499.609375	-71.244820
20542.675781	-71.066689
20585.742188	-70.932106
20628.808594	-71.068283
20671.875000	-70.741684
20714.941406	-71.107399
20758.007812	-70.978378
20801.074219	-70.920029
20844.140625	-71.431770
20887.207031	-70.942444
20930.273438	-71.363243
20973.339844	-71.007896
21016.406250	-71.101189
21059.472656	-71.188232
21102.539062	-70.790321
21145.605469	-71.221611
21188.671875	-70.869301
21231.738281	-71.163193
21274.804688	-71.204544
21317.871094	-71.119781
21360.937500	-71.528687
21404.003906	-71.129814
21447.070312	-71.190338
21490.136719	-71.196266
21533.203125	-70.905067
21576.269531	-71.296623
21619.335938	-70.765038
21662.402344	-71.177429
21705.468750	-71.254723
21748.535156	-71.075714
21791.601562	-71.385216
21834.667969	-71.001663
21877.734375	-71.488983
21920.800781	-70.993164
21963.867188	-70.915642
22006.933594	-71.089638
