Frequency (Hz)	Level (dB)
43.066406	-48.960655
86.132812	-52.589111
129.199219	-52.293591
172.265625	-55.281063
215.332031	-55.526733
258.398438	-54.267136
301.464844	-56.355587
344.531250	-56.004303
387.597656	-56.331841
430.664062	-56.428501
473.730469	-56.222229
516.796875	-55.665707
559.863281	-55.750370
602.929688	-55.121902
645.996094	-54.935867
689.062500	-55.945778
732.128906	-54.909004
775.195312	-55.100925
818.261719	-54.403172
861.328125	-53.824474
904.394531	-54.213058
947.460938	-53.527084
990.527344	-53.796410
1033.593750	-54.605049
1076.660156	-53.527935
1119.726562	-53.224789
1162.792969	-52.681042
1205.859375	-51.710682
1248.925781	-51.803024
1291.992188	-51.455410
1335.058594	-51.277039
1378.125000	-50.967438
1421.191406	-50.232002
1464.257812	-49.971485
1507.324219	-49.068974
1550.390625	-48.190594
1593.457031	-47.188488
1636.523438	-46.337841
1679.589844	-46.022514
1722.656250	-45.122833
1765.722656	-43.232086
1808.789062	-41.691330
1851.855469	-39.537369
1894.921875	-35.539959
1937.988281	-26.678467
1981.054688	-26.926872
2024.121094	-30.371420
2067.187500	-21.761044
2110.253906	-23.956915
2153.320312	-33.009430
2196.386719	-37.882156
2239.453125	-40.666588
2282.519531	-42.161121
2325.585938	-44.080647
2368.652344	-44.354538
2411.718750	-46.235752
2454.785156	-47.301544
2497.851562	-48.743465
2540.917969	-49.064487
2583.984375	-49.043255
2627.050781	-49.898239
2670.117188	-51.116512
2713.183594	-52.758053
2756.250000	-53.571896
2799.316406	-53.639412
2842.382812	-54.615269
2885.449219	-54.964832
2928.515625	-54.610535
2971.582031	-54.467377
3014.648438	-55.371311
3057.714844	-55.449940
3100.781250	-53.451382
3143.847656	-54.066788
3186.914062	-58.063095
3229.980469	-58.104053
3273.046875	-58.044540
3316.113281	-56.954437
3359.179688	-59.115891
3402.246094	-58.776184
3445.312500	-59.925236
3488.378906	-58.954266
3531.445312	-59.160198
3574.511719	-59.372307
3617.578125	-58.746723
3660.644531	-59.831413
3703.710938	-59.138630
3746.777344	-59.738621
3789.843750	-60.669651
3832.910156	-60.278427
3875.976562	-60.820644
3919.042969	-61.722786
3962.109375	-60.228798
4005.175781	-60.636414
4048.242188	-60.957542
4091.308594	-61.113834
4134.375000	-61.984032
4177.441406	-60.921875
4220.507812	-61.743965
4263.574219	-58.120037
4306.640625	-59.657776
4349.707031	-60.131489
4392.773438	-57.766235
4435.839844	-60.068783
4478.906250	-54.392925
4521.972656	-54.235157
4565.039062	-47.138298
4608.105469	-51.862541
4651.171875	-54.160946
4694.238281	-52.566357
4737.304688	-51.954388
4780.371094	-47.727516
4823.437500	-46.468967
4866.503906	-44.575291
4909.570312	-37.072933
4952.636719	-29.132507
4995.703125	-40.255726
5038.769531	-46.840111
5081.835938	-47.556141
5124.902344	-51.214973
5167.968750	-52.665791
5211.035156	-51.795277
5254.101562	-53.297493
5297.167969	-51.539646
5340.234375	-53.238960
5383.300781	-54.706322
5426.367188	-54.063217
5469.433594	-52.218155
5512.500000	-50.642967
5555.566406	-45.541084
5598.632812	-30.751740
5641.699219	-42.575359
5684.765625	-46.113636
5727.832031	-50.739815
5770.898438	-52.214691
5813.964844	-51.998608
5857.031250	-52.696896
5900.097656	-49.950874
5943.164062	-54.157089
5986.230469	-48.444405
6029.296875	-51.758568
6072.363281	-45.548244
6115.429688	-42.980522
6158.496094	-42.822067
6201.562500	-33.044674
6244.628906	-25.853304
6287.695312	-36.116550
6330.761719	-44.945076
6373.828125	-43.154106
6416.894531	-42.671169
6459.960938	-43.008739
6503.027344	-47.340328
6546.093750	-47.609310
6589.160156	-45.068962
6632.226562	-44.040688
6675.292969	-50.081085
6718.359375	-51.025452
6761.425781	-51.842701
6804.492188	-52.932915
6847.558594	-51.288300
6890.625000	-56.457272
6933.691406	-54.193382
6976.757812	-56.532997
7019.824219	-57.183945
7062.890625	-57.198673
7105.957031	-60.052113
7149.023438	-58.203011
7192.089844	-61.352379
7235.156250	-58.224865
7278.222656	-59.819099
7321.289062	-60.488049
7364.355469	-56.622635
7407.421875	-61.479317
7450.488281	-55.212234
7493.554688	-56.504208
7536.621094	-57.960743
7579.687500	-47.411617
7622.753906	-51.821022
7665.820312	-56.118183
7708.886719	-55.283451
7751.953125	-54.293816
7795.019531	-60.217747
7838.085938	-55.303185
7881.152344	-55.513027
7924.218750	-53.064171
7967.285156	-48.167076
8010.351562	-36.731907
8053.417969	-42.100357
8096.484375	-48.249111
8139.550781	-52.257557
8182.617188	-50.897976
8225.683594	-56.431934
8268.750000	-47.477497
8311.816406	-47.687286
8354.882812	-55.400078
8397.949219	-51.326157
8441.015625	-50.998276
8484.082031	-54.085312
8527.148438	-50.617142
8570.214844	-52.234371
8613.281250	-49.128559
8656.347656	-48.635559
8699.414062	-47.123848
8742.480469	-39.565945
8785.546875	-31.836819
8828.613281	-41.617371
8871.679688	-44.162579
8914.746094	-45.112900
8957.812500	-50.716923
9000.878906	-54.351910
9043.945312	-50.634209
9087.011719	-51.937393
9130.078125	-57.400730
9173.144531	-61.920357
9216.210938	-58.686375
9259.277344	-57.862309
9302.343750	-60.690819
9345.410156	-60.714615
9388.476562	-57.926186
9431.542969	-54.871086
9474.609375	-50.930882
9517.675781	-40.636421
9560.742188	-40.511253
9603.808594	-50.496414
9646.875000	-57.937729
9689.941406	-56.581116
9733.007812	-63.846214
9776.074219	-59.629333
9819.140625	-59.993870
9862.207031	-64.211853
9905.273438	-62.328510
9948.339844	-66.089020
9991.406250	-65.108345
10034.472656	-63.062019
10077.539062	-61.395874
10120.605469	-60.892281
10163.671875	-59.033939
10206.738281	-59.269035
10249.804688	-56.687683
10292.871094	-58.183578
10335.937500	-62.516430
10379.003906	-63.352951
10422.070312	-62.072174
10465.136719	-65.865669
10508.203125	-63.464779
10551.269531	-59.968346
10594.335938	-64.351067
10637.402344	-62.851963
10680.468750	-58.177540
10723.535156	-64.780594
10766.601562	-57.588985
10809.667969	-48.799030
10852.734375	-48.095341
10895.800781	-56.485661
10938.867188	-60.042950
10981.933594	-65.823090
11025.000000	-61.689236
11068.066406	-64.762283
11111.132812	-64.405441
11154.199219	-67.977173
11197.265625	-66.615456
11240.332031	-69.516563
11283.398438	-67.202454
11326.464844	-67.969818
11369.531250	-69.589760
11412.597656	-69.904366
11455.664062	-70.471054
11498.730469	-71.284317
11541.796875	-71.263344
11584.863281	-71.371895
11627.929688	-70.541817
11670.996094	-69.201500
11714.062500	-69.770798
11757.128906	-68.509102
11800.195312	-68.846657
11843.261719	-69.501076
11886.328125	-70.112572
11929.394531	-72.189751
11972.460938	-71.360229
12015.527344	-71.088593
12058.593750	-70.786064
12101.660156	-71.679161
12144.726562	-71.271942
12187.792969	-69.616913
12230.859375	-70.164749
12273.925781	-69.409866
12316.992188	-70.037651
12360.058594	-71.153275
12403.125000	-70.787903
12446.191406	-72.744743
12489.257812	-71.540169
12532.324219	-71.465195
12575.390625	-70.978683
12618.457031	-69.952560
12661.523438	-70.517433
12704.589844	-68.897560
12747.656250	-69.756500
12790.722656	-68.705086
12833.789062	-68.625122
12876.855469	-70.447891
12919.921875	-67.861511
12962.988281	-70.424591
13006.054688	-68.033882
13049.121094	-66.632759
13092.187500	-69.362892
13135.253906	-64.990356
13178.320312	-64.091293
13221.386719	-63.532322
13264.453125	-62.775871
13307.519531	-65.700874
13350.585938	-60.168118
13393.652344	-61.333866
13436.718750	-57.255070
13479.785156	-48.862621
13522.851562	-48.648243
13565.917969	-57.526558
13608.984375	-58.627125
13652.050781	-61.465263
13695.117188	-69.274330
13738.183594	-64.634720
13781.250000	-65.219437
13824.316406	-64.616394
13867.382812	-63.027748
13910.449219	-70.071724
13953.515625	-72.162758
13996.582031	-71.594879
14039.648438	-73.426903
14082.714844	-72.640877
14125.781250	-73.137009
14168.847656	-69.096184
14211.914062	-63.296173
14254.980469	-67.599854
14298.046875	-68.133659
14341.113281	-64.651413
14384.179688	-57.780842
14427.246094	-61.336830
14470.312500	-60.782394
14513.378906	-60.822651
14556.445312	-57.686161
14599.511719	-66.359795
14642.578125	-64.238976
14685.644531	-69.379463
14728.710938	-70.681427
14771.777344	-69.549911
14814.843750	-72.782913
14857.910156	-69.472443
14900.976562	-68.019806
14944.042969	-67.185081
14987.109375	-68.592865
15030.175781	-70.300156
15073.242188	-72.951271
15116.308594	-70.493492
15159.375000	-73.222481
15202.441406	-73.502113
15245.507812	-72.878502
15288.574219	-73.873985
15331.640625	-73.289581
15374.707031	-74.531448
15417.773438	-74.336853
15460.839844	-74.789345
15503.906250	-73.989532
15546.972656	-68.924240
15590.039062	-67.944672
15633.105469	-67.567474
15676.171875	-66.111336
15719.238281	-63.071110
15762.304688	-59.418102
15805.371094	-65.590683
15848.437500	-70.696419
15891.503906	-67.692352
15934.570312	-69.672508
15977.636719	-70.932465
16020.703125	-74.547112
16063.769531	-73.970329
16106.835938	-73.710228
16149.902344	-74.179840
16192.968750	-73.940323
16236.035156	-73.945770
16279.101562	-73.907791
16322.167969	-74.225479
16365.234375	-74.131325
16408.300781	-74.246178
16451.367188	-74.155472
16494.433594	-74.087196
16537.500000	-74.164040
16580.566406	-74.132050
16623.632812	-74.282211
16666.699219	-74.278435
16709.765625	-74.306679
16752.832031	-74.310860
16795.898438	-74.255348
16838.964844	-74.222641
16882.031250	-74.369606
16925.097656	-74.388336
16968.164062	-74.422424
17011.230469	-74.375229
17054.296875	-74.433006
17097.363281	-74.411194
17140.429688	-74.372673
17183.496094	-74.352219
17226.562500	-74.435547
17269.628906	-74.407608
17312.695312	-74.478439
17355.761719	-74.407150
17398.828125	-74.575897
17441.894531	-74.440926
17484.960938	-74.475166
17528.027344	-74.481964
17571.093750	-74.613876
17614.160156	-74.547340
17657.226562	-74.600929
17700.292969	-74.520493
17743.359375	-74.628883
17786.425781	-74.691696
17829.492188	-74.661278
17872.558594	-74.682411
17915.625000	-74.671371
17958.691406	-74.672577
18001.757812	-74.622078
18044.824219	-74.700996
18087.890625	-74.670822
18130.957031	-74.786903
18174.023438	-74.759407
18217.089844	-74.603027
18260.156250	-74.729897
18303.222656	-74.710022
18346.289062	-74.812309
18389.355469	-74.776253
18432.421875	-74.727921
18475.488281	-74.763931
18518.554688	-74.769234
18561.621094	-74.798775
18604.687500	-74.830200
18647.753906	-74.836815
18690.820312	-74.750977
18733.886719	-74.758293
18776.953125	-74.766098
18820.019531	-74.817360
18863.085938	-74.831703
18906.152344	-74.811699
18949.218750	-74.818642
18992.285156	-74.847122
19035.351562	-74.874199
19078.417969	-74.844925
19121.484375	-74.828453
19164.550781	-74.851875
19207.617188	-74.769157
19250.683594	-74.828011
19293.750000	-74.910820
19336.816406	-74.905907
19379.882812	-74.858345
19422.949219	-74.945480
19466.015625	-74.933067
19509.082031	-74.875992
19552.148438	-74.906448
19595.214844	-74.980705
19638.281250	-74.945747
19681.347656	-74.955093
19724.414062	-74.934517
19767.480469	-75.028511
19810.546875	-74.938690
19853.613281	-74.950378
19896.679688	-74.969566
19939.746094	-74.965508
19982.812500	-74.971748
20025.878906	-74.915039
20068.945312	-74.951668
20112.011719	-74.988670
20155.078125	-75.023628
20198.144531	-75.013954
20241.210938	-74.934624
20284.277344	-74.975639
20327.343750	-75.063187
20370.410156	-75.136345
20413.476562	-75.009865
20456.542969	-75.016190
20499.609375	-75.016014
20542.675781	-74.995346
20585.742188	-75.025116
20628.808594	-75.019791
20671.875000	-75.050644
20714.941406	-75.094170
20758.007812	-75.013031
20801.074219	-75.065735
20844.140625	-75.084053
20887.207031	-75.057602
20930.273438	-75.042168
20973.339844	-75.131035
21016.406250	-75.081535
21059.472656	-75.019203
21102.539062	-75.060707
21145.605469	-75.093147
21188.671875	-75.117714
21231.738281	-75.129807
21274.804688	-75.144630
21317.871094	-75.021423
21360.937500	-75.153740
21404.003906	-75.045441
21447.070312	-75.141251
21490.136719	-75.076225
21533.203125	-75.120819
21576.269531	-75.036682
21619.335938	-75.060440
21662.402344	-75.058655
21705.468750	-75.093613
21748.535156	-75.096146
21791.601562	-75.067749
21834.667969	-75.077995
21877.734375	-75.095268
21920.800781	-75.101189
21963.867188	-75.121109
22006.933594	-75.094986
