Frequency (Hz)	Level (dB)
43.066406	-48.863926
86.132812	-48.216328
129.199219	-46.337444
172.265625	-45.882931
215.332031	-47.393330
258.398438	-45.986217
301.464844	-47.535290
344.531250	-48.456200
387.597656	-49.449299
430.664062	-49.036114
473.730469	-49.093472
516.796875	-48.600803
559.863281	-48.617836
602.929688	-48.591091
645.996094	-47.913200
689.062500	-48.150112
732.128906	-48.246868
775.195312	-47.133877
818.261719	-47.449562
861.328125	-48.337032
904.394531	-46.393566
947.460938	-45.616478
990.527344	-45.498295
1033.593750	-44.475960
1076.660156	-44.569923
1119.726562	-45.447132
1162.792969	-44.707726
1205.859375	-44.345531
1248.925781	-44.126560
1291.992188	-43.603352
1335.058594	-43.356789
1378.125000	-42.437706
1421.191406	-42.296459
1464.257812	-41.192177
1507.324219	-41.104057
1550.390625	-40.064838
1593.457031	-38.979477
1636.523438	-37.467922
1679.589844	-36.718651
1722.656250	-36.752686
1765.722656	-33.930576
1808.789062	-31.775711
1851.855469	-30.239637
1894.921875	-27.006809
1937.988281	-18.928707
1981.054688	-18.426310
2024.121094	-22.648003
2067.187500	-12.450395
2110.253906	-15.115705
2153.320312	-24.015038
2196.386719	-28.073261
2239.453125	-30.618174
2282.519531	-32.461174
2325.585938	-34.155533
2368.652344	-36.320358
2411.718750	-36.824936
2454.785156	-38.382278
2497.851562	-39.186378
2540.917969	-39.758640
2583.984375	-40.783314
2627.050781	-39.488575
2670.117188	-39.925812
2713.183594	-41.039467
2756.250000	-42.081188
2799.316406	-42.755779
2842.382812	-42.770741
2885.449219	-42.006546
2928.515625	-40.066311
2971.582031	-40.494808
3014.648438	-43.186993
3057.714844	-43.277447
3100.781250	-42.902935
3143.847656	-43.462193
3186.914062	-44.873493
3229.980469	-41.673645
3273.046875	-41.493271
3316.113281	-43.583981
3359.179688	-43.801487
3402.246094	-44.969501
3445.312500	-47.114452
3488.378906	-45.394211
3531.445312	-44.335308
3574.511719	-45.650734
3617.578125	-46.610390
3660.644531	-45.363884
3703.710938	-45.403225
3746.777344	-47.466759
3789.843750	-46.912991
3832.910156	-43.666374
3875.976562	-43.886215
3919.042969	-45.582081
3962.109375	-46.467407
4005.175781	-46.633060
4048.242188	-46.052902
4091.308594	-44.639317
4134.375000	-42.885284
4177.441406	-42.632877
4220.507812	-42.359253
4263.574219	-40.820950
4306.640625	-39.495392
4349.707031	-40.117256
4392.773438	-38.873989
4435.839844	-35.509052
4478.906250	-33.543282
4521.972656	-32.127136
4565.039062	-23.370440
4608.105469	-28.833637
4651.171875	-35.093269
4694.238281	-38.582905
4737.304688	-43.666851
4780.371094	-40.485909
4823.437500	-37.206966
4866.503906	-31.012081
4909.570312	-30.298990
4952.636719	-23.165514
4995.703125	-29.161005
5038.769531	-31.951456
5081.835938	-34.881836
5124.902344	-37.920898
5167.968750	-40.381367
5211.035156	-38.341938
5254.101562	-37.734283
5297.167969	-40.794983
5340.234375	-44.331326
5383.300781	-38.745518
5426.367188	-37.218479
5469.433594	-35.967724
5512.500000	-31.141989
5555.566406	-29.049072
5598.632812	-15.008913
5641.699219	-23.909956
5684.765625	-29.227257
5727.832031	-33.712425
5770.898438	-36.265869
5813.964844	-34.550365
5857.031250	-35.906933
5900.097656	-35.965187
5943.164062	-36.118404
5986.230469	-40.625954
6029.296875	-43.339737
6072.363281	-41.081299
6115.429688	-41.924328
6158.496094	-45.315269
6201.562500	-42.309914
6244.628906	-37.201267
6287.695312	-39.915962
6330.761719	-42.088875
6373.828125	-43.363544
6416.894531	-47.937309
6459.960938	-51.800941
6503.027344	-45.684185
6546.093750	-41.126415
6589.160156	-37.845608
6632.226562	-36.241478
6675.292969	-38.833538
6718.359375	-42.453297
6761.425781	-47.209496
6804.492188	-47.428623
6847.558594	-47.797024
6890.625000	-46.437634
6933.691406	-47.379669
6976.757812	-51.335369
7019.824219	-52.885098
7062.890625	-50.396713
7105.957031	-50.523247
7149.023438	-51.206722
7192.089844	-46.477585
7235.156250	-44.901711
7278.222656	-43.495266
7321.289062	-44.416027
7364.355469	-44.863323
7407.421875	-45.200550
7450.488281	-45.407257
7493.554688	-45.077015
7536.621094	-44.769287
7579.687500	-39.756290
7622.753906	-49.404457
7665.820312	-52.094414
7708.886719	-51.104671
7751.953125	-51.782875
7795.019531	-54.273560
7838.085938	-53.708637
7881.152344	-53.079388
7924.218750	-53.607426
7967.285156	-47.595242
8010.351562	-49.283882
8053.417969	-50.481136
8096.484375	-53.751175
8139.550781	-54.906406
8182.617188	-55.153503
8225.683594	-55.854809
8268.750000	-58.276970
8311.816406	-57.361805
8354.882812	-56.428967
8397.949219	-52.896320
8441.015625	-54.382404
8484.082031	-56.531601
8527.148438	-55.896030
8570.214844	-57.575451
8613.281250	-59.340000
8656.347656	-58.197094
8699.414062	-57.586926
8742.480469	-58.466618
8785.546875	-59.131367
8828.613281	-60.127548
8871.679688	-61.005047
8914.746094	-60.631519
8957.812500	-60.243599
9000.878906	-61.022747
9043.945312	-61.705612
9087.011719	-61.261753
9130.078125	-60.927475
9173.144531	-61.308289
9216.210938	-61.827843
9259.277344	-61.424702
9302.343750	-60.984230
9345.410156	-61.290203
9388.476562	-61.771271
9431.542969	-61.508369
9474.609375	-61.519009
9517.675781	-61.527821
9560.742188	-61.556240
9603.808594	-61.685768
9646.875000	-62.144691
9689.941406	-61.907684
9733.007812	-61.678276
9776.074219	-61.889393
9819.140625	-62.426884
9862.207031	-62.183060
9905.273438	-61.792660
9948.339844	-62.038258
9991.406250	-62.600773
10034.472656	-62.432816
10077.539062	-62.056858
10120.605469	-62.259922
10163.671875	-62.547150
10206.738281	-62.578575
10249.804688	-62.467735
10292.871094	-62.515846
10335.937500	-62.521301
10379.003906	-62.692234
10422.070312	-62.752361
10465.136719	-62.695278
10508.203125	-62.534107
10551.269531	-62.758228
10594.335938	-62.976261
10637.402344	-62.821358
10680.468750	-62.607986
10723.535156	-62.824474
10766.601562	-63.114986
10809.667969	-62.979698
10852.734375	-62.810638
10895.800781	-62.944199
10938.867188	-63.195763
10981.933594	-63.123039
11025.000000	-63.014484
11068.066406	-63.070889
11111.132812	-63.231731
11154.199219	-63.255646
11197.265625	-63.305420
11240.332031	-63.264584
11283.398438	-63.229042
11326.464844	-63.393845
11369.531250	-63.553520
11412.597656	-63.478226
11455.664062	-63.304302
11498.730469	-63.508896
11541.796875	-63.694981
11584.863281	-63.643585
11627.929688	-63.436333
11670.996094	-63.619740
11714.062500	-63.766087
11757.128906	-63.740788
11800.195312	-63.573238
11843.261719	-63.689110
11886.328125	-63.789944
11929.394531	-63.780090
11972.460938	-63.719673
12015.527344	-63.741901
12058.593750	-63.802082
12101.660156	-63.813126
12144.726562	-63.885544
12187.792969	-63.819092
12230.859375	-63.847549
12273.925781	-63.856541
12316.992188	-64.034271
12360.058594	-63.929913
12403.125000	-63.952003
12446.191406	-63.954956
12489.257812	-64.177681
12532.324219	-64.078636
12575.390625	-64.067833
12618.457031	-64.087845
12661.523438	-64.300560
12704.589844	-64.267334
12747.656250	-64.233025
12790.722656	-64.248642
12833.789062	-64.348427
12876.855469	-64.424118
12919.921875	-64.437210
12962.988281	-64.450066
13006.054688	-64.401489
13049.121094	-64.557571
13092.187500	-64.545395
13135.253906	-64.582237
13178.320312	-64.479958
13221.386719	-64.636551
13264.453125	-64.638809
13307.519531	-64.646675
13350.585938	-64.484100
13393.652344	-64.657349
13436.718750	-64.697235
13479.785156	-64.697655
13522.851562	-64.560532
13565.917969	-64.662170
13608.984375	-64.726402
13652.050781	-64.707817
13695.117188	-64.663185
13738.183594	-64.691536
13781.250000	-64.770714
13824.316406	-64.741066
13867.382812	-64.773010
13910.449219	-64.727005
13953.515625	-64.807503
13996.582031	-64.802483
14039.648438	-64.914070
14082.714844	-64.861984
14125.781250	-64.871254
14168.847656	-64.897926
14211.914062	-65.038345
14254.980469	-65.011009
14298.046875	-64.978424
14341.113281	-65.034958
14384.179688	-65.127151
14427.246094	-65.124916
14470.312500	-65.065353
14513.378906	-65.123344
14556.445312	-65.158775
14599.511719	-65.226913
14642.578125	-65.174355
14685.644531	-65.190102
14728.710938	-65.201683
14771.777344	-65.286011
14814.843750	-65.234238
14857.910156	-65.235336
14900.976562	-65.248596
14944.042969	-65.275101
14987.109375	-65.307709
15030.175781	-65.270584
15073.242188	-65.227654
15116.308594	-65.300217
15159.375000	-65.398750
15202.441406	-65.299812
15245.507812	-65.288788
15288.574219	-65.272285
15331.640625	-65.409203
15374.707031	-65.391228
15417.773438	-65.401741
15460.839844	-65.386925
15503.906250	-65.501190
15546.972656	-65.504166
15590.039062	-65.557472
15633.105469	-65.484291
15676.171875	-65.539139
15719.238281	-65.632820
15762.304688	-65.659401
15805.371094	-65.651657
15848.437500	-65.560570
15891.503906	-65.720825
15934.570312	-65.734108
15977.636719	-65.791008
16020.703125	-65.649521
16063.769531	-65.785454
16106.835938	-65.739098
16149.902344	-65.818359
16192.968750	-65.722275
16236.035156	-65.782585
16279.101562	-65.752296
16322.167969	-65.839760
16365.234375	-65.692963
16408.300781	-65.736000
16451.367188	-65.745804
16494.433594	-65.769508
16537.500000	-65.726761
16580.566406	-65.742867
16623.632812	-65.755402
16666.699219	-65.720062
16709.765625	-65.800323
16752.832031	-65.672508
16795.898438	-65.777977
16838.964844	-65.674965
16882.031250	-65.826485
16925.097656	-65.786827
16968.164062	-65.818832
17011.230469	-65.751740
17054.296875	-65.967934
17097.363281	-65.830040
17140.429688	-65.910851
17183.496094	-65.898346
17226.562500	-65.961327
17269.628906	-66.005417
17312.695312	-66.005173
17355.761719	-66.057785
17398.828125	-66.008652
17441.894531	-66.112488
17484.960938	-66.087250
17528.027344	-66.155540
17571.093750	-66.049530
17614.160156	-66.179619
17657.226562	-66.184517
17700.292969	-66.160156
17743.359375	-66.088341
17786.425781	-66.170288
17829.492188	-66.226639
17872.558594	-66.241043
17915.625000	-66.069489
17958.691406	-66.243721
18001.757812	-66.159683
18044.824219	-66.215424
18087.890625	-66.143631
18130.957031	-66.132339
18174.023438	-66.143761
18217.089844	-66.136559
18260.156250	-66.156929
18303.222656	-66.186943
18346.289062	-66.160469
18389.355469	-66.171600
18432.421875	-66.206924
18475.488281	-66.187981
18518.554688	-66.272308
18561.621094	-66.231483
18604.687500	-66.264381
18647.753906	-66.328011
18690.820312	-66.255295
18733.886719	-66.310829
18776.953125	-66.335350
18820.019531	-66.332451
18863.085938	-66.367416
18906.152344	-66.340149
18949.218750	-66.304726
18992.285156	-66.453293
19035.351562	-66.344322
19078.417969	-66.428413
19121.484375	-66.362335
19164.550781	-66.385651
19207.617188	-66.390945
19250.683594	-66.451836
19293.750000	-66.325508
19336.816406	-66.292122
19379.882812	-66.332359
19422.949219	-66.390007
19466.015625	-66.343422
19509.082031	-66.270248
19552.148438	-66.331467
19595.214844	-66.341896
19638.281250	-66.315872
19681.347656	-66.257202
19724.414062	-66.379677
19767.480469	-66.227242
19810.546875	-66.362564
19853.613281	-66.248375
19896.679688	-66.318352
19939.746094	-66.245369
19982.812500	-66.367180
20025.878906	-66.314888
20068.945312	-66.502831
20112.011719	-66.403763
20155.078125	-66.364662
20198.144531	-66.411713
20241.210938	-66.398621
20284.277344	-66.568008
20327.343750	-66.546402
20370.410156	-66.558548
20413.476562	-66.491730
20456.542969	-66.611252
20499.609375	-66.538338
20542.675781	-66.679405
20585.742188	-66.487541
20628.808594	-66.669373
20671.875000	-66.637833
20714.941406	-66.605118
20758.007812	-66.497017
20801.074219	-66.629036
20844.140625	-66.475555
20887.207031	-66.596344
20930.273438	-66.499008
20973.339844	-66.533119
21016.406250	-66.526604
21059.472656	-66.480064
21102.539062	-66.560059
21145.605469	-66.476318
21188.671875	-66.477951
21231.738281	-66.486206
21274.804688	-66.372017
21317.871094	-66.430275
21360.937500	-66.439384
21404.003906	-66.389175
21447.070312	-66.503677
21490.136719	-66.479805
21533.203125	-66.471893
21576.269531	-66.444893
21619.335938	-66.453987
21662.402344	-66.481888
21705.468750	-66.528259
21748.535156	-66.598289
21791.601562	-66.504173
21834.667969	-66.584480
21877.734375	-66.682999
21920.800781	-66.607796
21963.867188	-66.571297
22006.933594	-66.579590
