Frequency (Hz)	Level (dB)
86.132812	-59.698215
172.265625	-56.054947
258.398438	-57.810986
344.531250	-58.467182
430.664062	-59.359253
516.796875	-58.518421
602.929688	-59.659084
689.062500	-58.446659
775.195312	-59.170727
861.328125	-58.723064
947.460938	-59.377651
1033.593750	-58.405396
1119.726562	-57.815411
1205.859375	-57.273808
1291.992188	-57.450275
1378.125000	-56.471531
1464.257812	-56.001503
1550.390625	-55.169025
1636.523438	-53.529285
1722.656250	-52.639366
1808.789062	-51.187378
1894.921875	-49.696953
1981.054688	-46.969097
2067.187500	-43.888832
2153.320312	-39.740116
2239.453125	-31.771574
2325.585938	-28.689177
2411.718750	-30.024557
2497.851562	-43.435116
2583.984375	-46.310543
2670.117188	-48.885914
2756.250000	-50.712257
2842.382812	-52.385395
2928.515625	-53.361614
3014.648438	-54.715816
3100.781250	-55.438236
3186.914062	-56.670406
3273.046875	-56.906464
3359.179688	-57.155903
3445.312500	-58.135769
3531.445312	-58.920254
3617.578125	-58.655262
3703.710938	-59.928551
3789.843750	-60.729301
3875.976562	-61.296806
3962.109375	-61.371181
4048.242188	-61.270199
4134.375000	-61.457672
4220.507812	-61.404869
4306.640625	-62.093182
4392.773438	-62.094120
4478.906250	-61.754150
4565.039062	-62.989471
4651.171875	-62.351685
4737.304688	-62.127384
4823.437500	-61.398270
4909.570312	-60.611088
4995.703125	-57.011307
5081.835938	-50.322315
5167.968750	-41.499798
5254.101562	-53.277412
5340.234375	-59.006226
5426.367188	-60.233143
5512.500000	-61.017269
5598.632812	-60.380676
5684.765625	-56.843258
5770.898438	-62.589451
5857.031250	-64.724510
5943.164062	-65.030403
6029.296875	-59.770004
6115.429688	-63.657211
6201.562500	-66.219254
6287.695312	-66.417610
6373.828125	-65.008331
6459.960938	-67.094666
6546.093750	-65.420738
6632.226562	-58.723305
6718.359375	-64.360741
6804.492188	-66.316406
6890.625000	-66.560966
6976.757812	-67.208771
7062.890625	-67.133171
7149.023438	-67.855667
7235.156250	-67.972305
7321.289062	-68.345490
7407.421875	-69.519730
7493.554688	-68.261040
7579.687500	-67.647255
7665.820312	-69.241417
7751.953125	-70.976074
7838.085938	-69.879745
7924.218750	-70.148590
8010.351562	-71.069359
8096.484375	-71.178673
8182.617188	-71.194733
8268.750000	-71.587784
8354.882812	-71.189323
8441.015625	-71.105354
8527.148438	-71.748131
8613.281250	-71.915291
8699.414062	-72.133240
8785.546875	-72.110291
8871.679688	-72.368713
8957.812500	-72.391319
9043.945312	-72.495689
9130.078125	-72.595131
9216.210938	-72.713844
9302.343750	-72.814873
9388.476562	-72.873795
9474.609375	-72.974823
9560.742188	-73.074730
9646.875000	-73.151413
9733.007812	-73.269440
9819.140625	-73.342621
9905.273438	-73.440445
9991.406250	-73.531845
10077.539062	-73.600243
10163.671875	-73.694984
10249.804688	-73.765923
10335.937500	-73.862038
10422.070312	-73.925987
10508.203125	-73.990234
10594.335938	-74.124207
10680.468750	-74.189186
10766.601562	-74.234566
10852.734375	-74.323433
10938.867188	-74.394951
11025.000000	-74.464890
11111.132812	-74.563866
11197.265625	-74.624939
11283.398438	-74.689880
11369.531250	-74.768791
11455.664062	-74.857254
11541.796875	-74.939896
11627.929688	-74.960304
11714.062500	-75.034851
11800.195312	-75.134026
11886.328125	-75.177063
11972.460938	-75.285179
12058.593750	-75.310341
12144.726562	-75.433624
12230.859375	-75.469215
12316.992188	-75.524361
12403.125000	-75.602295
12489.257812	-75.603516
12575.390625	-75.684273
12661.523438	-75.770493
12747.656250	-75.803246
12833.789062	-75.911674
12919.921875	-75.961327
13006.054688	-76.006126
13092.187500	-76.057007
13178.320312	-76.128288
13264.453125	-76.176819
13350.585938	-76.249023
13436.718750	-76.330063
13522.851562	-76.359619
13608.984375	-76.432022
13695.117188	-76.455025
13781.250000	-76.557564
13867.382812	-76.528687
13953.515625	-76.638283
14039.648438	-76.687630
14125.781250	-76.738968
14211.914062	-76.781990
14298.046875	-76.849022
14384.179688	-76.866295
14470.312500	-76.929733
14556.445312	-76.986626
14642.578125	-77.023300
14728.710938	-77.109436
14814.843750	-77.117317
14900.976562	-77.208122
14987.109375	-77.274445
15073.242188	-77.263863
15159.375000	-77.316292
15245.507812	-77.428047
15331.640625	-77.438690
15417.773438	-77.480835
15503.906250	-77.506622
15590.039062	-77.596039
15676.171875	-77.609200
15762.304688	-77.682190
15848.437500	-77.746338
15934.570312	-77.805649
16020.703125	-77.826469
16106.835938	-77.852913
16192.968750	-77.860153
16279.101562	-77.932678
16365.234375	-78.019814
16451.367188	-77.993370
16537.500000	-78.043900
16623.632812	-78.101982
16709.765625	-78.151932
16795.898438	-78.184280
16882.031250	-78.233673
16968.164062	-78.274376
17054.296875	-78.309113
17140.429688	-78.347496
17226.562500	-78.383125
17312.695312	-78.485367
17398.828125	-78.482361
17484.960938	-78.483536
17571.093750	-78.595261
17657.226562	-78.588959
17743.359375	-78.665970
17829.492188	-78.690643
17915.625000	-78.743248
18001.757812	-78.760063
18087.890625	-78.791817
18174.023438	-78.763718
18260.156250	-78.876282
18346.289062	-78.884102
18432.421875	-78.913269
18518.554688	-78.935982
18604.687500	-78.982155
18690.820312	-79.090096
18776.953125	-79.094841
18863.085938	-79.099640
18949.218750	-79.121071
19035.351562	-79.170433
19121.484375	-79.240379
19207.617188	-79.237007
19293.750000	-79.228264
19379.882812	-79.345589
19466.015625	-79.335243
19552.148438	-79.447701
19638.281250	-79.468071
19724.414062	-79.416321
19810.546875	-79.525604
19896.679688	-79.511002
19982.812500	-79.548561
20068.945312	-79.608986
20155.078125	-79.628754
20241.210938	-79.602264
20327.343750	-79.719353
20413.476562	-79.657394
20499.609375	-79.754868
20585.742188	-79.751152
20671.875000	-79.807358
20758.007812	-79.823265
20844.140625	-79.882874
20930.273438	-79.923256
21016.406250	-79.954994
21102.539062	-79.928825
21188.671875	-79.954422
21274.804688	-80.010818
21360.937500	-80.036263
21447.070312	-80.136932
21533.203125	-80.115364
21619.335938	-80.121506
21705.468750	-80.175369
21791.601562	-80.209030
21877.734375	-80.267975
21963.867188	-80.263062
22050.000000	-80.251511
22136.132812	-80.365814
22222.265625	-80.352104
22308.398438	-80.421104
22394.531250	-80.381027
22480.664062	-80.390633
22566.796875	-80.425224
22652.929688	-80.471649
22739.062500	-80.495522
22825.195312	-80.544846
22911.328125	-80.549713
22997.460938	-80.570511
23083.593750	-80.595749
23169.726562	-80.590515
23255.859375	-80.653175
23341.992188	-80.666206
23428.125000	-80.731201
23514.257812	-80.720390
23600.390625	-80.756119
23686.523438	-80.767181
23772.656250	-80.812759
23858.789062	-80.849182
23944.921875	-80.863846
24031.054688	-80.862877
24117.187500	-80.896645
24203.320312	-80.888458
24289.453125	-80.963562
24375.585938	-80.987869
24461.718750	-81.012268
24547.851562	-80.994141
24633.984375	-81.029533
24720.117188	-81.093941
24806.250000	-81.082703
24892.382812	-81.095596
24978.515625	-81.122887
25064.648438	-81.209648
25150.781250	-81.197632
25236.914062	-81.210472
25323.046875	-81.249481
25409.179688	-81.276344
25495.312500	-81.301285
25581.445312	-81.296677
25667.578125	-81.301140
25753.710938	-81.406036
25839.843750	-81.346092
25925.976562	-81.364357
26012.109375	-81.411751
26098.242188	-81.402031
26184.375000	-81.439827
26270.507812	-81.445877
26356.640625	-81.410240
26442.773438	-81.495407
26528.906250	-81.473152
26615.039062	-81.486992
26701.171875	-81.574417
26787.304688	-81.613655
26873.437500	-81.585960
26959.570312	-81.627388
27045.703125	-81.617470
27131.835938	-81.606728
27217.968750	-81.736687
27304.101562	-81.686913
27390.234375	-81.678329
27476.367188	-81.715866
27562.500000	-81.694733
27648.632812	-81.779274
27734.765625	-81.766579
27820.898438	-81.793480
27907.031250	-81.768585
27993.164062	-81.940971
28079.296875	-81.778046
28165.429688	-81.908844
28251.562500	-81.835495
28337.695312	-81.908844
28423.828125	-81.798050
28509.960938	-82.018944
28596.093750	-81.897331
28682.226562	-81.984047
28768.359375	-81.784721
28854.492188	-81.954674
28940.625000	-81.990959
29026.757812	-82.139000
29112.890625	-82.084969
29199.023438	-82.023056
29285.156250	-82.033730
29371.289062	-82.001221
29457.421875	-82.150795
29543.554688	-82.221542
29629.687500	-82.250748
29715.820312	-82.085167
29801.953125	-82.164017
29888.085938	-82.123596
29974.218750	-82.073822
30060.351562	-82.281776
30146.484375	-82.291031
30232.617188	-82.314056
30318.750000	-82.108299
30404.882812	-82.046074
30491.015625	-82.275925
30577.148438	-82.342148
30663.281250	-82.411613
30749.414062	-82.179573
30835.546875	-82.045860
30921.679688	-82.453712
31007.812500	-82.243652
31093.945312	-82.217102
31180.078125	-82.500031
31266.210938	-82.512672
31352.343750	-82.486061
31438.476562	-82.680519
31524.609375	-82.390060
31610.742188	-82.248817
31696.875000	-82.507141
31783.007812	-82.530334
31869.140625	-82.554459
31955.273438	-82.420334
32041.406250	-82.443649
32127.539062	-82.649925
32213.671875	-82.609894
32299.804688	-82.612793
32385.937500	-82.697487
32472.070312	-82.389206
32558.203125	-82.419769
32644.335938	-82.490700
32730.468750	-82.969795
32816.601562	-82.457069
32902.734375	-82.653786
32988.867188	-82.186752
33075.000000	-82.306580
33161.132812	-82.347527
33247.265625	-82.698845
33333.398438	-82.624496
33419.531250	-82.572510
33505.664062	-82.288338
33591.796875	-82.419388
33677.929688	-82.504616
33764.062500	-82.548897
33850.195312	-82.690994
33936.328125	-82.542877
34022.460938	-82.572426
34108.593750	-82.403374
34194.726562	-82.758980
34280.859375	-82.778145
34366.992188	-82.760628
34453.125000	-82.467590
34539.257812	-82.860062
34625.390625	-82.536858
34711.523438	-82.809509
34797.656250	-83.111168
34883.789062	-82.946548
34969.921875	-83.161934
35056.054688	-82.565224
35142.187500	-83.265709
35228.320312	-82.923584
35314.453125	-82.686584
35400.585938	-82.469574
35486.718750	-82.842712
35572.851562	-82.409973
35658.984375	-83.084213
35745.117188	-82.076897
35831.250000	-82.889549
35917.382812	-82.828232
36003.515625	-82.916115
36089.648438	-83.063324
36175.781250	-82.760056
36261.914062	-82.396599
36348.046875	-82.795502
36434.179688	-82.753204
36520.312500	-82.528854
36606.445312	-83.071129
36692.578125	-82.647491
36778.710938	-83.481308
36864.843750	-82.965279
36950.976562	-81.986038
37037.109375	-82.370178
37123.242188	-82.328697
37209.375000	-82.403336
37295.507812	-82.642914
37381.640625	-82.717545
37467.773438	-82.927971
37553.906250	-83.332428
37640.039062	-82.009109
37726.171875	-82.244347
37812.304688	-82.960411
37898.437500	-82.900574
37984.570312	-82.994568
38070.703125	-82.741859
38156.835938	-82.576920
38242.968750	-82.870621
38329.101562	-83.489395
38415.234375	-82.468620
38501.367188	-82.675957
38587.500000	-83.260689
38673.632812	-82.701668
38759.765625	-82.575371
38845.898438	-83.014992
38932.031250	-83.369728
39018.164062	-83.216232
39104.296875	-82.772339
39190.429688	-82.538612
39276.562500	-82.147781
39362.695312	-82.525688
39448.828125	-83.327576
39534.960938	-82.713470
39621.093750	-82.999031
39707.226562	-83.736153
39793.359375	-82.901207
39879.492188	-83.175507
39965.625000	-82.729599
40051.757812	-82.169090
40137.890625	-82.384369
40224.023438	-82.623703
40310.156250	-83.441811
40396.289062	-82.987579
40482.421875	-82.873169
40568.554688	-82.956848
40654.687500	-82.500130
40740.820312	-81.898254
40826.953125	-82.922470
40913.085938	-82.587021
40999.218750	-83.194847
41085.351562	-82.321075
41171.484375	-82.056282
41257.617188	-83.402603
41343.750000	-82.493629
41429.882812	-83.010811
41516.015625	-82.873878
41602.148438	-82.640480
41688.281250	-83.138382
41774.414062	-82.646469
41860.546875	-82.232407
41946.679688	-83.234177
42032.812500	-82.408936
42118.945312	-83.422523
42205.078125	-83.297104
42291.210938	-82.732864
42377.343750	-83.603569
42463.476562	-82.402039
42549.609375	-82.996330
42635.742188	-83.275185
42721.875000	-82.518730
42808.007812	-82.924507
42894.140625	-83.062180
42980.273438	-82.069748
43066.406250	-83.240944
43152.539062	-82.764748
43238.671875	-82.673309
43324.804688	-83.343971
43410.937500	-82.936142
43497.070312	-83.459610
43583.203125	-82.983582
43669.335938	-82.659332
43755.468750	-82.674446
43841.601562	-82.937241
43927.734375	-83.234917
44013.867188	-83.311562
