Frequency (Hz)	Level (dB)
43.066406	-69.194572
86.132812	-65.666626
129.199219	-63.200279
172.265625	-64.882042
215.332031	-62.832027
258.398438	-62.397820
301.464844	-64.302818
344.531250	-64.331078
387.597656	-63.086163
430.664062	-65.208153
473.730469	-63.987045
516.796875	-64.019188
559.863281	-63.926472
602.929688	-63.765812
645.996094	-62.937553
689.062500	-63.519478
732.128906	-65.068031
775.195312	-61.671173
818.261719	-61.791737
861.328125	-63.657871
904.394531	-62.728195
947.460938	-62.486919
990.527344	-62.429714
1033.593750	-63.261799
1076.660156	-61.998348
1119.726562	-61.751987
1162.792969	-60.679680
1205.859375	-61.850468
1248.925781	-60.946186
1291.992188	-60.554447
1335.058594	-59.358574
1378.125000	-59.291382
1421.191406	-58.364910
1464.257812	-58.010830
1507.324219	-56.833092
1550.390625	-56.443493
1593.457031	-55.381474
1636.523438	-54.265278
1679.589844	-53.130501
1722.656250	-51.369473
1765.722656	-49.730530
1808.789062	-47.487885
1851.855469	-44.530991
1894.921875	-40.268894
1937.988281	-30.714636
1981.054688	-30.348671
2024.121094	-39.563110
2067.187500	-37.204735
2110.253906	-38.723141
2153.320312	-45.901276
2196.386719	-48.485794
2239.453125	-50.674713
2282.519531	-52.452461
2325.585938	-53.358082
2368.652344	-53.873516
2411.718750	-54.967529
2454.785156	-56.430542
2497.851562	-56.788906
2540.917969	-56.842728
2583.984375	-58.266102
2627.050781	-58.681503
2670.117188	-58.645615
2713.183594	-60.198055
2756.250000	-59.211308
2799.316406	-59.978001
2842.382812	-60.964211
2885.449219	-60.396286
2928.515625	-61.151485
2971.582031	-61.787991
3014.648438	-62.084938
3057.714844	-61.793633
3100.781250	-61.959480
3143.847656	-62.643375
3186.914062	-63.357368
3229.980469	-63.062870
3273.046875	-63.868561
3316.113281	-63.567627
3359.179688	-63.901974
3402.246094	-63.977360
3445.312500	-63.166039
3488.378906	-65.124962
3531.445312	-64.202034
3574.511719	-64.204460
3617.578125	-64.134171
3660.644531	-64.707039
3703.710938	-65.869057
3746.777344	-65.910385
3789.843750	-65.089096
3832.910156	-65.178459
3875.976562	-66.409470
3919.042969	-65.839775
3962.109375	-66.518929
4005.175781	-67.124130
4048.242188	-66.285553
4091.308594	-67.748680
4134.375000	-65.993431
4177.441406	-65.830025
4220.507812	-67.621399
4263.574219	-65.898689
4306.640625	-66.137955
4349.707031	-66.225548
4392.773438	-66.233162
4435.839844	-65.523201
4478.906250	-63.263748
4521.972656	-60.069756
4565.039062	-53.607483
4608.105469	-54.528584
4651.171875	-60.742439
4694.238281	-64.157349
4737.304688	-66.011688
4780.371094	-65.719429
4823.437500	-68.113846
4866.503906	-66.883263
4909.570312	-64.937958
4952.636719	-54.372768
4995.703125	-63.462891
5038.769531	-66.457863
5081.835938	-69.472847
5124.902344	-69.050804
5167.968750	-68.183945
5211.035156	-67.911186
5254.101562	-68.677925
5297.167969	-68.635895
5340.234375	-68.771675
5383.300781	-69.348724
5426.367188	-68.637558
5469.433594	-68.929611
5512.500000	-69.846985
5555.566406	-68.834038
5598.632812	-67.893364
5641.699219	-69.652771
5684.765625	-69.904991
5727.832031	-70.521729
5770.898438	-70.502716
5813.964844	-71.065598
5857.031250	-69.801132
5900.097656	-68.009407
5943.164062	-69.506416
5986.230469	-70.119080
6029.296875	-69.226707
6072.363281	-69.400963
6115.429688	-69.748146
6158.496094	-68.112152
6201.562500	-66.877693
6244.628906	-60.066586
6287.695312	-69.319794
6330.761719	-69.497284
6373.828125	-68.277992
6416.894531	-70.319763
6459.960938	-70.645767
6503.027344	-69.273567
6546.093750	-69.919998
6589.160156	-70.641899
6632.226562	-70.372177
6675.292969	-71.600708
6718.359375	-70.400520
6761.425781	-72.256073
6804.492188	-70.977875
6847.558594	-72.075096
6890.625000	-73.263748
6933.691406	-72.154640
6976.757812	-70.334763
7019.824219	-71.710861
7062.890625	-72.040199
7105.957031	-70.325340
7149.023438	-70.964211
7192.089844	-72.177238
7235.156250	-73.297684
7278.222656	-72.434212
7321.289062	-72.336075
7364.355469	-72.787422
7407.421875	-73.022919
7450.488281	-72.039558
7493.554688	-72.679939
7536.621094	-73.446983
7579.687500	-73.805183
7622.753906	-74.018402
7665.820312	-73.618958
7708.886719	-74.471329
7751.953125	-75.741989
7795.019531	-74.468704
7838.085938	-73.960037
7881.152344	-74.662834
7924.218750	-76.269241
7967.285156	-73.829178
8010.351562	-74.884995
8053.417969	-75.198799
8096.484375	-74.444687
8139.550781	-75.073929
8182.617188	-75.243065
8225.683594	-75.713692
8268.750000	-75.229309
8311.816406	-75.362953
8354.882812	-75.244972
8397.949219	-75.635109
8441.015625	-75.726845
8484.082031	-75.829758
8527.148438	-75.713600
8570.214844	-75.530312
8613.281250	-75.816940
8656.347656	-75.829643
8699.414062	-75.921936
8742.480469	-76.023109
8785.546875	-76.028931
8828.613281	-76.092239
8871.679688	-76.079773
8914.746094	-76.255409
8957.812500	-76.220886
9000.878906	-76.163528
9043.945312	-76.289215
9087.011719	-76.321083
9130.078125	-76.382614
9173.144531	-76.440529
9216.210938	-76.418167
9259.277344	-76.485489
9302.343750	-76.456085
9345.410156	-76.560844
9388.476562	-76.594841
9431.542969	-76.654503
9474.609375	-76.680222
9517.675781	-76.710617
9560.742188	-76.748428
9603.808594	-76.797356
9646.875000	-76.790497
9689.941406	-76.879578
9733.007812	-76.860893
9776.074219	-76.903084
9819.140625	-76.966499
9862.207031	-76.971573
9905.273438	-77.034508
9948.339844	-77.094360
9991.406250	-77.120422
10034.472656	-77.114502
10077.539062	-77.170624
10120.605469	-77.174545
10163.671875	-77.292160
10206.738281	-77.262100
10249.804688	-77.223106
10292.871094	-77.276466
10335.937500	-77.343369
10379.003906	-77.415558
10422.070312	-77.445450
10465.136719	-77.464462
10508.203125	-77.509407
10551.269531	-77.532501
10594.335938	-77.563721
10637.402344	-77.610809
10680.468750	-77.599579
10723.535156	-77.637360
10766.601562	-77.680290
10809.667969	-77.685249
10852.734375	-77.738091
10895.800781	-77.718964
10938.867188	-77.827522
10981.933594	-77.849861
11025.000000	-77.812721
11068.066406	-77.873611
11111.132812	-77.940681
11154.199219	-77.909897
11197.265625	-77.976913
11240.332031	-77.987572
11283.398438	-78.006203
11326.464844	-78.021492
11369.531250	-78.077003
11412.597656	-78.063194
11455.664062	-78.123718
11498.730469	-78.134850
11541.796875	-78.196419
11584.863281	-78.187027
11627.929688	-78.221207
11670.996094	-78.227402
11714.062500	-78.268097
11757.128906	-78.313866
11800.195312	-78.332977
11843.261719	-78.395737
11886.328125	-78.409416
11929.394531	-78.402382
11972.460938	-78.419571
12015.527344	-78.473526
12058.593750	-78.469566
12101.660156	-78.515617
12144.726562	-78.552055
12187.792969	-78.558990
12230.859375	-78.587990
12273.925781	-78.617432
12316.992188	-78.637672
12360.058594	-78.640419
12403.125000	-78.719910
12446.191406	-78.692558
12489.257812	-78.723045
12532.324219	-78.765869
12575.390625	-78.777939
12618.457031	-78.772285
12661.523438	-78.825500
12704.589844	-78.875748
12747.656250	-78.889061
12790.722656	-78.857948
12833.789062	-78.895760
12876.855469	-78.933136
12919.921875	-78.943977
12962.988281	-78.909462
13006.054688	-79.004776
13049.121094	-79.031601
13092.187500	-79.052559
13135.253906	-79.091873
13178.320312	-79.063339
13221.386719	-79.093132
13264.453125	-79.093925
13307.519531	-79.097809
13350.585938	-79.093124
13393.652344	-79.164162
13436.718750	-79.156853
13479.785156	-79.230820
13522.851562	-79.233269
13565.917969	-79.281960
13608.984375	-79.265923
13652.050781	-79.195305
13695.117188	-79.341866
13738.183594	-79.308250
13781.250000	-79.318268
13824.316406	-79.282104
13867.382812	-79.302856
13910.449219	-79.422478
13953.515625	-79.340492
13996.582031	-79.397385
14039.648438	-79.424896
14082.714844	-79.492500
14125.781250	-79.459251
14168.847656	-79.503883
14211.914062	-79.516647
14254.980469	-79.619522
14298.046875	-79.577583
14341.113281	-79.676666
14384.179688	-79.542694
14427.246094	-79.648598
14470.312500	-79.652824
14513.378906	-79.702751
14556.445312	-79.713554
14599.511719	-79.639137
14642.578125	-79.666954
14685.644531	-79.652367
14728.710938	-79.720551
14771.777344	-79.803619
14814.843750	-79.776344
14857.910156	-79.714424
14900.976562	-79.971397
14944.042969	-79.829742
14987.109375	-79.743660
15030.175781	-79.855537
15073.242188	-79.899612
15116.308594	-79.886421
15159.375000	-79.826653
15202.441406	-79.793159
15245.507812	-79.985603
15288.574219	-79.893700
15331.640625	-79.840637
15374.707031	-80.009514
15417.773438	-79.777924
15460.839844	-80.159233
15503.906250	-80.017792
15546.972656	-79.928604
15590.039062	-79.951332
15633.105469	-80.009293
15676.171875	-80.068336
15719.238281	-80.151649
15762.304688	-80.107475
15805.371094	-80.246201
15848.437500	-80.301041
15891.503906	-80.173119
15934.570312	-80.006531
15977.636719	-80.058197
16020.703125	-80.056847
16063.769531	-80.090027
16106.835938	-80.201004
16149.902344	-80.379723
16192.968750	-80.110229
16236.035156	-80.280884
16279.101562	-80.212059
16322.167969	-80.559280
16365.234375	-80.045013
16408.300781	-80.264084
16451.367188	-80.192856
16494.433594	-80.513931
16537.500000	-80.489655
16580.566406	-80.363266
16623.632812	-80.258591
16666.699219	-80.302902
16709.765625	-80.286293
16752.832031	-80.372482
16795.898438	-80.095695
16838.964844	-80.515617
16882.031250	-80.534973
16925.097656	-80.275261
16968.164062	-80.711151
17011.230469	-80.391472
17054.296875	-80.310730
17097.363281	-80.084183
17140.429688	-80.454254
17183.496094	-80.161537
17226.562500	-80.560837
17269.628906	-80.685181
17312.695312	-80.444237
17355.761719	-80.167610
17398.828125	-80.475014
17441.894531	-80.445038
17484.960938	-80.583687
17528.027344	-80.421951
17571.093750	-80.340820
17614.160156	-80.319183
17657.226562	-80.398033
17700.292969	-80.451675
17743.359375	-80.532341
17786.425781	-80.318390
17829.492188	-80.277092
17872.558594	-80.590317
17915.625000	-80.390106
17958.691406	-80.558739
18001.757812	-80.264450
18044.824219	-80.419296
18087.890625	-80.903076
18130.957031	-80.768585
18174.023438	-80.536758
18217.089844	-80.869942
18260.156250	-80.687607
18303.222656	-80.572205
18346.289062	-80.844818
18389.355469	-80.508606
18432.421875	-80.675240
18475.488281	-81.222351
18518.554688	-80.085022
18561.621094	-80.297882
18604.687500	-80.667351
18647.753906	-80.408195
18690.820312	-80.393303
18733.886719	-80.792862
18776.953125	-80.702576
18820.019531	-80.551743
18863.085938	-80.103310
18906.152344	-80.488945
18949.218750	-80.603630
18992.285156	-81.106224
19035.351562	-80.495338
19078.417969	-81.106491
19121.484375	-80.571342
19164.550781	-80.681175
19207.617188	-80.754517
19250.683594	-80.938393
19293.750000	-80.671432
19336.816406	-81.084053
19379.882812	-80.935516
19422.949219	-80.657211
19466.015625	-80.572876
19509.082031	-81.048500
19552.148438	-81.074104
19595.214844	-80.761787
19638.281250	-80.839951
19681.347656	-80.555008
19724.414062	-80.775772
19767.480469	-80.425827
19810.546875	-80.638245
19853.613281	-81.549072
19896.679688	-80.884338
19939.746094	-81.344864
19982.812500	-80.885681
20025.878906	-80.798546
20068.945312	-80.706604
20112.011719	-81.110306
20155.078125	-80.207237
20198.144531	-80.440147
20241.210938	-81.224251
20284.277344	-80.803596
20327.343750	-80.835426
20370.410156	-80.400162
20413.476562	-80.838242
20456.542969	-80.885254
20499.609375	-80.852867
20542.675781	-80.087349
20585.742188	-80.798813
20628.808594	-80.624924
20671.875000	-81.041992
20714.941406	-80.675667
20758.007812	-80.676865
20801.074219	-80.946541
20844.140625	-80.708244
20887.207031	-80.667511
20930.273438	-81.290833
20973.339844	-80.202522
21016.406250	-81.538086
21059.472656	-80.765236
21102.539062	-80.418785
21145.605469	-80.903526
21188.671875	-80.361183
21231.738281	-80.317963
21274.804688	-80.657875
21317.871094	-80.785835
21360.937500	-80.324745
21404.003906	-80.914398
21447.070312	-80.729111
21490.136719	-81.034370
21533.203125	-80.778610
21576.269531	-80.837616
21619.335938	-80.591515
21662.402344	-80.807442
21705.468750	-80.744438
21748.535156	-81.358093
21791.601562	-80.256874
21834.667969	-80.624474
21877.734375	-81.214256
21920.800781	-80.969200
21963.867188	-80.871315
22006.933594	-80.923965
