Frequency (Hz)	Level (dB)
43.066406	-48.227264
86.132812	-54.519295
129.199219	-54.297405
172.265625	-59.786224
215.332031	-54.862022
258.398438	-60.430164
301.464844	-63.912827
344.531250	-64.232697
387.597656	-64.477791
430.664062	-64.354149
473.730469	-65.599548
516.796875	-65.043655
559.863281	-64.648506
602.929688	-65.583427
645.996094	-64.405197
689.062500	-64.547478
732.128906	-63.762165
775.195312	-64.089508
818.261719	-63.026802
861.328125	-63.394547
904.394531	-62.788311
947.460938	-63.560673
990.527344	-62.177773
1033.593750	-60.975849
1076.660156	-60.987164
1119.726562	-62.682087
1162.792969	-61.600590
1205.859375	-60.110550
1248.925781	-61.094090
1291.992188	-61.568104
1335.058594	-61.247505
1378.125000	-60.339691
1421.191406	-58.957287
1464.257812	-58.348179
1507.324219	-59.434155
1550.390625	-58.220356
1593.457031	-57.580620
1636.523438	-57.639198
1679.589844	-57.756866
1722.656250	-56.974258
1765.722656	-55.988750
1808.789062	-54.646099
1851.855469	-54.906578
1894.921875	-54.596989
1937.988281	-52.993389
1981.054688	-51.567688
2024.121094	-50.254684
2067.187500	-49.962612
2110.253906	-47.920998
2153.320312	-45.593693
2196.386719	-43.749458
2239.453125	-40.753815
2282.519531	-36.191319
2325.585938	-24.533819
2368.652344	-27.072371
2411.718750	-35.994583
2454.785156	-38.769295
2497.851562	-34.547668
2540.917969	-43.765167
2583.984375	-50.755844
2627.050781	-50.559475
2670.117188	-52.950199
2713.183594	-52.296791
2756.250000	-53.851818
2799.316406	-54.711102
2842.382812	-55.106674
2885.449219	-54.678535
2928.515625	-55.567509
2971.582031	-56.480362
3014.648438	-56.854820
3057.714844	-59.269928
3100.781250	-60.138954
3143.847656	-59.083801
3186.914062	-60.165554
3229.980469	-60.080086
3273.046875	-60.653435
3316.113281	-61.211269
3359.179688	-60.836613
3402.246094	-62.143688
3445.312500	-62.142124
3488.378906	-63.865814
3531.445312	-63.881298
3574.511719	-64.971313
3617.578125	-64.834221
3660.644531	-57.580215
3703.710938	-60.881405
3746.777344	-62.975739
3789.843750	-62.358288
3832.910156	-60.792171
3875.976562	-62.808254
3919.042969	-65.308372
3962.109375	-63.676689
4005.175781	-61.965672
4048.242188	-63.283592
4091.308594	-65.155090
4134.375000	-63.608185
4177.441406	-64.033432
4220.507812	-64.296387
4263.574219	-65.933960
4306.640625	-66.290611
4349.707031	-66.298798
4392.773438	-66.241875
4435.839844	-65.823013
4478.906250	-66.199150
4521.972656	-65.898148
4565.039062	-60.884750
4608.105469	-57.864643
4651.171875	-56.162460
4694.238281	-61.524502
4737.304688	-63.703941
4780.371094	-55.033424
4823.437500	-63.360535
4866.503906	-66.628906
4909.570312	-67.397018
4952.636719	-67.257561
4995.703125	-66.127861
5038.769531	-65.439865
5081.835938	-66.334534
5124.902344	-64.010201
5167.968750	-64.775780
5211.035156	-64.851028
5254.101562	-67.562920
5297.167969	-67.097343
5340.234375	-67.075401
5383.300781	-68.074066
5426.367188	-68.271500
5469.433594	-70.305138
5512.500000	-65.114014
5555.566406	-63.647923
5598.632812	-65.057739
5641.699219	-68.303917
5684.765625	-68.514229
5727.832031	-68.731247
5770.898438	-67.377953
5813.964844	-65.978928
5857.031250	-69.217270
5900.097656	-67.447906
5943.164062	-64.040878
5986.230469	-64.133522
6029.296875	-67.047844
6072.363281	-66.356781
6115.429688	-62.377281
6158.496094	-60.361042
6201.562500	-46.617691
6244.628906	-51.225063
6287.695312	-55.794819
6330.761719	-57.749287
6373.828125	-59.043949
6416.894531	-57.913155
6459.960938	-54.184116
6503.027344	-52.422935
6546.093750	-57.163212
6589.160156	-53.972591
6632.226562	-45.608894
6675.292969	-42.825630
6718.359375	-53.028355
6761.425781	-61.728634
6804.492188	-64.756577
6847.558594	-60.919212
6890.625000	-59.270775
6933.691406	-60.056499
6976.757812	-64.709190
7019.824219	-64.139702
7062.890625	-62.583313
7105.957031	-62.102100
7149.023438	-64.062943
7192.089844	-64.909348
7235.156250	-63.006508
7278.222656	-58.883411
7321.289062	-55.965855
7364.355469	-48.869473
7407.421875	-57.600655
7450.488281	-54.748131
7493.554688	-49.162621
7536.621094	-39.424812
7579.687500	-35.833454
7622.753906	-48.003803
7665.820312	-52.107113
7708.886719	-52.930908
7751.953125	-56.092003
7795.019531	-59.015057
7838.085938	-61.083023
7881.152344	-61.172733
7924.218750	-60.879223
7967.285156	-62.129963
8010.351562	-64.130234
8053.417969	-64.735016
8096.484375	-64.964523
8139.550781	-64.846962
8182.617188	-65.291389
8225.683594	-66.491142
8268.750000	-66.593788
8311.816406	-66.587585
8354.882812	-66.832703
8397.949219	-67.568054
8441.015625	-68.149162
8484.082031	-67.956795
8527.148438	-68.026489
8570.214844	-68.560333
8613.281250	-69.210129
8656.347656	-69.460197
8699.414062	-69.220840
8742.480469	-69.006699
8785.546875	-69.262352
8828.613281	-69.907112
8871.679688	-70.349380
8914.746094	-70.205727
8957.812500	-60.466900
9000.878906	-66.611603
9043.945312	-70.979553
9087.011719	-71.121376
9130.078125	-71.183830
9173.144531	-71.548050
9216.210938	-71.714844
9259.277344	-71.689163
9302.343750	-71.763802
9345.410156	-72.019051
9388.476562	-72.227211
9431.542969	-72.263481
9474.609375	-72.249413
9517.675781	-72.322121
9560.742188	-72.560158
9603.808594	-72.743034
9646.875000	-72.759171
9689.941406	-72.825577
9733.007812	-72.979576
9776.074219	-73.117592
9819.140625	-73.139832
9862.207031	-73.204620
9905.273438	-73.301315
9948.339844	-73.363205
9991.406250	-73.449654
10034.472656	-73.561707
10077.539062	-73.546753
10120.605469	-73.685570
10163.671875	-73.736961
10206.738281	-73.669563
10249.804688	-73.850357
10292.871094	-73.940193
10335.937500	-73.815681
10379.003906	-73.926750
10422.070312	-74.184296
10465.136719	-74.243584
10508.203125	-74.216713
10551.269531	-74.294205
10594.335938	-74.376648
10637.402344	-74.484436
10680.468750	-74.560577
10723.535156	-74.511223
10766.601562	-74.504692
10809.667969	-74.650429
10852.734375	-74.796814
10895.800781	-74.839241
10938.867188	-74.859039
10981.933594	-74.871887
11025.000000	-74.879890
11068.066406	-74.978798
11111.132812	-75.083626
11154.199219	-74.946503
11197.265625	-74.814133
11240.332031	-74.973175
11283.398438	-75.157555
11326.464844	-75.022079
11369.531250	-74.855705
11412.597656	-74.969070
11455.664062	-75.434456
11498.730469	-74.752548
11541.796875	-74.730217
11584.863281	-74.523621
11627.929688	-74.684975
11670.996094	-74.661880
11714.062500	-73.861710
11757.128906	-73.044151
11800.195312	-68.713257
11843.261719	-55.550854
11886.328125	-61.853397
11929.394531	-68.816376
11972.460938	-71.678391
12015.527344	-73.210434
12058.593750	-73.251045
12101.660156	-74.071831
12144.726562	-74.433838
12187.792969	-74.760628
12230.859375	-74.845779
12273.925781	-73.103691
12316.992188	-74.190407
12360.058594	-77.578598
12403.125000	-76.257698
12446.191406	-76.441238
12489.257812	-73.672211
12532.324219	-75.637611
12575.390625	-75.859108
12618.457031	-75.964287
12661.523438	-75.655815
12704.589844	-75.852554
12747.656250	-76.186356
12790.722656	-76.103615
12833.789062	-76.108284
12876.855469	-76.152298
12919.921875	-76.313248
12962.988281	-76.367775
13006.054688	-76.297287
13049.121094	-76.372345
13092.187500	-76.381706
13135.253906	-76.484749
13178.320312	-76.505287
13221.386719	-76.541473
13264.453125	-76.510475
13307.519531	-76.588989
13350.585938	-76.638748
13393.652344	-76.651131
13436.718750	-76.587410
13479.785156	-76.676529
13522.851562	-76.749870
13565.917969	-76.762505
13608.984375	-76.717545
13652.050781	-76.730553
13695.117188	-78.018837
13738.183594	-76.748917
13781.250000	-77.009048
13824.316406	-77.010201
13867.382812	-76.922684
13910.449219	-77.031799
13953.515625	-77.055542
13996.582031	-77.056046
14039.648438	-77.109436
14082.714844	-77.118317
14125.781250	-77.092102
14168.847656	-77.230042
14211.914062	-77.167480
14254.980469	-77.224846
14298.046875	-77.281845
14341.113281	-77.175499
14384.179688	-77.263359
14427.246094	-77.326897
14470.312500	-77.256058
14513.378906	-77.054390
14556.445312	-76.621010
14599.511719	-77.635696
14642.578125	-77.924416
14685.644531	-77.334908
14728.710938	-78.162544
14771.777344	-77.602570
14814.843750	-77.406517
14857.910156	-77.413429
14900.976562	-77.556801
14944.042969	-77.667305
14987.109375	-77.575890
15030.175781	-77.662621
15073.242188	-77.707565
15116.308594	-77.770447
15159.375000	-77.838356
15202.441406	-77.888695
15245.507812	-77.801582
15288.574219	-77.921562
15331.640625	-78.002785
15374.707031	-78.438835
15417.773438	-78.099792
15460.839844	-77.276779
15503.906250	-77.724953
15546.972656	-77.773766
15590.039062	-77.730995
15633.105469	-77.927452
15676.171875	-77.868774
15719.238281	-77.886887
15762.304688	-77.919418
15805.371094	-77.646988
15848.437500	-77.478569
15891.503906	-78.190506
15934.570312	-78.148026
15977.636719	-78.138245
16020.703125	-77.973648
16063.769531	-78.048225
16106.835938	-77.937569
16149.902344	-78.012856
16192.968750	-78.123329
16236.035156	-78.141777
16279.101562	-78.124939
16322.167969	-78.224098
16365.234375	-78.116196
16408.300781	-78.162384
16451.367188	-78.236122
16494.433594	-78.176704
16537.500000	-78.265640
16580.566406	-78.218575
16623.632812	-78.172729
16666.699219	-78.301292
16709.765625	-78.260117
16752.832031	-78.291748
16795.898438	-78.243111
16838.964844	-78.353432
16882.031250	-78.350204
16925.097656	-78.426163
16968.164062	-78.351837
17011.230469	-78.471695
17054.296875	-78.431480
17097.363281	-78.430588
17140.429688	-78.414543
17183.496094	-78.384064
17226.562500	-78.384041
17269.628906	-78.511353
17312.695312	-78.373444
17355.761719	-78.436546
17398.828125	-78.390671
17441.894531	-78.494499
17484.960938	-78.422005
17528.027344	-78.489922
17571.093750	-78.553299
17614.160156	-78.540245
17657.226562	-78.449776
17700.292969	-78.563194
17743.359375	-78.573471
17786.425781	-78.606247
17829.492188	-78.613739
17872.558594	-78.591949
17915.625000	-78.547554
17958.691406	-78.583221
18001.757812	-78.619278
18044.824219	-78.599831
18087.890625	-78.639877
18130.957031	-78.733917
18174.023438	-78.687958
18217.089844	-78.631363
18260.156250	-78.677475
18303.222656	-78.634766
18346.289062	-78.736649
18389.355469	-78.651016
18432.421875	-78.681725
18475.488281	-78.745018
18518.554688	-78.790871
18561.621094	-78.717422
18604.687500	-78.680328
18647.753906	-78.645126
18690.820312	-78.835220
18733.886719	-78.656067
18776.953125	-78.848465
18820.019531	-78.699936
18863.085938	-78.832191
18906.152344	-78.785522
18949.218750	-78.898239
18992.285156	-78.778267
19035.351562	-78.795227
19078.417969	-78.877968
19121.484375	-78.885315
19164.550781	-78.897461
19207.617188	-78.847931
19250.683594	-78.935432
19293.750000	-79.058250
19336.816406	-78.839172
19379.882812	-78.996689
19422.949219	-78.944939
19466.015625	-78.944656
19509.082031	-79.023941
19552.148438	-78.836731
19595.214844	-78.910248
19638.281250	-78.992546
19681.347656	-78.904427
19724.414062	-78.951637
19767.480469	-78.924881
19810.546875	-78.758278
19853.613281	-79.021622
19896.679688	-78.939407
19939.746094	-78.948730
19982.812500	-78.940491
20025.878906	-78.913048
20068.945312	-79.101540
20112.011719	-79.056335
20155.078125	-78.916115
20198.144531	-79.080841
20241.210938	-79.060898
20284.277344	-78.998894
20327.343750	-79.040092
20370.410156	-78.972801
20413.476562	-79.067520
20456.542969	-79.165627
20499.609375	-79.045860
20542.675781	-79.048813
20585.742188	-79.097183
20628.808594	-79.091553
20671.875000	-78.922508
20714.941406	-78.915253
20758.007812	-79.083618
20801.074219	-78.867432
20844.140625	-79.148521
20887.207031	-79.028816
20930.273438	-79.203896
20973.339844	-79.063354
21016.406250	-79.019127
21059.472656	-79.020241
21102.539062	-79.291100
21145.605469	-79.093918
21188.671875	-78.760368
21231.738281	-78.967941
21274.804688	-79.039650
21317.871094	-79.010406
21360.937500	-79.078911
21404.003906	-79.190018
21447.070312	-79.113708
21490.136719	-79.160896
21533.203125	-79.131676
21576.269531	-79.028580
21619.335938	-78.942795
21662.402344	-78.988182
21705.468750	-79.102516
21748.535156	-79.108215
21791.601562	-78.875397
21834.667969	-79.135620
21877.734375	-79.145363
21920.800781	-79.158295
21963.867188	-79.205284
22006.933594	-79.031281
