Frequency (Hz)	Level (dB)
43.066406	-51.703041
86.132812	-60.467049
129.199219	-63.531933
172.265625	-63.381504
215.332031	-65.227425
258.398438	-69.182167
301.464844	-69.912933
344.531250	-69.579773
387.597656	-70.487503
430.664062	-68.823090
473.730469	-69.922813
516.796875	-69.299232
559.863281	-69.534866
602.929688	-69.319031
645.996094	-69.013023
689.062500	-68.518242
732.128906	-68.772415
775.195312	-68.648949
818.261719	-68.097824
861.328125	-67.950829
904.394531	-67.695694
947.460938	-67.140976
990.527344	-67.303505
1033.593750	-66.713509
1076.660156	-66.804260
1119.726562	-66.858536
1162.792969	-67.447044
1205.859375	-65.647079
1248.925781	-66.237289
1291.992188	-65.121429
1335.058594	-65.223473
1378.125000	-63.464676
1421.191406	-64.368484
1464.257812	-62.565163
1507.324219	-63.901379
1550.390625	-62.101658
1593.457031	-61.917019
1636.523438	-61.005974
1679.589844	-60.601215
1722.656250	-58.505344
1765.722656	-58.016254
1808.789062	-55.876133
1851.855469	-53.676575
1894.921875	-51.731232
1937.988281	-44.055595
1981.054688	-42.694393
2024.121094	-42.685402
2067.187500	-34.177708
2110.253906	-36.569267
2153.320312	-45.841812
2196.386719	-49.488178
2239.453125	-52.961121
2282.519531	-54.289101
2325.585938	-56.968941
2368.652344	-56.403507
2411.718750	-59.305500
2454.785156	-58.568962
2497.851562	-60.404354
2540.917969	-60.794418
2583.984375	-62.200172
2627.050781	-62.135239
2670.117188	-63.256847
2713.183594	-63.835079
2756.250000	-63.770802
2799.316406	-66.012909
2842.382812	-65.797783
2885.449219	-65.778130
2928.515625	-64.025375
2971.582031	-65.805977
3014.648438	-63.796135
3057.714844	-65.650505
3100.781250	-60.272484
3143.847656	-62.610752
3186.914062	-66.175308
3229.980469	-67.154732
3273.046875	-68.630806
3316.113281	-69.154068
3359.179688	-68.247040
3402.246094	-66.421822
3445.312500	-67.950874
3488.378906	-66.991989
3531.445312	-68.444359
3574.511719	-67.646637
3617.578125	-66.492249
3660.644531	-66.867805
3703.710938	-68.276512
3746.777344	-68.199677
3789.843750	-69.980209
3832.910156	-70.511971
3875.976562	-67.704475
3919.042969	-68.273048
3962.109375	-65.789078
4005.175781	-68.268478
4048.242188	-65.017876
4091.308594	-71.485596
4134.375000	-69.013321
4177.441406	-71.143044
4220.507812	-66.732208
4263.574219	-70.212608
4306.640625	-67.559875
4349.707031	-67.415916
4392.773438	-64.991226
4435.839844	-63.023739
4478.906250	-62.188244
4521.972656	-54.913422
4565.039062	-44.331497
4608.105469	-47.042603
4651.171875	-55.696365
4694.238281	-58.697487
4737.304688	-59.841389
4780.371094	-62.139168
4823.437500	-64.400200
4866.503906	-60.138580
4909.570312	-54.238056
4952.636719	-48.603001
4995.703125	-60.639339
5038.769531	-61.833332
5081.835938	-66.024345
5124.902344	-63.572296
5167.968750	-65.535698
5211.035156	-68.331123
5254.101562	-65.348038
5297.167969	-68.453407
5340.234375	-65.166756
5383.300781	-65.889542
5426.367188	-61.461933
5469.433594	-59.049744
5512.500000	-56.875687
5555.566406	-49.596851
5598.632812	-36.786114
5641.699219	-47.933601
5684.765625	-59.684677
5727.832031	-58.412128
5770.898438	-62.507313
5813.964844	-62.690201
5857.031250	-64.419945
5900.097656	-68.082062
5943.164062	-68.863892
5986.230469	-70.638641
6029.296875	-67.184067
6072.363281	-73.250671
6115.429688	-70.708740
6158.496094	-66.773140
6201.562500	-62.348286
6244.628906	-58.210442
6287.695312	-66.756119
6330.761719	-67.042961
6373.828125	-67.749214
6416.894531	-67.404755
6459.960938	-70.637466
6503.027344	-73.636940
6546.093750	-69.520340
6589.160156	-68.327415
6632.226562	-69.757027
6675.292969	-73.257050
6718.359375	-74.345917
6761.425781	-74.194054
6804.492188	-75.351234
6847.558594	-77.354691
6890.625000	-75.262833
6933.691406	-78.183563
6976.757812	-78.536102
7019.824219	-76.914780
7062.890625	-77.839333
7105.957031	-79.188591
7149.023438	-78.120132
7192.089844	-78.101578
7235.156250	-77.762138
7278.222656	-76.296478
7321.289062	-76.839821
7364.355469	-77.688293
7407.421875	-75.160484
7450.488281	-73.830772
7493.554688	-69.235748
7536.621094	-62.738674
7579.687500	-52.418919
7622.753906	-58.096664
7665.820312	-68.570152
7708.886719	-68.243599
7751.953125	-71.878151
7795.019531	-72.552887
7838.085938	-74.741554
7881.152344	-76.159019
7924.218750	-73.426285
7967.285156	-71.815887
8010.351562	-65.773544
8053.417969	-70.024544
8096.484375	-74.014328
8139.550781	-76.072136
8182.617188	-77.217453
8225.683594	-76.290779
8268.750000	-75.994698
8311.816406	-78.085350
8354.882812	-77.619591
8397.949219	-79.491158
8441.015625	-79.421822
8484.082031	-80.745087
8527.148438	-80.277596
8570.214844	-80.397392
8613.281250	-80.646362
8656.347656	-80.049797
8699.414062	-81.117210
8742.480469	-76.812111
8785.546875	-70.454239
8828.613281	-74.371300
8871.679688	-77.944626
8914.746094	-81.815933
8957.812500	-81.829964
9000.878906	-81.065102
9043.945312	-81.293663
9087.011719	-81.185120
9130.078125	-80.930145
9173.144531	-81.147530
9216.210938	-80.434647
9259.277344	-81.161995
9302.343750	-80.744926
9345.410156	-80.523201
9388.476562	-79.011734
9431.542969	-78.937737
9474.609375	-76.059509
9517.675781	-71.860535
9560.742188	-72.640106
9603.808594	-76.795982
9646.875000	-80.082809
9689.941406	-80.103134
9733.007812	-78.595818
9776.074219	-81.088593
9819.140625	-81.526192
9862.207031	-81.387299
9905.273438	-82.320778
9948.339844	-82.805038
9991.406250	-82.581604
10034.472656	-82.427277
10077.539062	-82.516418
10120.605469	-82.927078
10163.671875	-82.208344
10206.738281	-82.230186
10249.804688	-80.886909
10292.871094	-82.469246
10335.937500	-82.954216
10379.003906	-82.821617
10422.070312	-82.204018
10465.136719	-81.760399
10508.203125	-81.336128
10551.269531	-80.972557
10594.335938	-82.435356
10637.402344	-79.253143
10680.468750	-79.497375
10723.535156	-74.757698
10766.601562	-72.238945
10809.667969	-62.388157
10852.734375	-59.816792
10895.800781	-68.941513
10938.867188	-74.250038
10981.933594	-76.086212
11025.000000	-77.321465
11068.066406	-78.750992
11111.132812	-79.667740
11154.199219	-80.788696
11197.265625	-81.427544
11240.332031	-82.410248
11283.398438	-80.739731
11326.464844	-82.390083
11369.531250	-81.353935
11412.597656	-82.672745
11455.664062	-83.018044
11498.730469	-82.973701
11541.796875	-82.729561
11584.863281	-83.067444
11627.929688	-82.668327
11670.996094	-81.537338
11714.062500	-81.384361
11757.128906	-80.610085
11800.195312	-80.975822
11843.261719	-74.855713
11886.328125	-79.028755
11929.394531	-82.639343
11972.460938	-83.520691
12015.527344	-83.454353
12058.593750	-82.817162
12101.660156	-81.282280
12144.726562	-83.883652
12187.792969	-84.548920
12230.859375	-83.545433
12273.925781	-84.099541
12316.992188	-83.703568
12360.058594	-85.012718
12403.125000	-83.588913
12446.191406	-84.790436
12489.257812	-84.140060
12532.324219	-82.667908
12575.390625	-78.728500
12618.457031	-78.488953
12661.523438	-82.442657
12704.589844	-84.913132
12747.656250	-85.125282
12790.722656	-85.149712
12833.789062	-86.488754
12876.855469	-84.949295
12919.921875	-84.261543
12962.988281	-83.710793
13006.054688	-84.922157
13049.121094	-83.978348
13092.187500	-84.862267
13135.253906	-85.032410
13178.320312	-83.883751
13221.386719	-84.121773
13264.453125	-79.525536
13307.519531	-80.902390
13350.585938	-81.603767
13393.652344	-81.372696
13436.718750	-80.617752
13479.785156	-77.854309
13522.851562	-77.836723
13565.917969	-81.711334
13608.984375	-75.160744
13652.050781	-77.108505
13695.117188	-82.560593
13738.183594	-83.909470
13781.250000	-83.129906
13824.316406	-83.427933
13867.382812	-84.314331
13910.449219	-84.960403
13953.515625	-84.464302
13996.582031	-84.865112
14039.648438	-85.317764
14082.714844	-84.406792
14125.781250	-85.646507
14168.847656	-82.877106
14211.914062	-80.443283
14254.980469	-85.060745
14298.046875	-86.386574
14341.113281	-84.146400
14384.179688	-83.493202
14427.246094	-85.189293
14470.312500	-84.096481
14513.378906	-77.769295
14556.445312	-71.340530
14599.511719	-76.814606
14642.578125	-83.446930
14685.644531	-83.313492
14728.710938	-86.019592
14771.777344	-85.779457
14814.843750	-86.270226
14857.910156	-86.269356
14900.976562	-86.275055
14944.042969	-84.885391
14987.109375	-86.193939
15030.175781	-86.725304
15073.242188	-86.715683
15116.308594	-87.106689
15159.375000	-86.262352
15202.441406	-87.431458
15245.507812	-86.560852
15288.574219	-87.216812
15331.640625	-86.672691
15374.707031	-87.033028
15417.773438	-86.549263
15460.839844	-87.377983
15503.906250	-86.564201
15546.972656	-87.314659
15590.039062	-86.728683
15633.105469	-87.489403
15676.171875	-86.693115
15719.238281	-87.313843
15762.304688	-85.998795
15805.371094	-87.321518
15848.437500	-86.193565
15891.503906	-85.954491
15934.570312	-87.663391
15977.636719	-87.102020
16020.703125	-87.729851
16063.769531	-88.155472
16106.835938	-88.013000
16149.902344	-87.820023
16192.968750	-87.873634
16236.035156	-87.834793
16279.101562	-87.679092
16322.167969	-87.647507
16365.234375	-87.802879
16408.300781	-87.914406
16451.367188	-87.999763
16494.433594	-87.719330
16537.500000	-87.846626
16580.566406	-87.853729
16623.632812	-88.025726
16666.699219	-87.932419
16709.765625	-88.148857
16752.832031	-87.973511
16795.898438	-88.052849
16838.964844	-87.984741
16882.031250	-87.964745
16925.097656	-87.967598
16968.164062	-87.796005
17011.230469	-88.041275
17054.296875	-87.863258
17097.363281	-88.095840
17140.429688	-88.166451
17183.496094	-88.049232
17226.562500	-88.212158
17269.628906	-87.765358
17312.695312	-88.196808
17355.761719	-87.830978
17398.828125	-87.950371
17441.894531	-87.804031
17484.960938	-88.042336
17528.027344	-88.124557
17571.093750	-87.890289
17614.160156	-88.019157
17657.226562	-88.380539
17700.292969	-88.192162
17743.359375	-88.259644
17786.425781	-88.188705
17829.492188	-88.126740
17872.558594	-87.986343
17915.625000	-88.203773
17958.691406	-88.389473
18001.757812	-88.413147
18044.824219	-88.213631
18087.890625	-88.304237
18130.957031	-88.087578
18174.023438	-88.151680
18217.089844	-88.209259
18260.156250	-88.272949
18303.222656	-88.176140
18346.289062	-88.396919
18389.355469	-88.225624
18432.421875	-88.147507
18475.488281	-88.060799
18518.554688	-88.360123
18561.621094	-88.125137
18604.687500	-88.298218
18647.753906	-88.400833
18690.820312	-88.116386
18733.886719	-88.029030
18776.953125	-88.858742
18820.019531	-88.088524
18863.085938	-88.333359
18906.152344	-88.436516
18949.218750	-88.462349
18992.285156	-88.387253
19035.351562	-88.378578
19078.417969	-88.049446
19121.484375	-88.313934
19164.550781	-88.536964
19207.617188	-88.668045
19250.683594	-88.345886
19293.750000	-88.189789
19336.816406	-88.621132
19379.882812	-88.170197
19422.949219	-88.205025
19466.015625	-87.982857
19509.082031	-88.294678
19552.148438	-88.589905
19595.214844	-88.349014
19638.281250	-88.864517
19681.347656	-88.433891
19724.414062	-88.197433
19767.480469	-88.488174
19810.546875	-88.061401
19853.613281	-88.184044
19896.679688	-87.891609
19939.746094	-88.185242
19982.812500	-88.381966
20025.878906	-88.118660
20068.945312	-88.379509
20112.011719	-88.568626
20155.078125	-88.389717
20198.144531	-88.437416
20241.210938	-88.494698
20284.277344	-88.454330
20327.343750	-88.184113
20370.410156	-88.303619
20413.476562	-88.251617
20456.542969	-88.784843
20499.609375	-88.822052
20542.675781	-88.613937
20585.742188	-88.153488
20628.808594	-88.210625
20671.875000	-88.410332
20714.941406	-88.375038
20758.007812	-88.881355
20801.074219	-88.195198
20844.140625	-88.977364
20887.207031	-88.469406
20930.273438	-88.603828
20973.339844	-88.427444
21016.406250	-88.539383
21059.472656	-88.378258
21102.539062	-88.424316
21145.605469	-88.873070
21188.671875	-88.245087
21231.738281	-88.139198
21274.804688	-88.139824
21317.871094	-88.263054
21360.937500	-88.837494
21404.003906	-88.874748
21447.070312	-88.319557
21490.136719	-88.319054
21533.203125	-88.371117
21576.269531	-88.341347
21619.335938	-88.506767
21662.402344	-88.679306
21705.468750	-88.664940
21748.535156	-88.442520
21791.601562	-88.929993
21834.667969	-88.298927
21877.734375	-88.726456
21920.800781	-88.213203
21963.867188	-88.257515
22006.933594	-88.617989
