Frequency (Hz)	Level (dB)
43.066406	-53.500065
86.132812	-54.543823
129.199219	-59.495323
172.265625	-60.895844
215.332031	-61.785549
258.398438	-60.429535
301.464844	-62.656784
344.531250	-62.256779
387.597656	-63.106411
430.664062	-62.084614
473.730469	-62.958191
516.796875	-63.318680
559.863281	-62.905098
602.929688	-61.365540
645.996094	-59.819839
689.062500	-59.791050
732.128906	-60.666058
775.195312	-60.082203
818.261719	-59.215504
861.328125	-59.324234
904.394531	-60.701366
947.460938	-61.468414
990.527344	-58.363522
1033.593750	-57.853912
1076.660156	-60.019672
1119.726562	-59.445564
1162.792969	-59.051952
1205.859375	-57.064102
1248.925781	-57.182423
1291.992188	-57.583847
1335.058594	-56.609108
1378.125000	-56.967106
1421.191406	-54.950485
1464.257812	-54.071396
1507.324219	-54.314098
1550.390625	-55.557686
1593.457031	-53.997120
1636.523438	-52.894020
1679.589844	-52.151157
1722.656250	-52.227524
1765.722656	-50.607826
1808.789062	-47.667385
1851.855469	-46.076366
1894.921875	-41.428139
1937.988281	-32.807899
1981.054688	-32.348885
2024.121094	-34.996967
2067.187500	-27.797443
2110.253906	-30.412657
2153.320312	-38.952698
2196.386719	-43.898972
2239.453125	-46.092384
2282.519531	-47.736271
2325.585938	-50.301689
2368.652344	-49.909718
2411.718750	-50.709190
2454.785156	-51.986668
2497.851562	-52.562775
2540.917969	-51.313946
2583.984375	-52.365601
2627.050781	-53.471127
2670.117188	-56.491741
2713.183594	-57.960876
2756.250000	-57.286133
2799.316406	-55.874115
2842.382812	-57.107880
2885.449219	-59.349613
2928.515625	-55.765289
2971.582031	-55.570656
3014.648438	-56.902370
3057.714844	-54.178730
3100.781250	-49.545040
3143.847656	-50.427586
3186.914062	-56.414940
3229.980469	-59.420853
3273.046875	-59.611721
3316.113281	-60.483234
3359.179688	-58.732079
3402.246094	-57.666862
3445.312500	-59.721508
3488.378906	-61.642181
3531.445312	-60.751595
3574.511719	-59.802952
3617.578125	-57.790897
3660.644531	-59.607887
3703.710938	-60.348644
3746.777344	-56.875137
3789.843750	-56.430130
3832.910156	-60.414162
3875.976562	-60.051922
3919.042969	-57.156670
3962.109375	-59.337547
4005.175781	-57.474720
4048.242188	-56.503090
4091.308594	-57.179577
4134.375000	-59.733643
4177.441406	-56.654026
4220.507812	-56.194942
4263.574219	-56.224277
4306.640625	-55.171795
4349.707031	-54.836315
4392.773438	-54.729244
4435.839844	-50.738720
4478.906250	-47.205986
4521.972656	-46.162960
4565.039062	-34.832592
4608.105469	-37.908539
4651.171875	-45.806019
4694.238281	-49.862019
4737.304688	-50.618877
4780.371094	-52.337769
4823.437500	-49.578617
4866.503906	-48.946976
4909.570312	-45.309914
4952.636719	-39.533428
4995.703125	-48.925323
5038.769531	-50.934326
5081.835938	-53.605598
5124.902344	-54.339851
5167.968750	-56.825207
5211.035156	-55.038929
5254.101562	-52.420338
5297.167969	-52.509556
5340.234375	-53.750282
5383.300781	-51.317005
5426.367188	-48.601562
5469.433594	-45.452282
5512.500000	-38.557178
5555.566406	-35.336403
5598.632812	-23.047184
5641.699219	-32.532055
5684.765625	-37.600155
5727.832031	-43.366077
5770.898438	-47.123627
5813.964844	-47.983967
5857.031250	-52.283592
5900.097656	-51.562950
5943.164062	-51.365143
5986.230469	-52.877407
6029.296875	-55.873238
6072.363281	-55.037834
6115.429688	-57.253529
6158.496094	-54.463848
6201.562500	-50.068104
6244.628906	-49.417553
6287.695312	-54.205643
6330.761719	-53.850658
6373.828125	-56.780407
6416.894531	-54.256401
6459.960938	-51.758942
6503.027344	-53.900101
6546.093750	-56.781883
6589.160156	-52.700924
6632.226562	-51.726963
6675.292969	-55.993443
6718.359375	-64.799278
6761.425781	-61.961166
6804.492188	-61.648632
6847.558594	-58.561867
6890.625000	-57.940678
6933.691406	-61.415058
6976.757812	-66.831917
7019.824219	-63.201252
7062.890625	-62.876789
7105.957031	-65.113724
7149.023438	-62.708771
7192.089844	-64.291992
7235.156250	-67.392029
7278.222656	-63.179276
7321.289062	-63.183376
7364.355469	-62.216080
7407.421875	-59.635178
7450.488281	-60.807220
7493.554688	-62.212204
7536.621094	-59.711628
7579.687500	-51.579426
7622.753906	-52.901455
7665.820312	-54.605495
7708.886719	-55.137409
7751.953125	-57.539379
7795.019531	-58.676498
7838.085938	-57.888214
7881.152344	-59.751644
7924.218750	-58.038071
7967.285156	-51.174973
8010.351562	-42.304657
8053.417969	-47.052845
8096.484375	-51.313671
8139.550781	-59.203503
8182.617188	-64.816216
8225.683594	-65.688515
8268.750000	-65.849991
8311.816406	-66.895355
8354.882812	-65.802719
8397.949219	-63.107048
8441.015625	-62.013294
8484.082031	-63.932880
8527.148438	-69.354919
8570.214844	-63.411224
8613.281250	-60.857323
8656.347656	-62.212002
8699.414062	-55.557278
8742.480469	-50.675678
8785.546875	-43.634823
8828.613281	-48.146736
8871.679688	-47.750519
8914.746094	-56.919987
8957.812500	-62.859589
9000.878906	-61.382366
9043.945312	-62.602539
9087.011719	-64.369469
9130.078125	-68.563713
9173.144531	-67.258484
9216.210938	-69.751961
9259.277344	-69.327927
9302.343750	-68.642296
9345.410156	-70.950623
9388.476562	-71.450249
9431.542969	-63.506790
9474.609375	-56.473164
9517.675781	-52.803673
9560.742188	-54.830051
9603.808594	-62.175266
9646.875000	-61.537018
9689.941406	-63.926159
9733.007812	-70.371239
9776.074219	-71.310387
9819.140625	-68.418060
9862.207031	-70.227066
9905.273438	-73.303329
9948.339844	-72.240829
9991.406250	-72.287987
10034.472656	-74.441055
10077.539062	-73.251038
10120.605469	-72.842171
10163.671875	-73.617264
10206.738281	-74.100838
10249.804688	-74.680305
10292.871094	-73.329262
10335.937500	-71.903175
10379.003906	-72.857224
10422.070312	-74.899574
10465.136719	-73.822639
10508.203125	-73.181900
10551.269531	-74.545944
10594.335938	-72.316803
10637.402344	-71.234726
10680.468750	-74.056129
10723.535156	-66.969139
10766.601562	-62.994106
10809.667969	-57.337250
10852.734375	-56.195934
10895.800781	-64.552094
10938.867188	-67.880127
10981.933594	-72.593132
11025.000000	-76.538254
11068.066406	-74.273331
11111.132812	-76.651321
11154.199219	-76.977783
11197.265625	-77.857712
11240.332031	-77.615425
11283.398438	-78.292114
11326.464844	-76.408691
11369.531250	-76.701065
11412.597656	-77.864967
11455.664062	-77.734444
11498.730469	-76.092300
11541.796875	-75.941757
11584.863281	-77.090912
11627.929688	-77.388199
11670.996094	-77.995804
11714.062500	-77.631134
11757.128906	-73.645874
11800.195312	-73.047806
11843.261719	-74.296242
11886.328125	-74.437592
11929.394531	-74.409286
11972.460938	-77.229515
12015.527344	-74.979111
12058.593750	-73.302971
12101.660156	-76.622070
12144.726562	-78.312805
12187.792969	-74.721077
12230.859375	-72.642601
12273.925781	-73.744148
12316.992188	-75.247597
12360.058594	-76.996857
12403.125000	-78.149261
12446.191406	-78.050247
12489.257812	-74.829468
12532.324219	-66.557053
12575.390625	-61.557941
12618.457031	-65.801720
12661.523438	-72.839455
12704.589844	-69.274803
12747.656250	-65.451210
12790.722656	-67.921776
12833.789062	-70.584656
12876.855469	-69.905083
12919.921875	-69.114075
12962.988281	-70.576233
13006.054688	-72.433411
13049.121094	-72.723793
13092.187500	-69.200043
13135.253906	-64.267746
13178.320312	-63.665012
13221.386719	-62.681881
13264.453125	-56.785435
13307.519531	-57.855301
13350.585938	-60.666595
13393.652344	-62.425827
13436.718750	-58.024868
13479.785156	-53.476624
13522.851562	-50.196373
13565.917969	-51.461163
13608.984375	-48.856670
13652.050781	-52.947590
13695.117188	-57.513336
13738.183594	-61.354164
13781.250000	-63.018051
13824.316406	-67.093323
13867.382812	-71.942245
13910.449219	-64.619186
13953.515625	-66.742767
13996.582031	-67.408852
14039.648438	-68.129196
14082.714844	-69.237457
14125.781250	-70.620239
14168.847656	-66.536652
14211.914062	-66.844597
14254.980469	-70.960426
14298.046875	-72.693108
14341.113281	-68.219879
14384.179688	-68.333282
14427.246094	-73.558907
14470.312500	-65.200577
14513.378906	-61.242290
14556.445312	-54.017807
14599.511719	-57.660877
14642.578125	-63.527931
14685.644531	-70.194473
14728.710938	-70.699364
14771.777344	-75.212349
14814.843750	-76.329597
14857.910156	-76.349304
14900.976562	-76.157372
14944.042969	-70.204704
14987.109375	-74.410759
15030.175781	-74.169144
15073.242188	-78.091736
15116.308594	-81.258591
15159.375000	-80.059143
15202.441406	-77.799568
15245.507812	-79.475418
15288.574219	-81.365570
15331.640625	-81.490479
15374.707031	-81.349915
15417.773438	-81.082367
15460.839844	-79.174301
15503.906250	-79.282890
15546.972656	-80.563309
15590.039062	-80.146843
15633.105469	-78.591621
15676.171875	-78.966949
15719.238281	-80.801926
15762.304688	-81.195808
15805.371094	-80.250908
15848.437500	-80.744568
15891.503906	-81.614372
15934.570312	-81.437195
15977.636719	-81.047920
16020.703125	-81.566734
16063.769531	-81.623138
16106.835938	-81.543098
16149.902344	-81.662407
16192.968750	-81.541992
16236.035156	-81.569885
16279.101562	-81.764397
16322.167969	-81.572868
16365.234375	-81.763611
16408.300781	-81.708824
16451.367188	-81.596161
16494.433594	-81.734306
16537.500000	-81.698349
16580.566406	-81.743675
16623.632812	-81.607307
16666.699219	-81.796837
16709.765625	-81.768745
16752.832031	-81.745499
16795.898438	-81.800171
16838.964844	-81.794624
16882.031250	-81.911415
16925.097656	-81.806427
16968.164062	-81.627350
17011.230469	-81.927704
17054.296875	-81.725220
17097.363281	-81.947571
17140.429688	-81.864174
17183.496094	-81.790512
17226.562500	-81.881645
17269.628906	-81.943558
17312.695312	-81.973259
17355.761719	-81.954857
17398.828125	-81.922264
17441.894531	-82.008324
17484.960938	-82.072937
17528.027344	-82.006393
17571.093750	-81.925850
17614.160156	-82.003120
17657.226562	-81.989853
17700.292969	-81.984528
17743.359375	-82.077446
17786.425781	-82.163719
17829.492188	-81.959419
17872.558594	-81.954056
17915.625000	-82.120819
17958.691406	-82.073273
18001.757812	-82.089706
18044.824219	-82.134392
18087.890625	-82.153488
18130.957031	-82.144417
18174.023438	-82.235382
18217.089844	-82.182617
18260.156250	-82.280899
18303.222656	-82.239182
18346.289062	-82.180122
18389.355469	-82.257462
18432.421875	-82.363274
18475.488281	-82.141724
18518.554688	-82.146217
18561.621094	-82.241173
18604.687500	-82.183792
18647.753906	-82.145027
18690.820312	-82.259972
18733.886719	-82.082840
18776.953125	-82.303268
18820.019531	-82.328255
18863.085938	-82.311890
18906.152344	-82.148643
18949.218750	-82.192390
18992.285156	-82.294846
19035.351562	-82.185959
19078.417969	-82.471909
19121.484375	-82.321991
19164.550781	-82.260880
19207.617188	-82.404022
19250.683594	-82.269852
19293.750000	-82.119751
19336.816406	-82.448174
19379.882812	-82.252296
19422.949219	-82.329109
19466.015625	-82.284912
19509.082031	-82.369637
19552.148438	-82.411522
19595.214844	-82.310089
19638.281250	-82.401077
19681.347656	-82.512245
19724.414062	-82.353821
19767.480469	-82.441338
19810.546875	-82.660347
19853.613281	-82.294968
19896.679688	-82.306580
19939.746094	-82.437668
19982.812500	-82.520050
20025.878906	-82.386894
20068.945312	-82.491646
20112.011719	-82.392563
20155.078125	-82.425575
20198.144531	-82.568497
20241.210938	-82.663338
20284.277344	-82.506775
20327.343750	-82.545418
20370.410156	-82.408607
20413.476562	-82.334480
20456.542969	-82.518135
20499.609375	-82.407043
20542.675781	-82.526466
20585.742188	-82.586632
20628.808594	-82.599823
20671.875000	-82.627998
20714.941406	-82.511841
20758.007812	-82.616165
20801.074219	-82.503120
20844.140625	-82.499893
20887.207031	-82.586235
20930.273438	-82.638359
20973.339844	-82.547791
21016.406250	-82.525215
21059.472656	-82.543411
21102.539062	-82.421196
21145.605469	-82.514412
21188.671875	-82.776161
21231.738281	-82.445335
21274.804688	-82.405449
21317.871094	-82.604073
21360.937500	-82.528938
21404.003906	-82.384895
21447.070312	-82.480354
21490.136719	-82.510460
21533.203125	-82.468193
21576.269531	-82.518394
21619.335938	-82.625435
21662.402344	-82.432312
21705.468750	-82.545731
21748.535156	-82.588486
21791.601562	-82.573067
21834.667969	-82.620964
21877.734375	-82.357910
21920.800781	-82.703674
21963.867188	-82.545280
22006.933594	-82.403206
