Frequency (Hz)	Level (dB)
86.132812	-51.827129
172.265625	-49.184032
258.398438	-50.793785
344.531250	-50.578743
430.664062	-50.550304
516.796875	-49.400356
602.929688	-49.538265
689.062500	-49.443733
775.195312	-49.494869
861.328125	-48.916710
947.460938	-48.674648
1033.593750	-48.148376
1119.726562	-47.713924
1205.859375	-46.981144
1291.992188	-46.583755
1378.125000	-45.828148
1464.257812	-44.963089
1550.390625	-44.169678
1636.523438	-41.905514
1722.656250	-40.854210
1808.789062	-39.628761
1894.921875	-38.031834
1981.054688	-36.244236
2067.187500	-33.387497
2153.320312	-29.574873
2239.453125	-20.682951
2325.585938	-17.607441
2411.718750	-12.597207
2497.851562	-31.852242
2583.984375	-34.988247
2670.117188	-36.716022
2756.250000	-39.154938
2842.382812	-39.473839
2928.515625	-41.413750
3014.648438	-41.424622
3100.781250	-43.201717
3186.914062	-42.103195
3273.046875	-40.436848
3359.179688	-42.053658
3445.312500	-42.243176
3531.445312	-42.116001
3617.578125	-44.954216
3703.710938	-46.953560
3789.843750	-47.404934
3875.976562	-48.757351
3962.109375	-48.946724
4048.242188	-47.285416
4134.375000	-47.014687
4220.507812	-47.933788
4306.640625	-47.836777
4392.773438	-47.383717
4478.906250	-48.898304
4565.039062	-48.946743
4651.171875	-48.692616
4737.304688	-47.429615
4823.437500	-45.893970
4909.570312	-47.086098
4995.703125	-43.969944
5081.835938	-38.326675
5167.968750	-30.236488
5254.101562	-40.130970
5340.234375	-43.197918
5426.367188	-41.509541
5512.500000	-40.655125
5598.632812	-39.497906
5684.765625	-37.017117
5770.898438	-30.798777
5857.031250	-19.430492
5943.164062	-25.606911
6029.296875	-33.909000
6115.429688	-37.950256
6201.562500	-40.310940
6287.695312	-42.233158
6373.828125	-43.073288
6459.960938	-44.631161
6546.093750	-43.388893
6632.226562	-33.251957
6718.359375	-39.897625
6804.492188	-46.986324
6890.625000	-48.322269
6976.757812	-50.381496
7062.890625	-49.820484
7149.023438	-49.839043
7235.156250	-49.503532
7321.289062	-52.088284
7407.421875	-53.269184
7493.554688	-52.902313
7579.687500	-48.495449
7665.820312	-54.090965
7751.953125	-54.675476
7838.085938	-54.992184
7924.218750	-55.337982
8010.351562	-55.659359
8096.484375	-55.963562
8182.617188	-56.140160
8268.750000	-56.425934
8354.882812	-56.672131
8441.015625	-55.633961
8527.148438	-56.886276
8613.281250	-57.153023
8699.414062	-57.537159
8785.546875	-57.561871
8871.679688	-57.658005
8957.812500	-57.883121
9043.945312	-58.128010
9130.078125	-58.288376
9216.210938	-58.456806
9302.343750	-58.578369
9388.476562	-58.807541
9474.609375	-58.937260
9560.742188	-59.077263
9646.875000	-59.216671
9733.007812	-59.354328
9819.140625	-59.486465
9905.273438	-59.615013
9991.406250	-59.742367
10077.539062	-59.864170
10163.671875	-59.985054
10249.804688	-60.103470
10335.937500	-60.219025
10422.070312	-60.329216
10508.203125	-60.440701
10594.335938	-60.550163
10680.468750	-60.655354
10766.601562	-60.764153
10852.734375	-60.865246
10938.867188	-60.968708
11025.000000	-61.068836
11111.132812	-61.162357
11197.265625	-61.259060
11283.398438	-61.347374
11369.531250	-61.444931
11455.664062	-61.532604
11541.796875	-61.625717
11627.929688	-61.709221
11714.062500	-61.799629
11800.195312	-61.886654
11886.328125	-61.968498
11972.460938	-62.053860
12058.593750	-62.133362
12144.726562	-62.218418
12230.859375	-62.299023
12316.992188	-62.371838
12403.125000	-62.450977
12489.257812	-62.529041
12575.390625	-62.609695
12661.523438	-62.679226
12747.656250	-62.752087
12833.789062	-62.824673
12919.921875	-62.898884
13006.054688	-62.967339
13092.187500	-63.041740
13178.320312	-63.101131
13264.453125	-63.171246
13350.585938	-63.245380
13436.718750	-63.313244
13522.851562	-63.377541
13608.984375	-63.440742
13695.117188	-63.502567
13781.250000	-63.575130
13867.382812	-63.631653
13953.515625	-63.701614
14039.648438	-63.759300
14125.781250	-63.817791
14211.914062	-63.884144
14298.046875	-63.941963
14384.179688	-64.001091
14470.312500	-64.062195
14556.445312	-64.116310
14642.578125	-64.176392
14728.710938	-64.228622
14814.843750	-64.285454
14900.976562	-64.339180
14987.109375	-64.401428
15073.242188	-64.451828
15159.375000	-64.506371
15245.507812	-64.566780
15331.640625	-64.617744
15417.773438	-64.675117
15503.906250	-64.719353
15590.039062	-64.775452
15676.171875	-64.826187
15762.304688	-64.879852
15848.437500	-64.929153
15934.570312	-64.976402
16020.703125	-65.029259
16106.835938	-65.085304
16192.968750	-65.123344
16279.101562	-65.173340
16365.234375	-65.225967
16451.367188	-65.270882
16537.500000	-65.311356
16623.632812	-65.365311
16709.765625	-65.404358
16795.898438	-65.462746
16882.031250	-65.503555
16968.164062	-65.544258
17054.296875	-65.597511
17140.429688	-65.645744
17226.562500	-65.679802
17312.695312	-65.721519
17398.828125	-65.766464
17484.960938	-65.820625
17571.093750	-65.851395
17657.226562	-65.898102
17743.359375	-65.939560
17829.492188	-65.990425
17915.625000	-66.030197
18001.757812	-66.064224
18087.890625	-66.105759
18174.023438	-66.148529
18260.156250	-66.188499
18346.289062	-66.230591
18432.421875	-66.275566
18518.554688	-66.303726
18604.687500	-66.340858
18690.820312	-66.385201
18776.953125	-66.418457
18863.085938	-66.456123
18949.218750	-66.495949
19035.351562	-66.536575
19121.484375	-66.583832
19207.617188	-66.602097
19293.750000	-66.642555
19379.882812	-66.684090
19466.015625	-66.713982
19552.148438	-66.766205
19638.281250	-66.794510
19724.414062	-66.819237
19810.546875	-66.856987
19896.679688	-66.895851
19982.812500	-66.929962
20068.945312	-66.965416
20155.078125	-66.999207
20241.210938	-67.038452
20327.343750	-67.065331
20413.476562	-67.103973
20499.609375	-67.133499
20585.742188	-67.164261
20671.875000	-67.205025
20758.007812	-67.237251
20844.140625	-67.269966
20930.273438	-67.302185
21016.406250	-67.329300
21102.539062	-67.362946
21188.671875	-67.395424
21274.804688	-67.429901
21360.937500	-67.467560
21447.070312	-67.485718
21533.203125	-67.519119
21619.335938	-67.546547
21705.468750	-67.576218
21791.601562	-67.611008
21877.734375	-67.643990
21963.867188	-67.666191
22050.000000	-67.690140
22136.132812	-67.717529
22222.265625	-67.759941
22308.398438	-67.788483
22394.531250	-67.820541
22480.664062	-67.843452
22566.796875	-67.860176
22652.929688	-67.898155
22739.062500	-67.925095
22825.195312	-67.954926
22911.328125	-67.981407
22997.460938	-68.013832
23083.593750	-68.037178
23169.726562	-68.062164
23255.859375	-68.084152
23341.992188	-68.109764
23428.125000	-68.143356
23514.257812	-68.169708
23600.390625	-68.192932
23686.523438	-68.215057
23772.656250	-68.243179
23858.789062	-68.279175
23944.921875	-68.294853
24031.054688	-68.323097
24117.187500	-68.344955
24203.320312	-68.376190
24289.453125	-68.399414
24375.585938	-68.420876
24461.718750	-68.441040
24547.851562	-68.466011
24633.984375	-68.500031
24720.117188	-68.517601
24806.250000	-68.547112
24892.382812	-68.570213
24978.515625	-68.588997
25064.648438	-68.617294
25150.781250	-68.639496
25236.914062	-68.659378
25323.046875	-68.684006
25409.179688	-68.705574
25495.312500	-68.722115
25581.445312	-68.753281
25667.578125	-68.773941
25753.710938	-68.798363
25839.843750	-68.807648
25925.976562	-68.837837
26012.109375	-68.857880
26098.242188	-68.879585
26184.375000	-68.906174
26270.507812	-68.922958
26356.640625	-68.948410
26442.773438	-68.965706
26528.906250	-68.984344
26615.039062	-69.006531
26701.171875	-69.024811
26787.304688	-69.038620
26873.437500	-69.066238
26959.570312	-69.089401
27045.703125	-69.103188
27131.835938	-69.128159
27217.968750	-69.153587
27304.101562	-69.153091
27390.234375	-69.179008
27476.367188	-69.203362
27562.500000	-69.219925
27648.632812	-69.259300
27734.765625	-69.261604
27820.898438	-69.278603
27907.031250	-69.305618
27993.164062	-69.318031
28079.296875	-69.336441
28165.429688	-69.368156
28251.562500	-69.372925
28337.695312	-69.377151
28423.828125	-69.408829
28509.960938	-69.434937
28596.093750	-69.449516
28682.226562	-69.467789
28768.359375	-69.498688
28854.492188	-69.481598
28940.625000	-69.479469
29026.757812	-69.501884
29112.890625	-69.555031
29199.023438	-69.549408
29285.156250	-69.584824
29371.289062	-69.564941
29457.421875	-69.596329
29543.554688	-69.642876
29629.687500	-69.641953
29715.820312	-69.671127
29801.953125	-69.683304
29888.085938	-69.690262
29974.218750	-69.684883
30060.351562	-69.712051
30146.484375	-69.713737
30232.617188	-69.777458
30318.750000	-69.753586
30404.882812	-69.775345
30491.015625	-69.803162
30577.148438	-69.800903
30663.281250	-69.826744
30749.414062	-69.835594
30835.546875	-69.857147
30921.679688	-69.874176
31007.812500	-69.857285
31093.945312	-69.929680
31180.078125	-69.900803
31266.210938	-69.966301
31352.343750	-69.931740
31438.476562	-69.935577
31524.609375	-69.994637
31610.742188	-70.016731
31696.875000	-70.009415
31783.007812	-70.029694
31869.140625	-70.017708
31955.273438	-69.987144
32041.406250	-70.054504
32127.539062	-70.057991
32213.671875	-70.068916
32299.804688	-70.091469
32385.937500	-70.108475
32472.070312	-70.135979
32558.203125	-70.122253
32644.335938	-70.161407
32730.468750	-70.133781
32816.601562	-70.163467
32902.734375	-70.177460
32988.867188	-70.209900
33075.000000	-70.199799
33161.132812	-70.202057
33247.265625	-70.225883
33333.398438	-70.201614
33419.531250	-70.201668
33505.664062	-70.248367
33591.796875	-70.267822
33677.929688	-70.291435
33764.062500	-70.299866
33850.195312	-70.301605
33936.328125	-70.325829
34022.460938	-70.287590
34108.593750	-70.342186
34194.726562	-70.281364
34280.859375	-70.341087
34366.992188	-70.274582
34453.125000	-70.354698
34539.257812	-70.363892
34625.390625	-70.365501
34711.523438	-70.415756
34797.656250	-70.366516
34883.789062	-70.418678
34969.921875	-70.347633
35056.054688	-70.479790
35142.187500	-70.444077
35228.320312	-70.484215
35314.453125	-70.438499
35400.585938	-70.474815
35486.718750	-70.456474
35572.851562	-70.464745
35658.984375	-70.514519
35745.117188	-70.507378
35831.250000	-70.513588
35917.382812	-70.485710
36003.515625	-70.549362
36089.648438	-70.545303
36175.781250	-70.472511
36261.914062	-70.504829
36348.046875	-70.564224
36434.179688	-70.595291
36520.312500	-70.586227
36606.445312	-70.741074
36692.578125	-70.683380
36778.710938	-70.600906
36864.843750	-70.561554
36950.976562	-70.544495
37037.109375	-70.618584
37123.242188	-70.599571
37209.375000	-70.716873
37295.507812	-70.635178
37381.640625	-70.550911
37467.773438	-70.647430
37553.906250	-70.691002
37640.039062	-70.651497
37726.171875	-70.698067
37812.304688	-70.678246
37898.437500	-70.706833
37984.570312	-70.723801
38070.703125	-70.681587
38156.835938	-70.777824
38242.968750	-70.698746
38329.101562	-70.787086
38415.234375	-70.732719
38501.367188	-70.675362
38587.500000	-70.725609
38673.632812	-70.738106
38759.765625	-70.817566
38845.898438	-70.708977
38932.031250	-70.707779
39018.164062	-70.658691
39104.296875	-70.752029
39190.429688	-70.761330
39276.562500	-70.725456
39362.695312	-70.860405
39448.828125	-70.868996
39534.960938	-70.797043
39621.093750	-70.762726
39707.226562	-70.756859
39793.359375	-70.799850
39879.492188	-70.821548
39965.625000	-70.784477
40051.757812	-70.880463
40137.890625	-70.836861
40224.023438	-70.971039
40310.156250	-70.811470
40396.289062	-70.830933
40482.421875	-70.815201
40568.554688	-70.868767
40654.687500	-70.714714
40740.820312	-70.936905
40826.953125	-70.817314
40913.085938	-70.951073
40999.218750	-70.841927
41085.351562	-70.863914
41171.484375	-70.720253
41257.617188	-70.867249
41343.750000	-70.877808
41429.882812	-70.895607
41516.015625	-70.860878
41602.148438	-70.770485
41688.281250	-70.843285
41774.414062	-70.805374
41860.546875	-70.791847
41946.679688	-70.824425
42032.812500	-70.860329
42118.945312	-70.890411
42205.078125	-70.857544
42291.210938	-70.759552
42377.343750	-70.795654
42463.476562	-71.000877
42549.609375	-70.908592
42635.742188	-70.834808
42721.875000	-70.971069
42808.007812	-70.835716
42894.140625	-70.838654
42980.273438	-70.988724
43066.406250	-70.981201
43152.539062	-70.912308
43238.671875	-70.868385
43324.804688	-70.890526
43410.937500	-70.863731
43497.070312	-70.886368
43583.203125	-70.958168
43669.335938	-70.864746
43755.468750	-70.833305
43841.601562	-70.926781
43927.734375	-70.876427
44013.867188	-70.870850
