Frequency (Hz)	Level (dB)
86.132812	-45.715195
172.265625	-45.604565
258.398438	-45.410748
344.531250	-45.309334
430.664062	-45.159245
516.796875	-44.871521
602.929688	-44.669567
689.062500	-44.488895
775.195312	-44.335712
861.328125	-43.815861
947.460938	-43.337589
1033.593750	-43.205826
1119.726562	-42.452648
1205.859375	-41.882504
1291.992188	-41.011635
1378.125000	-40.350021
1464.257812	-39.713951
1550.390625	-38.916843
1636.523438	-37.196964
1722.656250	-35.809956
1808.789062	-34.534351
1894.921875	-32.697849
1981.054688	-30.548155
2067.187500	-28.233164
2153.320312	-23.570927
2239.453125	-15.437154
2325.585938	-12.305761
2411.718750	-15.797758
2497.851562	-27.087679
2583.984375	-30.358992
2670.117188	-32.281700
2756.250000	-34.008381
2842.382812	-36.058537
2928.515625	-37.393047
3014.648438	-37.450741
3100.781250	-38.092091
3186.914062	-40.103783
3273.046875	-37.732983
3359.179688	-37.652397
3445.312500	-38.776306
3531.445312	-39.142250
3617.578125	-42.014900
3703.710938	-42.452442
3789.843750	-42.860229
3875.976562	-44.175404
3962.109375	-44.250648
4048.242188	-43.385525
4134.375000	-41.724564
4220.507812	-41.980537
4306.640625	-41.698814
4392.773438	-44.628109
4478.906250	-44.053432
4565.039062	-44.315796
4651.171875	-43.784191
4737.304688	-42.647575
4823.437500	-41.206825
4909.570312	-39.526222
4995.703125	-37.010456
5081.835938	-30.115353
5167.968750	-21.669359
5254.101562	-32.710697
5340.234375	-35.085812
5426.367188	-35.985409
5512.500000	-34.816414
5598.632812	-32.968014
5684.765625	-30.302778
5770.898438	-26.847088
5857.031250	-14.801437
5943.164062	-21.135637
6029.296875	-28.029879
6115.429688	-31.040699
6201.562500	-33.747993
6287.695312	-36.557903
6373.828125	-37.788021
6459.960938	-35.789619
6546.093750	-34.657303
6632.226562	-21.474730
6718.359375	-28.554810
6804.492188	-35.781582
6890.625000	-38.464352
6976.757812	-40.015110
7062.890625	-37.264595
7149.023438	-37.735764
7235.156250	-43.651062
7321.289062	-42.266304
7407.421875	-42.305866
7493.554688	-44.284763
7579.687500	-33.186596
7665.820312	-41.316792
7751.953125	-43.397305
7838.085938	-41.416794
7924.218750	-43.161602
8010.351562	-43.483887
8096.484375	-44.239559
8182.617188	-48.050247
8268.750000	-46.703804
8354.882812	-47.375462
8441.015625	-45.440731
8527.148438	-49.770851
8613.281250	-51.120262
8699.414062	-50.722187
8785.546875	-51.324932
8871.679688	-51.903793
8957.812500	-51.455032
9043.945312	-52.465302
9130.078125	-52.247059
9216.210938	-52.394207
9302.343750	-53.158062
9388.476562	-52.685295
9474.609375	-53.250698
9560.742188	-53.264229
9646.875000	-53.051407
9733.007812	-53.796124
9819.140625	-53.599876
9905.273438	-53.800171
9991.406250	-54.210701
10077.539062	-53.908001
10163.671875	-54.394886
10249.804688	-54.424904
10335.937500	-54.294827
10422.070312	-54.817989
10508.203125	-54.683758
10594.335938	-54.861622
10680.468750	-55.153137
10766.601562	-54.941765
10852.734375	-55.316196
10938.867188	-55.384228
11025.000000	-55.302155
11111.132812	-55.668121
11197.265625	-55.590366
11283.398438	-55.751476
11369.531250	-55.980312
11455.664062	-55.842140
11541.796875	-56.103886
11627.929688	-56.188713
11714.062500	-56.172733
11800.195312	-56.396233
11886.328125	-56.366089
11972.460938	-56.496292
12058.593750	-56.676662
12144.726562	-56.640152
12230.859375	-56.795132
12316.992188	-56.862392
12403.125000	-56.922421
12489.257812	-57.060535
12575.390625	-57.071316
12661.523438	-57.176647
12747.656250	-57.264877
12833.789062	-57.314487
12919.921875	-57.438213
13006.054688	-57.447830
13092.187500	-57.541607
13178.320312	-57.646980
13264.453125	-57.680954
13350.585938	-57.797268
13436.718750	-57.812180
13522.851562	-57.897415
13608.984375	-58.025322
13695.117188	-58.014961
13781.250000	-58.127846
13867.382812	-58.174850
13953.515625	-58.194736
14039.648438	-58.339554
14125.781250	-58.338299
14211.914062	-58.406513
14298.046875	-58.532635
14384.179688	-58.517326
14470.312500	-58.637058
14556.445312	-58.691139
14642.578125	-58.699608
14728.710938	-58.819244
14814.843750	-58.834347
14900.976562	-58.902637
14987.109375	-58.998959
15073.242188	-58.986134
15159.375000	-59.089211
15245.507812	-59.139580
15331.640625	-59.170521
15417.773438	-59.275078
15503.906250	-59.278584
15590.039062	-59.349522
15676.171875	-59.436497
15762.304688	-59.444759
15848.437500	-59.528385
15934.570312	-59.551327
16020.703125	-59.588165
16106.835938	-59.692474
16192.968750	-59.697823
16279.101562	-59.764862
16365.234375	-59.816933
16451.367188	-59.848347
16537.500000	-59.951408
16623.632812	-59.959972
16709.765625	-59.993729
16795.898438	-60.071186
16882.031250	-60.089722
16968.164062	-60.165237
17054.296875	-60.194164
17140.429688	-60.212566
17226.562500	-60.303471
17312.695312	-60.332497
17398.828125	-60.377209
17484.960938	-60.429108
17571.093750	-60.433681
17657.226562	-60.528763
17743.359375	-60.571709
17829.492188	-60.588074
17915.625000	-60.646996
18001.757812	-60.662006
18087.890625	-60.726925
18174.023438	-60.781727
18260.156250	-60.772846
18346.289062	-60.848022
18432.421875	-60.883030
18518.554688	-60.928627
18604.687500	-60.997375
18690.820312	-60.993366
18776.953125	-61.049759
18863.085938	-61.104427
18949.218750	-61.123013
19035.351562	-61.175510
19121.484375	-61.186436
19207.617188	-61.228596
19293.750000	-61.293095
19379.882812	-61.309792
19466.015625	-61.358654
19552.148438	-61.394661
19638.281250	-61.417019
19724.414062	-61.484737
19810.546875	-61.511593
19896.679688	-61.534557
19982.812500	-61.576328
20068.945312	-61.597237
20155.078125	-61.653831
20241.210938	-61.679100
20327.343750	-61.696068
20413.476562	-61.742596
20499.609375	-61.771610
20585.742188	-61.832996
20671.875000	-61.862717
20758.007812	-61.874317
20844.140625	-61.926079
20930.273438	-61.952839
21016.406250	-61.993153
21102.539062	-62.017895
21188.671875	-62.021240
21274.804688	-62.080753
21360.937500	-62.118469
21447.070312	-62.142872
21533.203125	-62.180763
21619.335938	-62.185497
21705.468750	-62.244720
21791.601562	-62.289715
21877.734375	-62.295628
21963.867188	-62.327213
22050.000000	-62.357231
22136.132812	-62.385044
22222.265625	-62.442665
22308.398438	-62.432621
22394.531250	-62.455238
22480.664062	-62.504200
22566.796875	-62.536575
22652.929688	-62.577621
22739.062500	-62.585976
22825.195312	-62.608925
22911.328125	-62.664249
22997.460938	-62.680294
23083.593750	-62.714294
23169.726562	-62.717739
23255.859375	-62.738705
23341.992188	-62.787537
23428.125000	-62.819523
23514.257812	-62.833691
23600.390625	-62.851746
23686.523438	-62.884895
23772.656250	-62.934116
23858.789062	-62.956249
23944.921875	-62.968929
24031.054688	-62.986153
24117.187500	-63.016369
24203.320312	-63.045467
24289.453125	-63.072395
24375.585938	-63.080414
24461.718750	-63.098343
24547.851562	-63.138351
24633.984375	-63.179092
24720.117188	-63.190773
24806.250000	-63.206436
24892.382812	-63.232540
24978.515625	-63.272675
25064.648438	-63.295193
25150.781250	-63.306377
25236.914062	-63.314629
25323.046875	-63.341957
25409.179688	-63.381420
25495.312500	-63.402668
25581.445312	-63.412830
25667.578125	-63.425964
25753.710938	-63.465282
25839.843750	-63.504982
25925.976562	-63.518692
26012.109375	-63.528191
26098.242188	-63.544571
26184.375000	-63.581680
26270.507812	-63.600552
26356.640625	-63.609512
26442.773438	-63.617672
26528.906250	-63.638504
26615.039062	-63.682777
26701.171875	-63.712669
26787.304688	-63.715313
26873.437500	-63.723385
26959.570312	-63.765888
27045.703125	-63.798210
27131.835938	-63.806946
27217.968750	-63.810242
27304.101562	-63.830067
27390.234375	-63.856598
27476.367188	-63.881821
27562.500000	-63.891605
27648.632812	-63.901241
27734.765625	-63.915211
27820.898438	-63.970669
27907.031250	-63.984142
27993.164062	-63.996017
28079.296875	-64.003914
28165.429688	-64.032425
28251.562500	-64.057045
28337.695312	-64.075844
28423.828125	-64.066849
28509.960938	-64.091843
28596.093750	-64.103828
28682.226562	-64.144081
28768.359375	-64.154755
28854.492188	-64.159737
28940.625000	-64.179413
29026.757812	-64.221046
29112.890625	-64.249786
29199.023438	-64.243187
29285.156250	-64.249527
29371.289062	-64.268005
29457.421875	-64.292831
29543.554688	-64.313416
29629.687500	-64.305389
29715.820312	-64.327713
29801.953125	-64.351807
29888.085938	-64.383820
29974.218750	-64.392151
30060.351562	-64.393440
30146.484375	-64.427620
30232.617188	-64.428802
30318.750000	-64.474342
30404.882812	-64.464226
30491.015625	-64.470337
30577.148438	-64.483879
30663.281250	-64.515770
30749.414062	-64.530243
30835.546875	-64.535973
30921.679688	-64.543373
31007.812500	-64.579529
31093.945312	-64.603249
31180.078125	-64.617233
31266.210938	-64.604317
31352.343750	-64.630035
31438.476562	-64.667702
31524.609375	-64.666145
31610.742188	-64.679146
31696.875000	-64.673492
31783.007812	-64.707634
31869.140625	-64.724350
31955.273438	-64.720718
32041.406250	-64.758545
32127.539062	-64.757042
32213.671875	-64.763062
32299.804688	-64.796318
32385.937500	-64.828049
32472.070312	-64.786652
32558.203125	-64.803894
32644.335938	-64.849312
32730.468750	-64.857643
32816.601562	-64.846863
32902.734375	-64.832733
32988.867188	-64.875450
33075.000000	-64.921814
33161.132812	-64.926102
33247.265625	-64.950035
33333.398438	-64.911072
33419.531250	-64.928673
33505.664062	-64.966507
33591.796875	-64.967827
33677.929688	-64.966812
33764.062500	-64.975304
33850.195312	-64.982903
33936.328125	-65.022972
34022.460938	-65.016785
34108.593750	-65.029221
34194.726562	-65.008476
34280.859375	-65.071831
34366.992188	-65.080116
34453.125000	-65.075920
34539.257812	-65.048325
34625.390625	-65.068085
34711.523438	-65.083130
34797.656250	-65.122910
34883.789062	-65.104111
34969.921875	-65.099899
35056.054688	-65.091705
35142.187500	-65.159836
35228.320312	-65.161072
35314.453125	-65.168251
35400.585938	-65.141914
35486.718750	-65.201004
35572.851562	-65.217644
35658.984375	-65.210060
35745.117188	-65.171715
35831.250000	-65.163689
35917.382812	-65.211037
36003.515625	-65.227531
36089.648438	-65.259583
36175.781250	-65.248749
36261.914062	-65.245018
36348.046875	-65.280128
36434.179688	-65.266197
36520.312500	-65.238838
36606.445312	-65.279137
36692.578125	-65.294563
36778.710938	-65.323334
36864.843750	-65.294205
36950.976562	-65.322319
37037.109375	-65.298126
37123.242188	-65.313835
37209.375000	-65.337311
37295.507812	-65.349312
37381.640625	-65.331177
37467.773438	-65.324875
37553.906250	-65.347694
37640.039062	-65.352570
37726.171875	-65.352234
37812.304688	-65.355431
37898.437500	-65.358299
37984.570312	-65.388756
38070.703125	-65.414207
38156.835938	-65.366554
38242.968750	-65.445816
38329.101562	-65.415932
38415.234375	-65.432701
38501.367188	-65.432289
38587.500000	-65.439827
38673.632812	-65.422928
38759.765625	-65.467476
38845.898438	-65.448784
38932.031250	-65.473816
39018.164062	-65.389351
39104.296875	-65.431992
39190.429688	-65.472023
39276.562500	-65.498833
39362.695312	-65.488647
39448.828125	-65.483253
39534.960938	-65.503761
39621.093750	-65.506554
39707.226562	-65.445061
39793.359375	-65.459694
39879.492188	-65.514206
39965.625000	-65.472519
40051.757812	-65.509575
40137.890625	-65.491432
40224.023438	-65.482208
40310.156250	-65.486641
40396.289062	-65.554749
40482.421875	-65.548355
40568.554688	-65.549103
40654.687500	-65.527313
40740.820312	-65.550072
40826.953125	-65.552002
40913.085938	-65.528824
40999.218750	-65.544960
41085.351562	-65.537849
41171.484375	-65.594627
41257.617188	-65.532959
41343.750000	-65.617935
41429.882812	-65.560364
41516.015625	-65.576393
41602.148438	-65.591446
41688.281250	-65.638466
41774.414062	-65.575188
41860.546875	-65.543381
41946.679688	-65.590248
42032.812500	-65.612022
42118.945312	-65.602104
42205.078125	-65.570213
42291.210938	-65.576141
42377.343750	-65.580063
42463.476562	-65.631119
42549.609375	-65.680367
42635.742188	-65.565956
42721.875000	-65.596565
42808.007812	-65.615593
42894.140625	-65.621033
42980.273438	-65.591667
43066.406250	-65.568787
43152.539062	-65.579979
43238.671875	-65.608360
43324.804688	-65.637558
43410.937500	-65.598351
43497.070312	-65.596519
43583.203125	-65.638374
43669.335938	-65.608810
43755.468750	-65.672005
43841.601562	-65.658920
43927.734375	-65.573357
44013.867188	-65.658989
