Frequency (Hz)	Level (dB)
43.066406	-53.379726
86.132812	-57.904430
129.199219	-58.098042
172.265625	-59.194439
215.332031	-59.665600
258.398438	-59.597462
301.464844	-59.877304
344.531250	-59.609482
387.597656	-59.525047
430.664062	-59.630577
473.730469	-59.651505
516.796875	-59.214905
559.863281	-59.824593
602.929688	-59.497250
645.996094	-58.504391
689.062500	-58.957325
732.128906	-58.553875
775.195312	-58.228405
818.261719	-59.074879
861.328125	-58.083733
904.394531	-58.241837
947.460938	-58.582909
990.527344	-57.024563
1033.593750	-57.094746
1076.660156	-57.407444
1119.726562	-56.709019
1162.792969	-56.417389
1205.859375	-56.475624
1248.925781	-55.628605
1291.992188	-55.543888
1335.058594	-55.884949
1378.125000	-54.657269
1421.191406	-54.888443
1464.257812	-54.804970
1507.324219	-54.376842
1550.390625	-53.892002
1593.457031	-54.097897
1636.523438	-53.566700
1679.589844	-52.229359
1722.656250	-51.934414
1765.722656	-51.916462
1808.789062	-50.495865
1851.855469	-49.929203
1894.921875	-49.270882
1937.988281	-48.915558
1981.054688	-47.595882
2024.121094	-47.284531
2067.187500	-44.750072
2110.253906	-43.766323
2153.320312	-43.128166
2196.386719	-40.479321
2239.453125	-37.824696
2282.519531	-32.718834
2325.585938	-21.652967
2368.652344	-25.893845
2411.718750	-35.880268
2454.785156	-41.353897
2497.851562	-34.797234
2540.917969	-35.736145
2583.984375	-41.577988
2627.050781	-43.782722
2670.117188	-45.274464
2713.183594	-47.808838
2756.250000	-48.377224
2799.316406	-49.271938
2842.382812	-51.310837
2885.449219	-50.558414
2928.515625	-51.749119
2971.582031	-51.635521
3014.648438	-52.053364
3057.714844	-52.213142
3100.781250	-54.684052
3143.847656	-53.941338
3186.914062	-53.953213
3229.980469	-56.001949
3273.046875	-55.676548
3316.113281	-56.910397
3359.179688	-59.404148
3402.246094	-57.599842
3445.312500	-59.069004
3488.378906	-60.548157
3531.445312	-56.290798
3574.511719	-53.535416
3617.578125	-42.076618
3660.644531	-41.525612
3703.710938	-49.546719
3746.777344	-52.351135
3789.843750	-53.457432
3832.910156	-56.500065
3875.976562	-56.585491
3919.042969	-56.347488
3962.109375	-57.839508
4005.175781	-57.585228
4048.242188	-57.591663
4091.308594	-60.056549
4134.375000	-59.274532
4177.441406	-59.491245
4220.507812	-60.576679
4263.574219	-60.329693
4306.640625	-60.952305
4349.707031	-59.420605
4392.773438	-59.613743
4435.839844	-58.421566
4478.906250	-56.532631
4521.972656	-55.806114
4565.039062	-52.661587
4608.105469	-41.612125
4651.171875	-39.720181
4694.238281	-50.072365
4737.304688	-52.584198
4780.371094	-52.681095
4823.437500	-54.960266
4866.503906	-56.975986
4909.570312	-59.278694
4952.636719	-59.508095
4995.703125	-59.990097
5038.769531	-60.153900
5081.835938	-60.788902
5124.902344	-59.506886
5167.968750	-60.775402
5211.035156	-60.950390
5254.101562	-62.045132
5297.167969	-61.146461
5340.234375	-58.968216
5383.300781	-59.337387
5426.367188	-60.677357
5469.433594	-60.353180
5512.500000	-59.960201
5555.566406	-64.779984
5598.632812	-63.603439
5641.699219	-62.157413
5684.765625	-62.228691
5727.832031	-60.306408
5770.898438	-59.339405
5813.964844	-57.910912
5857.031250	-58.274387
5900.097656	-60.098713
5943.164062	-61.567974
5986.230469	-58.279446
6029.296875	-58.423286
6072.363281	-55.851902
6115.429688	-53.322338
6158.496094	-50.938694
6201.562500	-40.116817
6244.628906	-44.517429
6287.695312	-50.056202
6330.761719	-49.110245
6373.828125	-49.736614
6416.894531	-49.613712
6459.960938	-43.851974
6503.027344	-43.229641
6546.093750	-49.174393
6589.160156	-47.000378
6632.226562	-38.182796
6675.292969	-33.567348
6718.359375	-47.198215
6761.425781	-50.075039
6804.492188	-53.725792
6847.558594	-55.755878
6890.625000	-55.824512
6933.691406	-58.534740
6976.757812	-60.187267
7019.824219	-59.233055
7062.890625	-60.410122
7105.957031	-61.631653
7149.023438	-59.886032
7192.089844	-62.138538
7235.156250	-61.382854
7278.222656	-56.816509
7321.289062	-62.417091
7364.355469	-51.934689
7407.421875	-52.385628
7450.488281	-53.656883
7493.554688	-50.694527
7536.621094	-39.651268
7579.687500	-37.680622
7622.753906	-49.633610
7665.820312	-52.689751
7708.886719	-53.667347
7751.953125	-57.826920
7795.019531	-59.833099
7838.085938	-59.939590
7881.152344	-61.437916
7924.218750	-61.461609
7967.285156	-62.214985
8010.351562	-61.832233
8053.417969	-63.506004
8096.484375	-63.556992
8139.550781	-62.652981
8182.617188	-63.227131
8225.683594	-65.626671
8268.750000	-67.114891
8311.816406	-66.116814
8354.882812	-65.428459
8397.949219	-66.730247
8441.015625	-66.720245
8484.082031	-66.366653
8527.148438	-67.031273
8570.214844	-66.133224
8613.281250	-66.172218
8656.347656	-67.426712
8699.414062	-66.637009
8742.480469	-66.350876
8785.546875	-67.133682
8828.613281	-66.916161
8871.679688	-66.510414
8914.746094	-66.462654
8957.812500	-65.259560
9000.878906	-63.278454
9043.945312	-63.420441
9087.011719	-55.977772
9130.078125	-59.445095
9173.144531	-69.290283
9216.210938	-68.230347
9259.277344	-68.463188
9302.343750	-68.591629
9345.410156	-70.999077
9388.476562	-70.153198
9431.542969	-70.278763
9474.609375	-70.702179
9517.675781	-70.101990
9560.742188	-69.815041
9603.808594	-70.411568
9646.875000	-70.886551
9689.941406	-69.684547
9733.007812	-70.028145
9776.074219	-70.482758
9819.140625	-70.344788
9862.207031	-70.042702
9905.273438	-70.363960
9948.339844	-70.514198
9991.406250	-70.231491
10034.472656	-70.306313
10077.539062	-70.784355
10120.605469	-68.608414
10163.671875	-69.818115
10206.738281	-70.563446
10249.804688	-68.726997
10292.871094	-63.908783
10335.937500	-66.106308
10379.003906	-69.357704
10422.070312	-70.264122
10465.136719	-69.949745
10508.203125	-69.866455
10551.269531	-71.120430
10594.335938	-70.713333
10637.402344	-70.537750
10680.468750	-70.851791
10723.535156	-71.060158
10766.601562	-71.072243
10809.667969	-71.108162
10852.734375	-71.347092
10895.800781	-71.275017
10938.867188	-71.220207
10981.933594	-71.488823
11025.000000	-71.457657
11068.066406	-71.179878
11111.132812	-71.626190
11154.199219	-71.569313
11197.265625	-71.374466
11240.332031	-71.468483
11283.398438	-71.699661
11326.464844	-71.349083
11369.531250	-71.616356
11412.597656	-71.883530
11455.664062	-71.715210
11498.730469	-71.775085
11541.796875	-71.944847
11584.863281	-71.946533
11627.929688	-71.991982
11670.996094	-72.100525
11714.062500	-71.888176
11757.128906	-71.824066
11800.195312	-72.609085
11843.261719	-71.866020
11886.328125	-72.168221
11929.394531	-72.162498
11972.460938	-71.753799
12015.527344	-72.692001
12058.593750	-72.005844
12101.660156	-72.638527
12144.726562	-72.448357
12187.792969	-71.515114
12230.859375	-68.633080
12273.925781	-71.248123
12316.992188	-72.159462
12360.058594	-70.451263
12403.125000	-69.059792
12446.191406	-60.454716
12489.257812	-64.255569
12532.324219	-67.931984
12575.390625	-69.639938
12618.457031	-70.475449
12661.523438	-70.224373
12704.589844	-71.699760
12747.656250	-71.682648
12790.722656	-71.813667
12833.789062	-72.485245
12876.855469	-71.951355
12919.921875	-71.902046
12962.988281	-72.221046
13006.054688	-72.608017
13049.121094	-72.282707
13092.187500	-72.212990
13135.253906	-72.463745
13178.320312	-71.904701
13221.386719	-72.322983
13264.453125	-72.313057
13307.519531	-72.597466
13350.585938	-72.514130
13393.652344	-72.815773
13436.718750	-72.886345
13479.785156	-72.638870
13522.851562	-72.863838
13565.917969	-73.535522
13608.984375	-72.888412
13652.050781	-73.524719
13695.117188	-74.299522
13738.183594	-70.511269
13781.250000	-72.487534
13824.316406	-72.383766
13867.382812	-72.461182
13910.449219	-72.774361
13953.515625	-72.450775
13996.582031	-72.678520
14039.648438	-72.925880
14082.714844	-72.775330
14125.781250	-73.074844
14168.847656	-72.925400
14211.914062	-72.430893
14254.980469	-72.792557
14298.046875	-73.072845
14341.113281	-73.276596
14384.179688	-73.484047
14427.246094	-73.415375
14470.312500	-72.802711
14513.378906	-72.757339
14556.445312	-72.371841
14599.511719	-72.593391
14642.578125	-72.626678
14685.644531	-73.714958
14728.710938	-73.048843
14771.777344	-73.905090
14814.843750	-74.075378
14857.910156	-72.477722
14900.976562	-73.778046
14944.042969	-73.742226
14987.109375	-72.789787
15030.175781	-73.121628
15073.242188	-71.931152
15116.308594	-71.888237
15159.375000	-73.216537
15202.441406	-73.487083
15245.507812	-73.423096
15288.574219	-73.503906
15331.640625	-73.916496
15374.707031	-72.876450
15417.773438	-74.423164
15460.839844	-73.503731
15503.906250	-74.410149
15546.972656	-74.050621
15590.039062	-73.833282
15633.105469	-74.413498
15676.171875	-73.865028
15719.238281	-73.743965
15762.304688	-74.252899
15805.371094	-72.022835
15848.437500	-70.967102
15891.503906	-71.294266
15934.570312	-73.164185
15977.636719	-73.524994
16020.703125	-73.021103
16063.769531	-72.939774
16106.835938	-73.365387
16149.902344	-73.572189
16192.968750	-73.892754
16236.035156	-73.760452
16279.101562	-73.736824
16322.167969	-73.816452
16365.234375	-73.742096
16408.300781	-73.886978
16451.367188	-73.990829
16494.433594	-73.910049
16537.500000	-73.995560
16580.566406	-74.023552
16623.632812	-73.896568
16666.699219	-74.046196
16709.765625	-74.085579
16752.832031	-74.060219
16795.898438	-74.157654
16838.964844	-74.133865
16882.031250	-74.169342
16925.097656	-74.139519
16968.164062	-74.147705
17011.230469	-74.198868
17054.296875	-74.254135
17097.363281	-74.199203
17140.429688	-74.245361
17183.496094	-74.235825
17226.562500	-74.217178
17269.628906	-74.270058
17312.695312	-74.276703
17355.761719	-74.302002
17398.828125	-74.317879
17441.894531	-74.280525
17484.960938	-74.277588
17528.027344	-74.341980
17571.093750	-74.298813
17614.160156	-74.298134
17657.226562	-74.378822
17700.292969	-74.355133
17743.359375	-74.418159
17786.425781	-74.382957
17829.492188	-74.479881
17872.558594	-74.419159
17915.625000	-74.435188
17958.691406	-74.473839
18001.757812	-74.474960
18044.824219	-74.486526
18087.890625	-74.506134
18130.957031	-74.471321
18174.023438	-74.460709
18217.089844	-74.548286
18260.156250	-74.539017
18303.222656	-74.533836
18346.289062	-74.542015
18389.355469	-74.608337
18432.421875	-74.636848
18475.488281	-74.587418
18518.554688	-74.661095
18561.621094	-74.589844
18604.687500	-74.566513
18647.753906	-74.589874
18690.820312	-74.542618
18733.886719	-74.664352
18776.953125	-74.695229
18820.019531	-74.682762
18863.085938	-74.592239
18906.152344	-74.616623
18949.218750	-74.709213
18992.285156	-74.629112
19035.351562	-74.702370
19078.417969	-74.704788
19121.484375	-74.660942
19164.550781	-74.702896
19207.617188	-74.761436
19250.683594	-74.678780
19293.750000	-74.725067
19336.816406	-74.792732
19379.882812	-74.703224
19422.949219	-74.768234
19466.015625	-74.778145
19509.082031	-74.698875
19552.148438	-74.772049
19595.214844	-74.758217
19638.281250	-74.789825
19681.347656	-74.793221
19724.414062	-74.791168
19767.480469	-74.842232
19810.546875	-74.789055
19853.613281	-74.786270
19896.679688	-74.837379
19939.746094	-74.842270
19982.812500	-74.797958
20025.878906	-74.911140
20068.945312	-74.826561
20112.011719	-74.889061
20155.078125	-74.896866
20198.144531	-74.844261
20241.210938	-74.791725
20284.277344	-74.821144
20327.343750	-74.780266
20370.410156	-74.889305
20413.476562	-74.769951
20456.542969	-74.835762
20499.609375	-74.872803
20542.675781	-74.905655
20585.742188	-74.799637
20628.808594	-74.876915
20671.875000	-74.841263
20714.941406	-74.926842
20758.007812	-74.879120
20801.074219	-74.869316
20844.140625	-74.808243
20887.207031	-74.897232
20930.273438	-74.902084
20973.339844	-74.867722
21016.406250	-74.963020
21059.472656	-74.853561
21102.539062	-74.914665
21145.605469	-74.951973
21188.671875	-74.900658
21231.738281	-74.929413
21274.804688	-74.901382
21317.871094	-74.932182
21360.937500	-74.820145
21404.003906	-74.883705
21447.070312	-74.902084
21490.136719	-74.991394
21533.203125	-74.992714
21576.269531	-74.941597
21619.335938	-74.959740
21662.402344	-75.019470
21705.468750	-74.967842
21748.535156	-74.795349
21791.601562	-74.914230
21834.667969	-74.995781
21877.734375	-74.892387
21920.800781	-74.892311
21963.867188	-75.047829
22006.933594	-74.940071
