Frequency (Hz)	Level (dB)
86.132812	-45.433872
172.265625	-44.643383
258.398438	-45.337940
344.531250	-45.108967
430.664062	-45.092148
516.796875	-44.826633
602.929688	-44.675171
689.062500	-44.160309
775.195312	-43.727375
861.328125	-43.541317
947.460938	-43.096184
1033.593750	-42.214813
1119.726562	-42.622456
1205.859375	-41.771412
1291.992188	-41.196133
1378.125000	-40.379158
1464.257812	-39.527111
1550.390625	-38.732349
1636.523438	-37.431969
1722.656250	-36.319965
1808.789062	-34.724140
1894.921875	-32.975494
1981.054688	-31.265409
2067.187500	-28.357109
2153.320312	-24.045231
2239.453125	-15.527777
2325.585938	-12.230049
2411.718750	-9.480876
2497.851562	-27.182384
2583.984375	-30.276152
2670.117188	-32.843693
2756.250000	-33.975750
2842.382812	-35.906624
2928.515625	-36.663456
3014.648438	-38.455730
3100.781250	-39.403385
3186.914062	-39.895706
3273.046875	-39.617500
3359.179688	-40.754616
3445.312500	-41.654198
3531.445312	-40.670761
3617.578125	-41.896935
3703.710938	-43.085087
3789.843750	-43.754452
3875.976562	-44.806244
3962.109375	-45.139740
4048.242188	-45.443390
4134.375000	-45.362766
4220.507812	-44.656410
4306.640625	-45.251091
4392.773438	-46.514008
4478.906250	-47.421570
4565.039062	-47.241077
4651.171875	-47.534084
4737.304688	-47.818928
4823.437500	-47.368870
4909.570312	-46.577576
4995.703125	-45.356403
5081.835938	-41.723450
5167.968750	-33.518818
5254.101562	-43.942146
5340.234375	-45.170815
5426.367188	-45.694134
5512.500000	-45.860264
5598.632812	-42.503727
5684.765625	-40.053364
5770.898438	-37.147503
5857.031250	-26.096207
5943.164062	-32.674854
6029.296875	-39.995838
6115.429688	-44.894440
6201.562500	-46.200886
6287.695312	-48.323120
6373.828125	-48.130802
6459.960938	-48.444706
6546.093750	-47.237450
6632.226562	-33.798103
6718.359375	-41.720032
6804.492188	-44.499565
6890.625000	-51.126179
6976.757812	-49.525757
7062.890625	-50.734989
7149.023438	-51.621849
7235.156250	-51.418163
7321.289062	-53.018463
7407.421875	-53.109886
7493.554688	-52.967518
7579.687500	-51.983192
7665.820312	-53.485046
7751.953125	-54.053505
7838.085938	-54.051933
7924.218750	-54.472122
8010.351562	-54.679565
8096.484375	-54.784439
8182.617188	-54.897148
8268.750000	-55.004177
8354.882812	-55.540562
8441.015625	-55.320599
8527.148438	-55.566635
8613.281250	-55.699474
8699.414062	-55.901527
8785.546875	-55.989285
8871.679688	-56.097462
8957.812500	-56.202526
9043.945312	-56.310661
9130.078125	-56.431103
9216.210938	-56.515625
9302.343750	-56.593086
9388.476562	-56.800194
9474.609375	-56.852646
9560.742188	-56.938450
9646.875000	-57.030098
9733.007812	-57.123280
9819.140625	-57.212536
9905.273438	-57.302147
9991.406250	-57.391342
10077.539062	-57.476727
10163.671875	-57.563053
10249.804688	-57.649342
10335.937500	-57.731792
10422.070312	-57.815315
10508.203125	-57.897865
10594.335938	-57.974064
10680.468750	-58.055309
10766.601562	-58.133709
10852.734375	-58.211742
10938.867188	-58.290855
11025.000000	-58.365005
11111.132812	-58.442699
11197.265625	-58.515209
11283.398438	-58.589954
11369.531250	-58.661388
11455.664062	-58.733814
11541.796875	-58.804230
11627.929688	-58.877464
11714.062500	-58.946877
11800.195312	-59.010120
11886.328125	-59.078979
11972.460938	-59.149288
12058.593750	-59.213169
12144.726562	-59.284054
12230.859375	-59.348900
12316.992188	-59.411251
12403.125000	-59.477032
12489.257812	-59.536930
12575.390625	-59.600780
12661.523438	-59.664555
12747.656250	-59.726715
12833.789062	-59.785004
12919.921875	-59.847927
13006.054688	-59.904190
13092.187500	-59.964703
13178.320312	-60.023178
13264.453125	-60.082073
13350.585938	-60.144749
13436.718750	-60.200119
13522.851562	-60.254101
13608.984375	-60.312294
13695.117188	-60.363758
13781.250000	-60.420277
13867.382812	-60.480110
13953.515625	-60.532433
14039.648438	-60.587460
14125.781250	-60.641853
14211.914062	-60.689285
14298.046875	-60.744473
14384.179688	-60.792500
14470.312500	-60.848454
14556.445312	-60.902012
14642.578125	-60.952663
14728.710938	-61.000645
14814.843750	-61.051697
14900.976562	-61.102959
14987.109375	-61.149796
15073.242188	-61.203423
15159.375000	-61.253685
15245.507812	-61.292698
15331.640625	-61.345356
15417.773438	-61.383434
15503.906250	-61.433559
15590.039062	-61.486080
15676.171875	-61.529053
15762.304688	-61.579552
15848.437500	-61.622070
15934.570312	-61.669441
16020.703125	-61.712776
16106.835938	-61.757847
16192.968750	-61.802708
16279.101562	-61.850170
16365.234375	-61.889614
16451.367188	-61.931683
16537.500000	-61.975620
16623.632812	-62.024937
16709.765625	-62.062641
16795.898438	-62.107414
16882.031250	-62.146946
16968.164062	-62.194183
17054.296875	-62.230984
17140.429688	-62.267067
17226.562500	-62.309734
17312.695312	-62.344105
17398.828125	-62.386143
17484.960938	-62.427906
17571.093750	-62.468102
17657.226562	-62.511929
17743.359375	-62.550331
17829.492188	-62.577477
17915.625000	-62.624165
18001.757812	-62.654526
18087.890625	-62.694164
18174.023438	-62.739223
18260.156250	-62.771465
18346.289062	-62.807148
18432.421875	-62.843769
18518.554688	-62.883358
18604.687500	-62.919567
18690.820312	-62.960289
18776.953125	-62.995754
18863.085938	-63.024876
18949.218750	-63.064026
19035.351562	-63.102009
19121.484375	-63.136314
19207.617188	-63.164291
19293.750000	-63.201450
19379.882812	-63.241608
19466.015625	-63.268116
19552.148438	-63.303143
19638.281250	-63.337280
19724.414062	-63.372421
19810.546875	-63.402191
19896.679688	-63.435925
19982.812500	-63.466095
20068.945312	-63.499252
20155.078125	-63.531105
20241.210938	-63.566971
20327.343750	-63.598640
20413.476562	-63.627621
20499.609375	-63.664764
20585.742188	-63.692696
20671.875000	-63.721436
20758.007812	-63.752743
20844.140625	-63.785095
20930.273438	-63.810051
21016.406250	-63.840462
21102.539062	-63.872578
21188.671875	-63.900864
21274.804688	-63.933819
21360.937500	-63.963490
21447.070312	-63.991001
21533.203125	-64.023552
21619.335938	-64.051323
21705.468750	-64.074875
21791.601562	-64.109970
21877.734375	-64.134880
21963.867188	-64.168480
22050.000000	-64.191895
22136.132812	-64.217949
22222.265625	-64.247368
22308.398438	-64.275635
22394.531250	-64.301537
22480.664062	-64.325058
22566.796875	-64.352539
22652.929688	-64.387047
22739.062500	-64.407806
22825.195312	-64.431076
22911.328125	-64.455353
22997.460938	-64.488495
23083.593750	-64.511703
23169.726562	-64.542847
23255.859375	-64.566368
23341.992188	-64.587708
23428.125000	-64.612946
23514.257812	-64.635101
23600.390625	-64.665154
23686.523438	-64.688690
23772.656250	-64.714493
23858.789062	-64.733200
23944.921875	-64.758354
24031.054688	-64.787430
24117.187500	-64.811531
24203.320312	-64.833496
24289.453125	-64.858528
24375.585938	-64.882545
24461.718750	-64.903748
24547.851562	-64.928169
24633.984375	-64.951584
24720.117188	-64.973930
24806.250000	-64.997833
24892.382812	-65.020271
24978.515625	-65.042427
25064.648438	-65.061661
25150.781250	-65.087921
25236.914062	-65.111412
25323.046875	-65.129623
25409.179688	-65.153625
25495.312500	-65.171753
25581.445312	-65.194313
25667.578125	-65.212418
25753.710938	-65.236420
25839.843750	-65.253014
25925.976562	-65.281555
26012.109375	-65.301003
26098.242188	-65.313934
26184.375000	-65.335861
26270.507812	-65.363876
26356.640625	-65.383385
26442.773438	-65.396294
26528.906250	-65.420898
26615.039062	-65.440926
26701.171875	-65.459198
26787.304688	-65.483604
26873.437500	-65.503624
26959.570312	-65.516609
27045.703125	-65.541351
27131.835938	-65.550629
27217.968750	-65.576813
27304.101562	-65.600105
27390.234375	-65.611053
27476.367188	-65.631119
27562.500000	-65.648689
27648.632812	-65.668694
27734.765625	-65.685951
27820.898438	-65.709015
27907.031250	-65.723251
27993.164062	-65.737305
28079.296875	-65.753738
28165.429688	-65.776718
28251.562500	-65.789124
28337.695312	-65.809219
28423.828125	-65.822594
28509.960938	-65.840157
28596.093750	-65.861511
28682.226562	-65.876595
28768.359375	-65.897423
28854.492188	-65.899857
28940.625000	-65.932793
29026.757812	-65.946671
29112.890625	-65.960716
29199.023438	-65.977783
29285.156250	-65.990662
29371.289062	-66.011406
29457.421875	-66.030823
29543.554688	-66.050301
29629.687500	-66.056725
29715.820312	-66.079353
29801.953125	-66.083862
29888.085938	-66.115250
29974.218750	-66.116791
30060.351562	-66.116425
30146.484375	-66.139046
30232.617188	-66.174545
30318.750000	-66.190742
30404.882812	-66.189415
30491.015625	-66.203682
30577.148438	-66.226120
30663.281250	-66.247437
30749.414062	-66.243263
30835.546875	-66.253555
30921.679688	-66.274261
31007.812500	-66.277184
31093.945312	-66.299812
31180.078125	-66.313217
31266.210938	-66.319595
31352.343750	-66.341934
31438.476562	-66.363899
31524.609375	-66.384621
31610.742188	-66.382851
31696.875000	-66.395432
31783.007812	-66.410446
31869.140625	-66.428635
31955.273438	-66.422897
32041.406250	-66.436104
32127.539062	-66.464722
32213.671875	-66.499847
32299.804688	-66.507286
32385.937500	-66.490654
32472.070312	-66.500664
32558.203125	-66.510338
32644.335938	-66.546150
32730.468750	-66.537712
32816.601562	-66.565811
32902.734375	-66.554955
32988.867188	-66.574120
33075.000000	-66.590157
33161.132812	-66.601189
33247.265625	-66.612129
33333.398438	-66.631599
33419.531250	-66.621460
33505.664062	-66.635384
33591.796875	-66.653572
33677.929688	-66.686920
33764.062500	-66.669189
33850.195312	-66.702461
33936.328125	-66.677170
34022.460938	-66.702736
34108.593750	-66.730064
34194.726562	-66.719055
34280.859375	-66.744423
34366.992188	-66.776970
34453.125000	-66.794731
34539.257812	-66.782555
34625.390625	-66.765762
34711.523438	-66.788918
34797.656250	-66.793022
34883.789062	-66.788376
34969.921875	-66.814362
35056.054688	-66.826324
35142.187500	-66.821930
35228.320312	-66.811958
35314.453125	-66.833450
35400.585938	-66.900131
35486.718750	-66.869095
35572.851562	-66.892639
35658.984375	-66.879822
35745.117188	-66.948067
35831.250000	-66.901291
35917.382812	-66.943153
36003.515625	-66.917610
36089.648438	-66.946861
36175.781250	-66.927277
36261.914062	-66.934898
36348.046875	-66.987946
36434.179688	-66.988907
36520.312500	-66.936432
36606.445312	-66.935287
36692.578125	-66.994423
36778.710938	-66.987541
36864.843750	-66.985054
36950.976562	-67.037109
37037.109375	-67.017532
37123.242188	-66.997719
37209.375000	-67.070183
37295.507812	-67.036385
37381.640625	-67.015984
37467.773438	-67.025032
37553.906250	-67.092133
37640.039062	-67.061081
37726.171875	-67.074188
37812.304688	-67.062935
37898.437500	-67.047974
37984.570312	-67.034187
38070.703125	-67.064034
38156.835938	-67.097252
38242.968750	-67.075798
38329.101562	-67.167816
38415.234375	-67.089256
38501.367188	-67.153267
38587.500000	-67.116837
38673.632812	-67.175156
38759.765625	-67.110649
38845.898438	-67.103714
38932.031250	-67.160934
39018.164062	-67.142082
39104.296875	-67.165672
39190.429688	-67.098282
39276.562500	-67.128014
39362.695312	-67.184044
39448.828125	-67.129410
39534.960938	-67.192062
39621.093750	-67.141907
39707.226562	-67.119965
39793.359375	-67.214333
39879.492188	-67.164131
39965.625000	-67.198242
40051.757812	-67.185936
40137.890625	-67.197998
40224.023438	-67.169235
40310.156250	-67.163277
40396.289062	-67.230705
40482.421875	-67.219086
40568.554688	-67.273064
40654.687500	-67.153946
40740.820312	-67.237587
40826.953125	-67.239769
40913.085938	-67.210014
40999.218750	-67.238724
41085.351562	-67.267464
41171.484375	-67.207138
41257.617188	-67.146767
41343.750000	-67.262039
41429.882812	-67.241539
41516.015625	-67.214928
41602.148438	-67.289772
41688.281250	-67.245308
41774.414062	-67.254814
41860.546875	-67.288170
41946.679688	-67.294006
42032.812500	-67.265610
42118.945312	-67.309013
42205.078125	-67.204926
42291.210938	-67.267807
42377.343750	-67.234337
42463.476562	-67.319862
42549.609375	-67.326088
42635.742188	-67.288162
42721.875000	-67.296852
42808.007812	-67.234802
42894.140625	-67.263397
42980.273438	-67.260262
43066.406250	-67.264030
43152.539062	-67.272003
43238.671875	-67.327812
43324.804688	-67.234024
43410.937500	-67.306908
43497.070312	-67.333809
43583.203125	-67.330276
43669.335938	-67.299553
43755.468750	-67.263710
43841.601562	-67.271545
43927.734375	-67.276726
44013.867188	-67.281952
