Frequency (Hz)	Level (dB)
43.066406	-55.062523
86.132812	-54.684063
129.199219	-54.351082
172.265625	-53.807590
215.332031	-54.426147
258.398438	-53.660027
301.464844	-53.704998
344.531250	-53.569950
387.597656	-54.508793
430.664062	-54.496914
473.730469	-54.015648
516.796875	-54.448330
559.863281	-53.766441
602.929688	-53.950378
645.996094	-53.989628
689.062500	-53.674809
732.128906	-53.569706
775.195312	-53.349186
818.261719	-52.982399
861.328125	-52.664902
904.394531	-52.101410
947.460938	-52.285713
990.527344	-51.103592
1033.593750	-50.749180
1076.660156	-48.623817
1119.726562	-49.891556
1162.792969	-49.440868
1205.859375	-50.021496
1248.925781	-49.784355
1291.992188	-49.360195
1335.058594	-48.729687
1378.125000	-48.204788
1421.191406	-48.090286
1464.257812	-47.517132
1507.324219	-46.702831
1550.390625	-46.174839
1593.457031	-45.197388
1636.523438	-44.488472
1679.589844	-43.108898
1722.656250	-42.453342
1765.722656	-41.577129
1808.789062	-40.540516
1851.855469	-38.727356
1894.921875	-37.273575
1937.988281	-35.006145
1981.054688	-32.068016
2024.121094	-27.549633
2067.187500	-17.201193
2110.253906	-18.932928
2153.320312	-28.039555
2196.386719	-32.479221
2239.453125	-35.332230
2282.519531	-36.747715
2325.585938	-38.943520
2368.652344	-40.640251
2411.718750	-41.469208
2454.785156	-42.392887
2497.851562	-43.662090
2540.917969	-43.387768
2583.984375	-44.060379
2627.050781	-46.090435
2670.117188	-46.769886
2713.183594	-47.500572
2756.250000	-47.991940
2799.316406	-48.572018
2842.382812	-48.937370
2885.449219	-49.879169
2928.515625	-49.306274
2971.582031	-48.089725
3014.648438	-49.182739
3057.714844	-50.955708
3100.781250	-50.893559
3143.847656	-52.116936
3186.914062	-52.188316
3229.980469	-52.083378
3273.046875	-50.581219
3316.113281	-49.491222
3359.179688	-49.324692
3402.246094	-48.454552
3445.312500	-52.361782
3488.378906	-54.069042
3531.445312	-54.057072
3574.511719	-54.898121
3617.578125	-54.920105
3660.644531	-55.110138
3703.710938	-55.391525
3746.777344	-55.269665
3789.843750	-55.373425
3832.910156	-56.089046
3875.976562	-55.921879
3919.042969	-56.160255
3962.109375	-56.812134
4005.175781	-55.293812
4048.242188	-52.862377
4091.308594	-51.916050
4134.375000	-52.640610
4177.441406	-51.505608
4220.507812	-50.729706
4263.574219	-53.294544
4306.640625	-50.536282
4349.707031	-50.375160
4392.773438	-52.429394
4435.839844	-53.505867
4478.906250	-55.065903
4521.972656	-56.065929
4565.039062	-50.738476
4608.105469	-51.827187
4651.171875	-52.997066
4694.238281	-53.239182
4737.304688	-53.038895
4780.371094	-57.924725
4823.437500	-58.239613
4866.503906	-57.986168
4909.570312	-55.643448
4952.636719	-42.976299
4995.703125	-45.571209
5038.769531	-53.782986
5081.835938	-58.370628
5124.902344	-51.571281
5167.968750	-49.250473
5211.035156	-51.249496
5254.101562	-51.114628
5297.167969	-54.580170
5340.234375	-59.754829
5383.300781	-59.550762
5426.367188	-56.289593
5469.433594	-56.733532
5512.500000	-59.980858
5555.566406	-54.162457
5598.632812	-39.758091
5641.699219	-48.216026
5684.765625	-56.019852
5727.832031	-55.035698
5770.898438	-51.625179
5813.964844	-51.456093
5857.031250	-51.275772
5900.097656	-53.849167
5943.164062	-56.324333
5986.230469	-61.911259
6029.296875	-61.791035
6072.363281	-61.906147
6115.429688	-61.731850
6158.496094	-59.900127
6201.562500	-60.388596
6244.628906	-52.318733
6287.695312	-60.017204
6330.761719	-58.495686
6373.828125	-56.812851
6416.894531	-53.644707
6459.960938	-53.204857
6503.027344	-58.801582
6546.093750	-61.990231
6589.160156	-62.645504
6632.226562	-62.621632
6675.292969	-62.326569
6718.359375	-60.888401
6761.425781	-60.465008
6804.492188	-58.443897
6847.558594	-60.793701
6890.625000	-63.581509
6933.691406	-62.551514
6976.757812	-62.904102
7019.824219	-63.297291
7062.890625	-63.398369
7105.957031	-63.735641
7149.023438	-64.721382
7192.089844	-63.610958
7235.156250	-63.818775
7278.222656	-64.282684
7321.289062	-63.940067
7364.355469	-64.188065
7407.421875	-64.309593
7450.488281	-63.823219
7493.554688	-64.904121
7536.621094	-64.471458
7579.687500	-63.918571
7622.753906	-64.901031
7665.820312	-64.944710
7708.886719	-65.526932
7751.953125	-64.976868
7795.019531	-64.947609
7838.085938	-65.042931
7881.152344	-65.387825
7924.218750	-65.441147
7967.285156	-61.899834
8010.351562	-62.279392
8053.417969	-63.576237
8096.484375	-65.179520
8139.550781	-64.881844
8182.617188	-65.357315
8225.683594	-65.371414
8268.750000	-65.350060
8311.816406	-65.642929
8354.882812	-65.694443
8397.949219	-65.691963
8441.015625	-65.673134
8484.082031	-65.788147
8527.148438	-65.781944
8570.214844	-65.914467
8613.281250	-66.042519
8656.347656	-65.999153
8699.414062	-66.034828
8742.480469	-66.130447
8785.546875	-66.180199
8828.613281	-66.201836
8871.679688	-66.251991
8914.746094	-66.336678
8957.812500	-66.380722
9000.878906	-66.435173
9043.945312	-66.476135
9087.011719	-66.505676
9130.078125	-66.532410
9173.144531	-66.596809
9216.210938	-66.619316
9259.277344	-66.673531
9302.343750	-66.722160
9345.410156	-66.759506
9388.476562	-66.807175
9431.542969	-66.843346
9474.609375	-66.894356
9517.675781	-66.921600
9560.742188	-66.961021
9603.808594	-66.998100
9646.875000	-67.042839
9689.941406	-67.087402
9733.007812	-67.123238
9776.074219	-67.168091
9819.140625	-67.197411
9862.207031	-67.236183
9905.273438	-67.254967
9948.339844	-67.305084
9991.406250	-67.352592
10034.472656	-67.380653
10077.539062	-67.418297
10120.605469	-67.453995
10163.671875	-67.494164
10206.738281	-67.520622
10249.804688	-67.561302
10292.871094	-67.591835
10335.937500	-67.613464
10379.003906	-67.660965
10422.070312	-67.679840
10465.136719	-67.739594
10508.203125	-67.777336
10551.269531	-67.799156
10594.335938	-67.841301
10637.402344	-67.868935
10680.468750	-67.895004
10723.535156	-67.932884
10766.601562	-67.955292
10809.667969	-67.993073
10852.734375	-68.024109
10895.800781	-68.065117
10938.867188	-68.091621
10981.933594	-68.105522
11025.000000	-68.148170
11068.066406	-68.189415
11111.132812	-68.217384
11154.199219	-68.230736
11197.265625	-68.253738
11240.332031	-68.292885
11283.398438	-68.331047
11326.464844	-68.351982
11369.531250	-68.386017
11412.597656	-68.402725
11455.664062	-68.431610
11498.730469	-68.481827
11541.796875	-68.509720
11584.863281	-68.528526
11627.929688	-68.560249
11670.996094	-68.586555
11714.062500	-68.608490
11757.128906	-68.642754
11800.195312	-68.665550
11843.261719	-68.691750
11886.328125	-68.717819
11929.394531	-68.745529
11972.460938	-68.778618
12015.527344	-68.800224
12058.593750	-68.827988
12101.660156	-68.842194
12144.726562	-68.871613
12187.792969	-68.910599
12230.859375	-68.933609
12273.925781	-68.950294
12316.992188	-68.989586
12360.058594	-69.006744
12403.125000	-69.021843
12446.191406	-69.050835
12489.257812	-69.078087
12532.324219	-69.099045
12575.390625	-69.119492
12618.457031	-69.144836
12661.523438	-69.165375
12704.589844	-69.188866
12747.656250	-69.225525
12790.722656	-69.250656
12833.789062	-69.273964
12876.855469	-69.277458
12919.921875	-69.298492
12962.988281	-69.335938
13006.054688	-69.364937
13049.121094	-69.375572
13092.187500	-69.387383
13135.253906	-69.411041
13178.320312	-69.440941
13221.386719	-69.458923
13264.453125	-69.469261
13307.519531	-69.499794
13350.585938	-69.516777
13393.652344	-69.545273
13436.718750	-69.553223
13479.785156	-69.588638
13522.851562	-69.595673
13565.917969	-69.635300
13608.984375	-69.647751
13652.050781	-69.664452
13695.117188	-69.691742
13738.183594	-69.713860
13781.250000	-69.738693
13824.316406	-69.740807
13867.382812	-69.758270
13910.449219	-69.795074
13953.515625	-69.811371
13996.582031	-69.830719
14039.648438	-69.823051
14082.714844	-69.881035
14125.781250	-69.870331
14168.847656	-69.923698
14211.914062	-69.926147
14254.980469	-69.943550
14298.046875	-69.933914
14341.113281	-69.947327
14384.179688	-69.980629
14427.246094	-70.019707
14470.312500	-70.034927
14513.378906	-70.045914
14556.445312	-70.049500
14599.511719	-70.067337
14642.578125	-70.080734
14685.644531	-70.123749
14728.710938	-70.109787
14771.777344	-70.162308
14814.843750	-70.190163
14857.910156	-70.159485
14900.976562	-70.209267
14944.042969	-70.164200
14987.109375	-70.211906
15030.175781	-70.203056
15073.242188	-70.180573
15116.308594	-70.273514
15159.375000	-70.311806
15202.441406	-70.287048
15245.507812	-70.314842
15288.574219	-70.360535
15331.640625	-70.345291
15374.707031	-70.403160
15417.773438	-70.426361
15460.839844	-70.392265
15503.906250	-70.420662
15546.972656	-70.440216
15590.039062	-70.428268
15633.105469	-70.487579
15676.171875	-70.458183
15719.238281	-70.484695
15762.304688	-70.509186
15805.371094	-70.519203
15848.437500	-70.500168
15891.503906	-70.580658
15934.570312	-70.628487
15977.636719	-70.566254
16020.703125	-70.634659
16063.769531	-70.507507
16106.835938	-70.533463
16149.902344	-70.619240
16192.968750	-70.595284
16236.035156	-70.582153
16279.101562	-70.680069
16322.167969	-70.646072
16365.234375	-70.688515
16408.300781	-70.610710
16451.367188	-70.769386
16494.433594	-70.701401
16537.500000	-70.850304
16580.566406	-70.779678
16623.632812	-70.714813
16666.699219	-70.700340
16709.765625	-70.702293
16752.832031	-70.746841
16795.898438	-70.801674
16838.964844	-70.846687
16882.031250	-70.855629
16925.097656	-70.906616
16968.164062	-70.808250
17011.230469	-70.745300
17054.296875	-70.847481
17097.363281	-70.815407
17140.429688	-70.971298
17183.496094	-70.906013
17226.562500	-70.878159
17269.628906	-70.884239
17312.695312	-70.876572
17355.761719	-70.953156
17398.828125	-71.056328
17441.894531	-70.897888
17484.960938	-70.869896
17528.027344	-70.955673
17571.093750	-71.173698
17614.160156	-71.040031
17657.226562	-70.983109
17700.292969	-71.055153
17743.359375	-71.186424
17786.425781	-70.979973
17829.492188	-71.087822
17872.558594	-71.038071
17915.625000	-71.247208
17958.691406	-71.016800
18001.757812	-71.086884
18044.824219	-70.970299
18087.890625	-71.082932
18130.957031	-71.117249
18174.023438	-70.915482
18217.089844	-71.101303
18260.156250	-71.070183
18303.222656	-71.256882
18346.289062	-71.137192
18389.355469	-71.160431
18432.421875	-71.168549
18475.488281	-71.225510
18518.554688	-70.963287
18561.621094	-70.979210
18604.687500	-71.107101
18647.753906	-71.172997
18690.820312	-71.141838
18733.886719	-71.321793
18776.953125	-71.054535
18820.019531	-71.263977
18863.085938	-71.375168
18906.152344	-71.186470
18949.218750	-71.181648
18992.285156	-71.213448
19035.351562	-71.187508
19078.417969	-71.129234
19121.484375	-71.163795
19164.550781	-71.238228
19207.617188	-71.171768
19250.683594	-71.310707
19293.750000	-71.289307
19336.816406	-71.284592
19379.882812	-71.199020
19422.949219	-71.311249
19466.015625	-71.393494
19509.082031	-71.480614
19552.148438	-71.319870
19595.214844	-71.338272
19638.281250	-71.191605
19681.347656	-71.224083
19724.414062	-71.385597
19767.480469	-71.189667
19810.546875	-71.377174
19853.613281	-71.410919
19896.679688	-71.369843
19939.746094	-71.284500
19982.812500	-71.272148
20025.878906	-71.433998
20068.945312	-71.410179
20112.011719	-71.459106
20155.078125	-71.325012
20198.144531	-71.625366
20241.210938	-71.232033
20284.277344	-71.469604
20327.343750	-71.409294
20370.410156	-71.266960
20413.476562	-71.167259
20456.542969	-71.447807
20499.609375	-71.259209
20542.675781	-71.478928
20585.742188	-71.179230
20628.808594	-71.383751
20671.875000	-71.513794
20714.941406	-71.259247
20758.007812	-71.328362
20801.074219	-71.229050
20844.140625	-71.395142
20887.207031	-71.370354
20930.273438	-71.488541
20973.339844	-71.408920
21016.406250	-71.305267
21059.472656	-71.385323
21102.539062	-71.403801
21145.605469	-71.388557
21188.671875	-71.391899
21231.738281	-71.481285
21274.804688	-71.367157
21317.871094	-71.325577
21360.937500	-71.514542
21404.003906	-71.460678
21447.070312	-71.675110
21490.136719	-71.428879
21533.203125	-71.492935
21576.269531	-71.601425
21619.335938	-71.304794
21662.402344	-71.272453
21705.468750	-71.416206
21748.535156	-71.554771
21791.601562	-71.349319
21834.667969	-71.435181
21877.734375	-71.610092
21920.800781	-71.536430
21963.867188	-71.382301
22006.933594	-71.521286
