Frequency (Hz)	Level (dB)
43.066406	-43.068302
86.132812	-42.721638
129.199219	-41.635963
172.265625	-40.285721
215.332031	-42.358299
258.398438	-41.205521
301.464844	-40.296543
344.531250	-42.963326
387.597656	-42.514893
430.664062	-42.717339
473.730469	-42.464359
516.796875	-42.808685
559.863281	-42.581581
602.929688	-42.265526
645.996094	-42.144573
689.062500	-41.915718
732.128906	-41.837910
775.195312	-41.193924
818.261719	-41.644058
861.328125	-41.182541
904.394531	-40.503201
947.460938	-40.751934
990.527344	-39.926044
1033.593750	-39.636013
1076.660156	-39.490837
1119.726562	-39.344402
1162.792969	-38.875591
1205.859375	-38.844109
1248.925781	-38.119030
1291.992188	-37.830463
1335.058594	-37.375885
1378.125000	-36.954784
1421.191406	-36.409595
1464.257812	-35.876751
1507.324219	-35.283108
1550.390625	-34.806129
1593.457031	-33.569576
1636.523438	-32.778286
1679.589844	-32.233040
1722.656250	-31.493484
1765.722656	-29.938631
1808.789062	-28.983547
1851.855469	-27.315792
1894.921875	-25.596930
1937.988281	-23.403688
1981.054688	-20.537922
2024.121094	-15.863075
2067.187500	-5.437510
2110.253906	-7.404518
2153.320312	-16.441404
2196.386719	-20.806532
2239.453125	-23.657936
2282.519531	-25.817390
2325.585938	-27.226824
2368.652344	-29.454662
2411.718750	-30.271893
2454.785156	-31.460337
2497.851562	-32.620129
2540.917969	-32.823837
2583.984375	-33.629250
2627.050781	-34.724266
2670.117188	-35.285179
2713.183594	-35.885315
2756.250000	-37.031445
2799.316406	-36.173962
2842.382812	-36.880833
2885.449219	-38.141598
2928.515625	-37.728062
2971.582031	-37.832748
3014.648438	-38.633663
3057.714844	-39.049400
3100.781250	-37.961330
3143.847656	-40.630527
3186.914062	-39.375492
3229.980469	-40.729240
3273.046875	-40.726852
3316.113281	-40.681076
3359.179688	-41.326118
3402.246094	-40.597713
3445.312500	-41.992580
3488.378906	-42.739979
3531.445312	-42.625435
3574.511719	-42.980476
3617.578125	-41.755852
3660.644531	-42.872440
3703.710938	-43.435486
3746.777344	-44.153194
3789.843750	-43.726154
3832.910156	-42.813648
3875.976562	-43.020420
3919.042969	-42.917652
3962.109375	-44.505135
4005.175781	-43.951683
4048.242188	-42.691998
4091.308594	-42.662964
4134.375000	-44.484344
4177.441406	-45.136059
4220.507812	-43.867756
4263.574219	-45.070862
4306.640625	-45.188026
4349.707031	-44.386440
4392.773438	-43.162933
4435.839844	-44.582367
4478.906250	-46.315140
4521.972656	-44.831730
4565.039062	-36.245701
4608.105469	-38.990669
4651.171875	-42.298389
4694.238281	-43.496929
4737.304688	-44.179066
4780.371094	-39.952286
4823.437500	-36.239059
4866.503906	-32.062641
4909.570312	-32.910332
4952.636719	-19.770447
4995.703125	-30.999832
5038.769531	-35.654266
5081.835938	-41.445919
5124.902344	-45.835098
5167.968750	-44.638302
5211.035156	-43.366760
5254.101562	-44.262352
5297.167969	-45.711761
5340.234375	-46.298382
5383.300781	-48.127869
5426.367188	-45.834385
5469.433594	-45.786564
5512.500000	-42.744209
5555.566406	-42.500500
5598.632812	-28.274595
5641.699219	-36.771580
5684.765625	-38.855610
5727.832031	-44.922302
5770.898438	-46.058815
5813.964844	-46.590946
5857.031250	-48.997566
5900.097656	-49.408890
5943.164062	-48.055500
5986.230469	-46.058525
6029.296875	-46.747990
6072.363281	-48.064297
6115.429688	-47.676064
6158.496094	-43.791740
6201.562500	-38.855484
6244.628906	-33.773567
6287.695312	-41.166656
6330.761719	-46.265873
6373.828125	-46.907722
6416.894531	-44.749493
6459.960938	-46.146034
6503.027344	-47.876026
6546.093750	-47.940498
6589.160156	-46.538380
6632.226562	-45.219345
6675.292969	-50.092888
6718.359375	-50.629524
6761.425781	-49.732719
6804.492188	-49.762783
6847.558594	-48.407806
6890.625000	-48.915009
6933.691406	-50.848129
6976.757812	-49.086342
7019.824219	-50.188362
7062.890625	-49.934650
7105.957031	-51.639816
7149.023438	-50.677807
7192.089844	-52.071980
7235.156250	-51.930428
7278.222656	-51.866005
7321.289062	-51.943836
7364.355469	-51.270588
7407.421875	-51.082825
7450.488281	-52.731888
7493.554688	-52.742245
7536.621094	-52.574944
7579.687500	-51.168262
7622.753906	-52.638245
7665.820312	-52.030643
7708.886719	-53.467533
7751.953125	-53.241100
7795.019531	-53.231903
7838.085938	-53.036533
7881.152344	-53.276390
7924.218750	-53.556026
7967.285156	-53.670216
8010.351562	-53.742874
8053.417969	-53.798302
8096.484375	-53.842083
8139.550781	-53.734074
8182.617188	-53.700130
8225.683594	-53.923061
8268.750000	-54.207668
8311.816406	-54.219730
8354.882812	-54.208668
8397.949219	-53.853443
8441.015625	-54.403233
8484.082031	-54.299316
8527.148438	-54.360092
8570.214844	-54.331490
8613.281250	-54.500042
8656.347656	-54.527534
8699.414062	-54.603104
8742.480469	-54.606361
8785.546875	-54.662003
8828.613281	-54.743458
8871.679688	-54.798126
8914.746094	-54.827427
8957.812500	-54.896912
9000.878906	-54.906384
9043.945312	-54.965343
9087.011719	-55.003830
9130.078125	-55.054028
9173.144531	-55.074310
9216.210938	-55.132614
9259.277344	-55.170792
9302.343750	-55.209126
9345.410156	-55.255226
9388.476562	-55.295166
9431.542969	-55.337521
9474.609375	-55.372883
9517.675781	-55.416576
9560.742188	-55.455494
9603.808594	-55.492386
9646.875000	-55.532936
9689.941406	-55.571587
9733.007812	-55.611965
9776.074219	-55.646870
9819.140625	-55.686855
9862.207031	-55.722408
9905.273438	-55.759361
9948.339844	-55.798687
9991.406250	-55.834167
10034.472656	-55.868393
10077.539062	-55.909649
10120.605469	-55.941761
10163.671875	-55.979481
10206.738281	-56.014881
10249.804688	-56.046837
10292.871094	-56.081409
10335.937500	-56.116951
10379.003906	-56.153042
10422.070312	-56.185455
10465.136719	-56.220928
10508.203125	-56.251289
10551.269531	-56.286282
10594.335938	-56.322144
10637.402344	-56.352375
10680.468750	-56.387661
10723.535156	-56.418507
10766.601562	-56.446091
10809.667969	-56.479279
10852.734375	-56.513889
10895.800781	-56.544613
10938.867188	-56.576099
10981.933594	-56.604416
11025.000000	-56.634186
11068.066406	-56.665573
11111.132812	-56.694294
11154.199219	-56.728081
11197.265625	-56.762177
11240.332031	-56.781414
11283.398438	-56.814571
11326.464844	-56.845097
11369.531250	-56.874119
11412.597656	-56.906063
11455.664062	-56.930004
11498.730469	-56.961754
11541.796875	-56.988808
11584.863281	-57.018162
11627.929688	-57.047256
11670.996094	-57.072842
11714.062500	-57.098728
11757.128906	-57.126778
11800.195312	-57.154591
11843.261719	-57.180809
11886.328125	-57.211182
11929.394531	-57.235767
11972.460938	-57.260929
12015.527344	-57.287346
12058.593750	-57.312412
12101.660156	-57.338737
12144.726562	-57.365147
12187.792969	-57.389267
12230.859375	-57.417446
12273.925781	-57.439240
12316.992188	-57.466251
12360.058594	-57.491226
12403.125000	-57.516342
12446.191406	-57.541012
12489.257812	-57.563160
12532.324219	-57.588657
12575.390625	-57.613480
12618.457031	-57.634647
12661.523438	-57.662716
12704.589844	-57.684460
12747.656250	-57.709080
12790.722656	-57.727478
12833.789062	-57.752705
12876.855469	-57.774300
12919.921875	-57.800350
12962.988281	-57.821346
13006.054688	-57.847790
13049.121094	-57.866138
13092.187500	-57.886829
13135.253906	-57.908863
13178.320312	-57.934025
13221.386719	-57.954300
13264.453125	-57.976322
13307.519531	-57.998203
13350.585938	-58.018993
13393.652344	-58.040604
13436.718750	-58.061298
13479.785156	-58.080540
13522.851562	-58.097370
13565.917969	-58.121433
13608.984375	-58.145248
13652.050781	-58.158913
13695.117188	-58.183163
13738.183594	-58.202877
13781.250000	-58.224869
13824.316406	-58.239445
13867.382812	-58.259235
13910.449219	-58.273983
13953.515625	-58.300533
13996.582031	-58.313881
14039.648438	-58.339535
14082.714844	-58.349827
14125.781250	-58.378590
14168.847656	-58.396126
14211.914062	-58.404778
14254.980469	-58.431023
14298.046875	-58.453281
14341.113281	-58.463638
14384.179688	-58.491005
14427.246094	-58.496994
14470.312500	-58.518433
14513.378906	-58.541260
14556.445312	-58.551945
14599.511719	-58.570415
14642.578125	-58.597370
14685.644531	-58.599037
14728.710938	-58.630707
14771.777344	-58.632175
14814.843750	-58.658134
14857.910156	-58.674759
14900.976562	-58.686573
14944.042969	-58.703945
14987.109375	-58.715599
15030.175781	-58.740360
15073.242188	-58.739933
15116.308594	-58.780373
15159.375000	-58.782906
15202.441406	-58.805355
15245.507812	-58.818352
15288.574219	-58.831921
15331.640625	-58.840420
15374.707031	-58.863365
15417.773438	-58.862400
15460.839844	-58.909004
15503.906250	-58.904530
15546.972656	-58.902180
15590.039062	-58.919308
15633.105469	-58.951622
15676.171875	-58.940670
15719.238281	-58.963848
15762.304688	-58.981018
15805.371094	-59.004074
15848.437500	-59.001629
15891.503906	-59.031029
15934.570312	-59.053364
15977.636719	-59.062618
16020.703125	-59.085636
16063.769531	-59.077801
16106.835938	-59.098049
16149.902344	-59.102661
16192.968750	-59.110519
16236.035156	-59.152138
16279.101562	-59.156189
16322.167969	-59.160732
16365.234375	-59.174671
16408.300781	-59.182808
16451.367188	-59.192982
16494.433594	-59.226200
16537.500000	-59.221924
16580.566406	-59.230377
16623.632812	-59.281651
16666.699219	-59.249088
16709.765625	-59.283199
16752.832031	-59.275860
16795.898438	-59.277332
16838.964844	-59.311104
16882.031250	-59.358574
16925.097656	-59.320126
16968.164062	-59.367874
17011.230469	-59.344776
17054.296875	-59.356472
17097.363281	-59.367714
17140.429688	-59.376179
17183.496094	-59.373787
17226.562500	-59.408268
17269.628906	-59.403549
17312.695312	-59.413734
17355.761719	-59.429600
17398.828125	-59.429100
17441.894531	-59.437656
17484.960938	-59.491936
17528.027344	-59.470993
17571.093750	-59.520222
17614.160156	-59.500381
17657.226562	-59.512985
17700.292969	-59.483181
17743.359375	-59.520222
17786.425781	-59.525536
17829.492188	-59.510403
17872.558594	-59.541676
17915.625000	-59.561508
17958.691406	-59.564674
18001.757812	-59.601765
18044.824219	-59.565701
18087.890625	-59.571613
18130.957031	-59.575871
18174.023438	-59.605038
18217.089844	-59.619091
18260.156250	-59.591923
18303.222656	-59.635708
18346.289062	-59.648350
18389.355469	-59.636658
18432.421875	-59.686665
18475.488281	-59.648941
18518.554688	-59.656384
18561.621094	-59.674332
18604.687500	-59.704773
18647.753906	-59.677692
18690.820312	-59.700569
18733.886719	-59.682693
18776.953125	-59.713493
18820.019531	-59.713547
18863.085938	-59.750774
18906.152344	-59.705410
18949.218750	-59.733070
18992.285156	-59.756233
19035.351562	-59.763741
19078.417969	-59.758053
19121.484375	-59.761185
19164.550781	-59.771732
19207.617188	-59.789875
19250.683594	-59.795998
19293.750000	-59.787537
19336.816406	-59.795624
19379.882812	-59.771301
19422.949219	-59.757027
19466.015625	-59.813698
19509.082031	-59.811989
19552.148438	-59.850735
19595.214844	-59.821018
19638.281250	-59.805351
19681.347656	-59.798828
19724.414062	-59.828606
19767.480469	-59.865559
19810.546875	-59.878605
19853.613281	-59.846107
19896.679688	-59.855789
19939.746094	-59.871338
19982.812500	-59.874855
20025.878906	-59.844307
20068.945312	-59.866188
20112.011719	-59.921074
20155.078125	-59.843792
20198.144531	-59.910076
20241.210938	-59.887539
20284.277344	-59.851669
20327.343750	-59.820061
20370.410156	-59.899246
20413.476562	-59.942215
20456.542969	-59.861378
20499.609375	-59.897392
20542.675781	-59.913616
20585.742188	-59.873459
20628.808594	-59.919060
20671.875000	-59.935925
20714.941406	-59.903511
20758.007812	-59.935715
20801.074219	-59.933647
20844.140625	-59.944370
20887.207031	-59.897625
20930.273438	-59.940907
20973.339844	-59.964951
21016.406250	-59.941235
21059.472656	-59.948589
21102.539062	-59.932270
21145.605469	-59.941807
21188.671875	-59.924385
21231.738281	-59.924870
21274.804688	-59.950466
21317.871094	-59.913612
21360.937500	-59.952927
21404.003906	-59.960995
21447.070312	-59.951042
21490.136719	-59.877930
21533.203125	-59.976589
21576.269531	-59.934010
21619.335938	-59.969692
21662.402344	-59.960087
21705.468750	-59.961224
21748.535156	-59.920097
21791.601562	-59.937031
21834.667969	-59.949226
21877.734375	-59.943935
21920.800781	-59.986069
21963.867188	-59.966488
22006.933594	-60.025398
