Frequency (Hz)	Level (dB)
86.132812	-42.790974
172.265625	-39.553387
258.398438	-46.154202
344.531250	-54.273781
430.664062	-58.253719
516.796875	-59.833900
602.929688	-59.187813
689.062500	-61.317833
775.195312	-62.524414
861.328125	-60.970230
947.460938	-61.362236
1033.593750	-59.079937
1119.726562	-52.606270
1205.859375	-60.742565
1291.992188	-61.001179
1378.125000	-59.551544
1464.257812	-61.705853
1550.390625	-60.298981
1636.523438	-55.558617
1722.656250	-52.010754
1808.789062	-49.102684
1894.921875	-51.308880
1981.054688	-50.726738
2067.187500	-50.469437
2153.320312	-51.548908
2239.453125	-51.543892
2325.585938	-41.269806
2411.718750	-21.368883
2497.851562	-42.701515
2583.984375	-51.254745
2670.117188	-48.594505
2756.250000	-45.921509
2842.382812	-51.566692
2928.515625	-51.171856
3014.648438	-52.841576
3100.781250	-53.229954
3186.914062	-50.291317
3273.046875	-47.651588
3359.179688	-49.478848
3445.312500	-50.117134
3531.445312	-51.641228
3617.578125	-48.716587
3703.710938	-52.391037
3789.843750	-52.507626
3875.976562	-59.855511
3962.109375	-60.144279
4048.242188	-58.210098
4134.375000	-53.710232
4220.507812	-52.112648
4306.640625	-54.360638
4392.773438	-56.940083
4478.906250	-59.004818
4565.039062	-54.527763
4651.171875	-49.141491
4737.304688	-53.482159
4823.437500	-48.446815
4909.570312	-49.642422
4995.703125	-49.829887
5081.835938	-42.578800
5167.968750	-33.640110
5254.101562	-47.490074
5340.234375	-51.398758
5426.367188	-53.781174
5512.500000	-57.159592
5598.632812	-59.482353
5684.765625	-60.947456
5770.898438	-62.079983
5857.031250	-62.670757
5943.164062	-57.935818
6029.296875	-63.597443
6115.429688	-65.078171
6201.562500	-65.146149
6287.695312	-64.427681
6373.828125	-57.384045
6459.960938	-59.108192
6546.093750	-56.371552
6632.226562	-43.261383
6718.359375	-52.049679
6804.492188	-59.762108
6890.625000	-60.272087
6976.757812	-60.001446
7062.890625	-56.324196
7149.023438	-58.206463
7235.156250	-60.347870
7321.289062	-61.788303
7407.421875	-60.696880
7493.554688	-63.486195
7579.687500	-67.965919
7665.820312	-67.645454
7751.953125	-71.122475
7838.085938	-71.108185
7924.218750	-69.160370
8010.351562	-70.260452
8096.484375	-71.965073
8182.617188	-73.768257
8268.750000	-73.814644
8354.882812	-74.403198
8441.015625	-74.234032
8527.148438	-74.282661
8613.281250	-75.270592
8699.414062	-75.220474
8785.546875	-75.620651
8871.679688	-75.897049
8957.812500	-77.147713
9043.945312	-76.977661
9130.078125	-77.205711
9216.210938	-77.391991
9302.343750	-77.487595
9388.476562	-77.762230
9474.609375	-77.925484
9560.742188	-78.081718
9646.875000	-78.261177
9733.007812	-78.413284
9819.140625	-78.568558
9905.273438	-78.712563
9991.406250	-78.846062
10077.539062	-78.979019
10163.671875	-79.128853
10249.804688	-79.264297
10335.937500	-79.390800
10422.070312	-79.517532
10508.203125	-79.663185
10594.335938	-79.777466
10680.468750	-79.895531
10766.601562	-80.006538
10852.734375	-80.144753
10938.867188	-80.258278
11025.000000	-80.405090
11111.132812	-80.490906
11197.265625	-80.574989
11283.398438	-80.700027
11369.531250	-80.827690
11455.664062	-80.924919
11541.796875	-81.043808
11627.929688	-81.155434
11714.062500	-81.231613
11800.195312	-81.324051
11886.328125	-81.369637
11972.460938	-81.528351
12058.593750	-81.616173
12144.726562	-81.707008
12230.859375	-81.710335
12316.992188	-81.883705
12403.125000	-81.930901
12489.257812	-82.043625
12575.390625	-82.182892
12661.523438	-82.216286
12747.656250	-82.341019
12833.789062	-82.403526
12919.921875	-82.472183
13006.054688	-82.576080
13092.187500	-82.579590
13178.320312	-82.715820
13264.453125	-82.803436
13350.585938	-82.895210
13436.718750	-82.955147
13522.851562	-83.027443
13608.984375	-83.095680
13695.117188	-83.195442
13781.250000	-83.275551
13867.382812	-83.330780
13953.515625	-83.407883
14039.648438	-83.527603
14125.781250	-83.534897
14211.914062	-83.605507
14298.046875	-83.608955
14384.179688	-83.734985
14470.312500	-83.779396
14556.445312	-83.877670
14642.578125	-83.942947
14728.710938	-83.981056
14814.843750	-84.098175
14900.976562	-84.153015
14987.109375	-84.180519
15073.242188	-84.214310
15159.375000	-84.359482
15245.507812	-84.362762
15331.640625	-84.431847
15417.773438	-84.488937
15503.906250	-84.514374
15590.039062	-84.626556
15676.171875	-84.654305
15762.304688	-84.714775
15848.437500	-84.800842
15934.570312	-84.834938
16020.703125	-84.890556
16106.835938	-84.972290
16192.968750	-85.034531
16279.101562	-85.071976
16365.234375	-85.028084
16451.367188	-85.156288
16537.500000	-85.190041
16623.632812	-85.259430
16709.765625	-85.271835
16795.898438	-85.372910
16882.031250	-85.357262
16968.164062	-85.417419
17054.296875	-85.505348
17140.429688	-85.605789
17226.562500	-85.672783
17312.695312	-85.693253
17398.828125	-85.803154
17484.960938	-85.785751
17571.093750	-85.777916
17657.226562	-85.887016
17743.359375	-85.916855
17829.492188	-85.966476
17915.625000	-86.029526
18001.757812	-86.104858
18087.890625	-86.010193
18174.023438	-86.162560
18260.156250	-86.061317
18346.289062	-86.242661
18432.421875	-86.196815
18518.554688	-86.308075
18604.687500	-86.381287
18690.820312	-86.417603
18776.953125	-86.498070
18863.085938	-86.453918
18949.218750	-86.492775
19035.351562	-86.541534
19121.484375	-86.620628
19207.617188	-86.654518
19293.750000	-86.672386
19379.882812	-86.762924
19466.015625	-86.620453
19552.148438	-86.757599
19638.281250	-86.874542
19724.414062	-86.897148
19810.546875	-86.926643
19896.679688	-86.957268
19982.812500	-87.047272
20068.945312	-86.962570
20155.078125	-87.174561
20241.210938	-87.083923
20327.343750	-87.209946
20413.476562	-87.151146
20499.609375	-87.184975
20585.742188	-87.230850
20671.875000	-87.338829
20758.007812	-87.286186
20844.140625	-87.383965
20930.273438	-87.378242
21016.406250	-87.551140
21102.539062	-87.362679
21188.671875	-87.620621
21274.804688	-87.524933
21360.937500	-87.612442
21447.070312	-87.562126
21533.203125	-87.617149
21619.335938	-87.601891
21705.468750	-87.666618
21791.601562	-87.690147
21877.734375	-87.752419
21963.867188	-87.760094
22050.000000	-87.814308
22136.132812	-87.884689
22222.265625	-87.823235
22308.398438	-87.824654
22394.531250	-87.981850
22480.664062	-87.994598
22566.796875	-87.866844
22652.929688	-88.083977
22739.062500	-88.013084
22825.195312	-88.102638
22911.328125	-88.070381
22997.460938	-88.099030
23083.593750	-88.235405
23169.726562	-88.186920
23255.859375	-88.234711
23341.992188	-88.285583
23428.125000	-88.331383
23514.257812	-88.360146
23600.390625	-88.314651
23686.523438	-88.397972
23772.656250	-88.438110
23858.789062	-88.469978
23944.921875	-88.508759
24031.054688	-88.435303
24117.187500	-88.546242
24203.320312	-88.608139
24289.453125	-88.586563
24375.585938	-88.602814
24461.718750	-88.626579
24547.851562	-88.679901
24633.984375	-88.694008
24720.117188	-88.694534
24806.250000	-88.747063
24892.382812	-88.804253
24978.515625	-88.728027
25064.648438	-88.816978
25150.781250	-88.859047
25236.914062	-88.812653
25323.046875	-88.828697
25409.179688	-88.851250
25495.312500	-88.872345
25581.445312	-89.028580
25667.578125	-88.995865
25753.710938	-88.980812
25839.843750	-89.006584
25925.976562	-88.932526
26012.109375	-89.122353
26098.242188	-89.024223
26184.375000	-89.128899
26270.507812	-89.110336
26356.640625	-89.186600
26442.773438	-89.070877
26528.906250	-89.302513
26615.039062	-89.298103
26701.171875	-89.160706
26787.304688	-89.166740
26873.437500	-89.443886
26959.570312	-89.415642
27045.703125	-89.156746
27131.835938	-89.265350
27217.968750	-89.328133
27304.101562	-89.345612
27390.234375	-89.372879
27476.367188	-89.373566
27562.500000	-89.369370
27648.632812	-89.540825
27734.765625	-89.622597
27820.898438	-89.474281
27907.031250	-89.474449
27993.164062	-89.522034
28079.296875	-89.535500
28165.429688	-89.645844
28251.562500	-89.474380
28337.695312	-89.611290
28423.828125	-89.693039
28509.960938	-89.660812
28596.093750	-89.698982
28682.226562	-89.665863
28768.359375	-89.688652
28854.492188	-89.683708
28940.625000	-89.986893
29026.757812	-89.736809
29112.890625	-89.685730
29199.023438	-89.691902
29285.156250	-89.708206
29371.289062	-89.896957
29457.421875	-89.703873
29543.554688	-89.757042
29629.687500	-89.544556
29715.820312	-89.727722
29801.953125	-90.255219
29888.085938	-89.859398
29974.218750	-89.868164
30060.351562	-89.770851
30146.484375	-89.812431
30232.617188	-89.814957
30318.750000	-89.904961
30404.882812	-90.086319
30491.015625	-90.614189
30577.148438	-89.921768
30663.281250	-91.239662
30749.414062	-90.124825
30835.546875	-90.157478
30921.679688	-90.121292
31007.812500	-89.952454
31093.945312	-89.721062
31180.078125	-89.622604
31266.210938	-89.908699
31352.343750	-89.568405
31438.476562	-90.104385
31524.609375	-89.962456
31610.742188	-89.826157
31696.875000	-89.975670
31783.007812	-90.126442
31869.140625	-89.771996
31955.273438	-89.916924
32041.406250	-89.659904
32127.539062	-90.282524
32213.671875	-90.524956
32299.804688	-89.776207
32385.937500	-90.271011
32472.070312	-90.259094
32558.203125	-90.041016
32644.335938	-90.193672
32730.468750	-90.794548
32816.601562	-89.846870
32902.734375	-89.811523
32988.867188	-90.535927
33075.000000	-90.255196
33161.132812	-90.309692
33247.265625	-89.926102
33333.398438	-90.398628
33419.531250	-89.300072
33505.664062	-89.803146
33591.796875	-90.563652
33677.929688	-90.126404
33764.062500	-89.760513
33850.195312	-90.028526
33936.328125	-90.308701
34022.460938	-90.837852
34108.593750	-89.724625
34194.726562	-90.115875
34280.859375	-89.669876
34366.992188	-89.727058
34453.125000	-89.462624
34539.257812	-90.014671
34625.390625	-90.750847
34711.523438	-89.919724
34797.656250	-90.663017
34883.789062	-89.910873
34969.921875	-90.286186
35056.054688	-90.259270
35142.187500	-90.455460
35228.320312	-90.103180
35314.453125	-90.757317
35400.585938	-90.208923
35486.718750	-90.033417
35572.851562	-89.898155
35658.984375	-90.039345
35745.117188	-89.458908
35831.250000	-90.472099
35917.382812	-90.403320
36003.515625	-89.885941
36089.648438	-90.392067
36175.781250	-90.648575
36261.914062	-90.101616
36348.046875	-90.397453
36434.179688	-90.380058
36520.312500	-90.013161
36606.445312	-89.658997
36692.578125	-89.783379
36778.710938	-90.091423
36864.843750	-90.538048
36950.976562	-90.175117
37037.109375	-89.488380
37123.242188	-90.093369
37209.375000	-90.610611
37295.507812	-90.432175
37381.640625	-90.448326
37467.773438	-90.206505
37553.906250	-90.419495
37640.039062	-90.597176
37726.171875	-89.703934
37812.304688	-89.462372
37898.437500	-90.015205
37984.570312	-90.135689
38070.703125	-89.958107
38156.835938	-89.059196
38242.968750	-89.085320
38329.101562	-90.252609
38415.234375	-90.995308
38501.367188	-89.227409
38587.500000	-89.779213
38673.632812	-90.532303
38759.765625	-90.558136
38845.898438	-89.837952
38932.031250	-90.548439
39018.164062	-89.527191
39104.296875	-89.452934
39190.429688	-90.564255
39276.562500	-90.289337
39362.695312	-90.712555
39448.828125	-89.183365
39534.960938	-89.555283
39621.093750	-89.515152
39707.226562	-89.857475
39793.359375	-90.991341
39879.492188	-90.435814
39965.625000	-90.280167
40051.757812	-89.958443
40137.890625	-89.722412
40224.023438	-90.470474
40310.156250	-91.577591
40396.289062	-89.087982
40482.421875	-90.345459
40568.554688	-89.413864
40654.687500	-89.604774
40740.820312	-88.913628
40826.953125	-90.731903
40913.085938	-89.484413
40999.218750	-89.879425
41085.351562	-89.829124
41171.484375	-90.795670
41257.617188	-88.662537
41343.750000	-89.960312
41429.882812	-89.627815
41516.015625	-90.866974
41602.148438	-89.893837
41688.281250	-89.725876
41774.414062	-89.717331
41860.546875	-90.707565
41946.679688	-90.291557
42032.812500	-88.794312
42118.945312	-89.816200
42205.078125	-89.961525
42291.210938	-89.570251
42377.343750	-88.803474
42463.476562	-90.148277
42549.609375	-90.438103
42635.742188	-89.362419
42721.875000	-89.276497
42808.007812	-90.013962
42894.140625	-90.166878
42980.273438	-89.005272
43066.406250	-89.070862
43152.539062	-89.875259
43238.671875	-89.414505
43324.804688	-89.387672
43410.937500	-90.190163
43497.070312	-90.110588
43583.203125	-89.783287
43669.335938	-89.342300
43755.468750	-88.873924
43841.601562	-90.045082
43927.734375	-89.461266
44013.867188	-89.958191
