Frequency (Hz)	Level (dB)
86.132812	-52.645103
172.265625	-51.462681
258.398438	-52.310966
344.531250	-52.459522
430.664062	-51.790993
516.796875	-51.645927
602.929688	-51.489395
689.062500	-50.656918
775.195312	-51.581223
861.328125	-50.834843
947.460938	-50.161831
1033.593750	-48.370621
1119.726562	-48.940697
1205.859375	-47.742989
1291.992188	-47.611576
1378.125000	-47.570248
1464.257812	-46.624718
1550.390625	-45.524933
1636.523438	-44.546848
1722.656250	-43.418331
1808.789062	-41.796547
1894.921875	-40.397148
1981.054688	-38.234768
2067.187500	-35.444798
2153.320312	-31.529339
2239.453125	-22.860462
2325.585938	-20.085079
2411.718750	-11.894024
2497.851562	-32.474991
2583.984375	-36.748199
2670.117188	-39.286076
2756.250000	-41.070190
2842.382812	-41.508846
2928.515625	-42.765923
3014.648438	-45.257092
3100.781250	-44.296886
3186.914062	-46.092735
3273.046875	-43.825317
3359.179688	-46.482113
3445.312500	-45.971287
3531.445312	-46.687054
3617.578125	-48.558895
3703.710938	-51.085846
3789.843750	-51.255978
3875.976562	-51.741287
3962.109375	-51.875221
4048.242188	-51.868523
4134.375000	-51.463615
4220.507812	-48.869431
4306.640625	-50.324493
4392.773438	-51.754169
4478.906250	-51.638325
4565.039062	-51.203159
4651.171875	-50.548454
4737.304688	-48.856960
4823.437500	-46.457096
4909.570312	-45.135784
4995.703125	-40.416561
5081.835938	-34.054028
5167.968750	-25.283333
5254.101562	-38.987892
5340.234375	-43.653961
5426.367188	-47.171089
5512.500000	-47.278309
5598.632812	-49.282761
5684.765625	-51.760693
5770.898438	-51.495876
5857.031250	-51.520538
5943.164062	-52.824589
6029.296875	-52.097507
6115.429688	-51.614845
6201.562500	-48.195244
6287.695312	-48.066193
6373.828125	-48.784904
6459.960938	-45.026085
6546.093750	-39.480366
6632.226562	-27.706722
6718.359375	-35.572887
6804.492188	-44.115032
6890.625000	-47.359924
6976.757812	-49.935265
7062.890625	-51.383835
7149.023438	-53.309010
7235.156250	-53.138268
7321.289062	-53.316216
7407.421875	-55.163490
7493.554688	-56.128647
7579.687500	-56.069237
7665.820312	-57.708931
7751.953125	-57.356606
7838.085938	-58.382019
7924.218750	-58.678242
8010.351562	-59.584633
8096.484375	-59.478241
8182.617188	-59.713367
8268.750000	-59.311031
8354.882812	-60.398079
8441.015625	-60.149025
8527.148438	-60.562920
8613.281250	-60.802658
8699.414062	-61.219219
8785.546875	-61.090126
8871.679688	-61.421837
8957.812500	-61.508255
9043.945312	-61.711658
9130.078125	-61.842419
9216.210938	-61.970913
9302.343750	-62.121567
9388.476562	-62.392506
9474.609375	-62.466076
9560.742188	-62.585533
9646.875000	-62.708271
9733.007812	-62.823601
9819.140625	-62.941204
9905.273438	-63.059986
9991.406250	-63.170620
10077.539062	-63.287106
10163.671875	-63.390041
10249.804688	-63.501007
10335.937500	-63.605598
10422.070312	-63.696995
10508.203125	-63.799007
10594.335938	-63.900970
10680.468750	-63.996635
10766.601562	-64.094849
10852.734375	-64.188171
10938.867188	-64.271111
11025.000000	-64.359398
11111.132812	-64.460899
11197.265625	-64.542839
11283.398438	-64.620850
11369.531250	-64.711449
11455.664062	-64.789986
11541.796875	-64.875839
11627.929688	-64.952469
11714.062500	-65.031227
11800.195312	-65.114433
11886.328125	-65.192116
11972.460938	-65.274017
12058.593750	-65.345802
12144.726562	-65.415848
12230.859375	-65.496300
12316.992188	-65.560768
12403.125000	-65.637917
12489.257812	-65.702965
12575.390625	-65.780319
12661.523438	-65.842911
12747.656250	-65.914124
12833.789062	-65.978577
12919.921875	-66.051079
13006.054688	-66.114273
13092.187500	-66.181244
13178.320312	-66.242149
13264.453125	-66.310638
13350.585938	-66.363449
13436.718750	-66.433235
13522.851562	-66.489922
13608.984375	-66.554649
13695.117188	-66.614868
13781.250000	-66.674812
13867.382812	-66.739990
13953.515625	-66.797195
14039.648438	-66.851624
14125.781250	-66.913017
14211.914062	-66.973343
14298.046875	-67.031845
14384.179688	-67.081581
14470.312500	-67.145760
14556.445312	-67.191017
14642.578125	-67.245483
14728.710938	-67.297897
14814.843750	-67.348671
14900.976562	-67.419266
14987.109375	-67.459862
15073.242188	-67.519775
15159.375000	-67.566658
15245.507812	-67.610741
15331.640625	-67.660065
15417.773438	-67.725922
15503.906250	-67.761864
15590.039062	-67.831459
15676.171875	-67.872665
15762.304688	-67.906860
15848.437500	-67.962158
15934.570312	-68.005569
16020.703125	-68.060860
16106.835938	-68.104591
16192.968750	-68.158272
16279.101562	-68.198708
16365.234375	-68.244606
16451.367188	-68.291969
16537.500000	-68.333206
16623.632812	-68.379387
16709.765625	-68.429901
16795.898438	-68.466339
16882.031250	-68.519646
16968.164062	-68.549545
17054.296875	-68.599731
17140.429688	-68.644119
17226.562500	-68.686623
17312.695312	-68.726768
17398.828125	-68.768105
17484.960938	-68.813217
17571.093750	-68.840668
17657.226562	-68.890152
17743.359375	-68.926155
17829.492188	-68.980148
17915.625000	-69.020088
18001.757812	-69.053467
18087.890625	-69.094246
18174.023438	-69.127602
18260.156250	-69.177650
18346.289062	-69.215034
18432.421875	-69.244728
18518.554688	-69.284325
18604.687500	-69.319817
18690.820312	-69.365784
18776.953125	-69.404472
18863.085938	-69.450256
18949.218750	-69.482674
19035.351562	-69.496796
19121.484375	-69.540817
19207.617188	-69.577797
19293.750000	-69.623383
19379.882812	-69.650154
19466.015625	-69.677849
19552.148438	-69.719734
19638.281250	-69.767380
19724.414062	-69.781532
19810.546875	-69.820824
19896.679688	-69.856667
19982.812500	-69.901031
20068.945312	-69.935959
20155.078125	-69.953926
20241.210938	-69.998352
20327.343750	-70.007782
20413.476562	-70.064651
20499.609375	-70.094612
20585.742188	-70.130943
20671.875000	-70.155762
20758.007812	-70.188782
20844.140625	-70.225128
20930.273438	-70.247375
21016.406250	-70.271797
21102.539062	-70.315025
21188.671875	-70.340637
21274.804688	-70.381470
21360.937500	-70.410858
21447.070312	-70.432640
21533.203125	-70.462784
21619.335938	-70.494865
21705.468750	-70.517586
21791.601562	-70.546303
21877.734375	-70.576988
21963.867188	-70.609337
22050.000000	-70.637283
22136.132812	-70.660408
22222.265625	-70.695595
22308.398438	-70.715294
22394.531250	-70.749878
22480.664062	-70.780838
22566.796875	-70.805946
22652.929688	-70.836418
22739.062500	-70.859985
22825.195312	-70.890839
22911.328125	-70.912552
22997.460938	-70.942688
23083.593750	-70.965736
23169.726562	-70.986977
23255.859375	-71.015800
23341.992188	-71.037453
23428.125000	-71.069786
23514.257812	-71.095451
23600.390625	-71.115082
23686.523438	-71.147141
23772.656250	-71.171837
23858.789062	-71.206253
23944.921875	-71.228958
24031.054688	-71.241219
24117.187500	-71.270332
24203.320312	-71.293839
24289.453125	-71.317482
24375.585938	-71.344162
24461.718750	-71.374336
24547.851562	-71.385559
24633.984375	-71.414841
24720.117188	-71.434998
24806.250000	-71.464798
24892.382812	-71.478287
24978.515625	-71.511780
25064.648438	-71.525169
25150.781250	-71.563194
25236.914062	-71.580582
25323.046875	-71.594711
25409.179688	-71.619995
25495.312500	-71.635712
25581.445312	-71.668938
25667.578125	-71.693268
25753.710938	-71.701805
25839.843750	-71.730484
25925.976562	-71.745674
26012.109375	-71.764153
26098.242188	-71.792488
26184.375000	-71.792183
26270.507812	-71.845940
26356.640625	-71.841629
26442.773438	-71.884155
26528.906250	-71.895439
26615.039062	-71.921738
26701.171875	-71.942581
26787.304688	-71.953094
26873.437500	-71.984528
26959.570312	-71.997169
27045.703125	-72.012367
27131.835938	-72.038239
27217.968750	-72.043228
27304.101562	-72.064384
27390.234375	-72.101448
27476.367188	-72.104622
27562.500000	-72.142700
27648.632812	-72.169388
27734.765625	-72.162064
27820.898438	-72.184418
27907.031250	-72.201004
27993.164062	-72.210129
28079.296875	-72.238777
28165.429688	-72.262535
28251.562500	-72.281700
28337.695312	-72.272865
28423.828125	-72.321808
28509.960938	-72.317879
28596.093750	-72.352432
28682.226562	-72.322922
28768.359375	-72.395081
28854.492188	-72.398346
28940.625000	-72.396461
29026.757812	-72.440338
29112.890625	-72.434486
29199.023438	-72.468437
29285.156250	-72.476204
29371.289062	-72.501717
29457.421875	-72.515205
29543.554688	-72.548279
29629.687500	-72.570366
29715.820312	-72.586983
29801.953125	-72.565842
29888.085938	-72.582748
29974.218750	-72.592972
30060.351562	-72.597664
30146.484375	-72.662437
30232.617188	-72.652061
30318.750000	-72.633186
30404.882812	-72.671219
30491.015625	-72.722847
30577.148438	-72.692894
30663.281250	-72.721039
30749.414062	-72.752419
30835.546875	-72.738518
30921.679688	-72.765404
31007.812500	-72.763695
31093.945312	-72.804787
31180.078125	-72.821243
31266.210938	-72.792595
31352.343750	-72.828392
31438.476562	-72.837753
31524.609375	-72.868706
31610.742188	-72.829933
31696.875000	-72.886314
31783.007812	-72.947845
31869.140625	-72.926186
31955.273438	-72.894478
32041.406250	-72.961746
32127.539062	-72.938950
32213.671875	-72.978874
32299.804688	-72.972549
32385.937500	-72.967171
32472.070312	-73.009926
32558.203125	-73.007042
32644.335938	-73.039108
32730.468750	-73.030334
32816.601562	-72.989479
32902.734375	-73.067337
32988.867188	-73.048225
33075.000000	-73.087486
33161.132812	-73.128418
33247.265625	-73.165688
33333.398438	-73.091919
33419.531250	-73.054626
33505.664062	-73.126930
33591.796875	-73.087982
33677.929688	-73.167145
33764.062500	-73.170731
33850.195312	-73.209915
33936.328125	-73.141571
34022.460938	-73.162880
34108.593750	-73.186005
34194.726562	-73.183235
34280.859375	-73.216354
34366.992188	-73.203232
34453.125000	-73.244705
34539.257812	-73.264542
34625.390625	-73.239265
34711.523438	-73.251419
34797.656250	-73.234177
34883.789062	-73.263664
34969.921875	-73.323425
35056.054688	-73.307915
35142.187500	-73.239548
35228.320312	-73.406723
35314.453125	-73.445900
35400.585938	-73.451431
35486.718750	-73.317291
35572.851562	-73.338882
35658.984375	-73.338364
35745.117188	-73.455818
35831.250000	-73.373611
35917.382812	-73.274300
36003.515625	-73.513145
36089.648438	-73.422981
36175.781250	-73.464081
36261.914062	-73.349274
36348.046875	-73.444962
36434.179688	-73.455536
36520.312500	-73.479492
36606.445312	-73.481537
36692.578125	-73.433510
36778.710938	-73.440033
36864.843750	-73.391228
36950.976562	-73.569778
37037.109375	-73.423798
37123.242188	-73.521805
37209.375000	-73.507706
37295.507812	-73.482330
37381.640625	-73.509865
37467.773438	-73.382408
37553.906250	-73.566895
37640.039062	-73.495682
37726.171875	-73.535706
37812.304688	-73.703484
37898.437500	-73.570374
37984.570312	-73.515457
38070.703125	-73.604973
38156.835938	-73.722755
38242.968750	-73.590286
38329.101562	-73.565720
38415.234375	-73.682854
38501.367188	-73.497421
38587.500000	-73.646790
38673.632812	-73.580788
38759.765625	-73.538368
38845.898438	-73.601242
38932.031250	-73.693893
39018.164062	-73.567131
39104.296875	-73.527740
39190.429688	-73.772942
39276.562500	-73.686905
39362.695312	-73.721313
39448.828125	-73.745682
39534.960938	-73.685867
39621.093750	-73.686798
39707.226562	-73.654587
39793.359375	-73.719498
39879.492188	-73.725342
39965.625000	-73.618820
40051.757812	-73.755882
40137.890625	-73.717804
40224.023438	-73.573906
40310.156250	-73.699600
40396.289062	-73.664207
40482.421875	-73.717155
40568.554688	-73.662048
40654.687500	-73.751099
40740.820312	-73.834160
40826.953125	-73.678711
40913.085938	-73.794670
40999.218750	-73.775360
41085.351562	-73.582520
41171.484375	-73.867004
41257.617188	-73.772850
41343.750000	-73.667862
41429.882812	-73.753517
41516.015625	-73.825653
41602.148438	-73.831612
41688.281250	-73.719231
41774.414062	-73.844032
41860.546875	-73.798012
41946.679688	-73.711906
42032.812500	-73.780807
42118.945312	-73.782318
42205.078125	-73.780251
42291.210938	-73.693466
42377.343750	-73.654526
42463.476562	-73.832611
42549.609375	-73.873199
42635.742188	-73.927994
42721.875000	-73.670616
42808.007812	-73.726357
42894.140625	-73.857925
42980.273438	-73.686073
43066.406250	-73.745270
43152.539062	-73.758041
43238.671875	-73.717392
43324.804688	-73.955254
43410.937500	-73.906029
43497.070312	-73.855026
43583.203125	-73.711288
43669.335938	-73.726700
43755.468750	-73.760590
43841.601562	-73.638977
43927.734375	-73.844559
44013.867188	-73.772270
