Frequency (Hz)	Level (dB)
86.132812	-43.045860
172.265625	-43.065746
258.398438	-42.827316
344.531250	-42.876602
430.664062	-42.743523
516.796875	-42.415062
602.929688	-42.185314
689.062500	-41.900990
775.195312	-41.635258
861.328125	-41.338173
947.460938	-40.973080
1033.593750	-40.451214
1119.726562	-39.876606
1205.859375	-39.498665
1291.992188	-38.893860
1378.125000	-38.081905
1464.257812	-37.460121
1550.390625	-36.537018
1636.523438	-35.457817
1722.656250	-34.142715
1808.789062	-32.745350
1894.921875	-31.030457
1981.054688	-29.117283
2067.187500	-26.134642
2153.320312	-22.285118
2239.453125	-13.530532
2325.585938	-10.719125
2411.718750	-13.435222
2497.851562	-25.264536
2583.984375	-28.293045
2670.117188	-30.675720
2756.250000	-32.500099
2842.382812	-33.646461
2928.515625	-35.134289
3014.648438	-36.395550
3100.781250	-37.130692
3186.914062	-37.757900
3273.046875	-37.462349
3359.179688	-37.989815
3445.312500	-38.647926
3531.445312	-39.012188
3617.578125	-39.652168
3703.710938	-40.709148
3789.843750	-41.224281
3875.976562	-42.062748
3962.109375	-42.142002
4048.242188	-42.517086
4134.375000	-42.015198
4220.507812	-42.148281
4306.640625	-41.947281
4392.773438	-42.671234
4478.906250	-42.577282
4565.039062	-42.592796
4651.171875	-41.696087
4737.304688	-40.304012
4823.437500	-39.015743
4909.570312	-37.656631
4995.703125	-34.710564
5081.835938	-27.839613
5167.968750	-19.324102
5254.101562	-32.125427
5340.234375	-36.402969
5426.367188	-37.187279
5512.500000	-38.080757
5598.632812	-37.476315
5684.765625	-35.633160
5770.898438	-31.303089
5857.031250	-19.030159
5943.164062	-25.848537
6029.296875	-32.376102
6115.429688	-34.863525
6201.562500	-35.795341
6287.695312	-35.419289
6373.828125	-35.488407
6459.960938	-32.306606
6546.093750	-27.412704
6632.226562	-15.046568
6718.359375	-22.658825
6804.492188	-31.321999
6890.625000	-32.665630
6976.757812	-34.607780
7062.890625	-36.483955
7149.023438	-36.917507
7235.156250	-38.294086
7321.289062	-39.176994
7407.421875	-41.277294
7493.554688	-41.485065
7579.687500	-41.450771
7665.820312	-44.744682
7751.953125	-46.224918
7838.085938	-46.879856
7924.218750	-47.718357
8010.351562	-47.921288
8096.484375	-49.225590
8182.617188	-49.152863
8268.750000	-48.715305
8354.882812	-49.643669
8441.015625	-48.645905
8527.148438	-50.376232
8613.281250	-50.171333
8699.414062	-50.442142
8785.546875	-51.063198
8871.679688	-51.028622
8957.812500	-52.123730
9043.945312	-52.103680
9130.078125	-52.382328
9216.210938	-52.929279
9302.343750	-52.467644
9388.476562	-53.157066
9474.609375	-53.001728
9560.742188	-53.072926
9646.875000	-53.621075
9733.007812	-53.474907
9819.140625	-54.073887
9905.273438	-54.102379
9991.406250	-54.236942
10077.539062	-54.510860
10163.671875	-54.440102
10249.804688	-54.700024
10335.937500	-54.759872
10422.070312	-54.868416
10508.203125	-55.085354
10594.335938	-55.115242
10680.468750	-55.319656
10766.601562	-55.429337
10852.734375	-55.493122
10938.867188	-55.710255
11025.000000	-55.642258
11111.132812	-55.879818
11197.265625	-55.860058
11283.398438	-56.027172
11369.531250	-56.116463
11455.664062	-56.248852
11541.796875	-56.316986
11627.929688	-56.473305
11714.062500	-56.460896
11800.195312	-56.614521
11886.328125	-56.645939
11972.460938	-56.756264
12058.593750	-56.857426
12144.726562	-56.953388
12230.859375	-57.015438
12316.992188	-57.135529
12403.125000	-57.145241
12489.257812	-57.288586
12575.390625	-57.306087
12661.523438	-57.449139
12747.656250	-57.469559
12833.789062	-57.593510
12919.921875	-57.626472
13006.054688	-57.713436
13092.187500	-57.779518
13178.320312	-57.874481
13264.453125	-57.909695
13350.585938	-58.038868
13436.718750	-58.021744
13522.851562	-58.139099
13608.984375	-58.171066
13695.117188	-58.249512
13781.250000	-58.339836
13867.382812	-58.418411
13953.515625	-58.458885
14039.648438	-58.555767
14125.781250	-58.556137
14211.914062	-58.641655
14298.046875	-58.695522
14384.179688	-58.750771
14470.312500	-58.832710
14556.445312	-58.896976
14642.578125	-58.949524
14728.710938	-58.998531
14814.843750	-59.063911
14900.976562	-59.115730
14987.109375	-59.180595
15073.242188	-59.251976
15159.375000	-59.286003
15245.507812	-59.331852
15331.640625	-59.400394
15417.773438	-59.416859
15503.906250	-59.527267
15590.039062	-59.560387
15676.171875	-59.616665
15762.304688	-59.683094
15848.437500	-59.693176
15934.570312	-59.734859
16020.703125	-59.810600
16106.835938	-59.820099
16192.968750	-59.937504
16279.101562	-59.954865
16365.234375	-60.039268
16451.367188	-60.040058
16537.500000	-60.120674
16623.632812	-60.127571
16709.765625	-60.221008
16795.898438	-60.240532
16882.031250	-60.315777
16968.164062	-60.319881
17054.296875	-60.408485
17140.429688	-60.379101
17226.562500	-60.507584
17312.695312	-60.504971
17398.828125	-60.599430
17484.960938	-60.628700
17571.093750	-60.666573
17657.226562	-60.667179
17743.359375	-60.757298
17829.492188	-60.728420
17915.625000	-60.862694
18001.757812	-60.858433
18087.890625	-60.938610
18174.023438	-60.936375
18260.156250	-61.002064
18346.289062	-60.994442
18432.421875	-61.097153
18518.554688	-61.103352
18604.687500	-61.185791
18690.820312	-61.185825
18776.953125	-61.249454
18863.085938	-61.224510
18949.218750	-61.327919
19035.351562	-61.317188
19121.484375	-61.412502
19207.617188	-61.435322
19293.750000	-61.470314
19379.882812	-61.470894
19466.015625	-61.538261
19552.148438	-61.526276
19638.281250	-61.632656
19724.414062	-61.651794
19810.546875	-61.689106
19896.679688	-61.724762
19982.812500	-61.740547
20068.945312	-61.752403
20155.078125	-61.824890
20241.210938	-61.842045
20327.343750	-61.904549
20413.476562	-61.928467
20499.609375	-61.950245
20585.742188	-61.960575
20671.875000	-62.008389
20758.007812	-62.032227
20844.140625	-62.087280
20930.273438	-62.146397
21016.406250	-62.139454
21102.539062	-62.189556
21188.671875	-62.196590
21274.804688	-62.214718
21360.937500	-62.273308
21447.070312	-62.314278
21533.203125	-62.326412
21619.335938	-62.391533
21705.468750	-62.360054
21791.601562	-62.410664
21877.734375	-62.431835
21963.867188	-62.483459
22050.000000	-62.509899
22136.132812	-62.579071
22222.265625	-62.549931
22308.398438	-62.604752
22394.531250	-62.594421
22480.664062	-62.648540
22566.796875	-62.663094
22652.929688	-62.748470
22739.062500	-62.712303
22825.195312	-62.796574
22911.328125	-62.758091
22997.460938	-62.809914
23083.593750	-62.822018
23169.726562	-62.893284
23255.859375	-62.878590
23341.992188	-62.968071
23428.125000	-62.915688
23514.257812	-62.983654
23600.390625	-62.971230
23686.523438	-63.026649
23772.656250	-63.034550
23858.789062	-63.120327
23944.921875	-63.075626
24031.054688	-63.153053
24117.187500	-63.121883
24203.320312	-63.169804
24289.453125	-63.184074
24375.585938	-63.254063
24461.718750	-63.230515
24547.851562	-63.313431
24633.984375	-63.270748
24720.117188	-63.320362
24806.250000	-63.325897
24892.382812	-63.373302
24978.515625	-63.380161
25064.648438	-63.455357
25150.781250	-63.421021
25236.914062	-63.468491
25323.046875	-63.466209
25409.179688	-63.492226
25495.312500	-63.519398
25581.445312	-63.577850
25667.578125	-63.568863
25753.710938	-63.617962
25839.843750	-63.602665
25925.976562	-63.619740
26012.109375	-63.657646
26098.242188	-63.684662
26184.375000	-63.709511
26270.507812	-63.751965
26356.640625	-63.742237
26442.773438	-63.750263
26528.906250	-63.784554
26615.039062	-63.787506
26701.171875	-63.837517
26787.304688	-63.872978
26873.437500	-63.879940
26959.570312	-63.897316
27045.703125	-63.918945
27131.835938	-63.894527
27217.968750	-63.965317
27304.101562	-63.973682
27390.234375	-64.011642
27476.367188	-64.032127
27562.500000	-64.038696
27648.632812	-64.021317
27734.765625	-64.084846
27820.898438	-64.058113
27907.031250	-64.131165
27993.164062	-64.136627
28079.296875	-64.163918
28165.429688	-64.138084
28251.562500	-64.191727
28337.695312	-64.153961
28423.828125	-64.246887
28509.960938	-64.240829
28596.093750	-64.282143
28682.226562	-64.267982
28768.359375	-64.300835
28854.492188	-64.257645
28940.625000	-64.347130
29026.757812	-64.326782
29112.890625	-64.384972
29199.023438	-64.389145
29285.156250	-64.418701
29371.289062	-64.376038
29457.421875	-64.447372
29543.554688	-64.391739
29629.687500	-64.488678
29715.820312	-64.489471
29801.953125	-64.520905
29888.085938	-64.505203
29974.218750	-64.540421
30060.351562	-64.478233
30146.484375	-64.575966
30232.617188	-64.561378
30318.750000	-64.599144
30404.882812	-64.616806
30491.015625	-64.627472
30577.148438	-64.595146
30663.281250	-64.661659
30749.414062	-64.637169
30835.546875	-64.692818
30921.679688	-64.722183
31007.812500	-64.702995
31093.945312	-64.709343
31180.078125	-64.727371
31266.210938	-64.697563
31352.343750	-64.763794
31438.476562	-64.798615
31524.609375	-64.784241
31610.742188	-64.814407
31696.875000	-64.797325
31783.007812	-64.785698
31869.140625	-64.844666
31955.273438	-64.838745
32041.406250	-64.864647
32127.539062	-64.888557
32213.671875	-64.874352
32299.804688	-64.885605
32385.937500	-64.894463
32472.070312	-64.904182
32558.203125	-64.940971
32644.335938	-64.991058
32730.468750	-64.948853
32816.601562	-64.972832
32902.734375	-64.969131
32988.867188	-64.955124
33075.000000	-65.000916
33161.132812	-65.042679
33247.265625	-65.022804
33333.398438	-65.075813
33419.531250	-65.064110
33505.664062	-65.054405
33591.796875	-65.051010
33677.929688	-65.097801
33764.062500	-65.092941
33850.195312	-65.134560
33936.328125	-65.097519
34022.460938	-65.126678
34108.593750	-65.118805
34194.726562	-65.164932
34280.859375	-65.161407
34366.992188	-65.195587
34453.125000	-65.166191
34539.257812	-65.210594
34625.390625	-65.185066
34711.523438	-65.184250
34797.656250	-65.190521
34883.789062	-65.228180
34969.921875	-65.209457
35056.054688	-65.284164
35142.187500	-65.235374
35228.320312	-65.240318
35314.453125	-65.269661
35400.585938	-65.272102
35486.718750	-65.273232
35572.851562	-65.315300
35658.984375	-65.300591
35745.117188	-65.351227
35831.250000	-65.308403
35917.382812	-65.302803
36003.515625	-65.333206
36089.648438	-65.350990
36175.781250	-65.358864
36261.914062	-65.396194
36348.046875	-65.361397
36434.179688	-65.363190
36520.312500	-65.383179
36606.445312	-65.400330
36692.578125	-65.438042
36778.710938	-65.491859
36864.843750	-65.442268
36950.976562	-65.419029
37037.109375	-65.433800
37123.242188	-65.437027
37209.375000	-65.450081
37295.507812	-65.474617
37381.640625	-65.472786
37467.773438	-65.475533
37553.906250	-65.472153
37640.039062	-65.459724
37726.171875	-65.451546
37812.304688	-65.509453
37898.437500	-65.529625
37984.570312	-65.560188
38070.703125	-65.562645
38156.835938	-65.497383
38242.968750	-65.495827
38329.101562	-65.513634
38415.234375	-65.530930
38501.367188	-65.571991
38587.500000	-65.571548
38673.632812	-65.557701
38759.765625	-65.556503
38845.898438	-65.503311
38932.031250	-65.603333
39018.164062	-65.572578
39104.296875	-65.590225
39190.429688	-65.581520
39276.562500	-65.642967
39362.695312	-65.576233
39448.828125	-65.627625
39534.960938	-65.597008
39621.093750	-65.615379
39707.226562	-65.624550
39793.359375	-65.647453
39879.492188	-65.585503
39965.625000	-65.616562
40051.757812	-65.590775
40137.890625	-65.657516
40224.023438	-65.674904
40310.156250	-65.639145
40396.289062	-65.671906
40482.421875	-65.706947
40568.554688	-65.612373
40654.687500	-65.683846
40740.820312	-65.641891
40826.953125	-65.688194
40913.085938	-65.674454
40999.218750	-65.683914
41085.351562	-65.625679
41171.484375	-65.659103
41257.617188	-65.623047
41343.750000	-65.706413
41429.882812	-65.674637
41516.015625	-65.707008
41602.148438	-65.660492
41688.281250	-65.688721
41774.414062	-65.667175
41860.546875	-65.684723
41946.679688	-65.728462
42032.812500	-65.705482
42118.945312	-65.740982
42205.078125	-65.712379
42291.210938	-65.683754
42377.343750	-65.699028
42463.476562	-65.714600
42549.609375	-65.756660
42635.742188	-65.735329
42721.875000	-65.701462
42808.007812	-65.742416
42894.140625	-65.716629
42980.273438	-65.701630
43066.406250	-65.736115
43152.539062	-65.708420
43238.671875	-65.711777
43324.804688	-65.756020
43410.937500	-65.718880
43497.070312	-65.682396
43583.203125	-65.729172
43669.335938	-65.747986
43755.468750	-65.748352
43841.601562	-65.749023
43927.734375	-65.711624
44013.867188	-65.763748
