Frequency (Hz)	Level (dB)
43.066406	-56.307602
86.132812	-59.848274
129.199219	-62.204056
172.265625	-63.516277
215.332031	-63.634266
258.398438	-65.328323
301.464844	-63.935108
344.531250	-64.882980
387.597656	-65.618950
430.664062	-65.153748
473.730469	-65.549438
516.796875	-65.049614
559.863281	-64.422775
602.929688	-64.086693
645.996094	-64.737473
689.062500	-62.701214
732.128906	-64.980324
775.195312	-64.736115
818.261719	-63.235500
861.328125	-63.923367
904.394531	-63.187397
947.460938	-64.800209
990.527344	-60.759781
1033.593750	-62.706177
1076.660156	-60.109695
1119.726562	-62.168964
1162.792969	-63.264652
1205.859375	-60.621609
1248.925781	-62.109695
1291.992188	-60.598404
1335.058594	-60.891975
1378.125000	-59.643463
1421.191406	-59.395409
1464.257812	-58.663010
1507.324219	-56.272671
1550.390625	-57.353035
1593.457031	-56.808113
1636.523438	-55.469891
1679.589844	-55.017002
1722.656250	-53.913635
1765.722656	-52.426910
1808.789062	-51.180279
1851.855469	-47.005005
1894.921875	-45.049446
1937.988281	-35.867962
1981.054688	-34.591766
2024.121094	-39.781956
2067.187500	-31.729105
2110.253906	-34.522419
2153.320312	-43.544487
2196.386719	-47.570751
2239.453125	-50.171524
2282.519531	-50.990166
2325.585938	-53.316383
2368.652344	-55.289665
2411.718750	-54.392567
2454.785156	-57.571003
2497.851562	-56.903004
2540.917969	-58.300137
2583.984375	-58.833530
2627.050781	-59.013767
2670.117188	-61.117661
2713.183594	-62.897568
2756.250000	-62.961918
2799.316406	-60.779598
2842.382812	-63.850330
2885.449219	-63.415344
2928.515625	-61.904549
2971.582031	-63.124287
3014.648438	-64.883560
3057.714844	-63.427441
3100.781250	-59.138107
3143.847656	-63.644436
3186.914062	-64.337799
3229.980469	-66.606972
3273.046875	-66.863205
3316.113281	-64.857910
3359.179688	-67.031876
3402.246094	-64.543976
3445.312500	-66.056068
3488.378906	-66.365822
3531.445312	-68.489349
3574.511719	-68.583977
3617.578125	-65.656181
3660.644531	-63.447109
3703.710938	-65.681244
3746.777344	-62.598320
3789.843750	-65.724564
3832.910156	-62.864376
3875.976562	-66.213745
3919.042969	-64.903671
3962.109375	-63.900375
4005.175781	-68.513824
4048.242188	-61.432831
4091.308594	-65.654449
4134.375000	-63.940239
4177.441406	-62.582577
4220.507812	-65.597046
4263.574219	-60.921406
4306.640625	-66.156181
4349.707031	-59.833675
4392.773438	-63.093464
4435.839844	-62.347664
4478.906250	-55.820045
4521.972656	-61.642979
4565.039062	-53.880669
4608.105469	-58.214443
4651.171875	-55.240799
4694.238281	-53.788616
4737.304688	-58.595100
4780.371094	-49.754440
4823.437500	-53.876186
4866.503906	-48.243397
4909.570312	-38.526985
4952.636719	-27.539150
4995.703125	-37.656487
5038.769531	-48.309059
5081.835938	-51.258938
5124.902344	-49.615368
5167.968750	-55.755154
5211.035156	-56.133945
5254.101562	-58.847080
5297.167969	-58.065006
5340.234375	-55.326309
5383.300781	-58.719501
5426.367188	-61.278133
5469.433594	-59.547314
5512.500000	-58.787586
5555.566406	-51.939323
5598.632812	-37.016552
5641.699219	-44.574509
5684.765625	-54.707943
5727.832031	-55.536175
5770.898438	-58.675861
5813.964844	-62.224720
5857.031250	-56.431099
5900.097656	-60.068745
5943.164062	-58.141270
5986.230469	-60.247570
6029.296875	-59.491142
6072.363281	-55.269287
6115.429688	-54.128078
6158.496094	-51.148590
6201.562500	-43.893303
6244.628906	-38.366028
6287.695312	-49.131504
6330.761719	-50.423813
6373.828125	-57.832081
6416.894531	-53.339180
6459.960938	-57.103432
6503.027344	-54.387459
6546.093750	-56.245358
6589.160156	-57.184860
6632.226562	-60.414539
6675.292969	-61.230686
6718.359375	-63.556381
6761.425781	-65.884178
6804.492188	-64.782784
6847.558594	-66.832108
6890.625000	-67.107063
6933.691406	-67.517052
6976.757812	-67.030762
7019.824219	-67.618797
7062.890625	-67.355034
7105.957031	-67.499367
7149.023438	-67.279320
7192.089844	-67.603745
7235.156250	-64.949142
7278.222656	-71.294357
7321.289062	-67.107246
7364.355469	-70.177429
7407.421875	-71.547401
7450.488281	-68.503250
7493.554688	-65.995720
7536.621094	-66.450928
7579.687500	-53.666176
7622.753906	-58.140182
7665.820312	-63.611294
7708.886719	-66.392883
7751.953125	-65.829865
7795.019531	-68.013359
7838.085938	-64.872696
7881.152344	-65.265671
7924.218750	-62.225029
7967.285156	-56.606159
8010.351562	-45.788292
8053.417969	-51.385647
8096.484375	-58.512077
8139.550781	-63.595463
8182.617188	-65.626434
8225.683594	-68.900787
8268.750000	-65.779732
8311.816406	-69.408821
8354.882812	-71.962006
8397.949219	-67.447205
8441.015625	-70.075729
8484.082031	-68.056778
8527.148438	-66.747726
8570.214844	-63.128555
8613.281250	-66.912727
8656.347656	-65.606003
8699.414062	-62.828449
8742.480469	-60.774178
8785.546875	-59.951748
8828.613281	-50.986526
8871.679688	-44.669701
8914.746094	-56.416813
8957.812500	-58.915165
9000.878906	-64.654396
9043.945312	-60.920158
9087.011719	-67.220940
9130.078125	-65.368179
9173.144531	-68.396881
9216.210938	-73.371628
9259.277344	-69.286285
9302.343750	-72.320595
9345.410156	-69.599449
9388.476562	-70.298248
9431.542969	-73.500427
9474.609375	-64.973289
9517.675781	-59.187092
9560.742188	-62.089542
9603.808594	-65.712936
9646.875000	-73.000153
9689.941406	-70.073265
9733.007812	-75.627747
9776.074219	-72.566200
9819.140625	-76.846085
9862.207031	-77.549706
9905.273438	-75.174301
9948.339844	-78.182266
9991.406250	-76.530945
10034.472656	-76.385986
10077.539062	-76.188377
10120.605469	-76.770325
10163.671875	-76.683998
10206.738281	-77.424889
10249.804688	-75.958473
10292.871094	-78.417702
10335.937500	-76.202156
10379.003906	-79.168243
10422.070312	-77.262306
10465.136719	-77.237450
10508.203125	-77.007179
10551.269531	-75.540520
10594.335938	-74.893364
10637.402344	-73.102989
10680.468750	-76.259109
10723.535156	-71.349174
10766.601562	-66.132324
10809.667969	-60.031834
10852.734375	-56.650417
10895.800781	-66.304047
10938.867188	-71.745148
10981.933594	-73.862663
11025.000000	-73.206055
11068.066406	-76.323784
11111.132812	-76.991951
11154.199219	-77.372444
11197.265625	-78.196281
11240.332031	-77.330109
11283.398438	-78.753403
11326.464844	-77.391045
11369.531250	-78.211685
11412.597656	-79.352661
11455.664062	-78.321663
11498.730469	-79.757324
11541.796875	-78.720154
11584.863281	-79.212677
11627.929688	-80.277748
11670.996094	-77.830948
11714.062500	-81.408928
11757.128906	-77.688408
11800.195312	-80.580475
11843.261719	-78.491890
11886.328125	-79.031433
11929.394531	-80.889206
11972.460938	-78.281883
12015.527344	-81.616821
12058.593750	-79.078079
12101.660156	-80.490288
12144.726562	-80.381798
12187.792969	-79.676094
12230.859375	-81.346481
12273.925781	-79.567474
12316.992188	-79.338669
12360.058594	-82.147408
12403.125000	-77.862961
12446.191406	-81.336685
12489.257812	-81.005196
12532.324219	-75.191528
12575.390625	-76.743248
12618.457031	-73.255081
12661.523438	-77.057899
12704.589844	-75.594421
12747.656250	-78.736938
12790.722656	-78.375618
12833.789062	-77.295502
12876.855469	-78.842583
12919.921875	-75.900459
12962.988281	-77.853302
13006.054688	-77.379997
13049.121094	-76.673630
13092.187500	-77.843216
13135.253906	-74.168900
13178.320312	-75.017479
13221.386719	-73.424919
13264.453125	-72.299538
13307.519531	-68.707817
13350.585938	-68.154274
13393.652344	-63.609379
13436.718750	-62.648293
13479.785156	-52.402920
13522.851562	-51.821480
13565.917969	-64.687714
13608.984375	-61.722717
13652.050781	-65.084404
13695.117188	-67.800819
13738.183594	-70.179131
13781.250000	-73.381203
13824.316406	-70.965828
13867.382812	-72.812088
13910.449219	-73.415321
13953.515625	-72.484459
13996.582031	-73.450157
14039.648438	-76.865234
14082.714844	-77.976456
14125.781250	-75.790054
14168.847656	-75.352455
14211.914062	-73.214180
14254.980469	-73.435356
14298.046875	-77.501228
14341.113281	-73.807976
14384.179688	-74.722595
14427.246094	-74.199905
14470.312500	-78.319122
14513.378906	-70.613647
14556.445312	-62.058208
14599.511719	-64.554749
14642.578125	-66.794250
14685.644531	-74.864182
14728.710938	-73.909126
14771.777344	-74.490456
14814.843750	-76.865402
14857.910156	-77.966293
14900.976562	-76.608078
14944.042969	-80.871811
14987.109375	-78.442055
15030.175781	-80.639244
15073.242188	-78.589386
15116.308594	-79.188507
15159.375000	-79.446259
15202.441406	-79.938370
15245.507812	-79.240028
15288.574219	-80.497902
15331.640625	-79.105316
15374.707031	-80.292831
15417.773438	-79.245193
15460.839844	-79.731842
15503.906250	-80.633690
15546.972656	-78.838470
15590.039062	-81.865448
15633.105469	-79.053047
15676.171875	-80.120132
15719.238281	-78.920570
15762.304688	-79.703194
15805.371094	-78.016098
15848.437500	-80.795372
15891.503906	-77.707710
15934.570312	-80.768204
15977.636719	-79.541779
16020.703125	-81.955711
16063.769531	-81.462509
16106.835938	-81.599167
16149.902344	-81.299477
16192.968750	-81.415161
16236.035156	-81.478958
16279.101562	-81.463867
16322.167969	-81.439682
16365.234375	-81.441124
16408.300781	-81.525787
16451.367188	-81.432930
16494.433594	-81.392792
16537.500000	-81.553215
16580.566406	-81.360977
16623.632812	-81.510727
16666.699219	-81.450188
16709.765625	-81.470413
16752.832031	-81.493729
16795.898438	-81.750504
16838.964844	-81.639648
16882.031250	-81.670799
16925.097656	-81.668900
16968.164062	-81.620224
17011.230469	-81.770538
17054.296875	-81.724915
17097.363281	-81.797104
17140.429688	-81.965225
17183.496094	-81.643059
17226.562500	-81.776031
17269.628906	-81.638275
17312.695312	-81.834618
17355.761719	-81.892914
17398.828125	-81.845848
17441.894531	-81.983360
17484.960938	-81.802925
17528.027344	-81.911919
17571.093750	-82.048050
17614.160156	-81.985413
17657.226562	-81.863449
17700.292969	-82.067101
17743.359375	-82.252266
17786.425781	-82.003883
17829.492188	-82.126167
17872.558594	-82.121880
17915.625000	-81.815231
17958.691406	-82.036865
18001.757812	-81.924767
18044.824219	-82.103004
18087.890625	-82.108475
18130.957031	-82.151871
18174.023438	-82.100388
18217.089844	-82.248962
18260.156250	-82.142998
18303.222656	-82.225914
18346.289062	-82.106529
18389.355469	-82.235901
18432.421875	-82.325455
18475.488281	-82.239182
18518.554688	-82.282768
18561.621094	-82.283043
18604.687500	-82.478615
18647.753906	-82.342056
18690.820312	-82.258858
18733.886719	-82.274185
18776.953125	-82.364952
18820.019531	-82.359901
18863.085938	-82.297485
18906.152344	-82.407341
18949.218750	-82.337212
18992.285156	-82.326706
19035.351562	-82.442345
19078.417969	-82.428375
19121.484375	-82.415062
19164.550781	-82.389084
19207.617188	-82.417900
19250.683594	-82.225792
19293.750000	-82.605492
19336.816406	-82.542175
19379.882812	-82.377411
19422.949219	-82.394249
19466.015625	-82.465309
19509.082031	-82.434494
19552.148438	-82.587387
19595.214844	-82.542236
19638.281250	-82.621574
19681.347656	-82.656670
19724.414062	-82.549194
19767.480469	-82.562683
19810.546875	-82.352722
19853.613281	-82.482491
19896.679688	-82.644943
19939.746094	-82.466812
19982.812500	-82.360481
20025.878906	-82.352440
20068.945312	-82.675758
20112.011719	-82.818459
20155.078125	-82.682526
20198.144531	-82.685692
20241.210938	-82.479736
20284.277344	-82.709396
20327.343750	-82.642052
20370.410156	-82.560410
20413.476562	-82.511604
20456.542969	-82.649292
20499.609375	-82.449707
20542.675781	-82.712120
20585.742188	-82.626076
20628.808594	-82.684608
20671.875000	-82.967766
20714.941406	-82.813339
20758.007812	-82.834167
20801.074219	-82.459274
20844.140625	-82.788406
20887.207031	-82.768448
20930.273438	-82.640015
20973.339844	-82.811646
21016.406250	-82.745789
21059.472656	-82.874504
21102.539062	-82.767761
21145.605469	-82.826256
21188.671875	-82.560860
21231.738281	-82.748886
21274.804688	-82.633430
21317.871094	-82.813553
21360.937500	-82.605484
21404.003906	-82.778038
21447.070312	-82.694290
21490.136719	-82.677879
21533.203125	-82.669106
21576.269531	-82.478600
21619.335938	-82.665207
21662.402344	-82.716347
21705.468750	-82.532578
21748.535156	-82.611610
21791.601562	-82.657104
21834.667969	-82.404755
21877.734375	-82.898529
21920.800781	-82.872559
21963.867188	-82.801392
22006.933594	-82.588966
