Frequency (Hz)	Level (dB)
43.066406	-50.220146
86.132812	-59.254219
129.199219	-57.791595
172.265625	-59.558754
215.332031	-63.307117
258.398438	-65.278091
301.464844	-66.412903
344.531250	-64.879601
387.597656	-66.210197
430.664062	-66.691879
473.730469	-66.809120
516.796875	-65.719322
559.863281	-66.057808
602.929688	-66.000877
645.996094	-65.995171
689.062500	-65.530083
732.128906	-66.148308
775.195312	-64.740967
818.261719	-64.914650
861.328125	-64.315125
904.394531	-64.216896
947.460938	-63.119415
990.527344	-61.950874
1033.593750	-63.404789
1076.660156	-62.052017
1119.726562	-63.824898
1162.792969	-62.692146
1205.859375	-63.155674
1248.925781	-61.697754
1291.992188	-62.737656
1335.058594	-61.243546
1378.125000	-60.989822
1421.191406	-59.165760
1464.257812	-58.942047
1507.324219	-57.862282
1550.390625	-57.824226
1593.457031	-57.478188
1636.523438	-55.995758
1679.589844	-55.148102
1722.656250	-53.621357
1765.722656	-52.193684
1808.789062	-50.633709
1851.855469	-47.979282
1894.921875	-42.475079
1937.988281	-33.456726
1981.054688	-32.693958
2024.121094	-40.742954
2067.187500	-37.861420
2110.253906	-40.973301
2153.320312	-48.676033
2196.386719	-51.256851
2239.453125	-54.447636
2282.519531	-53.595261
2325.585938	-56.655556
2368.652344	-55.906960
2411.718750	-58.367767
2454.785156	-55.927921
2497.851562	-56.968201
2540.917969	-58.029736
2583.984375	-57.605957
2627.050781	-58.950245
2670.117188	-59.219631
2713.183594	-61.371063
2756.250000	-64.927879
2799.316406	-63.814159
2842.382812	-64.366356
2885.449219	-65.044815
2928.515625	-63.772049
2971.582031	-64.491791
3014.648438	-66.518761
3057.714844	-56.691734
3100.781250	-53.012894
3143.847656	-53.223892
3186.914062	-55.175159
3229.980469	-60.672657
3273.046875	-66.611488
3316.113281	-67.381096
3359.179688	-63.465946
3402.246094	-65.032021
3445.312500	-65.359741
3488.378906	-65.548416
3531.445312	-67.868004
3574.511719	-66.755180
3617.578125	-63.496830
3660.644531	-61.877537
3703.710938	-60.503372
3746.777344	-61.486687
3789.843750	-60.396664
3832.910156	-61.336288
3875.976562	-60.382229
3919.042969	-61.776726
3962.109375	-60.752239
4005.175781	-61.807125
4048.242188	-60.376434
4091.308594	-63.494259
4134.375000	-63.341312
4177.441406	-64.986855
4220.507812	-63.117088
4263.574219	-63.574352
4306.640625	-64.443947
4349.707031	-63.882244
4392.773438	-67.167137
4435.839844	-67.518463
4478.906250	-61.223751
4521.972656	-57.590748
4565.039062	-54.868683
4608.105469	-60.811722
4651.171875	-57.760689
4694.238281	-58.367954
4737.304688	-55.307690
4780.371094	-56.882401
4823.437500	-56.060356
4866.503906	-56.839760
4909.570312	-45.473076
4952.636719	-34.403889
4995.703125	-43.868526
5038.769531	-49.113644
5081.835938	-48.684708
5124.902344	-55.263950
5167.968750	-57.265656
5211.035156	-59.839970
5254.101562	-61.197456
5297.167969	-63.937923
5340.234375	-60.032501
5383.300781	-63.417347
5426.367188	-59.863178
5469.433594	-58.587345
5512.500000	-54.834610
5555.566406	-47.168114
5598.632812	-35.790199
5641.699219	-45.393261
5684.765625	-56.315220
5727.832031	-54.894066
5770.898438	-58.160030
5813.964844	-59.450584
5857.031250	-60.400177
5900.097656	-60.270813
5943.164062	-61.330505
5986.230469	-62.334404
6029.296875	-66.111954
6072.363281	-68.223885
6115.429688	-72.789261
6158.496094	-66.510025
6201.562500	-68.548180
6244.628906	-67.972023
6287.695312	-73.537735
6330.761719	-68.418358
6373.828125	-66.653046
6416.894531	-65.046524
6459.960938	-63.987453
6503.027344	-63.104336
6546.093750	-63.013439
6589.160156	-61.890644
6632.226562	-61.344353
6675.292969	-61.701893
6718.359375	-65.089966
6761.425781	-72.849861
6804.492188	-75.800728
6847.558594	-71.596977
6890.625000	-71.526680
6933.691406	-72.744400
6976.757812	-72.322319
7019.824219	-72.431068
7062.890625	-70.744896
7105.957031	-69.549164
7149.023438	-69.902473
7192.089844	-72.335312
7235.156250	-71.138405
7278.222656	-72.943779
7321.289062	-79.776405
7364.355469	-76.147530
7407.421875	-78.700172
7450.488281	-72.888519
7493.554688	-75.290421
7536.621094	-64.426422
7579.687500	-54.007671
7622.753906	-57.675117
7665.820312	-65.384666
7708.886719	-69.169632
7751.953125	-69.238884
7795.019531	-72.651039
7838.085938	-74.120888
7881.152344	-69.906693
7924.218750	-71.964508
7967.285156	-70.262779
8010.351562	-62.146606
8053.417969	-67.899040
8096.484375	-72.560852
8139.550781	-70.298698
8182.617188	-75.637955
8225.683594	-72.013428
8268.750000	-72.291321
8311.816406	-79.143417
8354.882812	-74.756577
8397.949219	-78.396774
8441.015625	-77.838875
8484.082031	-79.105263
8527.148438	-79.803123
8570.214844	-80.418236
8613.281250	-79.205399
8656.347656	-80.564049
8699.414062	-76.722260
8742.480469	-73.054924
8785.546875	-66.564903
8828.613281	-67.255035
8871.679688	-60.033657
8914.746094	-66.921692
8957.812500	-70.992340
9000.878906	-72.076126
9043.945312	-73.217148
9087.011719	-75.305229
9130.078125	-79.122231
9173.144531	-74.931198
9216.210938	-75.793167
9259.277344	-75.829453
9302.343750	-76.949272
9345.410156	-79.215912
9388.476562	-79.078156
9431.542969	-75.317276
9474.609375	-72.377831
9517.675781	-65.084076
9560.742188	-57.480556
9603.808594	-63.552555
9646.875000	-68.160316
9689.941406	-67.330215
9733.007812	-70.919334
9776.074219	-69.099701
9819.140625	-71.394669
9862.207031	-70.262718
9905.273438	-70.854828
9948.339844	-70.470978
9991.406250	-72.534981
10034.472656	-73.367577
10077.539062	-68.773621
10120.605469	-66.966934
10163.671875	-68.596863
10206.738281	-60.615955
10249.804688	-54.224869
10292.871094	-62.649822
10335.937500	-68.946114
10379.003906	-74.180206
10422.070312	-80.076027
10465.136719	-77.094574
10508.203125	-80.030891
10551.269531	-78.219704
10594.335938	-81.521309
10637.402344	-79.250504
10680.468750	-78.572166
10723.535156	-81.310150
10766.601562	-80.464424
10809.667969	-83.251129
10852.734375	-80.727592
10895.800781	-84.871185
10938.867188	-81.899727
10981.933594	-84.094620
11025.000000	-81.855423
11068.066406	-84.046577
11111.132812	-81.228767
11154.199219	-84.663307
11197.265625	-81.911552
11240.332031	-84.280457
11283.398438	-81.958527
11326.464844	-84.441742
11369.531250	-81.369072
11412.597656	-83.970734
11455.664062	-80.056557
11498.730469	-83.185966
11541.796875	-79.866875
11584.863281	-81.375801
11627.929688	-77.485191
11670.996094	-78.256752
11714.062500	-77.322762
11757.128906	-79.139038
11800.195312	-76.910301
11843.261719	-73.648499
11886.328125	-77.480179
11929.394531	-76.978745
11972.460938	-81.996422
12015.527344	-81.357292
12058.593750	-73.422104
12101.660156	-68.411285
12144.726562	-75.538223
12187.792969	-78.423767
12230.859375	-77.750198
12273.925781	-74.444519
12316.992188	-79.828697
12360.058594	-79.335068
12403.125000	-81.883446
12446.191406	-80.704140
12489.257812	-81.013573
12532.324219	-79.757927
12575.390625	-80.407234
12618.457031	-78.334816
12661.523438	-78.995735
12704.589844	-76.790543
12747.656250	-78.319260
12790.722656	-77.350845
12833.789062	-78.783684
12876.855469	-78.120789
12919.921875	-79.853241
12962.988281	-79.848022
13006.054688	-81.885040
13049.121094	-81.508568
13092.187500	-83.510475
13135.253906	-80.864883
13178.320312	-83.698311
13221.386719	-81.283730
13264.453125	-82.481094
13307.519531	-74.329300
13350.585938	-72.660385
13393.652344	-72.140259
13436.718750	-68.897202
13479.785156	-74.050163
13522.851562	-79.015327
13565.917969	-81.597969
13608.984375	-79.708733
13652.050781	-84.996803
13695.117188	-83.675827
13738.183594	-85.074783
13781.250000	-85.148491
13824.316406	-85.837791
13867.382812	-85.249290
13910.449219	-86.425835
13953.515625	-85.101967
13996.582031	-86.542763
14039.648438	-84.787437
14082.714844	-85.766579
14125.781250	-84.629250
14168.847656	-84.363304
14211.914062	-85.577629
14254.980469	-83.501053
14298.046875	-82.165108
14341.113281	-80.865623
14384.179688	-78.918640
14427.246094	-83.882187
14470.312500	-84.057320
14513.378906	-85.435875
14556.445312	-77.762444
14599.511719	-75.170647
14642.578125	-72.917549
14685.644531	-85.208366
14728.710938	-83.195076
14771.777344	-85.994156
14814.843750	-84.719963
14857.910156	-81.802643
14900.976562	-77.414940
14944.042969	-70.317291
14987.109375	-75.283058
15030.175781	-79.974663
15073.242188	-81.504631
15116.308594	-83.867867
15159.375000	-81.129181
15202.441406	-83.302643
15245.507812	-85.942017
15288.574219	-86.049454
15331.640625	-85.302803
15374.707031	-86.578941
15417.773438	-85.012291
15460.839844	-84.961235
15503.906250	-84.830765
15546.972656	-85.303230
15590.039062	-84.339485
15633.105469	-84.328407
15676.171875	-84.798683
15719.238281	-82.972214
15762.304688	-83.911118
15805.371094	-85.335594
15848.437500	-83.444351
15891.503906	-74.684563
15934.570312	-79.799026
15977.636719	-82.305862
16020.703125	-82.026505
16063.769531	-84.937675
16106.835938	-85.434761
16149.902344	-85.550682
16192.968750	-85.413849
16236.035156	-85.399284
16279.101562	-85.799126
16322.167969	-86.081924
16365.234375	-85.742584
16408.300781	-86.241989
16451.367188	-86.158180
16494.433594	-86.007149
16537.500000	-86.162155
16580.566406	-86.016464
16623.632812	-86.087059
16666.699219	-86.271202
16709.765625	-86.016968
16752.832031	-86.167725
16795.898438	-86.252037
16838.964844	-86.247078
16882.031250	-86.401985
16925.097656	-86.244774
16968.164062	-86.551010
17011.230469	-86.293320
17054.296875	-86.186317
17097.363281	-86.362762
17140.429688	-86.228363
17183.496094	-86.341331
17226.562500	-86.308586
17269.628906	-86.423920
17312.695312	-86.390457
17355.761719	-86.179405
17398.828125	-86.523094
17441.894531	-86.344421
17484.960938	-86.306847
17528.027344	-86.682167
17571.093750	-86.512222
17614.160156	-86.542427
17657.226562	-86.497482
17700.292969	-86.567955
17743.359375	-86.478859
17786.425781	-86.448372
17829.492188	-86.631699
17872.558594	-86.266312
17915.625000	-86.564621
17958.691406	-86.378220
18001.757812	-86.620117
18044.824219	-86.461800
18087.890625	-86.567551
18130.957031	-86.286278
18174.023438	-86.481285
18217.089844	-86.701477
18260.156250	-86.336403
18303.222656	-86.729851
18346.289062	-86.574371
18389.355469	-86.847244
18432.421875	-86.289726
18475.488281	-86.421761
18518.554688	-86.725052
18561.621094	-86.905045
18604.687500	-86.224678
18647.753906	-86.637978
18690.820312	-86.814461
18733.886719	-86.873825
18776.953125	-86.777412
18820.019531	-86.450272
18863.085938	-86.932251
18906.152344	-86.729210
18949.218750	-86.642670
18992.285156	-86.777878
19035.351562	-86.661682
19078.417969	-86.837234
19121.484375	-86.747002
19164.550781	-86.874870
19207.617188	-86.957253
19250.683594	-86.677467
19293.750000	-86.855652
19336.816406	-87.045311
19379.882812	-86.943550
19422.949219	-86.826492
19466.015625	-86.703979
19509.082031	-86.938698
19552.148438	-86.810074
19595.214844	-86.751266
19638.281250	-86.706566
19681.347656	-86.806122
19724.414062	-86.637375
19767.480469	-86.734138
19810.546875	-86.748688
19853.613281	-86.771332
19896.679688	-86.568581
19939.746094	-87.080276
19982.812500	-86.917778
20025.878906	-86.990402
20068.945312	-86.557587
20112.011719	-86.575737
20155.078125	-86.795280
20198.144531	-86.782852
20241.210938	-87.008438
20284.277344	-86.794762
20327.343750	-86.860344
20370.410156	-86.711716
20413.476562	-86.968025
20456.542969	-86.912674
20499.609375	-87.058121
20542.675781	-86.869202
20585.742188	-86.799751
20628.808594	-86.568016
20671.875000	-87.104843
20714.941406	-86.503922
20758.007812	-87.027245
20801.074219	-86.708160
20844.140625	-87.252144
20887.207031	-87.098602
20930.273438	-86.638664
20973.339844	-86.750267
21016.406250	-87.147995
21059.472656	-86.348938
21102.539062	-87.156441
21145.605469	-86.877365
21188.671875	-86.845116
21231.738281	-86.890976
21274.804688	-86.940323
21317.871094	-87.264503
21360.937500	-87.095078
21404.003906	-86.769455
21447.070312	-86.876663
21490.136719	-87.310768
21533.203125	-87.073555
21576.269531	-87.237076
21619.335938	-86.814575
21662.402344	-87.140991
21705.468750	-86.819008
21748.535156	-86.780220
21791.601562	-86.808800
21834.667969	-86.847694
21877.734375	-86.916855
21920.800781	-86.783401
21963.867188	-86.550117
22006.933594	-86.922409
