Frequency (Hz)	Level (dB)
43.066406	-53.206074
86.132812	-56.852489
129.199219	-55.796402
172.265625	-62.610203
215.332031	-64.164986
258.398438	-64.852264
301.464844	-64.568100
344.531250	-64.819534
387.597656	-65.866249
430.664062	-65.494774
473.730469	-65.478134
516.796875	-64.636238
559.863281	-65.008057
602.929688	-64.608368
645.996094	-63.899143
689.062500	-64.086578
732.128906	-63.234455
775.195312	-63.227077
818.261719	-64.117241
861.328125	-63.158352
904.394531	-62.789967
947.460938	-61.591911
990.527344	-60.548218
1033.593750	-60.265358
1076.660156	-61.613403
1119.726562	-59.944580
1162.792969	-60.124332
1205.859375	-59.278725
1248.925781	-59.248016
1291.992188	-59.752068
1335.058594	-59.185116
1378.125000	-58.332783
1421.191406	-57.523247
1464.257812	-56.076599
1507.324219	-55.224693
1550.390625	-55.385590
1593.457031	-54.836620
1636.523438	-53.494793
1679.589844	-52.030807
1722.656250	-51.554546
1765.722656	-49.799274
1808.789062	-46.581299
1851.855469	-44.357643
1894.921875	-39.911690
1937.988281	-30.300968
1981.054688	-29.907047
2024.121094	-37.938412
2067.187500	-36.554375
2110.253906	-40.517193
2153.320312	-46.424194
2196.386719	-49.423359
2239.453125	-48.444172
2282.519531	-51.092159
2325.585938	-53.893204
2368.652344	-53.919937
2411.718750	-53.327839
2454.785156	-54.221100
2497.851562	-52.652264
2540.917969	-52.596310
2583.984375	-55.292000
2627.050781	-57.084900
2670.117188	-57.613705
2713.183594	-58.561512
2756.250000	-60.932549
2799.316406	-60.665699
2842.382812	-61.543308
2885.449219	-60.001217
2928.515625	-57.989391
2971.582031	-62.496365
3014.648438	-58.467712
3057.714844	-51.981998
3100.781250	-48.062958
3143.847656	-50.587025
3186.914062	-56.003517
3229.980469	-59.440659
3273.046875	-61.457161
3316.113281	-60.913906
3359.179688	-59.283546
3402.246094	-59.731964
3445.312500	-60.118721
3488.378906	-61.689491
3531.445312	-61.459820
3574.511719	-58.704964
3617.578125	-60.183857
3660.644531	-58.072151
3703.710938	-56.756020
3746.777344	-59.484360
3789.843750	-57.255787
3832.910156	-54.388931
3875.976562	-57.697994
3919.042969	-58.404709
3962.109375	-55.130268
4005.175781	-55.563068
4048.242188	-58.769035
4091.308594	-59.897419
4134.375000	-56.197292
4177.441406	-56.376522
4220.507812	-60.634613
4263.574219	-59.074856
4306.640625	-57.004345
4349.707031	-60.385471
4392.773438	-58.305412
4435.839844	-60.860123
4478.906250	-52.887768
4521.972656	-48.947227
4565.039062	-47.381744
4608.105469	-54.785549
4651.171875	-51.061047
4694.238281	-49.755032
4737.304688	-49.995167
4780.371094	-47.593765
4823.437500	-49.743740
4866.503906	-44.327042
4909.570312	-36.802635
4952.636719	-27.036541
4995.703125	-36.351528
5038.769531	-40.383884
5081.835938	-44.945419
5124.902344	-47.842743
5167.968750	-53.374222
5211.035156	-53.082989
5254.101562	-52.989330
5297.167969	-57.097553
5340.234375	-56.200710
5383.300781	-53.244297
5426.367188	-52.965748
5469.433594	-53.554367
5512.500000	-47.760235
5555.566406	-42.613522
5598.632812	-30.471636
5641.699219	-40.011684
5684.765625	-44.941242
5727.832031	-48.400860
5770.898438	-52.030693
5813.964844	-52.975414
5857.031250	-55.070423
5900.097656	-54.269226
5943.164062	-56.170559
5986.230469	-55.145142
6029.296875	-54.183495
6072.363281	-58.183388
6115.429688	-60.933697
6158.496094	-56.687294
6201.562500	-51.886082
6244.628906	-46.104893
6287.695312	-54.456341
6330.761719	-54.656929
6373.828125	-54.351555
6416.894531	-53.552280
6459.960938	-53.928249
6503.027344	-57.051983
6546.093750	-56.223740
6589.160156	-57.664341
6632.226562	-59.445827
6675.292969	-61.464249
6718.359375	-64.675484
6761.425781	-66.354454
6804.492188	-66.484856
6847.558594	-70.473892
6890.625000	-67.240723
6933.691406	-66.874840
6976.757812	-66.324348
7019.824219	-63.215996
7062.890625	-63.859535
7105.957031	-62.725651
7149.023438	-60.594715
7192.089844	-60.764118
7235.156250	-61.776821
7278.222656	-63.582573
7321.289062	-65.523674
7364.355469	-68.663925
7407.421875	-64.557877
7450.488281	-66.294991
7493.554688	-63.945404
7536.621094	-59.048599
7579.687500	-48.144215
7622.753906	-53.593170
7665.820312	-57.906879
7708.886719	-62.168304
7751.953125	-65.782166
7795.019531	-64.110031
7838.085938	-63.688538
7881.152344	-65.724190
7924.218750	-61.821854
7967.285156	-58.180351
8010.351562	-53.743050
8053.417969	-59.552711
8096.484375	-64.137680
8139.550781	-69.955490
8182.617188	-66.113770
8225.683594	-64.368591
8268.750000	-64.371056
8311.816406	-65.088379
8354.882812	-64.004066
8397.949219	-68.602242
8441.015625	-66.702484
8484.082031	-61.640018
8527.148438	-63.002735
8570.214844	-66.021141
8613.281250	-65.249763
8656.347656	-62.709034
8699.414062	-56.875088
8742.480469	-53.310165
8785.546875	-45.508694
8828.613281	-45.292938
8871.679688	-41.919594
8914.746094	-49.930058
8957.812500	-55.499405
9000.878906	-56.756104
9043.945312	-59.035400
9087.011719	-61.280010
9130.078125	-64.186729
9173.144531	-64.345398
9216.210938	-68.406471
9259.277344	-67.506973
9302.343750	-67.865341
9345.410156	-68.730492
9388.476562	-69.319885
9431.542969	-68.450638
9474.609375	-66.140305
9517.675781	-59.861496
9560.742188	-62.252693
9603.808594	-65.302879
9646.875000	-65.173981
9689.941406	-65.366478
9733.007812	-65.612640
9776.074219	-67.675781
9819.140625	-71.701744
9862.207031	-69.957840
9905.273438	-70.565971
9948.339844	-70.792633
9991.406250	-66.817169
10034.472656	-67.322411
10077.539062	-68.471191
10120.605469	-67.386177
10163.671875	-69.967476
10206.738281	-62.748177
10249.804688	-55.560490
10292.871094	-63.592468
10335.937500	-66.604012
10379.003906	-67.658134
10422.070312	-71.855774
10465.136719	-71.969894
10508.203125	-71.161758
10551.269531	-73.057320
10594.335938	-73.247498
10637.402344	-72.780769
10680.468750	-73.224304
10723.535156	-74.216507
10766.601562	-71.988205
10809.667969	-71.847252
10852.734375	-72.940971
10895.800781	-73.815346
10938.867188	-72.558205
10981.933594	-74.808365
11025.000000	-73.986679
11068.066406	-73.692833
11111.132812	-75.205826
11154.199219	-75.140213
11197.265625	-74.896088
11240.332031	-73.760780
11283.398438	-72.284241
11326.464844	-72.510956
11369.531250	-72.751862
11412.597656	-74.281075
11455.664062	-75.880684
11498.730469	-74.784225
11541.796875	-72.580345
11584.863281	-72.176674
11627.929688	-72.639320
11670.996094	-72.197647
11714.062500	-70.782333
11757.128906	-74.626472
11800.195312	-73.922722
11843.261719	-66.300995
11886.328125	-69.116051
11929.394531	-69.484863
11972.460938	-73.701363
12015.527344	-71.326523
12058.593750	-69.448380
12101.660156	-66.834808
12144.726562	-69.799446
12187.792969	-70.413506
12230.859375	-69.019661
12273.925781	-72.144684
12316.992188	-71.690964
12360.058594	-71.749092
12403.125000	-72.836906
12446.191406	-69.792931
12489.257812	-69.902000
12532.324219	-70.989731
12575.390625	-70.514954
12618.457031	-71.847038
12661.523438	-71.527008
12704.589844	-70.296089
12747.656250	-69.242554
12790.722656	-68.229507
12833.789062	-68.006645
12876.855469	-67.939682
12919.921875	-67.811523
12962.988281	-69.572395
13006.054688	-72.335732
13049.121094	-70.801399
13092.187500	-69.660332
13135.253906	-67.230080
13178.320312	-67.201958
13221.386719	-66.917175
13264.453125	-62.378761
13307.519531	-60.289871
13350.585938	-59.636738
13393.652344	-55.407578
13436.718750	-49.832447
13479.785156	-52.943638
13522.851562	-56.076431
13565.917969	-60.065228
13608.984375	-63.805954
13652.050781	-66.130325
13695.117188	-69.354103
13738.183594	-72.650696
13781.250000	-76.053848
13824.316406	-73.758514
13867.382812	-73.185143
13910.449219	-76.108269
13953.515625	-74.050369
13996.582031	-75.877579
14039.648438	-77.493088
14082.714844	-77.039497
14125.781250	-76.677979
14168.847656	-75.941406
14211.914062	-75.716248
14254.980469	-77.501450
14298.046875	-76.982765
14341.113281	-74.477982
14384.179688	-67.303513
14427.246094	-71.062813
14470.312500	-75.422287
14513.378906	-74.995224
14556.445312	-72.967812
14599.511719	-73.771400
14642.578125	-69.658546
14685.644531	-75.795212
14728.710938	-78.145554
14771.777344	-76.452866
14814.843750	-79.887474
14857.910156	-77.166145
14900.976562	-72.910606
14944.042969	-69.399086
14987.109375	-70.848061
15030.175781	-75.320396
15073.242188	-74.758942
15116.308594	-77.635887
15159.375000	-76.602119
15202.441406	-78.060440
15245.507812	-76.657410
15288.574219	-77.197350
15331.640625	-77.695648
15374.707031	-77.682472
15417.773438	-78.833984
15460.839844	-78.627083
15503.906250	-78.773178
15546.972656	-78.884499
15590.039062	-77.553062
15633.105469	-77.486526
15676.171875	-77.777283
15719.238281	-78.279716
15762.304688	-74.696846
15805.371094	-79.323616
15848.437500	-76.453629
15891.503906	-73.749077
15934.570312	-76.346939
15977.636719	-74.824486
16020.703125	-77.914742
16063.769531	-77.343727
16106.835938	-78.113304
16149.902344	-78.217178
16192.968750	-78.153374
16236.035156	-78.275177
16279.101562	-78.578087
16322.167969	-78.531342
16365.234375	-78.354012
16408.300781	-78.458405
16451.367188	-78.425873
16494.433594	-78.480858
16537.500000	-78.575195
16580.566406	-78.451752
16623.632812	-78.627289
16666.699219	-78.671059
16709.765625	-78.681602
16752.832031	-78.566551
16795.898438	-78.723869
16838.964844	-78.701363
16882.031250	-78.684402
16925.097656	-78.895035
16968.164062	-78.688988
17011.230469	-78.631805
17054.296875	-78.702141
17097.363281	-78.758530
17140.429688	-79.134712
17183.496094	-78.873932
17226.562500	-78.773491
17269.628906	-78.780266
17312.695312	-78.852631
17355.761719	-78.765610
17398.828125	-78.931877
17441.894531	-78.902031
17484.960938	-78.913574
17528.027344	-78.910255
17571.093750	-78.970734
17614.160156	-78.881599
17657.226562	-79.005302
17700.292969	-79.064285
17743.359375	-79.041130
17786.425781	-79.061974
17829.492188	-79.056343
17872.558594	-78.983368
17915.625000	-79.078682
17958.691406	-79.124405
18001.757812	-79.094292
18044.824219	-79.191208
18087.890625	-79.036118
18130.957031	-79.068260
18174.023438	-79.085129
18217.089844	-79.187790
18260.156250	-79.023567
18303.222656	-79.097595
18346.289062	-79.200027
18389.355469	-79.090462
18432.421875	-79.080017
18475.488281	-79.167641
18518.554688	-79.441277
18561.621094	-79.183083
18604.687500	-79.238052
18647.753906	-79.189072
18690.820312	-79.259979
18733.886719	-79.197273
18776.953125	-79.298874
18820.019531	-79.388023
18863.085938	-79.274857
18906.152344	-79.212776
18949.218750	-79.170708
18992.285156	-79.272942
19035.351562	-79.245888
19078.417969	-79.299942
19121.484375	-79.287437
19164.550781	-79.342056
19207.617188	-79.228775
19250.683594	-79.369919
19293.750000	-79.327263
19336.816406	-79.397133
19379.882812	-79.285774
19422.949219	-79.434807
19466.015625	-79.431206
19509.082031	-79.228577
19552.148438	-79.442337
19595.214844	-79.295654
19638.281250	-79.452026
19681.347656	-79.424278
19724.414062	-79.508125
19767.480469	-79.390930
19810.546875	-79.317513
19853.613281	-79.392082
19896.679688	-79.416512
19939.746094	-79.475029
19982.812500	-79.365952
20025.878906	-79.382309
20068.945312	-79.661705
20112.011719	-79.351227
20155.078125	-79.557838
20198.144531	-79.612297
20241.210938	-79.482513
20284.277344	-79.412987
20327.343750	-79.485199
20370.410156	-79.484795
20413.476562	-79.471283
20456.542969	-79.485840
20499.609375	-79.355141
20542.675781	-79.555115
20585.742188	-79.464714
20628.808594	-79.494225
20671.875000	-79.514740
20714.941406	-79.497841
20758.007812	-79.437050
20801.074219	-79.534431
20844.140625	-79.491707
20887.207031	-79.564041
20930.273438	-79.582779
20973.339844	-79.341438
21016.406250	-79.604401
21059.472656	-79.467720
21102.539062	-79.643547
21145.605469	-79.381660
21188.671875	-79.594673
21231.738281	-79.499809
21274.804688	-79.579277
21317.871094	-79.612862
21360.937500	-79.581276
21404.003906	-79.539696
21447.070312	-79.638214
21490.136719	-79.538582
21533.203125	-79.422035
21576.269531	-79.529648
21619.335938	-79.648148
21662.402344	-79.572014
21705.468750	-79.565712
21748.535156	-79.736710
21791.601562	-79.603897
21834.667969	-79.502083
21877.734375	-79.491020
21920.800781	-79.419647
21963.867188	-79.569748
22006.933594	-79.637871
