Frequency (Hz)	Level (dB)
43.066406	-50.499058
86.132812	-52.686745
129.199219	-55.916210
172.265625	-57.379776
215.332031	-59.421379
258.398438	-61.350178
301.464844	-61.280060
344.531250	-61.197121
387.597656	-62.493622
430.664062	-61.869553
473.730469	-62.275772
516.796875	-62.455177
559.863281	-62.579483
602.929688	-62.461411
645.996094	-61.676609
689.062500	-61.642117
732.128906	-61.138203
775.195312	-61.445969
818.261719	-61.328938
861.328125	-60.457409
904.394531	-60.522396
947.460938	-60.368736
990.527344	-59.685913
1033.593750	-58.472752
1076.660156	-58.207451
1119.726562	-59.408863
1162.792969	-58.035027
1205.859375	-57.489471
1248.925781	-57.355446
1291.992188	-56.786175
1335.058594	-56.579926
1378.125000	-55.782040
1421.191406	-54.755051
1464.257812	-54.551533
1507.324219	-53.272156
1550.390625	-53.058659
1593.457031	-53.126263
1636.523438	-50.496483
1679.589844	-49.719753
1722.656250	-48.268826
1765.722656	-46.561855
1808.789062	-44.567554
1851.855469	-41.827888
1894.921875	-37.350044
1937.988281	-27.527044
1981.054688	-27.428097
2024.121094	-36.323006
2067.187500	-32.592533
2110.253906	-35.637539
2153.320312	-42.803982
2196.386719	-45.754261
2239.453125	-47.620140
2282.519531	-47.661892
2325.585938	-51.596577
2368.652344	-51.532482
2411.718750	-52.606171
2454.785156	-53.267208
2497.851562	-52.697193
2540.917969	-53.608398
2583.984375	-54.016960
2627.050781	-54.559891
2670.117188	-57.860851
2713.183594	-57.761627
2756.250000	-58.732235
2799.316406	-58.463684
2842.382812	-58.330170
2885.449219	-57.710018
2928.515625	-56.836174
2971.582031	-55.518909
3014.648438	-55.668564
3057.714844	-53.088345
3100.781250	-47.981121
3143.847656	-53.084602
3186.914062	-55.124348
3229.980469	-57.876770
3273.046875	-58.568066
3316.113281	-59.736454
3359.179688	-59.286114
3402.246094	-62.364735
3445.312500	-60.859978
3488.378906	-59.670261
3531.445312	-61.957642
3574.511719	-58.568680
3617.578125	-59.017021
3660.644531	-60.758617
3703.710938	-57.237862
3746.777344	-59.040318
3789.843750	-58.348381
3832.910156	-57.034100
3875.976562	-60.153408
3919.042969	-57.580975
3962.109375	-53.820534
4005.175781	-57.254272
4048.242188	-56.741871
4091.308594	-59.638897
4134.375000	-59.608486
4177.441406	-56.000744
4220.507812	-59.347698
4263.574219	-58.136417
4306.640625	-55.065670
4349.707031	-60.220608
4392.773438	-57.442963
4435.839844	-58.344189
4478.906250	-57.882721
4521.972656	-51.868526
4565.039062	-47.902714
4608.105469	-53.725773
4651.171875	-50.003777
4694.238281	-49.737137
4737.304688	-48.105553
4780.371094	-46.271412
4823.437500	-48.131100
4866.503906	-45.147903
4909.570312	-34.077610
4952.636719	-24.501551
4995.703125	-35.776814
5038.769531	-41.449951
5081.835938	-46.047821
5124.902344	-45.915134
5167.968750	-49.365635
5211.035156	-51.052254
5254.101562	-51.763672
5297.167969	-53.211914
5340.234375	-53.595470
5383.300781	-51.646008
5426.367188	-55.270355
5469.433594	-51.056454
5512.500000	-48.817162
5555.566406	-39.650967
5598.632812	-26.953232
5641.699219	-37.730778
5684.765625	-45.505634
5727.832031	-49.764782
5770.898438	-48.160435
5813.964844	-54.590500
5857.031250	-50.862473
5900.097656	-51.724243
5943.164062	-55.850666
5986.230469	-53.952938
6029.296875	-58.050400
6072.363281	-59.110657
6115.429688	-59.325417
6158.496094	-62.861538
6201.562500	-58.858337
6244.628906	-50.973061
6287.695312	-62.092815
6330.761719	-57.347870
6373.828125	-57.201275
6416.894531	-58.361572
6459.960938	-54.812389
6503.027344	-55.383488
6546.093750	-55.072979
6589.160156	-54.416370
6632.226562	-54.737415
6675.292969	-56.261299
6718.359375	-59.307575
6761.425781	-61.267418
6804.492188	-66.120056
6847.558594	-64.602158
6890.625000	-63.118256
6933.691406	-62.567062
6976.757812	-64.729973
7019.824219	-63.436420
7062.890625	-61.264595
7105.957031	-63.729713
7149.023438	-60.320072
7192.089844	-62.904583
7235.156250	-63.718899
7278.222656	-63.402458
7321.289062	-67.744781
7364.355469	-62.164795
7407.421875	-66.106781
7450.488281	-64.074455
7493.554688	-62.188534
7536.621094	-53.266800
7579.687500	-42.228012
7622.753906	-47.076607
7665.820312	-55.808640
7708.886719	-58.377342
7751.953125	-61.011066
7795.019531	-59.129631
7838.085938	-63.708393
7881.152344	-64.652618
7924.218750	-64.538918
7967.285156	-66.224609
8010.351562	-56.142563
8053.417969	-61.610710
8096.484375	-60.456001
8139.550781	-61.103966
8182.617188	-61.538937
8225.683594	-60.754524
8268.750000	-63.216263
8311.816406	-63.450058
8354.882812	-57.428402
8397.949219	-59.114174
8441.015625	-61.497913
8484.082031	-60.341507
8527.148438	-58.449482
8570.214844	-58.824062
8613.281250	-54.678329
8656.347656	-54.374981
8699.414062	-54.298290
8742.480469	-47.168175
8785.546875	-36.832451
8828.613281	-36.502785
8871.679688	-33.604515
8914.746094	-44.357220
8957.812500	-47.049927
9000.878906	-52.239761
9043.945312	-53.562469
9087.011719	-56.797745
9130.078125	-56.042980
9173.144531	-58.315147
9216.210938	-64.012550
9259.277344	-62.789234
9302.343750	-63.172009
9345.410156	-66.147820
9388.476562	-62.528214
9431.542969	-62.336384
9474.609375	-58.909107
9517.675781	-51.769745
9560.742188	-48.736328
9603.808594	-55.701324
9646.875000	-59.254913
9689.941406	-61.983662
9733.007812	-60.619343
9776.074219	-61.660954
9819.140625	-63.337044
9862.207031	-65.092003
9905.273438	-65.224075
9948.339844	-66.455025
9991.406250	-62.549168
10034.472656	-63.898628
10077.539062	-68.032578
10120.605469	-66.186028
10163.671875	-60.741142
10206.738281	-55.244343
10249.804688	-47.611561
10292.871094	-54.237568
10335.937500	-64.099068
10379.003906	-62.405048
10422.070312	-64.063599
10465.136719	-65.423996
10508.203125	-65.099617
10551.269531	-69.440994
10594.335938	-67.842758
10637.402344	-67.000961
10680.468750	-67.253014
10723.535156	-69.685715
10766.601562	-68.811874
10809.667969	-67.949509
10852.734375	-68.469879
10895.800781	-69.566475
10938.867188	-69.023682
10981.933594	-69.527641
11025.000000	-70.178055
11068.066406	-69.512337
11111.132812	-69.873886
11154.199219	-70.368874
11197.265625	-69.593735
11240.332031	-69.470741
11283.398438	-69.828789
11326.464844	-69.382683
11369.531250	-69.950287
11412.597656	-69.940208
11455.664062	-69.560074
11498.730469	-70.367096
11541.796875	-69.531822
11584.863281	-69.290016
11627.929688	-70.901115
11670.996094	-71.972420
11714.062500	-69.695541
11757.128906	-69.468666
11800.195312	-67.924263
11843.261719	-68.630020
11886.328125	-70.427536
11929.394531	-70.731682
11972.460938	-70.897018
12015.527344	-70.149002
12058.593750	-68.274155
12101.660156	-70.186661
12144.726562	-69.676186
12187.792969	-69.516434
12230.859375	-68.417389
12273.925781	-68.593269
12316.992188	-69.277466
12360.058594	-70.022202
12403.125000	-68.885765
12446.191406	-70.175140
12489.257812	-69.800217
12532.324219	-68.938782
12575.390625	-69.972305
12618.457031	-69.177994
12661.523438	-67.846939
12704.589844	-68.661140
12747.656250	-67.184967
12790.722656	-65.420059
12833.789062	-66.564034
12876.855469	-65.732033
12919.921875	-66.141678
12962.988281	-66.437523
13006.054688	-66.086861
13049.121094	-68.522003
13092.187500	-68.177505
13135.253906	-65.580559
13178.320312	-63.739559
13221.386719	-62.682941
13264.453125	-59.235199
13307.519531	-58.436085
13350.585938	-56.911106
13393.652344	-51.357685
13436.718750	-45.624805
13479.785156	-51.748665
13522.851562	-54.119488
13565.917969	-57.493797
13608.984375	-61.170761
13652.050781	-67.067368
13695.117188	-65.024567
13738.183594	-66.383553
13781.250000	-76.265587
13824.316406	-79.296906
13867.382812	-73.987885
13910.449219	-70.244865
13953.515625	-72.005814
13996.582031	-73.045776
14039.648438	-73.120728
14082.714844	-72.237694
14125.781250	-72.158073
14168.847656	-71.642731
14211.914062	-70.483742
14254.980469	-73.711617
14298.046875	-68.461449
14341.113281	-68.271599
14384.179688	-58.796577
14427.246094	-63.737007
14470.312500	-71.632973
14513.378906	-67.552101
14556.445312	-64.766487
14599.511719	-61.051949
14642.578125	-60.103355
14685.644531	-72.316345
14728.710938	-71.175171
14771.777344	-74.505058
14814.843750	-70.285133
14857.910156	-72.688194
14900.976562	-69.461731
14944.042969	-60.164108
14987.109375	-67.864357
15030.175781	-68.640976
15073.242188	-74.114372
15116.308594	-72.035583
15159.375000	-74.376785
15202.441406	-74.325546
15245.507812	-75.375694
15288.574219	-76.600281
15331.640625	-75.640976
15374.707031	-76.022171
15417.773438	-75.534607
15460.839844	-75.490128
15503.906250	-76.129295
15546.972656	-76.112061
15590.039062	-75.864532
15633.105469	-77.510368
15676.171875	-76.236465
15719.238281	-74.065445
15762.304688	-75.385094
15805.371094	-78.733376
15848.437500	-75.256454
15891.503906	-70.494415
15934.570312	-74.487320
15977.636719	-75.515076
16020.703125	-77.317741
16063.769531	-78.088699
16106.835938	-77.329315
16149.902344	-77.742470
16192.968750	-77.951637
16236.035156	-77.949135
16279.101562	-77.752197
16322.167969	-77.406723
16365.234375	-77.123810
16408.300781	-76.727356
16451.367188	-76.697807
16494.433594	-76.486214
16537.500000	-76.404625
16580.566406	-76.526276
16623.632812	-76.841362
16666.699219	-77.366356
16709.765625	-77.375832
16752.832031	-77.681015
16795.898438	-77.644264
16838.964844	-77.559525
16882.031250	-77.476402
16925.097656	-77.206825
16968.164062	-76.774323
17011.230469	-76.631432
17054.296875	-76.509766
17097.363281	-76.336899
17140.429688	-76.531479
17183.496094	-76.832603
17226.562500	-76.917450
17269.628906	-77.310432
17312.695312	-77.475006
17355.761719	-77.861008
17398.828125	-77.622749
17441.894531	-77.577164
17484.960938	-77.403397
17528.027344	-76.943443
17571.093750	-76.789963
17614.160156	-76.499825
17657.226562	-76.300018
17700.292969	-76.458458
17743.359375	-76.656326
17786.425781	-76.802795
17829.492188	-77.131104
17872.558594	-77.514961
17915.625000	-77.662758
17958.691406	-77.839264
18001.757812	-77.509895
18044.824219	-77.510422
18087.890625	-77.285240
18130.957031	-76.794495
18174.023438	-76.829254
18217.089844	-76.563194
18260.156250	-76.527985
18303.222656	-76.506134
18346.289062	-76.643776
18389.355469	-77.096436
18432.421875	-77.434898
18475.488281	-77.647507
18518.554688	-77.788765
18561.621094	-78.027168
18604.687500	-77.759727
18647.753906	-77.411606
18690.820312	-77.116081
18733.886719	-76.887032
18776.953125	-76.814468
18820.019531	-76.403648
18863.085938	-76.650536
18906.152344	-76.647224
18949.218750	-77.014824
18992.285156	-77.149185
19035.351562	-77.372131
19078.417969	-77.855476
19121.484375	-77.896912
19164.550781	-77.837296
19207.617188	-77.763405
19250.683594	-77.413940
19293.750000	-77.075729
19336.816406	-76.715538
19379.882812	-76.567207
19422.949219	-76.578667
19466.015625	-76.657516
19509.082031	-76.807755
19552.148438	-77.248947
19595.214844	-77.468109
19638.281250	-77.755325
19681.347656	-77.880699
19724.414062	-77.792122
19767.480469	-77.853813
19810.546875	-77.633339
19853.613281	-77.255768
19896.679688	-77.052475
19939.746094	-76.696617
19982.812500	-76.621475
20025.878906	-76.592636
20068.945312	-76.703644
20112.011719	-76.923592
20155.078125	-77.395424
20198.144531	-77.534439
20241.210938	-77.920258
20284.277344	-78.118408
20327.343750	-77.854675
20370.410156	-77.815910
20413.476562	-77.450478
20456.542969	-77.332314
20499.609375	-76.888634
20542.675781	-76.651794
20585.742188	-76.797264
20628.808594	-76.601151
20671.875000	-76.945602
20714.941406	-77.053833
20758.007812	-77.456642
20801.074219	-77.809845
20844.140625	-77.864410
20887.207031	-78.050217
20930.273438	-78.013527
20973.339844	-77.723633
21016.406250	-77.421669
21059.472656	-77.050552
21102.539062	-76.855858
21145.605469	-76.734528
21188.671875	-76.628105
21231.738281	-76.751907
21274.804688	-77.034317
21317.871094	-77.274986
21360.937500	-77.602402
21404.003906	-77.894150
21447.070312	-78.050201
21490.136719	-78.137360
21533.203125	-77.908684
21576.269531	-77.597984
21619.335938	-77.368340
21662.402344	-76.992012
21705.468750	-76.691742
21748.535156	-76.620361
21791.601562	-76.792496
21834.667969	-76.882607
21877.734375	-77.167839
21920.800781	-77.470711
21963.867188	-77.785568
22006.933594	-78.073593
