Frequency (Hz)	Level (dB)
43.066406	-57.745667
86.132812	-58.948978
129.199219	-61.988434
172.265625	-62.821243
215.332031	-65.277306
258.398438	-66.851906
301.464844	-66.475685
344.531250	-65.744766
387.597656	-65.741913
430.664062	-65.886284
473.730469	-66.161728
516.796875	-66.227188
559.863281	-65.403252
602.929688	-65.380905
645.996094	-65.654060
689.062500	-65.503380
732.128906	-64.425011
775.195312	-64.376892
818.261719	-63.726521
861.328125	-64.107735
904.394531	-63.608624
947.460938	-62.641403
990.527344	-63.566467
1033.593750	-63.231663
1076.660156	-63.418087
1119.726562	-62.462631
1162.792969	-61.545570
1205.859375	-61.239277
1248.925781	-61.107700
1291.992188	-60.862991
1335.058594	-60.166664
1378.125000	-60.262356
1421.191406	-59.742687
1464.257812	-59.151531
1507.324219	-58.181576
1550.390625	-57.981251
1593.457031	-56.728920
1636.523438	-56.056385
1679.589844	-55.226631
1722.656250	-54.250290
1765.722656	-52.487072
1808.789062	-51.278591
1851.855469	-49.275917
1894.921875	-47.147686
1937.988281	-41.324928
1981.054688	-39.954315
2024.121094	-38.910965
2067.187500	-28.711643
2110.253906	-30.049738
2153.320312	-39.356396
2196.386719	-44.394913
2239.453125	-47.305233
2282.519531	-49.113880
2325.585938	-51.008648
2368.652344	-51.761642
2411.718750	-53.364361
2454.785156	-53.350548
2497.851562	-55.030769
2540.917969	-55.824585
2583.984375	-56.549129
2627.050781	-57.396908
2670.117188	-58.369816
2713.183594	-58.268993
2756.250000	-58.746780
2799.316406	-58.734459
2842.382812	-59.684196
2885.449219	-60.609142
2928.515625	-60.211498
2971.582031	-60.448723
3014.648438	-60.639389
3057.714844	-61.922535
3100.781250	-58.778831
3143.847656	-60.791824
3186.914062	-63.292847
3229.980469	-64.515465
3273.046875	-63.909203
3316.113281	-65.580009
3359.179688	-65.125648
3402.246094	-64.670647
3445.312500	-64.625603
3488.378906	-64.889496
3531.445312	-65.459122
3574.511719	-65.093102
3617.578125	-65.615372
3660.644531	-65.637627
3703.710938	-65.261383
3746.777344	-64.411392
3789.843750	-65.717972
3832.910156	-66.806549
3875.976562	-66.033035
3919.042969	-66.390671
3962.109375	-66.450806
4005.175781	-65.318001
4048.242188	-66.028252
4091.308594	-64.996780
4134.375000	-65.595139
4177.441406	-64.247604
4220.507812	-65.261414
4263.574219	-64.318054
4306.640625	-65.335281
4349.707031	-64.079826
4392.773438	-62.853722
4435.839844	-62.666336
4478.906250	-60.150013
4521.972656	-56.130085
4565.039062	-44.870251
4608.105469	-50.454556
4651.171875	-60.316032
4694.238281	-60.125420
4737.304688	-62.852600
4780.371094	-63.581871
4823.437500	-58.870373
4866.503906	-58.225433
4909.570312	-55.042950
4952.636719	-43.864491
4995.703125	-59.150185
5038.769531	-60.525192
5081.835938	-62.583416
5124.902344	-64.899132
5167.968750	-67.378006
5211.035156	-70.952354
5254.101562	-67.344666
5297.167969	-67.529648
5340.234375	-67.547493
5383.300781	-67.159691
5426.367188	-64.569145
5469.433594	-63.800339
5512.500000	-60.662086
5555.566406	-55.049103
5598.632812	-38.618027
5641.699219	-50.698853
5684.765625	-56.980858
5727.832031	-59.660789
5770.898438	-62.962238
5813.964844	-62.082172
5857.031250	-63.740833
5900.097656	-64.927299
5943.164062	-67.411011
5986.230469	-64.161896
6029.296875	-69.544182
6072.363281	-70.922699
6115.429688	-72.001160
6158.496094	-66.844788
6201.562500	-58.853909
6244.628906	-53.861477
6287.695312	-64.995491
6330.761719	-68.974884
6373.828125	-68.708092
6416.894531	-68.899460
6459.960938	-66.187141
6503.027344	-65.102333
6546.093750	-64.746307
6589.160156	-68.595467
6632.226562	-69.477409
6675.292969	-70.753159
6718.359375	-71.279518
6761.425781	-71.806328
6804.492188	-72.599632
6847.558594	-72.274971
6890.625000	-73.053574
6933.691406	-72.610603
6976.757812	-73.375252
7019.824219	-74.055344
7062.890625	-74.493156
7105.957031	-74.566864
7149.023438	-74.848160
7192.089844	-74.456490
7235.156250	-74.373398
7278.222656	-74.228699
7321.289062	-73.957222
7364.355469	-74.198936
7407.421875	-75.422455
7450.488281	-74.130074
7493.554688	-74.364876
7536.621094	-73.942009
7579.687500	-68.633362
7622.753906	-76.540886
7665.820312	-75.974625
7708.886719	-75.342705
7751.953125	-75.042450
7795.019531	-75.676247
7838.085938	-76.166245
7881.152344	-75.451363
7924.218750	-74.932953
7967.285156	-74.092628
8010.351562	-65.913536
8053.417969	-68.616035
8096.484375	-73.042923
8139.550781	-74.731087
8182.617188	-75.100403
8225.683594	-75.487640
8268.750000	-75.929848
8311.816406	-75.885643
8354.882812	-75.737083
8397.949219	-75.574051
8441.015625	-76.097466
8484.082031	-76.479820
8527.148438	-76.234055
8570.214844	-76.109978
8613.281250	-76.734947
8656.347656	-76.612305
8699.414062	-76.078148
8742.480469	-74.352829
8785.546875	-75.185707
8828.613281	-72.773842
8871.679688	-71.627609
8914.746094	-74.260010
8957.812500	-76.512604
9000.878906	-77.271751
9043.945312	-76.868774
9087.011719	-77.420174
9130.078125	-77.772903
9173.144531	-77.485977
9216.210938	-77.633682
9259.277344	-76.895027
9302.343750	-77.623390
9345.410156	-76.684288
9388.476562	-75.097900
9431.542969	-76.250122
9474.609375	-75.535416
9517.675781	-66.724747
9560.742188	-63.174129
9603.808594	-73.501305
9646.875000	-75.693321
9689.941406	-76.496162
9733.007812	-77.479134
9776.074219	-77.152473
9819.140625	-76.671677
9862.207031	-76.773781
9905.273438	-77.099846
9948.339844	-77.254738
9991.406250	-78.067627
10034.472656	-77.685913
10077.539062	-75.440933
10120.605469	-75.801498
10163.671875	-75.243767
10206.738281	-71.113480
10249.804688	-64.067223
10292.871094	-75.829010
10335.937500	-78.853371
10379.003906	-78.454369
10422.070312	-78.836906
10465.136719	-78.070648
10508.203125	-78.242393
10551.269531	-78.359360
10594.335938	-78.191216
10637.402344	-77.905846
10680.468750	-78.487946
10723.535156	-78.800987
10766.601562	-78.897858
10809.667969	-78.969406
10852.734375	-79.116753
10895.800781	-78.981552
10938.867188	-78.936531
10981.933594	-78.956306
11025.000000	-78.787788
11068.066406	-78.944710
11111.132812	-78.605507
11154.199219	-79.230736
11197.265625	-79.325653
11240.332031	-79.144012
11283.398438	-79.449402
11326.464844	-79.403938
11369.531250	-79.565849
11412.597656	-79.281509
11455.664062	-79.243317
11498.730469	-79.477242
11541.796875	-79.452789
11584.863281	-79.496674
11627.929688	-79.269493
11670.996094	-79.484474
11714.062500	-79.664024
11757.128906	-79.617226
11800.195312	-79.490311
11843.261719	-79.657196
11886.328125	-79.382874
11929.394531	-79.632927
11972.460938	-79.712654
12015.527344	-79.733658
12058.593750	-79.835831
12101.660156	-79.610222
12144.726562	-79.776978
12187.792969	-79.792023
12230.859375	-79.859451
12273.925781	-79.865173
12316.992188	-79.971313
12360.058594	-79.996155
12403.125000	-79.952332
12446.191406	-80.053848
12489.257812	-80.113159
12532.324219	-80.063202
12575.390625	-80.352104
12618.457031	-79.909767
12661.523438	-80.180702
12704.589844	-80.173073
12747.656250	-80.208832
12790.722656	-80.206062
12833.789062	-80.371880
12876.855469	-80.069649
12919.921875	-80.117996
12962.988281	-80.219833
13006.054688	-80.157158
13049.121094	-80.149261
13092.187500	-80.001564
13135.253906	-80.318916
13178.320312	-80.166374
13221.386719	-79.792870
13264.453125	-74.453224
13307.519531	-77.125229
13350.585938	-79.834908
13393.652344	-80.120651
13436.718750	-79.937584
13479.785156	-80.015381
13522.851562	-80.407486
13565.917969	-80.321785
13608.984375	-80.416023
13652.050781	-80.346115
13695.117188	-80.992912
13738.183594	-80.611412
13781.250000	-80.618759
13824.316406	-80.485321
13867.382812	-78.792465
13910.449219	-78.412254
13953.515625	-80.753296
13996.582031	-80.510231
14039.648438	-80.510208
14082.714844	-80.398964
14125.781250	-80.630203
14168.847656	-80.689041
14211.914062	-79.861900
14254.980469	-80.598442
14298.046875	-81.099556
14341.113281	-80.160530
14384.179688	-78.029472
14427.246094	-79.831337
14470.312500	-80.000282
14513.378906	-80.498909
14556.445312	-78.164024
14599.511719	-77.816742
14642.578125	-77.537460
14685.644531	-81.915459
14728.710938	-80.936615
14771.777344	-81.381660
14814.843750	-81.017639
14857.910156	-81.344749
14900.976562	-81.402435
14944.042969	-81.128975
14987.109375	-81.445824
15030.175781	-81.371658
15073.242188	-81.417976
15116.308594	-81.470978
15159.375000	-81.426468
15202.441406	-81.324730
15245.507812	-81.410980
15288.574219	-81.312325
15331.640625	-81.386978
15374.707031	-81.344864
15417.773438	-81.383141
15460.839844	-81.567291
15503.906250	-81.516548
15546.972656	-81.433128
15590.039062	-81.388092
15633.105469	-81.642975
15676.171875	-81.416191
15719.238281	-81.417679
15762.304688	-81.435127
15805.371094	-81.486977
15848.437500	-81.502388
15891.503906	-81.513542
15934.570312	-81.580643
15977.636719	-81.625526
16020.703125	-81.705818
16063.769531	-81.653793
16106.835938	-81.642761
16149.902344	-81.614655
16192.968750	-81.712135
16236.035156	-81.676170
16279.101562	-81.691368
16322.167969	-81.693604
16365.234375	-81.660957
16408.300781	-81.712265
16451.367188	-81.783882
16494.433594	-81.641365
16537.500000	-81.772034
16580.566406	-81.826004
16623.632812	-81.737007
16666.699219	-81.798065
16709.765625	-81.810799
16752.832031	-81.771561
16795.898438	-81.881798
16838.964844	-81.866783
16882.031250	-81.942719
16925.097656	-81.842819
16968.164062	-81.809639
17011.230469	-81.989693
17054.296875	-81.908958
17097.363281	-81.871010
17140.429688	-82.001938
17183.496094	-81.833382
17226.562500	-81.910728
17269.628906	-81.873924
17312.695312	-81.978943
17355.761719	-81.983612
17398.828125	-82.150032
17441.894531	-81.939980
17484.960938	-82.012398
17528.027344	-81.852394
17571.093750	-81.948830
17614.160156	-82.141144
17657.226562	-82.063591
17700.292969	-82.135635
17743.359375	-82.052742
17786.425781	-82.085960
17829.492188	-82.050880
17872.558594	-81.944481
17915.625000	-82.115486
17958.691406	-82.147942
18001.757812	-82.326225
18044.824219	-82.060455
18087.890625	-82.069138
18130.957031	-82.124908
18174.023438	-82.022873
18217.089844	-82.150345
18260.156250	-82.048943
18303.222656	-82.331436
18346.289062	-82.187889
18389.355469	-81.965736
18432.421875	-82.084991
18475.488281	-82.270851
18518.554688	-82.198441
18561.621094	-82.220825
18604.687500	-82.043083
18647.753906	-82.162178
18690.820312	-82.259399
18733.886719	-82.258774
18776.953125	-82.205864
18820.019531	-82.278816
18863.085938	-82.273956
18906.152344	-82.285759
18949.218750	-82.444756
18992.285156	-82.234711
19035.351562	-82.308578
19078.417969	-82.254105
19121.484375	-82.140587
19164.550781	-82.235725
19207.617188	-82.481667
19250.683594	-82.239624
19293.750000	-82.308914
19336.816406	-82.326775
19379.882812	-82.347420
19422.949219	-82.300919
19466.015625	-82.483620
19509.082031	-82.406059
19552.148438	-82.258415
19595.214844	-82.200066
19638.281250	-82.065605
19681.347656	-82.164299
19724.414062	-82.351761
19767.480469	-82.316689
19810.546875	-82.596268
19853.613281	-82.283630
19896.679688	-82.362030
19939.746094	-82.160873
19982.812500	-82.498611
20025.878906	-82.358574
20068.945312	-82.356461
20112.011719	-82.318398
20155.078125	-82.431900
20198.144531	-82.422607
20241.210938	-82.131111
20284.277344	-82.547119
20327.343750	-82.384361
20370.410156	-82.389923
20413.476562	-82.322495
20456.542969	-82.315094
20499.609375	-82.333038
20542.675781	-82.511421
20585.742188	-82.226166
20628.808594	-82.449097
20671.875000	-82.521912
20714.941406	-82.140259
20758.007812	-82.419716
20801.074219	-82.367332
20844.140625	-82.452888
20887.207031	-82.615662
20930.273438	-82.346153
20973.339844	-82.414742
21016.406250	-82.336533
21059.472656	-82.351715
21102.539062	-82.542168
21145.605469	-82.406128
21188.671875	-82.391739
21231.738281	-82.599701
21274.804688	-82.605072
21317.871094	-82.335701
21360.937500	-82.735085
21404.003906	-82.520882
21447.070312	-82.446381
21490.136719	-82.504028
21533.203125	-82.354332
21576.269531	-82.637611
21619.335938	-82.382538
21662.402344	-82.378143
21705.468750	-82.255814
21748.535156	-82.323044
21791.601562	-82.643555
21834.667969	-82.383163
21877.734375	-82.371002
21920.800781	-82.629654
21963.867188	-82.431274
22006.933594	-82.552322
